<?xml version="1.0" encoding="UTF-8" standalone="no"?>
<!DOCTYPE svg PUBLIC "-//W3C//DTD SVG 1.1//EN"
 "http://www.w3.org/Graphics/SVG/1.1/DTD/svg11.dtd">
<!-- Generated by graphviz version 2.40.1 (20161225.0304)
 -->
<!-- Title: oneDegreeRelationshipsDiagram Pages: 1 -->
<svg width="590pt" height="517pt"
 viewBox="0.00 0.00 590.00 517.20" xmlns="http://www.w3.org/2000/svg" xmlns:xlink="http://www.w3.org/1999/xlink">
<g id="graph0" class="graph" transform="scale(1 1) rotate(0) translate(4 513.2)">
<title>oneDegreeRelationshipsDiagram</title>
<polygon fill="#ffffff" stroke="transparent" points="-4,4 -4,-513.2 586,-513.2 586,4 -4,4"/>
<text text-anchor="middle" x="72.4936" y="-7.3" font-family="Helvetica,sans-Serif" font-size="11.00" fill="#000000">Generated by SchemaSpy</text>
<!-- ac_all_applications_scope -->
<g id="node1" class="node">
<title>ac_all_applications_scope</title>
<g id="a_node1"><a xlink:href="../../tables/ac_all_applications_scope.html" xlink:title="ac_all_applications_scope" target="_top">
<polygon fill="#ffffff" stroke="transparent" points="315,-290.7 315,-424.7 574,-424.7 574,-290.7 315,-290.7"/>
<polygon fill="#f5f5f5" stroke="transparent" points="317.5,-399.7 317.5,-422.7 572.5,-422.7 572.5,-399.7 317.5,-399.7"/>
<polygon fill="none" stroke="#000000" points="317.5,-399.7 317.5,-422.7 572.5,-422.7 572.5,-399.7 317.5,-399.7"/>
<text text-anchor="start" x="322.5" y="-408.8" font-family="Helvetica,sans-Serif" font-weight="bold" font-size="11.00" fill="#000000">ac_all_applications_scope</text>
<text text-anchor="start" x="537.5437" y="-407.8" font-family="Helvetica,sans-Serif" font-size="11.00" fill="#000000">[table]</text>
<polygon fill="none" stroke="#000000" points="317.5,-377.7 317.5,-399.7 489.5,-399.7 489.5,-377.7 317.5,-377.7"/>
<image xlink:href="../../images/primaryKeys.png" width="11px" height="12px" preserveAspectRatio="xMinYMin meet" x="322.5" y="-394.7"/>
<text text-anchor="start" x="337.5" y="-384.8" font-family="Helvetica,sans-Serif" font-size="11.00" fill="#000000">id</text>
<polygon fill="none" stroke="#000000" points="489.5,-377.7 489.5,-399.7 572.5,-399.7 572.5,-377.7 489.5,-377.7"/>
<text text-anchor="start" x="492.5" y="-385.4" font-family="Helvetica,sans-Serif" font-size="11.00" fill="#000000">bigint[19]</text>
<polygon fill="#ffffff" stroke="transparent" points="317.5,-355.7 317.5,-377.7 489.5,-377.7 489.5,-355.7 317.5,-355.7"/>
<polygon fill="none" stroke="#000000" points="317.5,-355.7 317.5,-377.7 489.5,-377.7 489.5,-355.7 317.5,-355.7"/>
<image xlink:href="../../images/foreignKeys.png" width="11px" height="12px" preserveAspectRatio="xMinYMin meet" x="322.5" y="-372.7"/>
<text text-anchor="start" x="337.5" y="-362.8" font-family="Helvetica,sans-Serif" font-size="11.00" fill="#000000">ac_group_id</text>
<polygon fill="none" stroke="#000000" points="489.5,-355.7 489.5,-377.7 572.5,-377.7 572.5,-355.7 489.5,-355.7"/>
<text text-anchor="start" x="492.5" y="-363.4" font-family="Helvetica,sans-Serif" font-size="11.00" fill="#000000">bigint[19]</text>
<polygon fill="#ffffff" stroke="transparent" points="317.5,-333.7 317.5,-355.7 489.5,-355.7 489.5,-333.7 317.5,-333.7"/>
<polygon fill="none" stroke="#000000" points="317.5,-333.7 317.5,-355.7 489.5,-355.7 489.5,-333.7 317.5,-333.7"/>
<image xlink:href="../../images/foreignKeys.png" width="11px" height="12px" preserveAspectRatio="xMinYMin meet" x="322.5" y="-350.7"/>
<text text-anchor="start" x="337.5" y="-340.8" font-family="Helvetica,sans-Serif" font-size="11.00" fill="#000000">ac_roles_id</text>
<polygon fill="none" stroke="#000000" points="489.5,-333.7 489.5,-355.7 572.5,-355.7 572.5,-333.7 489.5,-333.7"/>
<text text-anchor="start" x="492.5" y="-341.4" font-family="Helvetica,sans-Serif" font-size="11.00" fill="#000000">bigint[19]</text>
<polygon fill="#ffffff" stroke="transparent" points="317.5,-311.7 317.5,-333.7 489.5,-333.7 489.5,-311.7 317.5,-311.7"/>
<polygon fill="none" stroke="#000000" points="317.5,-311.7 317.5,-333.7 489.5,-333.7 489.5,-311.7 317.5,-311.7"/>
<image xlink:href="../../images/foreignKeys.png" width="11px" height="12px" preserveAspectRatio="xMinYMin meet" x="322.5" y="-328.7"/>
<text text-anchor="start" x="337.5" y="-318.8" font-family="Helvetica,sans-Serif" font-size="11.00" fill="#000000">organizations_id</text>
<polygon fill="none" stroke="#000000" points="489.5,-311.7 489.5,-333.7 572.5,-333.7 572.5,-311.7 489.5,-311.7"/>
<text text-anchor="start" x="492.1783" y="-319.4" font-family="Helvetica,sans-Serif" font-size="11.00" fill="#000000">int unsigned[10]</text>
<polygon fill="#ffffff" stroke="transparent" points="317.5,-292.7 317.5,-311.7 394.5,-311.7 394.5,-292.7 317.5,-292.7"/>
<polygon fill="none" stroke="#000000" points="317.5,-292.7 317.5,-311.7 394.5,-311.7 394.5,-292.7 317.5,-292.7"/>
<text text-anchor="start" x="320.5" y="-298.8" font-family="Helvetica,sans-Serif" font-size="11.00" fill="#000000">&lt; 3</text>
<polygon fill="#ffffff" stroke="transparent" points="394.5,-292.7 394.5,-311.7 489.5,-311.7 489.5,-292.7 394.5,-292.7"/>
<polygon fill="none" stroke="#000000" points="394.5,-292.7 394.5,-311.7 489.5,-311.7 489.5,-292.7 394.5,-292.7"/>
<text text-anchor="start" x="454.1105" y="-298.8" font-family="Helvetica,sans-Serif" font-size="11.00" fill="#000000">8 rows</text>
<polygon fill="#ffffff" stroke="transparent" points="489.5,-292.7 489.5,-311.7 572.5,-311.7 572.5,-292.7 489.5,-292.7"/>
<polygon fill="none" stroke="#000000" points="489.5,-292.7 489.5,-311.7 572.5,-311.7 572.5,-292.7 489.5,-292.7"/>
<text text-anchor="start" x="553.9053" y="-298.8" font-family="Helvetica,sans-Serif" font-size="11.00" fill="#000000">0 &gt;</text>
<polygon fill="none" stroke="#000000" stroke-width="2" points="316,-291.7 316,-423.7 573,-423.7 573,-291.7 316,-291.7"/>
</a>
</g>
</g>
<!-- ac_groups -->
<g id="node2" class="node">
<title>ac_groups</title>
<g id="a_node2"><a xlink:href="../../tables/ac_groups.html" xlink:title="ac_groups" target="_top">
<polygon fill="#ffffff" stroke="transparent" points="90,-400.2 90,-505.2 184,-505.2 184,-400.2 90,-400.2"/>
<polygon fill="#f5f5f5" stroke="transparent" points="90,-481.7 90,-504.7 184,-504.7 184,-481.7 90,-481.7"/>
<polygon fill="none" stroke="#000000" points="90,-481.7 90,-504.7 184,-504.7 184,-481.7 90,-481.7"/>
<text text-anchor="start" x="94.8244" y="-490.8" font-family="Helvetica,sans-Serif" font-weight="bold" font-size="11.00" fill="#000000">ac_groups</text>
<text text-anchor="start" x="149.5219" y="-489.8" font-family="Helvetica,sans-Serif" font-size="11.00" fill="#000000">[table]</text>
<polygon fill="none" stroke="#000000" points="90,-459.7 90,-481.7 184,-481.7 184,-459.7 90,-459.7"/>
<image xlink:href="../../images/primaryKeys.png" width="11px" height="12px" preserveAspectRatio="xMinYMin meet" x="95" y="-476.7"/>
<text text-anchor="start" x="110" y="-466.8" font-family="Helvetica,sans-Serif" font-size="11.00" fill="#000000">id</text>
<polygon fill="#ffffff" stroke="transparent" points="90,-437.7 90,-459.7 184,-459.7 184,-437.7 90,-437.7"/>
<polygon fill="none" stroke="#000000" points="90,-437.7 90,-459.7 184,-459.7 184,-437.7 90,-437.7"/>
<text text-anchor="start" x="110" y="-444.8" font-family="Helvetica,sans-Serif" font-size="11.00" fill="#000000">name</text>
<polygon fill="none" stroke="#000000" points="90,-418.7 90,-437.7 184,-437.7 184,-418.7 90,-418.7"/>
<text text-anchor="start" x="93" y="-424.8" font-family="Helvetica,sans-Serif" font-size="11.00" fill="#000000">...</text>
<polygon fill="#ffffff" stroke="transparent" points="90,-399.7 90,-418.7 113,-418.7 113,-399.7 90,-399.7"/>
<polygon fill="none" stroke="#000000" points="90,-399.7 90,-418.7 113,-418.7 113,-399.7 90,-399.7"/>
<text text-anchor="start" x="93" y="-405.8" font-family="Helvetica,sans-Serif" font-size="11.00" fill="#000000"> &#160;</text>
<polygon fill="#ffffff" stroke="transparent" points="113,-399.7 113,-418.7 157,-418.7 157,-399.7 113,-399.7"/>
<polygon fill="none" stroke="#000000" points="113,-399.7 113,-418.7 157,-418.7 157,-399.7 113,-399.7"/>
<text text-anchor="start" x="121.6105" y="-405.8" font-family="Helvetica,sans-Serif" font-size="11.00" fill="#000000">8 rows</text>
<polygon fill="#ffffff" stroke="transparent" points="157,-399.7 157,-418.7 184,-418.7 184,-399.7 157,-399.7"/>
<polygon fill="none" stroke="#000000" points="157,-399.7 157,-418.7 184,-418.7 184,-399.7 157,-399.7"/>
<text text-anchor="start" x="165.4053" y="-405.8" font-family="Helvetica,sans-Serif" font-size="11.00" fill="#000000">6 &gt;</text>
</a>
</g>
</g>
<!-- ac_all_applications_scope&#45;&gt;ac_groups -->
<g id="edge1" class="edge">
<title>ac_all_applications_scope:w&#45;&gt;ac_groups:e</title>
<path fill="none" stroke="#000000" d="M303.4936,-370.6499C266.5166,-389.6468 217.1993,-470.7 184,-470.7"/>
<polygon fill="#000000" stroke="#000000" points="309.8003,-368.8714 318.4771,-370.1649 313.6502,-367.7857 317.5,-366.7 317.5,-366.7 317.5,-366.7 313.6502,-367.7857 316.5229,-363.2351 309.8003,-368.8714 309.8003,-368.8714"/>
<ellipse fill="none" stroke="#000000" cx="306.7204" cy="-369.74" rx="3.2" ry="3.2"/>
</g>
<!-- ac_roles -->
<g id="node3" class="node">
<title>ac_roles</title>
<g id="a_node3"><a xlink:href="../../tables/ac_roles.html" xlink:title="ac_roles" target="_top">
<polygon fill="#ffffff" stroke="transparent" points="95,-274.2 95,-379.2 179,-379.2 179,-274.2 95,-274.2"/>
<polygon fill="#f5f5f5" stroke="transparent" points="95,-355.7 95,-378.7 179,-378.7 179,-355.7 95,-355.7"/>
<polygon fill="none" stroke="#000000" points="95,-355.7 95,-378.7 179,-378.7 179,-355.7 95,-355.7"/>
<text text-anchor="start" x="99.7188" y="-364.8" font-family="Helvetica,sans-Serif" font-weight="bold" font-size="11.00" fill="#000000">ac_roles</text>
<text text-anchor="start" x="144.5219" y="-363.8" font-family="Helvetica,sans-Serif" font-size="11.00" fill="#000000">[table]</text>
<polygon fill="none" stroke="#000000" points="95,-333.7 95,-355.7 179,-355.7 179,-333.7 95,-333.7"/>
<image xlink:href="../../images/primaryKeys.png" width="11px" height="12px" preserveAspectRatio="xMinYMin meet" x="100" y="-350.7"/>
<text text-anchor="start" x="123" y="-340.8" font-family="Helvetica,sans-Serif" font-size="11.00" fill="#000000">id</text>
<polygon fill="#ffffff" stroke="transparent" points="95,-311.7 95,-333.7 179,-333.7 179,-311.7 95,-311.7"/>
<polygon fill="none" stroke="#000000" points="95,-311.7 95,-333.7 179,-333.7 179,-311.7 95,-311.7"/>
<text text-anchor="start" x="123" y="-318.8" font-family="Helvetica,sans-Serif" font-size="11.00" fill="#000000">name</text>
<polygon fill="none" stroke="#000000" points="95,-292.7 95,-311.7 179,-311.7 179,-292.7 95,-292.7"/>
<text text-anchor="start" x="98" y="-298.8" font-family="Helvetica,sans-Serif" font-size="11.00" fill="#000000">...</text>
<polygon fill="#ffffff" stroke="transparent" points="95,-273.7 95,-292.7 113,-292.7 113,-273.7 95,-273.7"/>
<polygon fill="none" stroke="#000000" points="95,-273.7 95,-292.7 113,-292.7 113,-273.7 95,-273.7"/>
<text text-anchor="start" x="98" y="-279.8" font-family="Helvetica,sans-Serif" font-size="11.00" fill="#000000"> &#160;</text>
<polygon fill="#ffffff" stroke="transparent" points="113,-273.7 113,-292.7 154,-292.7 154,-273.7 113,-273.7"/>
<polygon fill="none" stroke="#000000" points="113,-273.7 113,-292.7 154,-292.7 154,-273.7 113,-273.7"/>
<text text-anchor="start" x="118.6105" y="-279.8" font-family="Helvetica,sans-Serif" font-size="11.00" fill="#000000">8 rows</text>
<polygon fill="#ffffff" stroke="transparent" points="154,-273.7 154,-292.7 179,-292.7 179,-273.7 154,-273.7"/>
<polygon fill="none" stroke="#000000" points="154,-273.7 154,-292.7 179,-292.7 179,-273.7 154,-273.7"/>
<text text-anchor="start" x="160.4053" y="-279.8" font-family="Helvetica,sans-Serif" font-size="11.00" fill="#000000">6 &gt;</text>
</a>
</g>
</g>
<!-- ac_all_applications_scope&#45;&gt;ac_roles -->
<g id="edge2" class="edge">
<title>ac_all_applications_scope:w&#45;&gt;ac_roles:e</title>
<path fill="none" stroke="#000000" d="M302.9131,-344.7C253.034,-344.7 235.3859,-344.7 179,-344.7"/>
<polygon fill="#000000" stroke="#000000" points="309.5,-344.7001 317.5,-348.3 313.5,-344.7 317.5,-344.7 317.5,-344.7 317.5,-344.7 313.5,-344.7 317.5,-341.1 309.5,-344.7001 309.5,-344.7001"/>
<ellipse fill="none" stroke="#000000" cx="306.3" cy="-344.7001" rx="3.2" ry="3.2"/>
</g>
<!-- organizations -->
<g id="node4" class="node">
<title>organizations</title>
<g id="a_node4"><a xlink:href="../../tables/organizations.html" xlink:title="organizations" target="_top">
<polygon fill="#ffffff" stroke="transparent" points="8,-38.2 8,-253.2 266,-253.2 266,-38.2 8,-38.2"/>
<polygon fill="#f5f5f5" stroke="transparent" points="8,-229.7 8,-252.7 266,-252.7 266,-229.7 8,-229.7"/>
<polygon fill="none" stroke="#000000" points="8,-229.7 8,-252.7 266,-252.7 266,-229.7 8,-229.7"/>
<text text-anchor="start" x="13" y="-238.8" font-family="Helvetica,sans-Serif" font-weight="bold" font-size="11.00" fill="#000000">organizations</text>
<text text-anchor="start" x="231.0437" y="-237.8" font-family="Helvetica,sans-Serif" font-size="11.00" fill="#000000">[table]</text>
<polygon fill="#ffffff" stroke="transparent" points="8,-207.7 8,-229.7 266,-229.7 266,-207.7 8,-207.7"/>
<polygon fill="none" stroke="#000000" points="8,-207.7 8,-229.7 266,-229.7 266,-207.7 8,-207.7"/>
<text text-anchor="start" x="28" y="-214.8" font-family="Helvetica,sans-Serif" font-size="11.00" fill="#000000">name</text>
<polygon fill="#ffffff" stroke="transparent" points="8,-185.7 8,-207.7 266,-207.7 266,-185.7 8,-185.7"/>
<polygon fill="none" stroke="#000000" points="8,-185.7 8,-207.7 266,-207.7 266,-185.7 8,-185.7"/>
<image xlink:href="../../images/foreignKeys.png" width="11px" height="12px" preserveAspectRatio="xMinYMin meet" x="13" y="-202.7"/>
<text text-anchor="start" x="28" y="-192.8" font-family="Helvetica,sans-Serif" font-size="11.00" fill="#000000">configKey_fk</text>
<polygon fill="#ffffff" stroke="transparent" points="8,-163.7 8,-185.7 266,-185.7 266,-163.7 8,-163.7"/>
<polygon fill="none" stroke="#000000" points="8,-163.7 8,-185.7 266,-185.7 266,-163.7 8,-163.7"/>
<image xlink:href="../../images/foreignKeys.png" width="11px" height="12px" preserveAspectRatio="xMinYMin meet" x="13" y="-180.7"/>
<text text-anchor="start" x="28" y="-170.8" font-family="Helvetica,sans-Serif" font-size="11.00" fill="#000000">passwordPolicy_fk</text>
<polygon fill="#ffffff" stroke="transparent" points="8,-141.7 8,-163.7 266,-163.7 266,-141.7 8,-141.7"/>
<polygon fill="none" stroke="#000000" points="8,-141.7 8,-163.7 266,-163.7 266,-141.7 8,-141.7"/>
<image xlink:href="../../images/foreignKeys.png" width="11px" height="12px" preserveAspectRatio="xMinYMin meet" x="13" y="-158.7"/>
<text text-anchor="start" x="28" y="-148.8" font-family="Helvetica,sans-Serif" font-size="11.00" fill="#000000">report_settings_fk</text>
<polygon fill="none" stroke="#000000" points="8,-119.7 8,-141.7 266,-141.7 266,-119.7 8,-119.7"/>
<image xlink:href="../../images/primaryKeys.png" width="11px" height="12px" preserveAspectRatio="xMinYMin meet" x="13" y="-136.7"/>
<text text-anchor="start" x="28" y="-126.8" font-family="Helvetica,sans-Serif" font-size="11.00" fill="#000000">id</text>
<polygon fill="#ffffff" stroke="transparent" points="8,-97.7 8,-119.7 266,-119.7 266,-97.7 8,-97.7"/>
<polygon fill="none" stroke="#000000" points="8,-97.7 8,-119.7 266,-119.7 266,-97.7 8,-97.7"/>
<text text-anchor="start" x="28" y="-104.8" font-family="Helvetica,sans-Serif" font-size="11.00" fill="#000000">uuid</text>
<polygon fill="#ffffff" stroke="transparent" points="8,-75.7 8,-97.7 266,-97.7 266,-75.7 8,-75.7"/>
<polygon fill="none" stroke="#000000" points="8,-75.7 8,-97.7 266,-97.7 266,-75.7 8,-75.7"/>
<image xlink:href="../../images/foreignKeys.png" width="11px" height="12px" preserveAspectRatio="xMinYMin meet" x="13" y="-92.7"/>
<text text-anchor="start" x="28" y="-82.8" font-family="Helvetica,sans-Serif" font-size="11.00" fill="#000000">saml_idp_config_fk</text>
<polygon fill="none" stroke="#000000" points="8,-56.7 8,-75.7 266,-75.7 266,-56.7 8,-56.7"/>
<text text-anchor="start" x="11" y="-62.8" font-family="Helvetica,sans-Serif" font-size="11.00" fill="#000000">...</text>
<polygon fill="#ffffff" stroke="transparent" points="8,-37.7 8,-56.7 115,-56.7 115,-37.7 8,-37.7"/>
<polygon fill="none" stroke="#000000" points="8,-37.7 8,-56.7 115,-56.7 115,-37.7 8,-37.7"/>
<text text-anchor="start" x="11" y="-43.8" font-family="Helvetica,sans-Serif" font-size="11.00" fill="#000000">&lt; 4</text>
<polygon fill="#ffffff" stroke="transparent" points="115,-37.7 115,-56.7 196,-56.7 196,-37.7 115,-37.7"/>
<polygon fill="none" stroke="#000000" points="115,-37.7 115,-56.7 196,-56.7 196,-37.7 115,-37.7"/>
<text text-anchor="start" x="160.6105" y="-43.8" font-family="Helvetica,sans-Serif" font-size="11.00" fill="#000000">3 rows</text>
<polygon fill="#ffffff" stroke="transparent" points="196,-37.7 196,-56.7 266,-56.7 266,-37.7 196,-37.7"/>
<polygon fill="none" stroke="#000000" points="196,-37.7 196,-56.7 266,-56.7 266,-37.7 196,-37.7"/>
<text text-anchor="start" x="241.2904" y="-43.8" font-family="Helvetica,sans-Serif" font-size="11.00" fill="#000000">81 &gt;</text>
</a>
</g>
</g>
<!-- ac_all_applications_scope&#45;&gt;organizations -->
<g id="edge3" class="edge">
<title>ac_all_applications_scope:w&#45;&gt;organizations:e</title>
<path fill="none" stroke="#000000" d="M302.9638,-320.41C244.4021,-298.7476 348.6553,-130.7 266,-130.7"/>
<polygon fill="#000000" stroke="#000000" points="309.5975,-321.455 316.9398,-326.2561 313.5487,-322.0775 317.5,-322.7 317.5,-322.7 317.5,-322.7 313.5487,-322.0775 318.0602,-319.1439 309.5975,-321.455 309.5975,-321.455"/>
<ellipse fill="none" stroke="#000000" cx="306.4364" cy="-320.957" rx="3.2" ry="3.2"/>
</g>
</g>
</svg>
