<?xml version="1.0" encoding="UTF-8" standalone="no"?>
<!DOCTYPE svg PUBLIC "-//W3C//DTD SVG 1.1//EN"
 "http://www.w3.org/Graphics/SVG/1.1/DTD/svg11.dtd">
<!-- Generated by graphviz version 2.40.1 (20161225.0304)
 -->
<!-- Title: oneDegreeRelationshipsDiagram Pages: 1 -->
<svg width="386pt" height="307pt"
 viewBox="0.00 0.00 386.00 306.70" xmlns="http://www.w3.org/2000/svg" xmlns:xlink="http://www.w3.org/1999/xlink">
<g id="graph0" class="graph" transform="scale(1 1) rotate(0) translate(4 302.7)">
<title>oneDegreeRelationshipsDiagram</title>
<polygon fill="#ffffff" stroke="transparent" points="-4,4 -4,-302.7 382,-302.7 382,4 -4,4"/>
<text text-anchor="middle" x="72.4936" y="-7.3" font-family="Helvetica,sans-Serif" font-size="11.00" fill="#000000">Generated by SchemaSpy</text>
<!-- ac_groups_ac_scope -->
<g id="node1" class="node">
<title>ac_groups_ac_scope</title>
<g id="a_node1"><a xlink:href="../../tables/ac_groups_ac_scope.html" xlink:title="ac_groups_ac_scope" target="_top">
<polygon fill="#ffffff" stroke="transparent" points="173,-141.7 173,-231.7 370,-231.7 370,-141.7 173,-141.7"/>
<polygon fill="#f5f5f5" stroke="transparent" points="175.5,-206.7 175.5,-229.7 368.5,-229.7 368.5,-206.7 175.5,-206.7"/>
<polygon fill="none" stroke="#000000" points="175.5,-206.7 175.5,-229.7 368.5,-229.7 368.5,-206.7 175.5,-206.7"/>
<text text-anchor="start" x="180.5" y="-215.8" font-family="Helvetica,sans-Serif" font-weight="bold" font-size="11.00" fill="#000000">ac_groups_ac_scope</text>
<text text-anchor="start" x="333.5437" y="-214.8" font-family="Helvetica,sans-Serif" font-size="11.00" fill="#000000">[table]</text>
<polygon fill="none" stroke="#000000" points="175.5,-184.7 175.5,-206.7 318.5,-206.7 318.5,-184.7 175.5,-184.7"/>
<image xlink:href="../../images/primaryKeys.png" width="11px" height="12px" preserveAspectRatio="xMinYMin meet" x="180.5" y="-201.7"/>
<text text-anchor="start" x="195.5" y="-191.8" font-family="Helvetica,sans-Serif" font-size="11.00" fill="#000000">ac_scope_id</text>
<polygon fill="none" stroke="#000000" points="318.5,-184.7 318.5,-206.7 368.5,-206.7 368.5,-184.7 318.5,-184.7"/>
<text text-anchor="start" x="321.1865" y="-192.4" font-family="Helvetica,sans-Serif" font-size="11.00" fill="#000000">bigint[19]</text>
<polygon fill="none" stroke="#000000" points="175.5,-162.7 175.5,-184.7 318.5,-184.7 318.5,-162.7 175.5,-162.7"/>
<image xlink:href="../../images/primaryKeys.png" width="11px" height="12px" preserveAspectRatio="xMinYMin meet" x="180.5" y="-179.7"/>
<text text-anchor="start" x="195.5" y="-169.8" font-family="Helvetica,sans-Serif" font-size="11.00" fill="#000000">ac_groups_id</text>
<polygon fill="none" stroke="#000000" points="318.5,-162.7 318.5,-184.7 368.5,-184.7 368.5,-162.7 318.5,-162.7"/>
<text text-anchor="start" x="321.1865" y="-170.4" font-family="Helvetica,sans-Serif" font-size="11.00" fill="#000000">bigint[19]</text>
<polygon fill="#ffffff" stroke="transparent" points="175.5,-143.7 175.5,-162.7 238.5,-162.7 238.5,-143.7 175.5,-143.7"/>
<polygon fill="none" stroke="#000000" points="175.5,-143.7 175.5,-162.7 238.5,-162.7 238.5,-143.7 175.5,-143.7"/>
<text text-anchor="start" x="178.5" y="-149.8" font-family="Helvetica,sans-Serif" font-size="11.00" fill="#000000">&lt; 2</text>
<polygon fill="#ffffff" stroke="transparent" points="238.5,-143.7 238.5,-162.7 318.5,-162.7 318.5,-143.7 238.5,-143.7"/>
<polygon fill="none" stroke="#000000" points="238.5,-143.7 238.5,-162.7 318.5,-162.7 318.5,-143.7 238.5,-143.7"/>
<text text-anchor="start" x="283.1105" y="-149.8" font-family="Helvetica,sans-Serif" font-size="11.00" fill="#000000">0 rows</text>
<polygon fill="#ffffff" stroke="transparent" points="318.5,-143.7 318.5,-162.7 368.5,-162.7 368.5,-143.7 318.5,-143.7"/>
<polygon fill="none" stroke="#000000" points="318.5,-143.7 318.5,-162.7 368.5,-162.7 368.5,-143.7 318.5,-143.7"/>
<text text-anchor="start" x="349.9053" y="-149.8" font-family="Helvetica,sans-Serif" font-size="11.00" fill="#000000">0 &gt;</text>
<polygon fill="none" stroke="#000000" stroke-width="2" points="174,-142.7 174,-230.7 369,-230.7 369,-142.7 174,-142.7"/>
</a>
</g>
</g>
<!-- ac_groups -->
<g id="node2" class="node">
<title>ac_groups</title>
<g id="a_node2"><a xlink:href="../../tables/ac_groups.html" xlink:title="ac_groups" target="_top">
<polygon fill="#ffffff" stroke="transparent" points="19,-38.2 19,-143.2 113,-143.2 113,-38.2 19,-38.2"/>
<polygon fill="#f5f5f5" stroke="transparent" points="19,-119.7 19,-142.7 113,-142.7 113,-119.7 19,-119.7"/>
<polygon fill="none" stroke="#000000" points="19,-119.7 19,-142.7 113,-142.7 113,-119.7 19,-119.7"/>
<text text-anchor="start" x="23.8244" y="-128.8" font-family="Helvetica,sans-Serif" font-weight="bold" font-size="11.00" fill="#000000">ac_groups</text>
<text text-anchor="start" x="78.5219" y="-127.8" font-family="Helvetica,sans-Serif" font-size="11.00" fill="#000000">[table]</text>
<polygon fill="none" stroke="#000000" points="19,-97.7 19,-119.7 113,-119.7 113,-97.7 19,-97.7"/>
<image xlink:href="../../images/primaryKeys.png" width="11px" height="12px" preserveAspectRatio="xMinYMin meet" x="24" y="-114.7"/>
<text text-anchor="start" x="39" y="-104.8" font-family="Helvetica,sans-Serif" font-size="11.00" fill="#000000">id</text>
<polygon fill="#ffffff" stroke="transparent" points="19,-75.7 19,-97.7 113,-97.7 113,-75.7 19,-75.7"/>
<polygon fill="none" stroke="#000000" points="19,-75.7 19,-97.7 113,-97.7 113,-75.7 19,-75.7"/>
<text text-anchor="start" x="39" y="-82.8" font-family="Helvetica,sans-Serif" font-size="11.00" fill="#000000">name</text>
<polygon fill="none" stroke="#000000" points="19,-56.7 19,-75.7 113,-75.7 113,-56.7 19,-56.7"/>
<text text-anchor="start" x="22" y="-62.8" font-family="Helvetica,sans-Serif" font-size="11.00" fill="#000000">...</text>
<polygon fill="#ffffff" stroke="transparent" points="19,-37.7 19,-56.7 42,-56.7 42,-37.7 19,-37.7"/>
<polygon fill="none" stroke="#000000" points="19,-37.7 19,-56.7 42,-56.7 42,-37.7 19,-37.7"/>
<text text-anchor="start" x="22" y="-43.8" font-family="Helvetica,sans-Serif" font-size="11.00" fill="#000000"> &#160;</text>
<polygon fill="#ffffff" stroke="transparent" points="42,-37.7 42,-56.7 86,-56.7 86,-37.7 42,-37.7"/>
<polygon fill="none" stroke="#000000" points="42,-37.7 42,-56.7 86,-56.7 86,-37.7 42,-37.7"/>
<text text-anchor="start" x="50.6105" y="-43.8" font-family="Helvetica,sans-Serif" font-size="11.00" fill="#000000">8 rows</text>
<polygon fill="#ffffff" stroke="transparent" points="86,-37.7 86,-56.7 113,-56.7 113,-37.7 86,-37.7"/>
<polygon fill="none" stroke="#000000" points="86,-37.7 86,-56.7 113,-56.7 113,-37.7 86,-37.7"/>
<text text-anchor="start" x="94.4053" y="-43.8" font-family="Helvetica,sans-Serif" font-size="11.00" fill="#000000">6 &gt;</text>
</a>
</g>
</g>
<!-- ac_groups_ac_scope&#45;&gt;ac_groups -->
<g id="edge1" class="edge">
<title>ac_groups_ac_scope:w&#45;&gt;ac_groups:e</title>
<path fill="none" stroke="#000000" d="M161.3921,-170.0191C139.3201,-156.2687 147.2847,-108.7 113,-108.7"/>
<polygon fill="#000000" stroke="#000000" points="167.7591,-171.6803 174.5911,-177.1834 171.6296,-172.6901 175.5,-173.7 175.5,-173.7 175.5,-173.7 171.6296,-172.6901 176.4089,-170.2166 167.7591,-171.6803 167.7591,-171.6803"/>
<ellipse fill="none" stroke="#000000" cx="164.6628" cy="-170.8724" rx="3.2" ry="3.2"/>
</g>
<!-- ac_scope -->
<g id="node3" class="node">
<title>ac_scope</title>
<g id="a_node3"><a xlink:href="../../tables/ac_scope.html" xlink:title="ac_scope" target="_top">
<polygon fill="#ffffff" stroke="transparent" points="8,-164.7 8,-294.7 124,-294.7 124,-164.7 8,-164.7"/>
<polygon fill="#f5f5f5" stroke="transparent" points="8,-271.7 8,-294.7 124,-294.7 124,-271.7 8,-271.7"/>
<polygon fill="none" stroke="#000000" points="8,-271.7 8,-294.7 124,-294.7 124,-271.7 8,-271.7"/>
<text text-anchor="start" x="13" y="-280.8" font-family="Helvetica,sans-Serif" font-weight="bold" font-size="11.00" fill="#000000">ac_scope</text>
<text text-anchor="start" x="89.0437" y="-279.8" font-family="Helvetica,sans-Serif" font-size="11.00" fill="#000000">[table]</text>
<polygon fill="none" stroke="#000000" points="8,-249.7 8,-271.7 124,-271.7 124,-249.7 8,-249.7"/>
<image xlink:href="../../images/primaryKeys.png" width="11px" height="12px" preserveAspectRatio="xMinYMin meet" x="13" y="-266.7"/>
<text text-anchor="start" x="28" y="-256.8" font-family="Helvetica,sans-Serif" font-size="11.00" fill="#000000">id</text>
<polygon fill="#ffffff" stroke="transparent" points="8,-227.7 8,-249.7 124,-249.7 124,-227.7 8,-227.7"/>
<polygon fill="none" stroke="#000000" points="8,-227.7 8,-249.7 124,-249.7 124,-227.7 8,-227.7"/>
<image xlink:href="../../images/foreignKeys.png" width="11px" height="12px" preserveAspectRatio="xMinYMin meet" x="13" y="-244.7"/>
<text text-anchor="start" x="28" y="-234.8" font-family="Helvetica,sans-Serif" font-size="11.00" fill="#000000">application_id</text>
<polygon fill="#ffffff" stroke="transparent" points="8,-205.7 8,-227.7 124,-227.7 124,-205.7 8,-205.7"/>
<polygon fill="none" stroke="#000000" points="8,-205.7 8,-227.7 124,-227.7 124,-205.7 8,-205.7"/>
<image xlink:href="../../images/foreignKeys.png" width="11px" height="12px" preserveAspectRatio="xMinYMin meet" x="13" y="-222.7"/>
<text text-anchor="start" x="28" y="-212.8" font-family="Helvetica,sans-Serif" font-size="11.00" fill="#000000">ac_roles_id</text>
<polygon fill="#ffffff" stroke="transparent" points="8,-183.7 8,-205.7 124,-205.7 124,-183.7 8,-183.7"/>
<polygon fill="none" stroke="#000000" points="8,-183.7 8,-205.7 124,-205.7 124,-183.7 8,-183.7"/>
<image xlink:href="../../images/foreignKeys.png" width="11px" height="12px" preserveAspectRatio="xMinYMin meet" x="13" y="-200.7"/>
<text text-anchor="start" x="28" y="-190.8" font-family="Helvetica,sans-Serif" font-size="11.00" fill="#000000">organizations_id</text>
<polygon fill="#ffffff" stroke="transparent" points="8,-164.7 8,-183.7 47,-183.7 47,-164.7 8,-164.7"/>
<polygon fill="none" stroke="#000000" points="8,-164.7 8,-183.7 47,-183.7 47,-164.7 8,-164.7"/>
<text text-anchor="start" x="11" y="-170.8" font-family="Helvetica,sans-Serif" font-size="11.00" fill="#000000">&lt; 3</text>
<polygon fill="#ffffff" stroke="transparent" points="47,-164.7 47,-183.7 94,-183.7 94,-164.7 47,-164.7"/>
<polygon fill="none" stroke="#000000" points="47,-164.7 47,-183.7 94,-183.7 94,-164.7 47,-164.7"/>
<text text-anchor="start" x="58.6105" y="-170.8" font-family="Helvetica,sans-Serif" font-size="11.00" fill="#000000">0 rows</text>
<polygon fill="#ffffff" stroke="transparent" points="94,-164.7 94,-183.7 124,-183.7 124,-164.7 94,-164.7"/>
<polygon fill="none" stroke="#000000" points="94,-164.7 94,-183.7 124,-183.7 124,-164.7 94,-164.7"/>
<text text-anchor="start" x="105.4053" y="-170.8" font-family="Helvetica,sans-Serif" font-size="11.00" fill="#000000">1 &gt;</text>
</a>
</g>
</g>
<!-- ac_groups_ac_scope&#45;&gt;ac_scope -->
<g id="edge2" class="edge">
<title>ac_groups_ac_scope:w&#45;&gt;ac_scope:e</title>
<path fill="none" stroke="#000000" d="M161.6076,-200.3746C144.3418,-215.2786 154.8105,-260.7 124,-260.7"/>
<polygon fill="#000000" stroke="#000000" points="167.9177,-198.2514 176.6481,-199.112 171.7089,-196.9757 175.5,-195.7 175.5,-195.7 175.5,-195.7 171.7089,-196.9757 174.3519,-192.288 167.9177,-198.2514 167.9177,-198.2514"/>
<ellipse fill="none" stroke="#000000" cx="164.8848" cy="-199.2719" rx="3.2" ry="3.2"/>
</g>
</g>
</svg>
