<?xml version="1.0" encoding="UTF-8" standalone="no"?>
<!DOCTYPE svg PUBLIC "-//W3C//DTD SVG 1.1//EN"
 "http://www.w3.org/Graphics/SVG/1.1/DTD/svg11.dtd">
<!-- Generated by graphviz version 2.40.1 (20161225.0304)
 -->
<!-- Title: twoDegreesRelationshipsDiagram Pages: 1 -->
<svg width="1233pt" height="715pt"
 viewBox="0.00 0.00 1233.00 714.57" xmlns="http://www.w3.org/2000/svg" xmlns:xlink="http://www.w3.org/1999/xlink">
<g id="graph0" class="graph" transform="scale(1 1) rotate(0) translate(4 710.5655)">
<title>twoDegreesRelationshipsDiagram</title>
<polygon fill="#ffffff" stroke="transparent" points="-4,4 -4,-710.5655 1229,-710.5655 1229,4 -4,4"/>
<text text-anchor="middle" x="72.4936" y="-7.3" font-family="Helvetica,sans-Serif" font-size="11.00" fill="#000000">Generated by SchemaSpy</text>
<!-- ac_all_applications_scope -->
<g id="node1" class="node">
<title>ac_all_applications_scope</title>
<g id="a_node1"><a xlink:href="../../tables/ac_all_applications_scope.html" xlink:title="ac_all_applications_scope" target="_top">
<polygon fill="#ffffff" stroke="transparent" points="641.5,-551.4857 641.5,-681.4857 813.5,-681.4857 813.5,-551.4857 641.5,-551.4857"/>
<polygon fill="#f5f5f5" stroke="transparent" points="641.5,-658.4857 641.5,-681.4857 813.5,-681.4857 813.5,-658.4857 641.5,-658.4857"/>
<polygon fill="none" stroke="#000000" points="641.5,-658.4857 641.5,-681.4857 813.5,-681.4857 813.5,-658.4857 641.5,-658.4857"/>
<text text-anchor="start" x="646.5" y="-667.5857" font-family="Helvetica,sans-Serif" font-weight="bold" font-size="11.00" fill="#000000">ac_all_applications_scope</text>
<text text-anchor="start" x="779.0219" y="-666.5857" font-family="Helvetica,sans-Serif" font-size="11.00" fill="#000000">[table]</text>
<polygon fill="none" stroke="#000000" points="641.5,-636.4857 641.5,-658.4857 813.5,-658.4857 813.5,-636.4857 641.5,-636.4857"/>
<image xlink:href="../../images/primaryKeys.png" width="11px" height="12px" preserveAspectRatio="xMinYMin meet" x="646.5" y="-653.486"/>
<text text-anchor="start" x="661.5" y="-643.5857" font-family="Helvetica,sans-Serif" font-size="11.00" fill="#000000">id</text>
<polygon fill="#ffffff" stroke="transparent" points="641.5,-614.4857 641.5,-636.4857 813.5,-636.4857 813.5,-614.4857 641.5,-614.4857"/>
<polygon fill="none" stroke="#000000" points="641.5,-614.4857 641.5,-636.4857 813.5,-636.4857 813.5,-614.4857 641.5,-614.4857"/>
<image xlink:href="../../images/foreignKeys.png" width="11px" height="12px" preserveAspectRatio="xMinYMin meet" x="646.5" y="-631.486"/>
<text text-anchor="start" x="661.5" y="-621.5857" font-family="Helvetica,sans-Serif" font-size="11.00" fill="#000000">ac_group_id</text>
<polygon fill="#ffffff" stroke="transparent" points="641.5,-592.4857 641.5,-614.4857 813.5,-614.4857 813.5,-592.4857 641.5,-592.4857"/>
<polygon fill="none" stroke="#000000" points="641.5,-592.4857 641.5,-614.4857 813.5,-614.4857 813.5,-592.4857 641.5,-592.4857"/>
<image xlink:href="../../images/foreignKeys.png" width="11px" height="12px" preserveAspectRatio="xMinYMin meet" x="646.5" y="-609.486"/>
<text text-anchor="start" x="661.5" y="-599.5857" font-family="Helvetica,sans-Serif" font-size="11.00" fill="#000000">ac_roles_id</text>
<polygon fill="#ffffff" stroke="transparent" points="641.5,-570.4857 641.5,-592.4857 813.5,-592.4857 813.5,-570.4857 641.5,-570.4857"/>
<polygon fill="none" stroke="#000000" points="641.5,-570.4857 641.5,-592.4857 813.5,-592.4857 813.5,-570.4857 641.5,-570.4857"/>
<image xlink:href="../../images/foreignKeys.png" width="11px" height="12px" preserveAspectRatio="xMinYMin meet" x="646.5" y="-587.486"/>
<text text-anchor="start" x="661.5" y="-577.5857" font-family="Helvetica,sans-Serif" font-size="11.00" fill="#000000">organizations_id</text>
<polygon fill="#ffffff" stroke="transparent" points="641.5,-551.4857 641.5,-570.4857 712.5,-570.4857 712.5,-551.4857 641.5,-551.4857"/>
<polygon fill="none" stroke="#000000" points="641.5,-551.4857 641.5,-570.4857 712.5,-570.4857 712.5,-551.4857 641.5,-551.4857"/>
<text text-anchor="start" x="644.5" y="-557.5857" font-family="Helvetica,sans-Serif" font-size="11.00" fill="#000000">&lt; 3</text>
<polygon fill="#ffffff" stroke="transparent" points="712.5,-551.4857 712.5,-570.4857 775.5,-570.4857 775.5,-551.4857 712.5,-551.4857"/>
<polygon fill="none" stroke="#000000" points="712.5,-551.4857 712.5,-570.4857 775.5,-570.4857 775.5,-551.4857 712.5,-551.4857"/>
<text text-anchor="start" x="740.1105" y="-557.5857" font-family="Helvetica,sans-Serif" font-size="11.00" fill="#000000">8 rows</text>
<polygon fill="#ffffff" stroke="transparent" points="775.5,-551.4857 775.5,-570.4857 813.5,-570.4857 813.5,-551.4857 775.5,-551.4857"/>
<polygon fill="none" stroke="#000000" points="775.5,-551.4857 775.5,-570.4857 813.5,-570.4857 813.5,-551.4857 775.5,-551.4857"/>
<text text-anchor="start" x="804.3862" y="-557.5857" font-family="Helvetica,sans-Serif" font-size="11.00" fill="#000000"> &#160;</text>
</a>
</g>
</g>
<!-- ac_groups -->
<g id="node2" class="node">
<title>ac_groups</title>
<g id="a_node2"><a xlink:href="../../tables/ac_groups.html" xlink:title="ac_groups" target="_top">
<polygon fill="#ffffff" stroke="transparent" points="31,-501.9857 31,-562.9857 125,-562.9857 125,-501.9857 31,-501.9857"/>
<polygon fill="#f5f5f5" stroke="transparent" points="31,-539.4857 31,-562.4857 125,-562.4857 125,-539.4857 31,-539.4857"/>
<polygon fill="none" stroke="#000000" points="31,-539.4857 31,-562.4857 125,-562.4857 125,-539.4857 31,-539.4857"/>
<text text-anchor="start" x="35.8244" y="-548.5857" font-family="Helvetica,sans-Serif" font-weight="bold" font-size="11.00" fill="#000000">ac_groups</text>
<text text-anchor="start" x="90.5219" y="-547.5857" font-family="Helvetica,sans-Serif" font-size="11.00" fill="#000000">[table]</text>
<polygon fill="none" stroke="#000000" points="31,-520.4857 31,-539.4857 125,-539.4857 125,-520.4857 31,-520.4857"/>
<text text-anchor="start" x="34" y="-526.5857" font-family="Helvetica,sans-Serif" font-size="11.00" fill="#000000">...</text>
<polygon fill="#ffffff" stroke="transparent" points="31,-501.4857 31,-520.4857 54,-520.4857 54,-501.4857 31,-501.4857"/>
<polygon fill="none" stroke="#000000" points="31,-501.4857 31,-520.4857 54,-520.4857 54,-501.4857 31,-501.4857"/>
<text text-anchor="start" x="34" y="-507.5857" font-family="Helvetica,sans-Serif" font-size="11.00" fill="#000000"> &#160;</text>
<polygon fill="#ffffff" stroke="transparent" points="54,-501.4857 54,-520.4857 98,-520.4857 98,-501.4857 54,-501.4857"/>
<polygon fill="none" stroke="#000000" points="54,-501.4857 54,-520.4857 98,-520.4857 98,-501.4857 54,-501.4857"/>
<text text-anchor="start" x="62.6105" y="-507.5857" font-family="Helvetica,sans-Serif" font-size="11.00" fill="#000000">8 rows</text>
<polygon fill="#ffffff" stroke="transparent" points="98,-501.4857 98,-520.4857 125,-520.4857 125,-501.4857 98,-501.4857"/>
<polygon fill="none" stroke="#000000" points="98,-501.4857 98,-520.4857 125,-520.4857 125,-501.4857 98,-501.4857"/>
<text text-anchor="start" x="106.4053" y="-507.5857" font-family="Helvetica,sans-Serif" font-size="11.00" fill="#000000">6 &gt;</text>
</a>
</g>
</g>
<!-- ac_all_applications_scope&#45;&gt;ac_groups -->
<g id="edge1" class="edge">
<title>ac_all_applications_scope:w&#45;&gt;ac_groups:e</title>
<path fill="none" stroke="#000000" d="M627.0087,-624.4403C535.2316,-614.0366 179.7805,-529.4857 125,-529.4857"/>
<polygon fill="#000000" stroke="#000000" points="633.5207,-624.9101 641.2409,-629.0764 637.5104,-625.1979 641.5,-625.4857 641.5,-625.4857 641.5,-625.4857 637.5104,-625.1979 641.7591,-621.8951 633.5207,-624.9101 633.5207,-624.9101"/>
<ellipse fill="none" stroke="#000000" cx="630.329" cy="-624.6798" rx="3.2" ry="3.2"/>
</g>
<!-- ac_roles -->
<g id="node3" class="node">
<title>ac_roles</title>
<g id="a_node3"><a xlink:href="../../tables/ac_roles.html" xlink:title="ac_roles" target="_top">
<polygon fill="#ffffff" stroke="transparent" points="8,-165.4857 8,-299.4857 148,-299.4857 148,-165.4857 8,-165.4857"/>
<polygon fill="#f5f5f5" stroke="transparent" points="10,-274.4857 10,-297.4857 146,-297.4857 146,-274.4857 10,-274.4857"/>
<polygon fill="none" stroke="#000000" points="10,-274.4857 10,-297.4857 146,-297.4857 146,-274.4857 10,-274.4857"/>
<text text-anchor="start" x="15" y="-283.5857" font-family="Helvetica,sans-Serif" font-weight="bold" font-size="11.00" fill="#000000">ac_roles</text>
<text text-anchor="start" x="111.0437" y="-282.5857" font-family="Helvetica,sans-Serif" font-size="11.00" fill="#000000">[table]</text>
<polygon fill="none" stroke="#000000" points="10,-252.4857 10,-274.4857 79,-274.4857 79,-252.4857 10,-252.4857"/>
<image xlink:href="../../images/primaryKeys.png" width="11px" height="12px" preserveAspectRatio="xMinYMin meet" x="15" y="-269.486"/>
<text text-anchor="start" x="30" y="-259.5857" font-family="Helvetica,sans-Serif" font-size="11.00" fill="#000000">id</text>
<polygon fill="none" stroke="#000000" points="79,-252.4857 79,-274.4857 146,-274.4857 146,-252.4857 79,-252.4857"/>
<text text-anchor="start" x="82" y="-260.1857" font-family="Helvetica,sans-Serif" font-size="11.00" fill="#000000">bigint[19]</text>
<polygon fill="#ffffff" stroke="transparent" points="10,-230.4857 10,-252.4857 79,-252.4857 79,-230.4857 10,-230.4857"/>
<polygon fill="none" stroke="#000000" points="10,-230.4857 10,-252.4857 79,-252.4857 79,-230.4857 10,-230.4857"/>
<text text-anchor="start" x="30" y="-237.5857" font-family="Helvetica,sans-Serif" font-size="11.00" fill="#000000">name</text>
<polygon fill="none" stroke="#000000" points="79,-230.4857 79,-252.4857 146,-252.4857 146,-230.4857 79,-230.4857"/>
<text text-anchor="start" x="81.9365" y="-238.1857" font-family="Helvetica,sans-Serif" font-size="11.00" fill="#000000">varchar[255]</text>
<polygon fill="none" stroke="#000000" points="10,-208.4857 10,-230.4857 79,-230.4857 79,-208.4857 10,-208.4857"/>
<text text-anchor="start" x="30" y="-215.5857" font-family="Helvetica,sans-Serif" font-size="11.00" fill="#000000">type</text>
<polygon fill="none" stroke="#000000" points="79,-208.4857 79,-230.4857 146,-230.4857 146,-208.4857 79,-208.4857"/>
<text text-anchor="start" x="82" y="-216.1857" font-family="Helvetica,sans-Serif" font-size="11.00" fill="#000000">tinyint[3]</text>
<polygon fill="none" stroke="#000000" points="10,-186.4857 10,-208.4857 79,-208.4857 79,-186.4857 10,-186.4857"/>
<text text-anchor="start" x="30" y="-193.5857" font-family="Helvetica,sans-Serif" font-size="11.00" fill="#000000">weight</text>
<polygon fill="none" stroke="#000000" points="79,-186.4857 79,-208.4857 146,-208.4857 146,-186.4857 79,-186.4857"/>
<text text-anchor="start" x="82" y="-194.1857" font-family="Helvetica,sans-Serif" font-size="11.00" fill="#000000">tinyint[3]</text>
<polygon fill="#ffffff" stroke="transparent" points="10,-167.4857 10,-186.4857 36,-186.4857 36,-167.4857 10,-167.4857"/>
<polygon fill="none" stroke="#000000" points="10,-167.4857 10,-186.4857 36,-186.4857 36,-167.4857 10,-167.4857"/>
<text text-anchor="start" x="13" y="-173.5857" font-family="Helvetica,sans-Serif" font-size="11.00" fill="#000000">&lt; 0</text>
<polygon fill="#ffffff" stroke="transparent" points="36,-167.4857 36,-186.4857 79,-186.4857 79,-167.4857 36,-167.4857"/>
<polygon fill="none" stroke="#000000" points="36,-167.4857 36,-186.4857 79,-186.4857 79,-167.4857 36,-167.4857"/>
<text text-anchor="start" x="43.6105" y="-173.5857" font-family="Helvetica,sans-Serif" font-size="11.00" fill="#000000">8 rows</text>
<polygon fill="#ffffff" stroke="transparent" points="79,-167.4857 79,-186.4857 146,-186.4857 146,-167.4857 79,-167.4857"/>
<polygon fill="none" stroke="#000000" points="79,-167.4857 79,-186.4857 146,-186.4857 146,-167.4857 79,-167.4857"/>
<text text-anchor="start" x="127.4053" y="-173.5857" font-family="Helvetica,sans-Serif" font-size="11.00" fill="#000000">6 &gt;</text>
<polygon fill="none" stroke="#000000" stroke-width="2" points="9,-166.4857 9,-298.4857 147,-298.4857 147,-166.4857 9,-166.4857"/>
</a>
</g>
</g>
<!-- ac_all_applications_scope&#45;&gt;ac_roles -->
<g id="edge2" class="edge">
<title>ac_all_applications_scope:w&#45;&gt;ac_roles:e</title>
<path fill="none" stroke="#000000" d="M627.4703,-600.0367C551.2763,-578.5228 197.0605,-463.3657 189,-454.4857 130.5165,-390.0572 233.0136,-263.4857 146,-263.4857"/>
<polygon fill="#000000" stroke="#000000" points="633.7313,-601.5759 640.6406,-606.9817 637.6157,-602.5308 641.5,-603.4857 641.5,-603.4857 641.5,-603.4857 637.6157,-602.5308 642.3594,-599.9898 633.7313,-601.5759 633.7313,-601.5759"/>
<ellipse fill="none" stroke="#000000" cx="630.6238" cy="-600.8119" rx="3.2" ry="3.2"/>
</g>
<!-- organizations -->
<g id="node4" class="node">
<title>organizations</title>
<g id="a_node4"><a xlink:href="../../tables/organizations.html" xlink:title="organizations" target="_top">
<polygon fill="#ffffff" stroke="transparent" points="467,-282.9857 467,-343.9857 575,-343.9857 575,-282.9857 467,-282.9857"/>
<polygon fill="#f5f5f5" stroke="transparent" points="467,-320.4857 467,-343.4857 575,-343.4857 575,-320.4857 467,-320.4857"/>
<polygon fill="none" stroke="#000000" points="467,-320.4857 467,-343.4857 575,-343.4857 575,-320.4857 467,-320.4857"/>
<text text-anchor="start" x="471.7976" y="-329.5857" font-family="Helvetica,sans-Serif" font-weight="bold" font-size="11.00" fill="#000000">organizations</text>
<text text-anchor="start" x="540.5219" y="-328.5857" font-family="Helvetica,sans-Serif" font-size="11.00" fill="#000000">[table]</text>
<polygon fill="none" stroke="#000000" points="467,-301.4857 467,-320.4857 575,-320.4857 575,-301.4857 467,-301.4857"/>
<text text-anchor="start" x="470" y="-307.5857" font-family="Helvetica,sans-Serif" font-size="11.00" fill="#000000">...</text>
<polygon fill="#ffffff" stroke="transparent" points="467,-282.4857 467,-301.4857 499,-301.4857 499,-282.4857 467,-282.4857"/>
<polygon fill="none" stroke="#000000" points="467,-282.4857 467,-301.4857 499,-301.4857 499,-282.4857 467,-282.4857"/>
<text text-anchor="start" x="470" y="-288.5857" font-family="Helvetica,sans-Serif" font-size="11.00" fill="#000000">&lt; 4</text>
<polygon fill="#ffffff" stroke="transparent" points="499,-282.4857 499,-301.4857 542,-301.4857 542,-282.4857 499,-282.4857"/>
<polygon fill="none" stroke="#000000" points="499,-282.4857 499,-301.4857 542,-301.4857 542,-282.4857 499,-282.4857"/>
<text text-anchor="start" x="506.6105" y="-288.5857" font-family="Helvetica,sans-Serif" font-size="11.00" fill="#000000">3 rows</text>
<polygon fill="#ffffff" stroke="transparent" points="542,-282.4857 542,-301.4857 575,-301.4857 575,-282.4857 542,-282.4857"/>
<polygon fill="none" stroke="#000000" points="542,-282.4857 542,-301.4857 575,-301.4857 575,-282.4857 542,-282.4857"/>
<text text-anchor="start" x="550.2904" y="-288.5857" font-family="Helvetica,sans-Serif" font-size="11.00" fill="#000000">81 &gt;</text>
</a>
</g>
</g>
<!-- ac_all_applications_scope&#45;&gt;organizations -->
<g id="edge3" class="edge">
<title>ac_all_applications_scope:w&#45;&gt;organizations:e</title>
<path fill="none" stroke="#000000" d="M628.0098,-575.8255C588.4943,-536.909 631.68,-310.4857 575,-310.4857"/>
<polygon fill="#000000" stroke="#000000" points="634.123,-578.3905 640.1071,-584.8054 637.8115,-579.9381 641.5,-581.4857 641.5,-581.4857 641.5,-581.4857 637.8115,-579.9381 642.8929,-578.1661 634.123,-578.3905 634.123,-578.3905"/>
<ellipse fill="none" stroke="#000000" cx="631.1722" cy="-577.1524" rx="3.2" ry="3.2"/>
</g>
<!-- saml_idp_config -->
<g id="node9" class="node">
<title>saml_idp_config</title>
<g id="a_node9"><a xlink:href="../../tables/saml_idp_config.html" xlink:title="saml_idp_config" target="_top">
<polygon fill="#ffffff" stroke="transparent" points="197,-250.9857 197,-399.9857 418,-399.9857 418,-250.9857 197,-250.9857"/>
<polygon fill="#f5f5f5" stroke="transparent" points="197.5,-376.4857 197.5,-399.4857 418.5,-399.4857 418.5,-376.4857 197.5,-376.4857"/>
<polygon fill="none" stroke="#000000" points="197.5,-376.4857 197.5,-399.4857 418.5,-399.4857 418.5,-376.4857 197.5,-376.4857"/>
<text text-anchor="start" x="202.5" y="-385.5857" font-family="Helvetica,sans-Serif" font-weight="bold" font-size="11.00" fill="#000000">saml_idp_config</text>
<text text-anchor="start" x="383.5437" y="-384.5857" font-family="Helvetica,sans-Serif" font-size="11.00" fill="#000000">[table]</text>
<polygon fill="none" stroke="#000000" points="197.5,-354.4857 197.5,-376.4857 418.5,-376.4857 418.5,-354.4857 197.5,-354.4857"/>
<image xlink:href="../../images/primaryKeys.png" width="11px" height="12px" preserveAspectRatio="xMinYMin meet" x="202.5" y="-371.486"/>
<text text-anchor="start" x="217.5" y="-361.5857" font-family="Helvetica,sans-Serif" font-size="11.00" fill="#000000">id</text>
<polygon fill="#ffffff" stroke="transparent" points="197.5,-332.4857 197.5,-354.4857 418.5,-354.4857 418.5,-332.4857 197.5,-332.4857"/>
<polygon fill="none" stroke="#000000" points="197.5,-332.4857 197.5,-354.4857 418.5,-354.4857 418.5,-332.4857 197.5,-332.4857"/>
<image xlink:href="../../images/foreignKeys.png" width="11px" height="12px" preserveAspectRatio="xMinYMin meet" x="202.5" y="-349.486"/>
<text text-anchor="start" x="217.5" y="-339.5857" font-family="Helvetica,sans-Serif" font-size="11.00" fill="#000000">ac_roles_id</text>
<polygon fill="#ffffff" stroke="transparent" points="197.5,-310.4857 197.5,-332.4857 418.5,-332.4857 418.5,-310.4857 197.5,-310.4857"/>
<polygon fill="none" stroke="#000000" points="197.5,-310.4857 197.5,-332.4857 418.5,-332.4857 418.5,-310.4857 197.5,-310.4857"/>
<image xlink:href="../../images/foreignKeys.png" width="11px" height="12px" preserveAspectRatio="xMinYMin meet" x="202.5" y="-327.486"/>
<text text-anchor="start" x="217.5" y="-317.5857" font-family="Helvetica,sans-Serif" font-size="11.00" fill="#000000">ac_group_id</text>
<polygon fill="#ffffff" stroke="transparent" points="197.5,-288.4857 197.5,-310.4857 418.5,-310.4857 418.5,-288.4857 197.5,-288.4857"/>
<polygon fill="none" stroke="#000000" points="197.5,-288.4857 197.5,-310.4857 418.5,-310.4857 418.5,-288.4857 197.5,-288.4857"/>
<image xlink:href="../../images/foreignKeys.png" width="11px" height="12px" preserveAspectRatio="xMinYMin meet" x="202.5" y="-305.486"/>
<text text-anchor="start" x="217.5" y="-295.5857" font-family="Helvetica,sans-Serif" font-size="11.00" fill="#000000">organizations_id</text>
<polygon fill="none" stroke="#000000" points="197.5,-269.4857 197.5,-288.4857 418.5,-288.4857 418.5,-269.4857 197.5,-269.4857"/>
<text text-anchor="start" x="200.5" y="-275.5857" font-family="Helvetica,sans-Serif" font-size="11.00" fill="#000000">...</text>
<polygon fill="#ffffff" stroke="transparent" points="197.5,-250.4857 197.5,-269.4857 288.5,-269.4857 288.5,-250.4857 197.5,-250.4857"/>
<polygon fill="none" stroke="#000000" points="197.5,-250.4857 197.5,-269.4857 288.5,-269.4857 288.5,-250.4857 197.5,-250.4857"/>
<text text-anchor="start" x="200.5" y="-256.5857" font-family="Helvetica,sans-Serif" font-size="11.00" fill="#000000">&lt; 3</text>
<polygon fill="#ffffff" stroke="transparent" points="288.5,-250.4857 288.5,-269.4857 361.5,-269.4857 361.5,-250.4857 288.5,-250.4857"/>
<polygon fill="none" stroke="#000000" points="288.5,-250.4857 288.5,-269.4857 361.5,-269.4857 361.5,-250.4857 288.5,-250.4857"/>
<text text-anchor="start" x="326.1105" y="-256.5857" font-family="Helvetica,sans-Serif" font-size="11.00" fill="#000000">0 rows</text>
<polygon fill="#ffffff" stroke="transparent" points="361.5,-250.4857 361.5,-269.4857 418.5,-269.4857 418.5,-250.4857 361.5,-250.4857"/>
<polygon fill="none" stroke="#000000" points="361.5,-250.4857 361.5,-269.4857 418.5,-269.4857 418.5,-250.4857 361.5,-250.4857"/>
<text text-anchor="start" x="399.9053" y="-256.5857" font-family="Helvetica,sans-Serif" font-size="11.00" fill="#000000">1 &gt;</text>
</a>
</g>
</g>
<!-- organizations&#45;&gt;saml_idp_config -->
<g id="edge13" class="edge">
<title>organizations:w&#45;&gt;saml_idp_config:e</title>
<path fill="none" stroke="#000000" d="M453.2147,-315.5614C438.9325,-329.1771 444.9802,-365.4857 418.5,-365.4857"/>
<polygon fill="#000000" stroke="#000000" points="459.4927,-313.2499 468.2439,-313.864 463.2464,-311.8678 467,-310.4857 467,-310.4857 467,-310.4857 463.2464,-311.8678 465.7561,-307.1075 459.4927,-313.2499 459.4927,-313.2499"/>
<ellipse fill="none" stroke="#000000" cx="456.4898" cy="-314.3556" rx="3.2" ry="3.2"/>
</g>
<!-- ac_groups_ac_scope -->
<g id="node5" class="node">
<title>ac_groups_ac_scope</title>
<g id="a_node5"><a xlink:href="../../tables/ac_groups_ac_scope.html" xlink:title="ac_groups_ac_scope" target="_top">
<polygon fill="#ffffff" stroke="transparent" points="1070,-508.9857 1070,-569.9857 1217,-569.9857 1217,-508.9857 1070,-508.9857"/>
<polygon fill="#f5f5f5" stroke="transparent" points="1070.5,-546.4857 1070.5,-569.4857 1217.5,-569.4857 1217.5,-546.4857 1070.5,-546.4857"/>
<polygon fill="none" stroke="#000000" points="1070.5,-546.4857 1070.5,-569.4857 1217.5,-569.4857 1217.5,-546.4857 1070.5,-546.4857"/>
<text text-anchor="start" x="1075.2297" y="-555.5857" font-family="Helvetica,sans-Serif" font-weight="bold" font-size="11.00" fill="#000000">ac_groups_ac_scope</text>
<text text-anchor="start" x="1183.0219" y="-554.5857" font-family="Helvetica,sans-Serif" font-size="11.00" fill="#000000">[table]</text>
<polygon fill="none" stroke="#000000" points="1070.5,-527.4857 1070.5,-546.4857 1217.5,-546.4857 1217.5,-527.4857 1070.5,-527.4857"/>
<text text-anchor="start" x="1073.5" y="-533.5857" font-family="Helvetica,sans-Serif" font-size="11.00" fill="#000000">...</text>
<polygon fill="#ffffff" stroke="transparent" points="1070.5,-508.4857 1070.5,-527.4857 1129.5,-527.4857 1129.5,-508.4857 1070.5,-508.4857"/>
<polygon fill="none" stroke="#000000" points="1070.5,-508.4857 1070.5,-527.4857 1129.5,-527.4857 1129.5,-508.4857 1070.5,-508.4857"/>
<text text-anchor="start" x="1073.5" y="-514.5857" font-family="Helvetica,sans-Serif" font-size="11.00" fill="#000000">&lt; 2</text>
<polygon fill="#ffffff" stroke="transparent" points="1129.5,-508.4857 1129.5,-527.4857 1186.5,-527.4857 1186.5,-508.4857 1129.5,-508.4857"/>
<polygon fill="none" stroke="#000000" points="1129.5,-508.4857 1129.5,-527.4857 1186.5,-527.4857 1186.5,-508.4857 1129.5,-508.4857"/>
<text text-anchor="start" x="1151.1105" y="-514.5857" font-family="Helvetica,sans-Serif" font-size="11.00" fill="#000000">0 rows</text>
<polygon fill="#ffffff" stroke="transparent" points="1186.5,-508.4857 1186.5,-527.4857 1217.5,-527.4857 1217.5,-508.4857 1186.5,-508.4857"/>
<polygon fill="none" stroke="#000000" points="1186.5,-508.4857 1186.5,-527.4857 1217.5,-527.4857 1217.5,-508.4857 1186.5,-508.4857"/>
<text text-anchor="start" x="1208.3862" y="-514.5857" font-family="Helvetica,sans-Serif" font-size="11.00" fill="#000000"> &#160;</text>
</a>
</g>
</g>
<!-- ac_groups_ac_scope&#45;&gt;ac_groups -->
<g id="edge4" class="edge">
<title>ac_groups_ac_scope:w&#45;&gt;ac_groups:e</title>
<path fill="none" stroke="#000000" d="M1055.887,-537.0431C946.9518,-545.6321 950.5817,-651.1829 839,-692.4857 792.2113,-709.805 777.3912,-705.4857 727.5,-705.4857 727.5,-705.4857 727.5,-705.4857 521,-705.4857 362.0448,-705.4857 329.5263,-646.7765 189,-572.4857 158.7046,-556.4698 159.2684,-529.4857 125,-529.4857"/>
<polygon fill="#000000" stroke="#000000" points="1062.5058,-536.7907 1070.6372,-540.0831 1066.5029,-536.6382 1070.5,-536.4857 1070.5,-536.4857 1070.5,-536.4857 1066.5029,-536.6382 1070.3628,-532.8884 1062.5058,-536.7907 1062.5058,-536.7907"/>
<ellipse fill="none" stroke="#000000" cx="1059.3081" cy="-536.9127" rx="3.2" ry="3.2"/>
</g>
<!-- ac_scope -->
<g id="node6" class="node">
<title>ac_scope</title>
<g id="a_node6"><a xlink:href="../../tables/ac_scope.html" xlink:title="ac_scope" target="_top">
<polygon fill="#ffffff" stroke="transparent" points="892.5,-267.4857 892.5,-397.4857 1008.5,-397.4857 1008.5,-267.4857 892.5,-267.4857"/>
<polygon fill="#f5f5f5" stroke="transparent" points="892.5,-374.4857 892.5,-397.4857 1008.5,-397.4857 1008.5,-374.4857 892.5,-374.4857"/>
<polygon fill="none" stroke="#000000" points="892.5,-374.4857 892.5,-397.4857 1008.5,-397.4857 1008.5,-374.4857 892.5,-374.4857"/>
<text text-anchor="start" x="897.5" y="-383.5857" font-family="Helvetica,sans-Serif" font-weight="bold" font-size="11.00" fill="#000000">ac_scope</text>
<text text-anchor="start" x="973.5437" y="-382.5857" font-family="Helvetica,sans-Serif" font-size="11.00" fill="#000000">[table]</text>
<polygon fill="none" stroke="#000000" points="892.5,-352.4857 892.5,-374.4857 1008.5,-374.4857 1008.5,-352.4857 892.5,-352.4857"/>
<image xlink:href="../../images/primaryKeys.png" width="11px" height="12px" preserveAspectRatio="xMinYMin meet" x="897.5" y="-369.486"/>
<text text-anchor="start" x="912.5" y="-359.5857" font-family="Helvetica,sans-Serif" font-size="11.00" fill="#000000">id</text>
<polygon fill="#ffffff" stroke="transparent" points="892.5,-330.4857 892.5,-352.4857 1008.5,-352.4857 1008.5,-330.4857 892.5,-330.4857"/>
<polygon fill="none" stroke="#000000" points="892.5,-330.4857 892.5,-352.4857 1008.5,-352.4857 1008.5,-330.4857 892.5,-330.4857"/>
<image xlink:href="../../images/foreignKeys.png" width="11px" height="12px" preserveAspectRatio="xMinYMin meet" x="897.5" y="-347.486"/>
<text text-anchor="start" x="912.5" y="-337.5857" font-family="Helvetica,sans-Serif" font-size="11.00" fill="#000000">application_id</text>
<polygon fill="#ffffff" stroke="transparent" points="892.5,-308.4857 892.5,-330.4857 1008.5,-330.4857 1008.5,-308.4857 892.5,-308.4857"/>
<polygon fill="none" stroke="#000000" points="892.5,-308.4857 892.5,-330.4857 1008.5,-330.4857 1008.5,-308.4857 892.5,-308.4857"/>
<image xlink:href="../../images/foreignKeys.png" width="11px" height="12px" preserveAspectRatio="xMinYMin meet" x="897.5" y="-325.486"/>
<text text-anchor="start" x="912.5" y="-315.5857" font-family="Helvetica,sans-Serif" font-size="11.00" fill="#000000">ac_roles_id</text>
<polygon fill="#ffffff" stroke="transparent" points="892.5,-286.4857 892.5,-308.4857 1008.5,-308.4857 1008.5,-286.4857 892.5,-286.4857"/>
<polygon fill="none" stroke="#000000" points="892.5,-286.4857 892.5,-308.4857 1008.5,-308.4857 1008.5,-286.4857 892.5,-286.4857"/>
<image xlink:href="../../images/foreignKeys.png" width="11px" height="12px" preserveAspectRatio="xMinYMin meet" x="897.5" y="-303.486"/>
<text text-anchor="start" x="912.5" y="-293.5857" font-family="Helvetica,sans-Serif" font-size="11.00" fill="#000000">organizations_id</text>
<polygon fill="#ffffff" stroke="transparent" points="892.5,-267.4857 892.5,-286.4857 931.5,-286.4857 931.5,-267.4857 892.5,-267.4857"/>
<polygon fill="none" stroke="#000000" points="892.5,-267.4857 892.5,-286.4857 931.5,-286.4857 931.5,-267.4857 892.5,-267.4857"/>
<text text-anchor="start" x="895.5" y="-273.5857" font-family="Helvetica,sans-Serif" font-size="11.00" fill="#000000">&lt; 3</text>
<polygon fill="#ffffff" stroke="transparent" points="931.5,-267.4857 931.5,-286.4857 978.5,-286.4857 978.5,-267.4857 931.5,-267.4857"/>
<polygon fill="none" stroke="#000000" points="931.5,-267.4857 931.5,-286.4857 978.5,-286.4857 978.5,-267.4857 931.5,-267.4857"/>
<text text-anchor="start" x="943.1105" y="-273.5857" font-family="Helvetica,sans-Serif" font-size="11.00" fill="#000000">0 rows</text>
<polygon fill="#ffffff" stroke="transparent" points="978.5,-267.4857 978.5,-286.4857 1008.5,-286.4857 1008.5,-267.4857 978.5,-267.4857"/>
<polygon fill="none" stroke="#000000" points="978.5,-267.4857 978.5,-286.4857 1008.5,-286.4857 1008.5,-267.4857 978.5,-267.4857"/>
<text text-anchor="start" x="989.9053" y="-273.5857" font-family="Helvetica,sans-Serif" font-size="11.00" fill="#000000">1 &gt;</text>
</a>
</g>
</g>
<!-- ac_groups_ac_scope&#45;&gt;ac_scope -->
<g id="edge5" class="edge">
<title>ac_groups_ac_scope:w&#45;&gt;ac_scope:e</title>
<path fill="none" stroke="#000000" d="M1056.1987,-534.171C1001.8243,-513.6418 1084.5941,-363.4857 1008.5,-363.4857"/>
<polygon fill="#000000" stroke="#000000" points="1062.6028,-535.2075 1069.9248,-540.0395 1066.5514,-535.8466 1070.5,-536.4857 1070.5,-536.4857 1070.5,-536.4857 1066.5514,-535.8466 1071.0752,-532.932 1062.6028,-535.2075 1062.6028,-535.2075"/>
<ellipse fill="none" stroke="#000000" cx="1059.4439" cy="-534.6962" rx="3.2" ry="3.2"/>
</g>
<!-- ac_scope&#45;&gt;ac_roles -->
<g id="edge9" class="edge">
<title>ac_scope:w&#45;&gt;ac_roles:e</title>
<path fill="none" stroke="#000000" d="M878.2253,-317.0586C843.0886,-302.5287 883.724,-226.7085 839,-197.4857 756.0301,-143.2731 714.9863,-192.5142 616,-197.4857 425.5025,-207.0533 371.4557,-184.8913 189,-240.4857 168.2678,-246.8028 167.6732,-263.4857 146,-263.4857"/>
<polygon fill="#000000" stroke="#000000" points="884.6132,-318.1447 891.8965,-323.0348 888.5566,-318.8152 892.5,-319.4857 892.5,-319.4857 892.5,-319.4857 888.5566,-318.8152 893.1035,-315.9367 884.6132,-318.1447 884.6132,-318.1447"/>
<ellipse fill="none" stroke="#000000" cx="881.4585" cy="-317.6083" rx="3.2" ry="3.2"/>
</g>
<!-- ac_scope&#45;&gt;organizations -->
<g id="edge11" class="edge">
<title>ac_scope:w&#45;&gt;organizations:e</title>
<path fill="none" stroke="#000000" d="M877.8217,-297.5024C766.8539,-297.7614 733.7499,-301.0507 616,-307.4857 597.7563,-308.4828 593.2709,-310.4857 575,-310.4857"/>
<polygon fill="#000000" stroke="#000000" points="884.5,-297.4948 892.5041,-301.0857 888.5,-297.4903 892.5,-297.4857 892.5,-297.4857 892.5,-297.4857 888.5,-297.4903 892.4959,-293.8857 884.5,-297.4948 884.5,-297.4948"/>
<ellipse fill="none" stroke="#000000" cx="881.3" cy="-297.4985" rx="3.2" ry="3.2"/>
</g>
<!-- applications -->
<g id="node8" class="node">
<title>applications</title>
<g id="a_node8"><a xlink:href="../../tables/applications.html" xlink:title="applications" target="_top">
<polygon fill="#ffffff" stroke="transparent" points="677,-317.9857 677,-378.9857 778,-378.9857 778,-317.9857 677,-317.9857"/>
<polygon fill="#f5f5f5" stroke="transparent" points="677.5,-355.4857 677.5,-378.4857 778.5,-378.4857 778.5,-355.4857 677.5,-355.4857"/>
<polygon fill="none" stroke="#000000" points="677.5,-355.4857 677.5,-378.4857 778.5,-378.4857 778.5,-355.4857 677.5,-355.4857"/>
<text text-anchor="start" x="682.4655" y="-364.5857" font-family="Helvetica,sans-Serif" font-weight="bold" font-size="11.00" fill="#000000">applications</text>
<text text-anchor="start" x="744.0219" y="-363.5857" font-family="Helvetica,sans-Serif" font-size="11.00" fill="#000000">[table]</text>
<polygon fill="none" stroke="#000000" points="677.5,-336.4857 677.5,-355.4857 778.5,-355.4857 778.5,-336.4857 677.5,-336.4857"/>
<text text-anchor="start" x="680.5" y="-342.5857" font-family="Helvetica,sans-Serif" font-size="11.00" fill="#000000">...</text>
<polygon fill="#ffffff" stroke="transparent" points="677.5,-317.4857 677.5,-336.4857 705.5,-336.4857 705.5,-317.4857 677.5,-317.4857"/>
<polygon fill="none" stroke="#000000" points="677.5,-317.4857 677.5,-336.4857 705.5,-336.4857 705.5,-317.4857 677.5,-317.4857"/>
<text text-anchor="start" x="680.5" y="-323.5857" font-family="Helvetica,sans-Serif" font-size="11.00" fill="#000000">&lt; 3</text>
<polygon fill="#ffffff" stroke="transparent" points="705.5,-317.4857 705.5,-336.4857 747.5,-336.4857 747.5,-317.4857 705.5,-317.4857"/>
<polygon fill="none" stroke="#000000" points="705.5,-317.4857 705.5,-336.4857 747.5,-336.4857 747.5,-317.4857 705.5,-317.4857"/>
<text text-anchor="start" x="712.1105" y="-323.5857" font-family="Helvetica,sans-Serif" font-size="11.00" fill="#000000">0 rows</text>
<polygon fill="#ffffff" stroke="transparent" points="747.5,-317.4857 747.5,-336.4857 778.5,-336.4857 778.5,-317.4857 747.5,-317.4857"/>
<polygon fill="none" stroke="#000000" points="747.5,-317.4857 747.5,-336.4857 778.5,-336.4857 778.5,-317.4857 747.5,-317.4857"/>
<text text-anchor="start" x="753.7904" y="-323.5857" font-family="Helvetica,sans-Serif" font-size="11.00" fill="#000000">57 &gt;</text>
</a>
</g>
</g>
<!-- ac_scope&#45;&gt;applications -->
<g id="edge10" class="edge">
<title>ac_scope:w&#45;&gt;applications:e</title>
<path fill="none" stroke="#000000" d="M877.896,-341.6055C838.7845,-342.271 823.9498,-345.4857 778.5,-345.4857"/>
<polygon fill="#000000" stroke="#000000" points="884.5003,-341.5514 892.5295,-345.0856 888.5001,-341.5186 892.5,-341.4857 892.5,-341.4857 892.5,-341.4857 888.5001,-341.5186 892.4705,-337.8859 884.5003,-341.5514 884.5003,-341.5514"/>
<ellipse fill="none" stroke="#000000" cx="881.3004" cy="-341.5776" rx="3.2" ry="3.2"/>
</g>
<!-- ac_onboard_applications_scope -->
<g id="node7" class="node">
<title>ac_onboard_applications_scope</title>
<g id="a_node7"><a xlink:href="../../tables/ac_onboard_applications_scope.html" xlink:title="ac_onboard_applications_scope" target="_top">
<polygon fill="#ffffff" stroke="transparent" points="624,-400.4857 624,-530.4857 831,-530.4857 831,-400.4857 624,-400.4857"/>
<polygon fill="#f5f5f5" stroke="transparent" points="624.5,-507.4857 624.5,-530.4857 831.5,-530.4857 831.5,-507.4857 624.5,-507.4857"/>
<polygon fill="none" stroke="#000000" points="624.5,-507.4857 624.5,-530.4857 831.5,-530.4857 831.5,-507.4857 624.5,-507.4857"/>
<text text-anchor="start" x="629.5" y="-516.5857" font-family="Helvetica,sans-Serif" font-weight="bold" font-size="11.00" fill="#000000">ac_onboard_applications_scope</text>
<text text-anchor="start" x="796.5437" y="-515.5857" font-family="Helvetica,sans-Serif" font-size="11.00" fill="#000000">[table]</text>
<polygon fill="none" stroke="#000000" points="624.5,-485.4857 624.5,-507.4857 831.5,-507.4857 831.5,-485.4857 624.5,-485.4857"/>
<image xlink:href="../../images/primaryKeys.png" width="11px" height="12px" preserveAspectRatio="xMinYMin meet" x="629.5" y="-502.486"/>
<text text-anchor="start" x="644.5" y="-492.5857" font-family="Helvetica,sans-Serif" font-size="11.00" fill="#000000">id</text>
<polygon fill="#ffffff" stroke="transparent" points="624.5,-463.4857 624.5,-485.4857 831.5,-485.4857 831.5,-463.4857 624.5,-463.4857"/>
<polygon fill="none" stroke="#000000" points="624.5,-463.4857 624.5,-485.4857 831.5,-485.4857 831.5,-463.4857 624.5,-463.4857"/>
<image xlink:href="../../images/foreignKeys.png" width="11px" height="12px" preserveAspectRatio="xMinYMin meet" x="629.5" y="-480.486"/>
<text text-anchor="start" x="644.5" y="-470.5857" font-family="Helvetica,sans-Serif" font-size="11.00" fill="#000000">ac_group_id</text>
<polygon fill="#ffffff" stroke="transparent" points="624.5,-441.4857 624.5,-463.4857 831.5,-463.4857 831.5,-441.4857 624.5,-441.4857"/>
<polygon fill="none" stroke="#000000" points="624.5,-441.4857 624.5,-463.4857 831.5,-463.4857 831.5,-441.4857 624.5,-441.4857"/>
<image xlink:href="../../images/foreignKeys.png" width="11px" height="12px" preserveAspectRatio="xMinYMin meet" x="629.5" y="-458.486"/>
<text text-anchor="start" x="644.5" y="-448.5857" font-family="Helvetica,sans-Serif" font-size="11.00" fill="#000000">ac_roles_id</text>
<polygon fill="#ffffff" stroke="transparent" points="624.5,-419.4857 624.5,-441.4857 831.5,-441.4857 831.5,-419.4857 624.5,-419.4857"/>
<polygon fill="none" stroke="#000000" points="624.5,-419.4857 624.5,-441.4857 831.5,-441.4857 831.5,-419.4857 624.5,-419.4857"/>
<image xlink:href="../../images/foreignKeys.png" width="11px" height="12px" preserveAspectRatio="xMinYMin meet" x="629.5" y="-436.486"/>
<text text-anchor="start" x="644.5" y="-426.5857" font-family="Helvetica,sans-Serif" font-size="11.00" fill="#000000">organizations_id</text>
<polygon fill="#ffffff" stroke="transparent" points="624.5,-400.4857 624.5,-419.4857 713.5,-419.4857 713.5,-400.4857 624.5,-400.4857"/>
<polygon fill="none" stroke="#000000" points="624.5,-400.4857 624.5,-419.4857 713.5,-419.4857 713.5,-400.4857 624.5,-400.4857"/>
<text text-anchor="start" x="627.5" y="-406.5857" font-family="Helvetica,sans-Serif" font-size="11.00" fill="#000000">&lt; 3</text>
<polygon fill="#ffffff" stroke="transparent" points="713.5,-400.4857 713.5,-419.4857 785.5,-419.4857 785.5,-400.4857 713.5,-400.4857"/>
<polygon fill="none" stroke="#000000" points="713.5,-400.4857 713.5,-419.4857 785.5,-419.4857 785.5,-400.4857 713.5,-400.4857"/>
<text text-anchor="start" x="750.1105" y="-406.5857" font-family="Helvetica,sans-Serif" font-size="11.00" fill="#000000">0 rows</text>
<polygon fill="#ffffff" stroke="transparent" points="785.5,-400.4857 785.5,-419.4857 831.5,-419.4857 831.5,-400.4857 785.5,-400.4857"/>
<polygon fill="none" stroke="#000000" points="785.5,-400.4857 785.5,-419.4857 831.5,-419.4857 831.5,-400.4857 785.5,-400.4857"/>
<text text-anchor="start" x="822.3862" y="-406.5857" font-family="Helvetica,sans-Serif" font-size="11.00" fill="#000000"> &#160;</text>
</a>
</g>
</g>
<!-- ac_onboard_applications_scope&#45;&gt;ac_groups -->
<g id="edge6" class="edge">
<title>ac_onboard_applications_scope:w&#45;&gt;ac_groups:e</title>
<path fill="none" stroke="#000000" d="M610.0211,-474.5642C398.7549,-476.8762 343.4343,-529.4857 125,-529.4857"/>
<polygon fill="#000000" stroke="#000000" points="616.5001,-474.5292 624.5195,-478.0857 620.5001,-474.5075 624.5,-474.4857 624.5,-474.4857 624.5,-474.4857 620.5001,-474.5075 624.4805,-470.8858 616.5001,-474.5292 616.5001,-474.5292"/>
<ellipse fill="none" stroke="#000000" cx="613.3002" cy="-474.5465" rx="3.2" ry="3.2"/>
</g>
<!-- ac_onboard_applications_scope&#45;&gt;ac_roles -->
<g id="edge7" class="edge">
<title>ac_onboard_applications_scope:w&#45;&gt;ac_roles:e</title>
<path fill="none" stroke="#000000" d="M609.8851,-452.6395C425.3763,-456.5147 335.0211,-531.2925 189,-410.4857 136.5516,-367.094 214.0711,-263.4857 146,-263.4857"/>
<polygon fill="#000000" stroke="#000000" points="616.5004,-452.57 624.5379,-456.0855 620.5002,-452.5279 624.5,-452.4857 624.5,-452.4857 624.5,-452.4857 620.5002,-452.5279 624.4621,-448.8859 616.5004,-452.57 616.5004,-452.57"/>
<ellipse fill="none" stroke="#000000" cx="613.3006" cy="-452.6037" rx="3.2" ry="3.2"/>
</g>
<!-- ac_onboard_applications_scope&#45;&gt;organizations -->
<g id="edge8" class="edge">
<title>ac_onboard_applications_scope:w&#45;&gt;organizations:e</title>
<path fill="none" stroke="#000000" d="M610.4869,-427.0238C578.9156,-407.3485 626.8333,-310.4857 575,-310.4857"/>
<polygon fill="#000000" stroke="#000000" points="616.7335,-428.567 623.6366,-433.9807 620.6168,-429.5264 624.5,-430.4857 624.5,-430.4857 624.5,-430.4857 620.6168,-429.5264 625.3634,-426.9908 616.7335,-428.567 616.7335,-428.567"/>
<ellipse fill="none" stroke="#000000" cx="613.6269" cy="-427.7995" rx="3.2" ry="3.2"/>
</g>
<!-- applications&#45;&gt;organizations -->
<g id="edge12" class="edge">
<title>applications:w&#45;&gt;organizations:e</title>
<path fill="none" stroke="#000000" d="M663.0992,-344.3212C627.499,-338.2482 617.8731,-310.4857 575,-310.4857"/>
<polygon fill="#000000" stroke="#000000" points="669.526,-344.8409 677.2098,-349.074 673.513,-345.1633 677.5,-345.4857 677.5,-345.4857 677.5,-345.4857 673.513,-345.1633 677.7902,-341.8975 669.526,-344.8409 669.526,-344.8409"/>
<ellipse fill="none" stroke="#000000" cx="666.3364" cy="-344.5829" rx="3.2" ry="3.2"/>
</g>
<!-- saml_idp_config&#45;&gt;ac_groups -->
<g id="edge14" class="edge">
<title>saml_idp_config:w&#45;&gt;ac_groups:e</title>
<path fill="none" stroke="#000000" d="M182.9133,-323.412C112.8586,-344.3809 217.3541,-529.4857 125,-529.4857"/>
<polygon fill="#000000" stroke="#000000" points="189.5689,-322.5332 197.9713,-325.0548 193.5344,-322.0095 197.5,-321.4857 197.5,-321.4857 197.5,-321.4857 193.5344,-322.0095 197.0287,-317.9167 189.5689,-322.5332 189.5689,-322.5332"/>
<ellipse fill="none" stroke="#000000" cx="186.3964" cy="-322.9521" rx="3.2" ry="3.2"/>
</g>
<!-- saml_idp_config&#45;&gt;ac_roles -->
<g id="edge15" class="edge">
<title>saml_idp_config:w&#45;&gt;ac_roles:e</title>
<path fill="none" stroke="#000000" d="M183.7122,-339.1846C163.0253,-322.5678 182.3395,-263.4857 146,-263.4857"/>
<polygon fill="#000000" stroke="#000000" points="189.863,-341.1033 196.4279,-346.9224 193.6815,-342.2945 197.5,-343.4857 197.5,-343.4857 197.5,-343.4857 193.6815,-342.2945 198.5721,-340.0491 189.863,-341.1033 189.863,-341.1033"/>
<ellipse fill="none" stroke="#000000" cx="186.8082" cy="-340.1503" rx="3.2" ry="3.2"/>
</g>
<!-- saml_idp_config&#45;&gt;organizations -->
<g id="edge16" class="edge">
<title>saml_idp_config:w&#45;&gt;organizations:e</title>
<path fill="none" stroke="#000000" d="M211.7937,-296.2016C261.8179,-284.7081 426,-246.9857 426,-246.9857 493.3537,-254.1368 532.4303,-226.3029 575,-278.9857 583.799,-289.8751 589,-310.4857 575,-310.4857"/>
<polygon fill="#000000" stroke="#000000" points="205.2969,-297.6943 196.6939,-295.9772 201.3984,-298.59 197.5,-299.4857 197.5,-299.4857 197.5,-299.4857 201.3984,-298.59 198.3061,-302.9943 205.2969,-297.6943 205.2969,-297.6943"/>
<ellipse fill="none" stroke="#000000" cx="208.4156" cy="-296.9777" rx="3.2" ry="3.2"/>
</g>
<!-- users -->
<g id="node10" class="node">
<title>users</title>
<g id="a_node10"><a xlink:href="../../tables/users.html" xlink:title="users" target="_top">
<polygon fill="#ffffff" stroke="transparent" points="684.5,-207.9857 684.5,-268.9857 770.5,-268.9857 770.5,-207.9857 684.5,-207.9857"/>
<polygon fill="#f5f5f5" stroke="transparent" points="684.5,-245.4857 684.5,-268.4857 770.5,-268.4857 770.5,-245.4857 684.5,-245.4857"/>
<polygon fill="none" stroke="#000000" points="684.5,-245.4857 684.5,-268.4857 770.5,-268.4857 770.5,-245.4857 684.5,-245.4857"/>
<text text-anchor="start" x="689.5" y="-254.5857" font-family="Helvetica,sans-Serif" font-weight="bold" font-size="11.00" fill="#000000">users</text>
<text text-anchor="start" x="735.5437" y="-253.5857" font-family="Helvetica,sans-Serif" font-size="11.00" fill="#000000">[table]</text>
<polygon fill="none" stroke="#000000" points="684.5,-226.4857 684.5,-245.4857 770.5,-245.4857 770.5,-226.4857 684.5,-226.4857"/>
<text text-anchor="start" x="687.5" y="-232.5857" font-family="Helvetica,sans-Serif" font-size="11.00" fill="#000000">...</text>
<polygon fill="#ffffff" stroke="transparent" points="684.5,-207.4857 684.5,-226.4857 705.5,-226.4857 705.5,-207.4857 684.5,-207.4857"/>
<polygon fill="none" stroke="#000000" points="684.5,-207.4857 684.5,-226.4857 705.5,-226.4857 705.5,-207.4857 684.5,-207.4857"/>
<text text-anchor="start" x="687.2026" y="-213.5857" font-family="Helvetica,sans-Serif" font-size="11.00" fill="#000000">&lt; 1</text>
<polygon fill="#ffffff" stroke="transparent" points="705.5,-207.4857 705.5,-226.4857 743.5,-226.4857 743.5,-207.4857 705.5,-207.4857"/>
<polygon fill="none" stroke="#000000" points="705.5,-207.4857 705.5,-226.4857 743.5,-226.4857 743.5,-207.4857 705.5,-207.4857"/>
<text text-anchor="start" x="708.3053" y="-213.5857" font-family="Helvetica,sans-Serif" font-size="11.00" fill="#000000">6 rows</text>
<polygon fill="#ffffff" stroke="transparent" points="743.5,-207.4857 743.5,-226.4857 770.5,-226.4857 770.5,-207.4857 743.5,-207.4857"/>
<polygon fill="none" stroke="#000000" points="743.5,-207.4857 743.5,-226.4857 770.5,-226.4857 770.5,-207.4857 743.5,-207.4857"/>
<text text-anchor="start" x="746.1452" y="-213.5857" font-family="Helvetica,sans-Serif" font-size="11.00" fill="#000000">33 &gt;</text>
</a>
</g>
</g>
<!-- users&#45;&gt;organizations -->
<g id="edge17" class="edge">
<title>users:w&#45;&gt;organizations:e</title>
<path fill="none" stroke="#000000" d="M671.8877,-242.6771C644.0551,-261.449 580.9621,-310.4857 575,-310.4857"/>
<polygon fill="#000000" stroke="#000000" points="677.5503,-239.4484 686.2832,-238.6131 681.0252,-237.467 684.5,-235.4857 684.5,-235.4857 684.5,-235.4857 681.0252,-237.467 682.7168,-232.3584 677.5503,-239.4484 677.5503,-239.4484"/>
<ellipse fill="none" stroke="#000000" cx="674.7704" cy="-241.0334" rx="3.2" ry="3.2"/>
</g>
<!-- users_organizations -->
<g id="node11" class="node">
<title>users_organizations</title>
<g id="a_node11"><a xlink:href="../../tables/users_organizations.html" xlink:title="users_organizations" target="_top">
<polygon fill="#ffffff" stroke="transparent" points="880,-60.9857 880,-231.9857 1021,-231.9857 1021,-60.9857 880,-60.9857"/>
<polygon fill="#f5f5f5" stroke="transparent" points="880.5,-208.4857 880.5,-231.4857 1021.5,-231.4857 1021.5,-208.4857 880.5,-208.4857"/>
<polygon fill="none" stroke="#000000" points="880.5,-208.4857 880.5,-231.4857 1021.5,-231.4857 1021.5,-208.4857 880.5,-208.4857"/>
<text text-anchor="start" x="885.2943" y="-217.5857" font-family="Helvetica,sans-Serif" font-weight="bold" font-size="11.00" fill="#000000">users_organizations</text>
<text text-anchor="start" x="987.0219" y="-216.5857" font-family="Helvetica,sans-Serif" font-size="11.00" fill="#000000">[table]</text>
<polygon fill="none" stroke="#000000" points="880.5,-186.4857 880.5,-208.4857 1021.5,-208.4857 1021.5,-186.4857 880.5,-186.4857"/>
<image xlink:href="../../images/primaryKeys.png" width="11px" height="12px" preserveAspectRatio="xMinYMin meet" x="885.5" y="-203.486"/>
<text text-anchor="start" x="902.5" y="-193.5857" font-family="Helvetica,sans-Serif" font-size="11.00" fill="#000000">id</text>
<polygon fill="#ffffff" stroke="transparent" points="880.5,-164.4857 880.5,-186.4857 1021.5,-186.4857 1021.5,-164.4857 880.5,-164.4857"/>
<polygon fill="none" stroke="#000000" points="880.5,-164.4857 880.5,-186.4857 1021.5,-186.4857 1021.5,-164.4857 880.5,-164.4857"/>
<image xlink:href="../../images/foreignKeys.png" width="11px" height="12px" preserveAspectRatio="xMinYMin meet" x="885.5" y="-181.486"/>
<text text-anchor="start" x="902.5" y="-171.5857" font-family="Helvetica,sans-Serif" font-size="11.00" fill="#000000">users_id</text>
<polygon fill="#ffffff" stroke="transparent" points="880.5,-142.4857 880.5,-164.4857 1021.5,-164.4857 1021.5,-142.4857 880.5,-142.4857"/>
<polygon fill="none" stroke="#000000" points="880.5,-142.4857 880.5,-164.4857 1021.5,-164.4857 1021.5,-142.4857 880.5,-142.4857"/>
<image xlink:href="../../images/foreignKeys.png" width="11px" height="12px" preserveAspectRatio="xMinYMin meet" x="885.5" y="-159.486"/>
<text text-anchor="start" x="902.5" y="-149.5857" font-family="Helvetica,sans-Serif" font-size="11.00" fill="#000000">organizations_id</text>
<polygon fill="#ffffff" stroke="transparent" points="880.5,-120.4857 880.5,-142.4857 1021.5,-142.4857 1021.5,-120.4857 880.5,-120.4857"/>
<polygon fill="none" stroke="#000000" points="880.5,-120.4857 880.5,-142.4857 1021.5,-142.4857 1021.5,-120.4857 880.5,-120.4857"/>
<image xlink:href="../../images/foreignKeys.png" width="11px" height="12px" preserveAspectRatio="xMinYMin meet" x="885.5" y="-137.486"/>
<text text-anchor="start" x="902.5" y="-127.5857" font-family="Helvetica,sans-Serif" font-size="11.00" fill="#000000">user_roles_id</text>
<polygon fill="#ffffff" stroke="transparent" points="880.5,-98.4857 880.5,-120.4857 1021.5,-120.4857 1021.5,-98.4857 880.5,-98.4857"/>
<polygon fill="none" stroke="#000000" points="880.5,-98.4857 880.5,-120.4857 1021.5,-120.4857 1021.5,-98.4857 880.5,-98.4857"/>
<image xlink:href="../../images/foreignKeys.png" width="11px" height="12px" preserveAspectRatio="xMinYMin meet" x="885.5" y="-115.486"/>
<text text-anchor="start" x="902.5" y="-105.5857" font-family="Helvetica,sans-Serif" font-size="11.00" fill="#000000">effective_roles_id</text>
<polygon fill="none" stroke="#000000" points="880.5,-79.4857 880.5,-98.4857 1021.5,-98.4857 1021.5,-79.4857 880.5,-79.4857"/>
<text text-anchor="start" x="883.5" y="-85.5857" font-family="Helvetica,sans-Serif" font-size="11.00" fill="#000000">...</text>
<polygon fill="#ffffff" stroke="transparent" points="880.5,-60.4857 880.5,-79.4857 936.5,-79.4857 936.5,-60.4857 880.5,-60.4857"/>
<polygon fill="none" stroke="#000000" points="880.5,-60.4857 880.5,-79.4857 936.5,-79.4857 936.5,-60.4857 880.5,-60.4857"/>
<text text-anchor="start" x="883.5" y="-66.5857" font-family="Helvetica,sans-Serif" font-size="11.00" fill="#000000">&lt; 4</text>
<polygon fill="#ffffff" stroke="transparent" points="936.5,-60.4857 936.5,-79.4857 991.5,-79.4857 991.5,-60.4857 936.5,-60.4857"/>
<polygon fill="none" stroke="#000000" points="936.5,-60.4857 936.5,-79.4857 991.5,-79.4857 991.5,-60.4857 936.5,-60.4857"/>
<text text-anchor="start" x="956.1105" y="-66.5857" font-family="Helvetica,sans-Serif" font-size="11.00" fill="#000000">6 rows</text>
<polygon fill="#ffffff" stroke="transparent" points="991.5,-60.4857 991.5,-79.4857 1021.5,-79.4857 1021.5,-60.4857 991.5,-60.4857"/>
<polygon fill="none" stroke="#000000" points="991.5,-60.4857 991.5,-79.4857 1021.5,-79.4857 1021.5,-60.4857 991.5,-60.4857"/>
<text text-anchor="start" x="1012.3862" y="-66.5857" font-family="Helvetica,sans-Serif" font-size="11.00" fill="#000000"> &#160;</text>
</a>
</g>
</g>
<!-- users_organizations&#45;&gt;ac_roles -->
<g id="edge18" class="edge">
<title>users_organizations:w&#45;&gt;ac_roles:e</title>
<path fill="none" stroke="#000000" d="M865.772,-109.3514C568.6278,-103.9266 430.1959,62.9369 189,-119.4857 135.7282,-159.7766 212.7925,-263.4857 146,-263.4857"/>
<polygon fill="#000000" stroke="#000000" points="872.5003,-109.4127 880.4671,-113.0856 876.5002,-109.4492 880.5,-109.4857 880.5,-109.4857 880.5,-109.4857 876.5002,-109.4492 880.5329,-105.8859 872.5003,-109.4127 872.5003,-109.4127"/>
<ellipse fill="none" stroke="#000000" cx="869.3005" cy="-109.3835" rx="3.2" ry="3.2"/>
</g>
<!-- users_organizations&#45;&gt;ac_roles -->
<g id="edge20" class="edge">
<title>users_organizations:w&#45;&gt;ac_roles:e</title>
<path fill="none" stroke="#000000" d="M865.8284,-131.3679C701.9682,-128.9042 312.4146,-89.485 189,-173.4857 152.3524,-198.4295 190.331,-263.4857 146,-263.4857"/>
<polygon fill="#000000" stroke="#000000" points="872.5003,-131.4215 880.4711,-135.0856 876.5001,-131.4536 880.5,-131.4857 880.5,-131.4857 880.5,-131.4857 876.5001,-131.4536 880.5289,-127.8859 872.5003,-131.4215 872.5003,-131.4215"/>
<ellipse fill="none" stroke="#000000" cx="869.3004" cy="-131.3957" rx="3.2" ry="3.2"/>
</g>
<!-- users_organizations&#45;&gt;organizations -->
<g id="edge19" class="edge">
<title>users_organizations:w&#45;&gt;organizations:e</title>
<path fill="none" stroke="#000000" d="M865.8259,-153.3258C756.7516,-150.9722 703.7747,-124.4812 616,-197.4857 574.9247,-231.6492 628.4258,-310.4857 575,-310.4857"/>
<polygon fill="#000000" stroke="#000000" points="872.5005,-153.3985 880.4607,-157.0855 876.5002,-153.4421 880.5,-153.4857 880.5,-153.4857 880.5,-153.4857 876.5002,-153.4421 880.5393,-149.886 872.5005,-153.3985 872.5005,-153.3985"/>
<ellipse fill="none" stroke="#000000" cx="869.3007" cy="-153.3636" rx="3.2" ry="3.2"/>
</g>
<!-- users_organizations&#45;&gt;users -->
<g id="edge21" class="edge">
<title>users_organizations:w&#45;&gt;users:e</title>
<path fill="none" stroke="#000000" d="M865.9792,-177.0292C824.5523,-186.4206 820.8591,-235.4857 770.5,-235.4857"/>
<polygon fill="#000000" stroke="#000000" points="872.5448,-176.3314 880.8805,-179.0656 876.5224,-175.9086 880.5,-175.4857 880.5,-175.4857 880.5,-175.4857 876.5224,-175.9086 880.1195,-171.9059 872.5448,-176.3314 872.5448,-176.3314"/>
<ellipse fill="none" stroke="#000000" cx="869.3627" cy="-176.6696" rx="3.2" ry="3.2"/>
</g>
</g>
</svg>
