<?xml version="1.0" encoding="UTF-8" standalone="no"?>
<!DOCTYPE svg PUBLIC "-//W3C//DTD SVG 1.1//EN"
 "http://www.w3.org/Graphics/SVG/1.1/DTD/svg11.dtd">
<!-- Generated by graphviz version 2.40.1 (20161225.0304)
 -->
<!-- Title: oneDegreeRelationshipsDiagram Pages: 1 -->
<svg width="469pt" height="369pt"
 viewBox="0.00 0.00 469.00 369.20" xmlns="http://www.w3.org/2000/svg" xmlns:xlink="http://www.w3.org/1999/xlink">
<g id="graph0" class="graph" transform="scale(1 1) rotate(0) translate(4 365.2)">
<title>oneDegreeRelationshipsDiagram</title>
<polygon fill="#ffffff" stroke="transparent" points="-4,4 -4,-365.2 465,-365.2 465,4 -4,4"/>
<text text-anchor="middle" x="72.4936" y="-7.3" font-family="Helvetica,sans-Serif" font-size="11.00" fill="#000000">Generated by SchemaSpy</text>
<!-- agent_message_source_name -->
<g id="node1" class="node">
<title>agent_message_source_name</title>
<g id="a_node1"><a xlink:href="../../tables/agent_message_source_name.html" xlink:title="agent_message_source_name" target="_top">
<polygon fill="#ffffff" stroke="transparent" points="204,-194.7 204,-306.7 453,-306.7 453,-194.7 204,-194.7"/>
<polygon fill="#f5f5f5" stroke="transparent" points="206.5,-281.7 206.5,-304.7 451.5,-304.7 451.5,-281.7 206.5,-281.7"/>
<polygon fill="none" stroke="#000000" points="206.5,-281.7 206.5,-304.7 451.5,-304.7 451.5,-281.7 206.5,-281.7"/>
<text text-anchor="start" x="211.5" y="-290.8" font-family="Helvetica,sans-Serif" font-weight="bold" font-size="11.00" fill="#000000">agent_message_source_name</text>
<text text-anchor="start" x="416.5437" y="-289.8" font-family="Helvetica,sans-Serif" font-size="11.00" fill="#000000">[table]</text>
<polygon fill="none" stroke="#000000" points="206.5,-259.7 206.5,-281.7 401.5,-281.7 401.5,-259.7 206.5,-259.7"/>
<image xlink:href="../../images/primaryKeys.png" width="11px" height="12px" preserveAspectRatio="xMinYMin meet" x="211.5" y="-276.7"/>
<text text-anchor="start" x="226.5" y="-266.8" font-family="Helvetica,sans-Serif" font-size="11.00" fill="#000000">id</text>
<polygon fill="none" stroke="#000000" points="401.5,-259.7 401.5,-281.7 451.5,-281.7 451.5,-259.7 401.5,-259.7"/>
<text text-anchor="start" x="404.1865" y="-267.4" font-family="Helvetica,sans-Serif" font-size="11.00" fill="#000000">bigint[19]</text>
<polygon fill="#ffffff" stroke="transparent" points="206.5,-237.7 206.5,-259.7 401.5,-259.7 401.5,-237.7 206.5,-237.7"/>
<polygon fill="none" stroke="#000000" points="206.5,-237.7 206.5,-259.7 401.5,-259.7 401.5,-237.7 206.5,-237.7"/>
<image xlink:href="../../images/foreignKeys.png" width="11px" height="12px" preserveAspectRatio="xMinYMin meet" x="211.5" y="-254.7"/>
<text text-anchor="start" x="226.5" y="-244.8" font-family="Helvetica,sans-Serif" font-size="11.00" fill="#000000">agent_message_id</text>
<polygon fill="none" stroke="#000000" points="401.5,-237.7 401.5,-259.7 451.5,-259.7 451.5,-237.7 401.5,-237.7"/>
<text text-anchor="start" x="404.1865" y="-245.4" font-family="Helvetica,sans-Serif" font-size="11.00" fill="#000000">bigint[19]</text>
<polygon fill="#ffffff" stroke="transparent" points="206.5,-215.7 206.5,-237.7 401.5,-237.7 401.5,-215.7 206.5,-215.7"/>
<polygon fill="none" stroke="#000000" points="206.5,-215.7 206.5,-237.7 401.5,-237.7 401.5,-215.7 206.5,-215.7"/>
<image xlink:href="../../images/foreignKeys.png" width="11px" height="12px" preserveAspectRatio="xMinYMin meet" x="211.5" y="-232.7"/>
<text text-anchor="start" x="226.5" y="-222.8" font-family="Helvetica,sans-Serif" font-size="11.00" fill="#000000">source_name_id</text>
<polygon fill="none" stroke="#000000" points="401.5,-215.7 401.5,-237.7 451.5,-237.7 451.5,-215.7 401.5,-215.7"/>
<text text-anchor="start" x="404.1865" y="-223.4" font-family="Helvetica,sans-Serif" font-size="11.00" fill="#000000">bigint[19]</text>
<polygon fill="#ffffff" stroke="transparent" points="206.5,-196.7 206.5,-215.7 295.5,-215.7 295.5,-196.7 206.5,-196.7"/>
<polygon fill="none" stroke="#000000" points="206.5,-196.7 206.5,-215.7 295.5,-215.7 295.5,-196.7 206.5,-196.7"/>
<text text-anchor="start" x="209.5" y="-202.8" font-family="Helvetica,sans-Serif" font-size="11.00" fill="#000000">&lt; 2</text>
<polygon fill="#ffffff" stroke="transparent" points="295.5,-196.7 295.5,-215.7 401.5,-215.7 401.5,-196.7 295.5,-196.7"/>
<polygon fill="none" stroke="#000000" points="295.5,-196.7 295.5,-215.7 401.5,-215.7 401.5,-196.7 295.5,-196.7"/>
<text text-anchor="start" x="366.1105" y="-202.8" font-family="Helvetica,sans-Serif" font-size="11.00" fill="#000000">0 rows</text>
<polygon fill="#ffffff" stroke="transparent" points="401.5,-196.7 401.5,-215.7 451.5,-215.7 451.5,-196.7 401.5,-196.7"/>
<polygon fill="none" stroke="#000000" points="401.5,-196.7 401.5,-215.7 451.5,-215.7 451.5,-196.7 401.5,-196.7"/>
<text text-anchor="start" x="432.9053" y="-202.8" font-family="Helvetica,sans-Serif" font-size="11.00" fill="#000000">0 &gt;</text>
<polygon fill="none" stroke="#000000" stroke-width="2" points="205,-195.7 205,-305.7 452,-305.7 452,-195.7 205,-195.7"/>
</a>
</g>
</g>
<!-- rasp_messages -->
<g id="node2" class="node">
<title>rasp_messages</title>
<g id="a_node2"><a xlink:href="../../tables/rasp_messages.html" xlink:title="rasp_messages" target="_top">
<polygon fill="#ffffff" stroke="transparent" points="8,-208.2 8,-357.2 155,-357.2 155,-208.2 8,-208.2"/>
<polygon fill="#f5f5f5" stroke="transparent" points="8.5,-333.7 8.5,-356.7 155.5,-356.7 155.5,-333.7 8.5,-333.7"/>
<polygon fill="none" stroke="#000000" points="8.5,-333.7 8.5,-356.7 155.5,-356.7 155.5,-333.7 8.5,-333.7"/>
<text text-anchor="start" x="13.5" y="-342.8" font-family="Helvetica,sans-Serif" font-weight="bold" font-size="11.00" fill="#000000">rasp_messages</text>
<text text-anchor="start" x="120.5437" y="-341.8" font-family="Helvetica,sans-Serif" font-size="11.00" fill="#000000">[table]</text>
<polygon fill="none" stroke="#000000" points="8.5,-311.7 8.5,-333.7 155.5,-333.7 155.5,-311.7 8.5,-311.7"/>
<image xlink:href="../../images/primaryKeys.png" width="11px" height="12px" preserveAspectRatio="xMinYMin meet" x="13.5" y="-328.7"/>
<text text-anchor="start" x="28.5" y="-318.8" font-family="Helvetica,sans-Serif" font-size="11.00" fill="#000000">id</text>
<polygon fill="#ffffff" stroke="transparent" points="8.5,-289.7 8.5,-311.7 155.5,-311.7 155.5,-289.7 8.5,-289.7"/>
<polygon fill="none" stroke="#000000" points="8.5,-289.7 8.5,-311.7 155.5,-311.7 155.5,-289.7 8.5,-289.7"/>
<image xlink:href="../../images/foreignKeys.png" width="11px" height="12px" preserveAspectRatio="xMinYMin meet" x="13.5" y="-306.7"/>
<text text-anchor="start" x="28.5" y="-296.8" font-family="Helvetica,sans-Serif" font-size="11.00" fill="#000000">servers_id</text>
<polygon fill="#ffffff" stroke="transparent" points="8.5,-267.7 8.5,-289.7 155.5,-289.7 155.5,-267.7 8.5,-267.7"/>
<polygon fill="none" stroke="#000000" points="8.5,-267.7 8.5,-289.7 155.5,-289.7 155.5,-267.7 8.5,-267.7"/>
<image xlink:href="../../images/foreignKeys.png" width="11px" height="12px" preserveAspectRatio="xMinYMin meet" x="13.5" y="-284.7"/>
<text text-anchor="start" x="28.5" y="-274.8" font-family="Helvetica,sans-Serif" font-size="11.00" fill="#000000">applications_id</text>
<polygon fill="#ffffff" stroke="transparent" points="8.5,-245.7 8.5,-267.7 155.5,-267.7 155.5,-245.7 8.5,-245.7"/>
<polygon fill="none" stroke="#000000" points="8.5,-245.7 8.5,-267.7 155.5,-267.7 155.5,-245.7 8.5,-245.7"/>
<text text-anchor="start" x="28.5" y="-252.8" font-family="Helvetica,sans-Serif" font-size="11.00" fill="#000000">display_source_ip</text>
<polygon fill="none" stroke="#000000" points="8.5,-226.7 8.5,-245.7 155.5,-245.7 155.5,-226.7 8.5,-226.7"/>
<text text-anchor="start" x="11.5" y="-232.8" font-family="Helvetica,sans-Serif" font-size="11.00" fill="#000000">...</text>
<polygon fill="#ffffff" stroke="transparent" points="8.5,-207.7 8.5,-226.7 62.5,-226.7 62.5,-207.7 8.5,-207.7"/>
<polygon fill="none" stroke="#000000" points="8.5,-207.7 8.5,-226.7 62.5,-226.7 62.5,-207.7 8.5,-207.7"/>
<text text-anchor="start" x="11.5" y="-213.8" font-family="Helvetica,sans-Serif" font-size="11.00" fill="#000000">&lt; 2</text>
<polygon fill="#ffffff" stroke="transparent" points="62.5,-207.7 62.5,-226.7 117.5,-226.7 117.5,-207.7 62.5,-207.7"/>
<polygon fill="none" stroke="#000000" points="62.5,-207.7 62.5,-226.7 117.5,-226.7 117.5,-207.7 62.5,-207.7"/>
<text text-anchor="start" x="82.1105" y="-213.8" font-family="Helvetica,sans-Serif" font-size="11.00" fill="#000000">0 rows</text>
<polygon fill="#ffffff" stroke="transparent" points="117.5,-207.7 117.5,-226.7 155.5,-226.7 155.5,-207.7 117.5,-207.7"/>
<polygon fill="none" stroke="#000000" points="117.5,-207.7 117.5,-226.7 155.5,-226.7 155.5,-207.7 117.5,-207.7"/>
<text text-anchor="start" x="136.9053" y="-213.8" font-family="Helvetica,sans-Serif" font-size="11.00" fill="#000000">3 &gt;</text>
</a>
</g>
</g>
<!-- agent_message_source_name&#45;&gt;rasp_messages -->
<g id="edge1" class="edge">
<title>agent_message_source_name:w&#45;&gt;rasp_messages:e</title>
<path fill="none" stroke="#000000" d="M192.5503,-253.329C173.7607,-269.5294 189.3581,-322.7 155.5,-322.7"/>
<polygon fill="#000000" stroke="#000000" points="198.9071,-251.2196 207.6338,-252.1168 202.7036,-249.9598 206.5,-248.7 206.5,-248.7 206.5,-248.7 202.7036,-249.9598 205.3662,-245.2832 198.9071,-251.2196 198.9071,-251.2196"/>
<ellipse fill="none" stroke="#000000" cx="195.87" cy="-252.2275" rx="3.2" ry="3.2"/>
</g>
<!-- source_name -->
<g id="node3" class="node">
<title>source_name</title>
<g id="a_node3"><a xlink:href="../../tables/source_name.html" xlink:title="source_name" target="_top">
<polygon fill="#ffffff" stroke="transparent" points="27,-38.2 27,-187.2 136,-187.2 136,-38.2 27,-38.2"/>
<polygon fill="#f5f5f5" stroke="transparent" points="27.5,-163.7 27.5,-186.7 136.5,-186.7 136.5,-163.7 27.5,-163.7"/>
<polygon fill="none" stroke="#000000" points="27.5,-163.7 27.5,-186.7 136.5,-186.7 136.5,-163.7 27.5,-163.7"/>
<text text-anchor="start" x="32.186" y="-172.8" font-family="Helvetica,sans-Serif" font-weight="bold" font-size="11.00" fill="#000000">source_name</text>
<text text-anchor="start" x="102.0219" y="-171.8" font-family="Helvetica,sans-Serif" font-size="11.00" fill="#000000">[table]</text>
<polygon fill="none" stroke="#000000" points="27.5,-141.7 27.5,-163.7 136.5,-163.7 136.5,-141.7 27.5,-141.7"/>
<image xlink:href="../../images/primaryKeys.png" width="11px" height="12px" preserveAspectRatio="xMinYMin meet" x="32.5" y="-158.7"/>
<text text-anchor="start" x="47.5" y="-148.8" font-family="Helvetica,sans-Serif" font-size="11.00" fill="#000000">id</text>
<polygon fill="#ffffff" stroke="transparent" points="27.5,-119.7 27.5,-141.7 136.5,-141.7 136.5,-119.7 27.5,-119.7"/>
<polygon fill="none" stroke="#000000" points="27.5,-119.7 27.5,-141.7 136.5,-141.7 136.5,-119.7 27.5,-119.7"/>
<text text-anchor="start" x="47.5" y="-126.8" font-family="Helvetica,sans-Serif" font-size="11.00" fill="#000000">name</text>
<polygon fill="#ffffff" stroke="transparent" points="27.5,-97.7 27.5,-119.7 136.5,-119.7 136.5,-97.7 27.5,-97.7"/>
<polygon fill="none" stroke="#000000" points="27.5,-97.7 27.5,-119.7 136.5,-119.7 136.5,-97.7 27.5,-97.7"/>
<image xlink:href="../../images/foreignKeys.png" width="11px" height="12px" preserveAspectRatio="xMinYMin meet" x="32.5" y="-114.7"/>
<text text-anchor="start" x="47.5" y="-104.8" font-family="Helvetica,sans-Serif" font-size="11.00" fill="#000000">organization_id</text>
<polygon fill="#ffffff" stroke="transparent" points="27.5,-75.7 27.5,-97.7 136.5,-97.7 136.5,-75.7 27.5,-75.7"/>
<polygon fill="none" stroke="#000000" points="27.5,-75.7 27.5,-97.7 136.5,-97.7 136.5,-75.7 27.5,-75.7"/>
<text text-anchor="start" x="47.5" y="-82.8" font-family="Helvetica,sans-Serif" font-size="11.00" fill="#000000">modified</text>
<polygon fill="none" stroke="#000000" points="27.5,-56.7 27.5,-75.7 136.5,-75.7 136.5,-56.7 27.5,-56.7"/>
<text text-anchor="start" x="30.5" y="-62.8" font-family="Helvetica,sans-Serif" font-size="11.00" fill="#000000">...</text>
<polygon fill="#ffffff" stroke="transparent" points="27.5,-37.7 27.5,-56.7 62.5,-56.7 62.5,-37.7 27.5,-37.7"/>
<polygon fill="none" stroke="#000000" points="27.5,-37.7 27.5,-56.7 62.5,-56.7 62.5,-37.7 27.5,-37.7"/>
<text text-anchor="start" x="30.5" y="-43.8" font-family="Helvetica,sans-Serif" font-size="11.00" fill="#000000">&lt; 1</text>
<polygon fill="#ffffff" stroke="transparent" points="62.5,-37.7 62.5,-56.7 107.5,-56.7 107.5,-37.7 62.5,-37.7"/>
<polygon fill="none" stroke="#000000" points="62.5,-37.7 62.5,-56.7 107.5,-56.7 107.5,-37.7 62.5,-37.7"/>
<text text-anchor="start" x="72.1105" y="-43.8" font-family="Helvetica,sans-Serif" font-size="11.00" fill="#000000">0 rows</text>
<polygon fill="#ffffff" stroke="transparent" points="107.5,-37.7 107.5,-56.7 136.5,-56.7 136.5,-37.7 107.5,-37.7"/>
<polygon fill="none" stroke="#000000" points="107.5,-37.7 107.5,-56.7 136.5,-56.7 136.5,-37.7 107.5,-37.7"/>
<text text-anchor="start" x="117.9053" y="-43.8" font-family="Helvetica,sans-Serif" font-size="11.00" fill="#000000">2 &gt;</text>
</a>
</g>
</g>
<!-- agent_message_source_name&#45;&gt;source_name -->
<g id="edge2" class="edge">
<title>agent_message_source_name:w&#45;&gt;source_name:e</title>
<path fill="none" stroke="#000000" d="M192.351,-223.5203C165.3355,-209.3563 176.1133,-152.7 136.5,-152.7"/>
<polygon fill="#000000" stroke="#000000" points="198.6947,-224.9459 205.7106,-230.2124 202.5973,-225.8229 206.5,-226.7 206.5,-226.7 206.5,-226.7 202.5973,-225.8229 207.2894,-223.1876 198.6947,-224.9459 198.6947,-224.9459"/>
<ellipse fill="none" stroke="#000000" cx="195.5725" cy="-224.2442" rx="3.2" ry="3.2"/>
</g>
</g>
</svg>
