<?xml version="1.0" encoding="UTF-8" standalone="no"?>
<!DOCTYPE svg PUBLIC "-//W3C//DTD SVG 1.1//EN"
 "http://www.w3.org/Graphics/SVG/1.1/DTD/svg11.dtd">
<!-- Generated by graphviz version 2.40.1 (20161225.0304)
 -->
<!-- Title: twoDegreesRelationshipsDiagram Pages: 1 -->
<svg width="1107pt" height="1793pt"
 viewBox="0.00 0.00 1107.00 1793.20" xmlns="http://www.w3.org/2000/svg" xmlns:xlink="http://www.w3.org/1999/xlink">
<g id="graph0" class="graph" transform="scale(1 1) rotate(0) translate(4 1789.2)">
<title>twoDegreesRelationshipsDiagram</title>
<polygon fill="#ffffff" stroke="transparent" points="-4,4 -4,-1789.2 1103,-1789.2 1103,4 -4,4"/>
<text text-anchor="middle" x="72.4936" y="-7.3" font-family="Helvetica,sans-Serif" font-size="11.00" fill="#000000">Generated by SchemaSpy</text>
<!-- agent_activity_server_day_aggs -->
<g id="node1" class="node">
<title>agent_activity_server_day_aggs</title>
<g id="a_node1"><a xlink:href="../../tables/agent_activity_server_day_aggs.html" xlink:title="agent_activity_server_day_aggs" target="_top">
<polygon fill="#ffffff" stroke="transparent" points="603,-804.7 603,-960.7 910,-960.7 910,-804.7 603,-804.7"/>
<polygon fill="#f5f5f5" stroke="transparent" points="605.5,-935.7 605.5,-958.7 908.5,-958.7 908.5,-935.7 605.5,-935.7"/>
<polygon fill="none" stroke="#000000" points="605.5,-935.7 605.5,-958.7 908.5,-958.7 908.5,-935.7 605.5,-935.7"/>
<text text-anchor="start" x="610.5" y="-944.8" font-family="Helvetica,sans-Serif" font-weight="bold" font-size="11.00" fill="#000000">agent_activity_server_day_aggs</text>
<text text-anchor="start" x="873.5437" y="-943.8" font-family="Helvetica,sans-Serif" font-size="11.00" fill="#000000">[table]</text>
<polygon fill="none" stroke="#000000" points="605.5,-913.7 605.5,-935.7 810.5,-935.7 810.5,-913.7 605.5,-913.7"/>
<image xlink:href="../../images/primaryKeys.png" width="11px" height="12px" preserveAspectRatio="xMinYMin meet" x="610.5" y="-930.7"/>
<text text-anchor="start" x="625.5" y="-920.8" font-family="Helvetica,sans-Serif" font-size="11.00" fill="#000000">id</text>
<polygon fill="none" stroke="#000000" points="810.5,-913.7 810.5,-935.7 908.5,-935.7 908.5,-913.7 810.5,-913.7"/>
<text text-anchor="start" x="813.3429" y="-921.4" font-family="Helvetica,sans-Serif" font-size="11.00" fill="#000000">bigint unsigned[20]</text>
<polygon fill="#ffffff" stroke="transparent" points="605.5,-891.7 605.5,-913.7 810.5,-913.7 810.5,-891.7 605.5,-891.7"/>
<polygon fill="none" stroke="#000000" points="605.5,-891.7 605.5,-913.7 810.5,-913.7 810.5,-891.7 605.5,-891.7"/>
<image xlink:href="../../images/foreignKeys.png" width="11px" height="12px" preserveAspectRatio="xMinYMin meet" x="610.5" y="-908.7"/>
<text text-anchor="start" x="625.5" y="-898.8" font-family="Helvetica,sans-Serif" font-size="11.00" fill="#000000">servers_id</text>
<polygon fill="none" stroke="#000000" points="810.5,-891.7 810.5,-913.7 908.5,-913.7 908.5,-891.7 810.5,-891.7"/>
<text text-anchor="start" x="813.5" y="-899.4" font-family="Helvetica,sans-Serif" font-size="11.00" fill="#000000">bigint[19]</text>
<polygon fill="#ffffff" stroke="transparent" points="605.5,-869.7 605.5,-891.7 810.5,-891.7 810.5,-869.7 605.5,-869.7"/>
<polygon fill="none" stroke="#000000" points="605.5,-869.7 605.5,-891.7 810.5,-891.7 810.5,-869.7 605.5,-869.7"/>
<text text-anchor="start" x="625.5" y="-876.8" font-family="Helvetica,sans-Serif" font-size="11.00" fill="#000000">received</text>
<polygon fill="none" stroke="#000000" points="810.5,-869.7 810.5,-891.7 908.5,-891.7 908.5,-869.7 810.5,-869.7"/>
<text text-anchor="start" x="813.5" y="-877.4" font-family="Helvetica,sans-Serif" font-size="11.00" fill="#000000">bigint[19]</text>
<polygon fill="none" stroke="#000000" points="605.5,-847.7 605.5,-869.7 810.5,-869.7 810.5,-847.7 605.5,-847.7"/>
<text text-anchor="start" x="625.5" y="-854.8" font-family="Helvetica,sans-Serif" font-size="11.00" fill="#000000">total</text>
<polygon fill="none" stroke="#000000" points="810.5,-847.7 810.5,-869.7 908.5,-869.7 908.5,-847.7 810.5,-847.7"/>
<text text-anchor="start" x="813.5" y="-855.4" font-family="Helvetica,sans-Serif" font-size="11.00" fill="#000000">int[10]</text>
<polygon fill="#ffffff" stroke="transparent" points="605.5,-825.7 605.5,-847.7 810.5,-847.7 810.5,-825.7 605.5,-825.7"/>
<polygon fill="none" stroke="#000000" points="605.5,-825.7 605.5,-847.7 810.5,-847.7 810.5,-825.7 605.5,-825.7"/>
<text text-anchor="start" x="625.5" y="-832.8" font-family="Helvetica,sans-Serif" font-size="11.00" fill="#000000">processed</text>
<polygon fill="none" stroke="#000000" points="810.5,-825.7 810.5,-847.7 908.5,-847.7 908.5,-825.7 810.5,-825.7"/>
<text text-anchor="start" x="813.5" y="-833.4" font-family="Helvetica,sans-Serif" font-size="11.00" fill="#000000">bit[1]</text>
<polygon fill="#ffffff" stroke="transparent" points="605.5,-806.7 605.5,-825.7 699.5,-825.7 699.5,-806.7 605.5,-806.7"/>
<polygon fill="none" stroke="#000000" points="605.5,-806.7 605.5,-825.7 699.5,-825.7 699.5,-806.7 605.5,-806.7"/>
<text text-anchor="start" x="608.5" y="-812.8" font-family="Helvetica,sans-Serif" font-size="11.00" fill="#000000">&lt; 1</text>
<polygon fill="#ffffff" stroke="transparent" points="699.5,-806.7 699.5,-825.7 810.5,-825.7 810.5,-806.7 699.5,-806.7"/>
<polygon fill="none" stroke="#000000" points="699.5,-806.7 699.5,-825.7 810.5,-825.7 810.5,-806.7 699.5,-806.7"/>
<text text-anchor="start" x="775.1105" y="-812.8" font-family="Helvetica,sans-Serif" font-size="11.00" fill="#000000">0 rows</text>
<polygon fill="#ffffff" stroke="transparent" points="810.5,-806.7 810.5,-825.7 908.5,-825.7 908.5,-806.7 810.5,-806.7"/>
<polygon fill="none" stroke="#000000" points="810.5,-806.7 810.5,-825.7 908.5,-825.7 908.5,-806.7 810.5,-806.7"/>
<text text-anchor="start" x="889.9053" y="-812.8" font-family="Helvetica,sans-Serif" font-size="11.00" fill="#000000">0 &gt;</text>
<polygon fill="none" stroke="#000000" stroke-width="2" points="604,-805.7 604,-959.7 909,-959.7 909,-805.7 604,-805.7"/>
</a>
</g>
</g>
<!-- servers -->
<g id="node2" class="node">
<title>servers</title>
<g id="a_node2"><a xlink:href="../../tables/servers.html" xlink:title="servers" target="_top">
<polygon fill="#ffffff" stroke="transparent" points="355,-514.2 355,-839.2 554,-839.2 554,-514.2 355,-514.2"/>
<polygon fill="#f5f5f5" stroke="transparent" points="355.5,-815.7 355.5,-838.7 554.5,-838.7 554.5,-815.7 355.5,-815.7"/>
<polygon fill="none" stroke="#000000" points="355.5,-815.7 355.5,-838.7 554.5,-838.7 554.5,-815.7 355.5,-815.7"/>
<text text-anchor="start" x="360.5" y="-824.8" font-family="Helvetica,sans-Serif" font-weight="bold" font-size="11.00" fill="#000000">servers</text>
<text text-anchor="start" x="519.5437" y="-823.8" font-family="Helvetica,sans-Serif" font-size="11.00" fill="#000000">[table]</text>
<polygon fill="none" stroke="#000000" points="355.5,-793.7 355.5,-815.7 554.5,-815.7 554.5,-793.7 355.5,-793.7"/>
<image xlink:href="../../images/primaryKeys.png" width="11px" height="12px" preserveAspectRatio="xMinYMin meet" x="360.5" y="-810.7"/>
<text text-anchor="start" x="375.5" y="-800.8" font-family="Helvetica,sans-Serif" font-size="11.00" fill="#000000">server_id</text>
<polygon fill="#ffffff" stroke="transparent" points="355.5,-771.7 355.5,-793.7 554.5,-793.7 554.5,-771.7 355.5,-771.7"/>
<polygon fill="none" stroke="#000000" points="355.5,-771.7 355.5,-793.7 554.5,-793.7 554.5,-771.7 355.5,-771.7"/>
<text text-anchor="start" x="375.5" y="-778.8" font-family="Helvetica,sans-Serif" font-size="11.00" fill="#000000">enabled</text>
<polygon fill="#ffffff" stroke="transparent" points="355.5,-749.7 355.5,-771.7 554.5,-771.7 554.5,-749.7 355.5,-749.7"/>
<polygon fill="none" stroke="#000000" points="355.5,-749.7 355.5,-771.7 554.5,-771.7 554.5,-749.7 355.5,-749.7"/>
<text text-anchor="start" x="375.5" y="-756.8" font-family="Helvetica,sans-Serif" font-size="11.00" fill="#000000">hostname</text>
<polygon fill="#ffffff" stroke="transparent" points="355.5,-727.7 355.5,-749.7 554.5,-749.7 554.5,-727.7 355.5,-727.7"/>
<polygon fill="none" stroke="#000000" points="355.5,-727.7 355.5,-749.7 554.5,-749.7 554.5,-727.7 355.5,-727.7"/>
<text text-anchor="start" x="375.5" y="-734.8" font-family="Helvetica,sans-Serif" font-size="11.00" fill="#000000">serverpath</text>
<polygon fill="#ffffff" stroke="transparent" points="355.5,-705.7 355.5,-727.7 554.5,-727.7 554.5,-705.7 355.5,-705.7"/>
<polygon fill="none" stroke="#000000" points="355.5,-705.7 355.5,-727.7 554.5,-727.7 554.5,-705.7 355.5,-705.7"/>
<image xlink:href="../../images/foreignKeys.png" width="11px" height="12px" preserveAspectRatio="xMinYMin meet" x="360.5" y="-722.7"/>
<text text-anchor="start" x="375.5" y="-712.8" font-family="Helvetica,sans-Serif" font-size="11.00" fill="#000000">organizations_id</text>
<polygon fill="#ffffff" stroke="transparent" points="355.5,-683.7 355.5,-705.7 554.5,-705.7 554.5,-683.7 355.5,-683.7"/>
<polygon fill="none" stroke="#000000" points="355.5,-683.7 355.5,-705.7 554.5,-705.7 554.5,-683.7 355.5,-683.7"/>
<text text-anchor="start" x="375.5" y="-690.8" font-family="Helvetica,sans-Serif" font-size="11.00" fill="#000000">name</text>
<polygon fill="#ffffff" stroke="transparent" points="355.5,-661.7 355.5,-683.7 554.5,-683.7 554.5,-661.7 355.5,-661.7"/>
<polygon fill="none" stroke="#000000" points="355.5,-661.7 355.5,-683.7 554.5,-683.7 554.5,-661.7 355.5,-661.7"/>
<image xlink:href="../../images/foreignKeys.png" width="11px" height="12px" preserveAspectRatio="xMinYMin meet" x="360.5" y="-678.7"/>
<text text-anchor="start" x="375.5" y="-668.8" font-family="Helvetica,sans-Serif" font-size="11.00" fill="#000000">rasp_server_license_id</text>
<polygon fill="#ffffff" stroke="transparent" points="355.5,-639.7 355.5,-661.7 554.5,-661.7 554.5,-639.7 355.5,-639.7"/>
<polygon fill="none" stroke="#000000" points="355.5,-639.7 355.5,-661.7 554.5,-661.7 554.5,-639.7 355.5,-639.7"/>
<text text-anchor="start" x="375.5" y="-646.8" font-family="Helvetica,sans-Serif" font-size="11.00" fill="#000000">environment</text>
<polygon fill="#ffffff" stroke="transparent" points="355.5,-617.7 355.5,-639.7 554.5,-639.7 554.5,-617.7 355.5,-617.7"/>
<polygon fill="none" stroke="#000000" points="355.5,-617.7 355.5,-639.7 554.5,-639.7 554.5,-617.7 355.5,-617.7"/>
<text text-anchor="start" x="375.5" y="-624.8" font-family="Helvetica,sans-Serif" font-size="11.00" fill="#000000">dt_creation_time</text>
<polygon fill="#ffffff" stroke="transparent" points="355.5,-595.7 355.5,-617.7 554.5,-617.7 554.5,-595.7 355.5,-595.7"/>
<polygon fill="none" stroke="#000000" points="355.5,-595.7 355.5,-617.7 554.5,-617.7 554.5,-595.7 355.5,-595.7"/>
<text text-anchor="start" x="375.5" y="-602.8" font-family="Helvetica,sans-Serif" font-size="11.00" fill="#000000">uuid</text>
<polygon fill="#ffffff" stroke="transparent" points="355.5,-573.7 355.5,-595.7 554.5,-595.7 554.5,-573.7 355.5,-573.7"/>
<polygon fill="none" stroke="#000000" points="355.5,-573.7 355.5,-595.7 554.5,-595.7 554.5,-573.7 355.5,-573.7"/>
<text text-anchor="start" x="375.5" y="-580.8" font-family="Helvetica,sans-Serif" font-size="11.00" fill="#000000">agent_language</text>
<polygon fill="#ffffff" stroke="transparent" points="355.5,-551.7 355.5,-573.7 554.5,-573.7 554.5,-551.7 355.5,-551.7"/>
<polygon fill="none" stroke="#000000" points="355.5,-551.7 355.5,-573.7 554.5,-573.7 554.5,-551.7 355.5,-551.7"/>
<text text-anchor="start" x="375.5" y="-558.8" font-family="Helvetica,sans-Serif" font-size="11.00" fill="#000000">numeric_hash</text>
<polygon fill="none" stroke="#000000" points="355.5,-532.7 355.5,-551.7 554.5,-551.7 554.5,-532.7 355.5,-532.7"/>
<text text-anchor="start" x="358.5" y="-538.8" font-family="Helvetica,sans-Serif" font-size="11.00" fill="#000000">...</text>
<polygon fill="#ffffff" stroke="transparent" points="355.5,-513.7 355.5,-532.7 432.5,-532.7 432.5,-513.7 355.5,-513.7"/>
<polygon fill="none" stroke="#000000" points="355.5,-513.7 355.5,-532.7 432.5,-532.7 432.5,-513.7 355.5,-513.7"/>
<text text-anchor="start" x="358.5" y="-519.8" font-family="Helvetica,sans-Serif" font-size="11.00" fill="#000000">&lt; 2</text>
<polygon fill="#ffffff" stroke="transparent" points="432.5,-513.7 432.5,-532.7 498.5,-532.7 498.5,-513.7 432.5,-513.7"/>
<polygon fill="none" stroke="#000000" points="432.5,-513.7 432.5,-532.7 498.5,-532.7 498.5,-513.7 432.5,-513.7"/>
<text text-anchor="start" x="463.1105" y="-519.8" font-family="Helvetica,sans-Serif" font-size="11.00" fill="#000000">0 rows</text>
<polygon fill="#ffffff" stroke="transparent" points="498.5,-513.7 498.5,-532.7 554.5,-532.7 554.5,-513.7 498.5,-513.7"/>
<polygon fill="none" stroke="#000000" points="498.5,-513.7 498.5,-532.7 554.5,-532.7 554.5,-513.7 498.5,-513.7"/>
<text text-anchor="start" x="529.7904" y="-519.8" font-family="Helvetica,sans-Serif" font-size="11.00" fill="#000000">21 &gt;</text>
</a>
</g>
</g>
<!-- agent_activity_server_day_aggs&#45;&gt;servers -->
<g id="edge1" class="edge">
<title>agent_activity_server_day_aggs:w&#45;&gt;servers:e</title>
<path fill="none" stroke="#000000" d="M591.5571,-898.7369C566.4188,-880.4027 597.6548,-804.7 554.5,-804.7"/>
<polygon fill="#000000" stroke="#000000" points="597.8048,-900.5127 604.5157,-906.1628 601.6524,-901.6064 605.5,-902.7 605.5,-902.7 605.5,-902.7 601.6524,-901.6064 606.4843,-899.2372 597.8048,-900.5127 597.8048,-900.5127"/>
<ellipse fill="none" stroke="#000000" cx="594.7267" cy="-899.6378" rx="3.2" ry="3.2"/>
</g>
<!-- organizations -->
<g id="node4" class="node">
<title>organizations</title>
<g id="a_node4"><a xlink:href="../../tables/organizations.html" xlink:title="organizations" target="_top">
<polygon fill="#ffffff" stroke="transparent" points="8,-631.2 8,-692.2 116,-692.2 116,-631.2 8,-631.2"/>
<polygon fill="#f5f5f5" stroke="transparent" points="8,-668.7 8,-691.7 116,-691.7 116,-668.7 8,-668.7"/>
<polygon fill="none" stroke="#000000" points="8,-668.7 8,-691.7 116,-691.7 116,-668.7 8,-668.7"/>
<text text-anchor="start" x="12.7976" y="-677.8" font-family="Helvetica,sans-Serif" font-weight="bold" font-size="11.00" fill="#000000">organizations</text>
<text text-anchor="start" x="81.5219" y="-676.8" font-family="Helvetica,sans-Serif" font-size="11.00" fill="#000000">[table]</text>
<polygon fill="none" stroke="#000000" points="8,-649.7 8,-668.7 116,-668.7 116,-649.7 8,-649.7"/>
<text text-anchor="start" x="11" y="-655.8" font-family="Helvetica,sans-Serif" font-size="11.00" fill="#000000">...</text>
<polygon fill="#ffffff" stroke="transparent" points="8,-630.7 8,-649.7 40,-649.7 40,-630.7 8,-630.7"/>
<polygon fill="none" stroke="#000000" points="8,-630.7 8,-649.7 40,-649.7 40,-630.7 8,-630.7"/>
<text text-anchor="start" x="11" y="-636.8" font-family="Helvetica,sans-Serif" font-size="11.00" fill="#000000">&lt; 4</text>
<polygon fill="#ffffff" stroke="transparent" points="40,-630.7 40,-649.7 83,-649.7 83,-630.7 40,-630.7"/>
<polygon fill="none" stroke="#000000" points="40,-630.7 40,-649.7 83,-649.7 83,-630.7 40,-630.7"/>
<text text-anchor="start" x="47.6105" y="-636.8" font-family="Helvetica,sans-Serif" font-size="11.00" fill="#000000">3 rows</text>
<polygon fill="#ffffff" stroke="transparent" points="83,-630.7 83,-649.7 116,-649.7 116,-630.7 83,-630.7"/>
<polygon fill="none" stroke="#000000" points="83,-630.7 83,-649.7 116,-649.7 116,-630.7 83,-630.7"/>
<text text-anchor="start" x="91.2904" y="-636.8" font-family="Helvetica,sans-Serif" font-size="11.00" fill="#000000">81 &gt;</text>
</a>
</g>
</g>
<!-- servers&#45;&gt;organizations -->
<g id="edge27" class="edge">
<title>servers:w&#45;&gt;organizations:e</title>
<path fill="none" stroke="#000000" d="M341.0123,-716.9164C263.4727,-719.232 232.287,-738.655 157,-702.7 132.8799,-691.1809 142.7296,-658.7 116,-658.7"/>
<polygon fill="#000000" stroke="#000000" points="347.5009,-716.8195 355.5538,-720.2996 351.5004,-716.7598 355.5,-716.7 355.5,-716.7 355.5,-716.7 351.5004,-716.7598 355.4462,-713.1004 347.5009,-716.8195 347.5009,-716.8195"/>
<ellipse fill="none" stroke="#000000" cx="344.3012" cy="-716.8673" rx="3.2" ry="3.2"/>
</g>
<!-- rasp_server_license -->
<g id="node17" class="node">
<title>rasp_server_license</title>
<g id="a_node17"><a xlink:href="../../tables/rasp_server_license.html" xlink:title="rasp_server_license" target="_top">
<polygon fill="#ffffff" stroke="transparent" points="165,-631.2 165,-692.2 306,-692.2 306,-631.2 165,-631.2"/>
<polygon fill="#f5f5f5" stroke="transparent" points="165.5,-668.7 165.5,-691.7 306.5,-691.7 306.5,-668.7 165.5,-668.7"/>
<polygon fill="none" stroke="#000000" points="165.5,-668.7 165.5,-691.7 306.5,-691.7 306.5,-668.7 165.5,-668.7"/>
<text text-anchor="start" x="170.2992" y="-677.8" font-family="Helvetica,sans-Serif" font-weight="bold" font-size="11.00" fill="#000000">rasp_server_license</text>
<text text-anchor="start" x="272.0219" y="-676.8" font-family="Helvetica,sans-Serif" font-size="11.00" fill="#000000">[table]</text>
<polygon fill="none" stroke="#000000" points="165.5,-649.7 165.5,-668.7 306.5,-668.7 306.5,-649.7 165.5,-649.7"/>
<text text-anchor="start" x="168.5" y="-655.8" font-family="Helvetica,sans-Serif" font-size="11.00" fill="#000000">...</text>
<polygon fill="#ffffff" stroke="transparent" points="165.5,-630.7 165.5,-649.7 216.5,-649.7 216.5,-630.7 165.5,-630.7"/>
<polygon fill="none" stroke="#000000" points="165.5,-630.7 165.5,-649.7 216.5,-649.7 216.5,-630.7 165.5,-630.7"/>
<text text-anchor="start" x="168.5" y="-636.8" font-family="Helvetica,sans-Serif" font-size="11.00" fill="#000000">&lt; 1</text>
<polygon fill="#ffffff" stroke="transparent" points="216.5,-630.7 216.5,-649.7 269.5,-649.7 269.5,-630.7 216.5,-630.7"/>
<polygon fill="none" stroke="#000000" points="216.5,-630.7 216.5,-649.7 269.5,-649.7 269.5,-630.7 216.5,-630.7"/>
<text text-anchor="start" x="234.1105" y="-636.8" font-family="Helvetica,sans-Serif" font-size="11.00" fill="#000000">0 rows</text>
<polygon fill="#ffffff" stroke="transparent" points="269.5,-630.7 269.5,-649.7 306.5,-649.7 306.5,-630.7 269.5,-630.7"/>
<polygon fill="none" stroke="#000000" points="269.5,-630.7 269.5,-649.7 306.5,-649.7 306.5,-630.7 269.5,-630.7"/>
<text text-anchor="start" x="287.9053" y="-636.8" font-family="Helvetica,sans-Serif" font-size="11.00" fill="#000000">1 &gt;</text>
</a>
</g>
</g>
<!-- servers&#45;&gt;rasp_server_license -->
<g id="edge28" class="edge">
<title>servers:w&#45;&gt;rasp_server_license:e</title>
<path fill="none" stroke="#000000" d="M344.9061,-671.5064C330.9088,-668.1208 325.0794,-658.7 306.5,-658.7"/>
<polygon fill="#000000" stroke="#000000" points="355.1529,-668.6356 354.2571,-676.5853 352.6672,-676.4061 353.563,-668.4564 355.1529,-668.6356"/>
<polyline fill="none" stroke="#000000" points="355.5,-672.7 351.5252,-672.2521 "/>
<ellipse fill="none" stroke="#000000" cx="348.3453" cy="-671.8938" rx="3.2" ry="3.2"/>
</g>
<!-- app_instrumentation_state -->
<g id="node3" class="node">
<title>app_instrumentation_state</title>
<g id="a_node3"><a xlink:href="../../tables/app_instrumentation_state.html" xlink:title="app_instrumentation_state" target="_top">
<polygon fill="#ffffff" stroke="transparent" points="670.5,-1720.2 670.5,-1781.2 842.5,-1781.2 842.5,-1720.2 670.5,-1720.2"/>
<polygon fill="#f5f5f5" stroke="transparent" points="670.5,-1757.7 670.5,-1780.7 842.5,-1780.7 842.5,-1757.7 670.5,-1757.7"/>
<polygon fill="none" stroke="#000000" points="670.5,-1757.7 670.5,-1780.7 842.5,-1780.7 842.5,-1757.7 670.5,-1757.7"/>
<text text-anchor="start" x="675.2007" y="-1766.8" font-family="Helvetica,sans-Serif" font-weight="bold" font-size="11.00" fill="#000000">app_instrumentation_state</text>
<text text-anchor="start" x="808.0219" y="-1765.8" font-family="Helvetica,sans-Serif" font-size="11.00" fill="#000000">[table]</text>
<polygon fill="none" stroke="#000000" points="670.5,-1738.7 670.5,-1757.7 842.5,-1757.7 842.5,-1738.7 670.5,-1738.7"/>
<text text-anchor="start" x="673.5" y="-1744.8" font-family="Helvetica,sans-Serif" font-size="11.00" fill="#000000">...</text>
<polygon fill="#ffffff" stroke="transparent" points="670.5,-1719.7 670.5,-1738.7 741.5,-1738.7 741.5,-1719.7 670.5,-1719.7"/>
<polygon fill="none" stroke="#000000" points="670.5,-1719.7 670.5,-1738.7 741.5,-1738.7 741.5,-1719.7 670.5,-1719.7"/>
<text text-anchor="start" x="673.5" y="-1725.8" font-family="Helvetica,sans-Serif" font-size="11.00" fill="#000000">&lt; 3</text>
<polygon fill="#ffffff" stroke="transparent" points="741.5,-1719.7 741.5,-1738.7 804.5,-1738.7 804.5,-1719.7 741.5,-1719.7"/>
<polygon fill="none" stroke="#000000" points="741.5,-1719.7 741.5,-1738.7 804.5,-1738.7 804.5,-1719.7 741.5,-1719.7"/>
<text text-anchor="start" x="769.1105" y="-1725.8" font-family="Helvetica,sans-Serif" font-size="11.00" fill="#000000">0 rows</text>
<polygon fill="#ffffff" stroke="transparent" points="804.5,-1719.7 804.5,-1738.7 842.5,-1738.7 842.5,-1719.7 804.5,-1719.7"/>
<polygon fill="none" stroke="#000000" points="804.5,-1719.7 804.5,-1738.7 842.5,-1738.7 842.5,-1719.7 804.5,-1719.7"/>
<text text-anchor="start" x="833.3862" y="-1725.8" font-family="Helvetica,sans-Serif" font-size="11.00" fill="#000000"> &#160;</text>
</a>
</g>
</g>
<!-- app_instrumentation_state&#45;&gt;servers -->
<g id="edge3" class="edge">
<title>app_instrumentation_state:w&#45;&gt;servers:e</title>
<path fill="none" stroke="#000000" d="M655.7775,-1747.2646C627.9501,-1745.3855 612.5463,-1736.7987 595,-1709.7 567.6462,-1667.4544 604.8281,-804.7 554.5,-804.7"/>
<polygon fill="#000000" stroke="#000000" points="662.5035,-1747.4635 670.3936,-1751.2984 666.5017,-1747.5817 670.5,-1747.7 670.5,-1747.7 670.5,-1747.7 666.5017,-1747.5817 670.6064,-1744.1016 662.5035,-1747.4635 662.5035,-1747.4635"/>
<ellipse fill="none" stroke="#000000" cx="659.3049" cy="-1747.3689" rx="3.2" ry="3.2"/>
</g>
<!-- app_instrumentation_state&#45;&gt;organizations -->
<g id="edge2" class="edge">
<title>app_instrumentation_state:w&#45;&gt;organizations:e</title>
<path fill="none" stroke="#000000" d="M655.9121,-1747.5406C274.8401,-1739.1291 256.8923,-1398.9998 157,-1021.7 146.6115,-982.4621 156.5898,-658.7 116,-658.7"/>
<polygon fill="#000000" stroke="#000000" points="662.5005,-1747.6125 670.4606,-1751.2998 666.5002,-1747.6563 670.5,-1747.7 670.5,-1747.7 670.5,-1747.7 666.5002,-1747.6563 670.5394,-1744.1002 662.5005,-1747.6125 662.5005,-1747.6125"/>
<ellipse fill="none" stroke="#000000" cx="659.3007" cy="-1747.5776" rx="3.2" ry="3.2"/>
</g>
<!-- app_libraries_servers -->
<g id="node5" class="node">
<title>app_libraries_servers</title>
<g id="a_node5"><a xlink:href="../../tables/app_libraries_servers.html" xlink:title="app_libraries_servers" target="_top">
<polygon fill="#ffffff" stroke="transparent" points="682.5,-722.2 682.5,-783.2 830.5,-783.2 830.5,-722.2 682.5,-722.2"/>
<polygon fill="#f5f5f5" stroke="transparent" points="682.5,-759.7 682.5,-782.7 830.5,-782.7 830.5,-759.7 682.5,-759.7"/>
<polygon fill="none" stroke="#000000" points="682.5,-759.7 682.5,-782.7 830.5,-782.7 830.5,-759.7 682.5,-759.7"/>
<text text-anchor="start" x="687.4404" y="-768.8" font-family="Helvetica,sans-Serif" font-weight="bold" font-size="11.00" fill="#000000">app_libraries_servers</text>
<text text-anchor="start" x="796.0219" y="-767.8" font-family="Helvetica,sans-Serif" font-size="11.00" fill="#000000">[table]</text>
<polygon fill="none" stroke="#000000" points="682.5,-740.7 682.5,-759.7 830.5,-759.7 830.5,-740.7 682.5,-740.7"/>
<text text-anchor="start" x="685.5" y="-746.8" font-family="Helvetica,sans-Serif" font-size="11.00" fill="#000000">...</text>
<polygon fill="#ffffff" stroke="transparent" points="682.5,-721.7 682.5,-740.7 741.5,-740.7 741.5,-721.7 682.5,-721.7"/>
<polygon fill="none" stroke="#000000" points="682.5,-721.7 682.5,-740.7 741.5,-740.7 741.5,-721.7 682.5,-721.7"/>
<text text-anchor="start" x="685.5" y="-727.8" font-family="Helvetica,sans-Serif" font-size="11.00" fill="#000000">&lt; 2</text>
<polygon fill="#ffffff" stroke="transparent" points="741.5,-721.7 741.5,-740.7 798.5,-740.7 798.5,-721.7 741.5,-721.7"/>
<polygon fill="none" stroke="#000000" points="741.5,-721.7 741.5,-740.7 798.5,-740.7 798.5,-721.7 741.5,-721.7"/>
<text text-anchor="start" x="763.1105" y="-727.8" font-family="Helvetica,sans-Serif" font-size="11.00" fill="#000000">0 rows</text>
<polygon fill="#ffffff" stroke="transparent" points="798.5,-721.7 798.5,-740.7 830.5,-740.7 830.5,-721.7 798.5,-721.7"/>
<polygon fill="none" stroke="#000000" points="798.5,-721.7 798.5,-740.7 830.5,-740.7 830.5,-721.7 798.5,-721.7"/>
<text text-anchor="start" x="821.3862" y="-727.8" font-family="Helvetica,sans-Serif" font-size="11.00" fill="#000000"> &#160;</text>
</a>
</g>
</g>
<!-- app_libraries_servers&#45;&gt;servers -->
<g id="edge4" class="edge">
<title>app_libraries_servers:w&#45;&gt;servers:e</title>
<path fill="none" stroke="#000000" d="M668.0532,-750.7986C619.475,-758.5503 611.2181,-804.7 554.5,-804.7"/>
<polygon fill="#000000" stroke="#000000" points="674.523,-750.3067 682.773,-753.2896 678.5115,-750.0033 682.5,-749.7 682.5,-749.7 682.5,-749.7 678.5115,-750.0033 682.227,-746.1104 674.523,-750.3067 674.523,-750.3067"/>
<ellipse fill="none" stroke="#000000" cx="671.3322" cy="-750.5494" rx="3.2" ry="3.2"/>
</g>
<!-- apps_servers -->
<g id="node6" class="node">
<title>apps_servers</title>
<g id="a_node6"><a xlink:href="../../tables/apps_servers.html" xlink:title="apps_servers" target="_top">
<polygon fill="#ffffff" stroke="transparent" points="702,-640.2 702,-701.2 811,-701.2 811,-640.2 702,-640.2"/>
<polygon fill="#f5f5f5" stroke="transparent" points="702.5,-677.7 702.5,-700.7 811.5,-700.7 811.5,-677.7 702.5,-677.7"/>
<polygon fill="none" stroke="#000000" points="702.5,-677.7 702.5,-700.7 811.5,-700.7 811.5,-677.7 702.5,-677.7"/>
<text text-anchor="start" x="707.4934" y="-686.8" font-family="Helvetica,sans-Serif" font-weight="bold" font-size="11.00" fill="#000000">apps_servers</text>
<text text-anchor="start" x="777.0219" y="-685.8" font-family="Helvetica,sans-Serif" font-size="11.00" fill="#000000">[table]</text>
<polygon fill="none" stroke="#000000" points="702.5,-658.7 702.5,-677.7 811.5,-677.7 811.5,-658.7 702.5,-658.7"/>
<text text-anchor="start" x="705.5" y="-664.8" font-family="Helvetica,sans-Serif" font-size="11.00" fill="#000000">...</text>
<polygon fill="#ffffff" stroke="transparent" points="702.5,-639.7 702.5,-658.7 742.5,-658.7 742.5,-639.7 702.5,-639.7"/>
<polygon fill="none" stroke="#000000" points="702.5,-639.7 702.5,-658.7 742.5,-658.7 742.5,-639.7 702.5,-639.7"/>
<text text-anchor="start" x="705.5" y="-645.8" font-family="Helvetica,sans-Serif" font-size="11.00" fill="#000000">&lt; 2</text>
<polygon fill="#ffffff" stroke="transparent" points="742.5,-639.7 742.5,-658.7 789.5,-658.7 789.5,-639.7 742.5,-639.7"/>
<polygon fill="none" stroke="#000000" points="742.5,-639.7 742.5,-658.7 789.5,-658.7 789.5,-639.7 742.5,-639.7"/>
<text text-anchor="start" x="754.1105" y="-645.8" font-family="Helvetica,sans-Serif" font-size="11.00" fill="#000000">0 rows</text>
<polygon fill="#ffffff" stroke="transparent" points="789.5,-639.7 789.5,-658.7 811.5,-658.7 811.5,-639.7 789.5,-639.7"/>
<polygon fill="none" stroke="#000000" points="789.5,-639.7 789.5,-658.7 811.5,-658.7 811.5,-639.7 789.5,-639.7"/>
<text text-anchor="start" x="802.3862" y="-645.8" font-family="Helvetica,sans-Serif" font-size="11.00" fill="#000000"> &#160;</text>
</a>
</g>
</g>
<!-- apps_servers&#45;&gt;servers -->
<g id="edge5" class="edge">
<title>apps_servers:w&#45;&gt;servers:e</title>
<path fill="none" stroke="#000000" d="M687.9951,-667.9553C646.9184,-669.5542 628.2313,-679.199 595,-711.7 562.7696,-743.2222 599.5826,-804.7 554.5,-804.7"/>
<polygon fill="#000000" stroke="#000000" points="694.5012,-667.8408 702.5634,-671.2994 698.5006,-667.7704 702.5,-667.7 702.5,-667.7 702.5,-667.7 698.5006,-667.7704 702.4366,-664.1006 694.5012,-667.8408 694.5012,-667.8408"/>
<ellipse fill="none" stroke="#000000" cx="691.3017" cy="-667.8972" rx="3.2" ry="3.2"/>
</g>
<!-- notifications_messages -->
<g id="node7" class="node">
<title>notifications_messages</title>
<g id="a_node7"><a xlink:href="../../tables/notifications_messages.html" xlink:title="notifications_messages" target="_top">
<polygon fill="#ffffff" stroke="transparent" points="678,-1638.2 678,-1699.2 835,-1699.2 835,-1638.2 678,-1638.2"/>
<polygon fill="#f5f5f5" stroke="transparent" points="678.5,-1675.7 678.5,-1698.7 835.5,-1698.7 835.5,-1675.7 678.5,-1675.7"/>
<polygon fill="none" stroke="#000000" points="678.5,-1675.7 678.5,-1698.7 835.5,-1698.7 835.5,-1675.7 678.5,-1675.7"/>
<text text-anchor="start" x="683.3479" y="-1684.8" font-family="Helvetica,sans-Serif" font-weight="bold" font-size="11.00" fill="#000000">notifications_messages</text>
<text text-anchor="start" x="801.0219" y="-1683.8" font-family="Helvetica,sans-Serif" font-size="11.00" fill="#000000">[table]</text>
<polygon fill="none" stroke="#000000" points="678.5,-1656.7 678.5,-1675.7 835.5,-1675.7 835.5,-1656.7 678.5,-1656.7"/>
<text text-anchor="start" x="681.5" y="-1662.8" font-family="Helvetica,sans-Serif" font-size="11.00" fill="#000000">...</text>
<polygon fill="#ffffff" stroke="transparent" points="678.5,-1637.7 678.5,-1656.7 737.5,-1656.7 737.5,-1637.7 678.5,-1637.7"/>
<polygon fill="none" stroke="#000000" points="678.5,-1637.7 678.5,-1656.7 737.5,-1656.7 737.5,-1637.7 678.5,-1637.7"/>
<text text-anchor="start" x="681.5" y="-1643.8" font-family="Helvetica,sans-Serif" font-size="11.00" fill="#000000">&lt; 9</text>
<polygon fill="#ffffff" stroke="transparent" points="737.5,-1637.7 737.5,-1656.7 794.5,-1656.7 794.5,-1637.7 737.5,-1637.7"/>
<polygon fill="none" stroke="#000000" points="737.5,-1637.7 737.5,-1656.7 794.5,-1656.7 794.5,-1637.7 737.5,-1637.7"/>
<text text-anchor="start" x="759.1105" y="-1643.8" font-family="Helvetica,sans-Serif" font-size="11.00" fill="#000000">0 rows</text>
<polygon fill="#ffffff" stroke="transparent" points="794.5,-1637.7 794.5,-1656.7 835.5,-1656.7 835.5,-1637.7 794.5,-1637.7"/>
<polygon fill="none" stroke="#000000" points="794.5,-1637.7 794.5,-1656.7 835.5,-1656.7 835.5,-1637.7 794.5,-1637.7"/>
<text text-anchor="start" x="816.9053" y="-1643.8" font-family="Helvetica,sans-Serif" font-size="11.00" fill="#000000">4 &gt;</text>
</a>
</g>
</g>
<!-- notifications_messages&#45;&gt;servers -->
<g id="edge7" class="edge">
<title>notifications_messages:w&#45;&gt;servers:e</title>
<path fill="none" stroke="#000000" d="M663.725,-1665.4333C632.5646,-1664.1104 614.9503,-1657.0849 595,-1627.7 543.5731,-1551.953 646.0551,-804.7 554.5,-804.7"/>
<polygon fill="#000000" stroke="#000000" points="670.5013,-1665.5556 678.435,-1669.2994 674.5007,-1665.6278 678.5,-1665.7 678.5,-1665.7 678.5,-1665.7 674.5007,-1665.6278 678.565,-1662.1006 670.5013,-1665.5556 670.5013,-1665.5556"/>
<ellipse fill="none" stroke="#000000" cx="667.3018" cy="-1665.4978" rx="3.2" ry="3.2"/>
</g>
<!-- notifications_messages&#45;&gt;organizations -->
<g id="edge6" class="edge">
<title>notifications_messages:w&#45;&gt;organizations:e</title>
<path fill="none" stroke="#000000" d="M663.8495,-1665.0968C481.8491,-1649.9722 366.97,-1350.8419 157,-816.7 130.4586,-749.1814 188.548,-658.7 116,-658.7"/>
<polygon fill="#000000" stroke="#000000" points="670.5068,-1665.3709 678.3519,-1669.297 674.5034,-1665.5354 678.5,-1665.7 678.5,-1665.7 678.5,-1665.7 674.5034,-1665.5354 678.6481,-1662.103 670.5068,-1665.3709 670.5068,-1665.3709"/>
<ellipse fill="none" stroke="#000000" cx="667.3095" cy="-1665.2392" rx="3.2" ry="3.2"/>
</g>
<!-- protect_license_usage -->
<g id="node8" class="node">
<title>protect_license_usage</title>
<g id="a_node8"><a xlink:href="../../tables/protect_license_usage.html" xlink:title="protect_license_usage" target="_top">
<polygon fill="#ffffff" stroke="transparent" points="680,-1556.2 680,-1617.2 833,-1617.2 833,-1556.2 680,-1556.2"/>
<polygon fill="#f5f5f5" stroke="transparent" points="680.5,-1593.7 680.5,-1616.7 833.5,-1616.7 833.5,-1593.7 680.5,-1593.7"/>
<polygon fill="none" stroke="#000000" points="680.5,-1593.7 680.5,-1616.7 833.5,-1616.7 833.5,-1593.7 680.5,-1593.7"/>
<text text-anchor="start" x="685.4819" y="-1602.8" font-family="Helvetica,sans-Serif" font-weight="bold" font-size="11.00" fill="#000000">protect_license_usage</text>
<text text-anchor="start" x="799.0219" y="-1601.8" font-family="Helvetica,sans-Serif" font-size="11.00" fill="#000000">[table]</text>
<polygon fill="none" stroke="#000000" points="680.5,-1574.7 680.5,-1593.7 833.5,-1593.7 833.5,-1574.7 680.5,-1574.7"/>
<text text-anchor="start" x="683.5" y="-1580.8" font-family="Helvetica,sans-Serif" font-size="11.00" fill="#000000">...</text>
<polygon fill="#ffffff" stroke="transparent" points="680.5,-1555.7 680.5,-1574.7 742.5,-1574.7 742.5,-1555.7 680.5,-1555.7"/>
<polygon fill="none" stroke="#000000" points="680.5,-1555.7 680.5,-1574.7 742.5,-1574.7 742.5,-1555.7 680.5,-1555.7"/>
<text text-anchor="start" x="683.5" y="-1561.8" font-family="Helvetica,sans-Serif" font-size="11.00" fill="#000000">&lt; 2</text>
<polygon fill="#ffffff" stroke="transparent" points="742.5,-1555.7 742.5,-1574.7 800.5,-1574.7 800.5,-1555.7 742.5,-1555.7"/>
<polygon fill="none" stroke="#000000" points="742.5,-1555.7 742.5,-1574.7 800.5,-1574.7 800.5,-1555.7 742.5,-1555.7"/>
<text text-anchor="start" x="765.1105" y="-1561.8" font-family="Helvetica,sans-Serif" font-size="11.00" fill="#000000">0 rows</text>
<polygon fill="#ffffff" stroke="transparent" points="800.5,-1555.7 800.5,-1574.7 833.5,-1574.7 833.5,-1555.7 800.5,-1555.7"/>
<polygon fill="none" stroke="#000000" points="800.5,-1555.7 800.5,-1574.7 833.5,-1574.7 833.5,-1555.7 800.5,-1555.7"/>
<text text-anchor="start" x="824.3862" y="-1561.8" font-family="Helvetica,sans-Serif" font-size="11.00" fill="#000000"> &#160;</text>
</a>
</g>
</g>
<!-- protect_license_usage&#45;&gt;servers -->
<g id="edge9" class="edge">
<title>protect_license_usage:w&#45;&gt;servers:e</title>
<path fill="none" stroke="#000000" d="M665.8551,-1583.4714C633.7863,-1582.283 615.6527,-1575.6568 595,-1545.7 548.1979,-1477.8134 636.9562,-804.7 554.5,-804.7"/>
<polygon fill="#000000" stroke="#000000" points="672.501,-1583.5751 680.4438,-1587.2996 676.5005,-1583.6375 680.5,-1583.7 680.5,-1583.7 680.5,-1583.7 676.5005,-1583.6375 680.5562,-1580.1004 672.501,-1583.5751 672.501,-1583.5751"/>
<ellipse fill="none" stroke="#000000" cx="669.3014" cy="-1583.5251" rx="3.2" ry="3.2"/>
</g>
<!-- protect_license_usage&#45;&gt;organizations -->
<g id="edge8" class="edge">
<title>protect_license_usage:w&#45;&gt;organizations:e</title>
<path fill="none" stroke="#000000" d="M665.8859,-1583.4497C633.9505,-1582.1671 616.3093,-1575.1934 595,-1545.7 551.4501,-1485.4241 590.5977,-1281.3437 562,-1212.7 453.3444,-951.8914 323.5084,-950.9588 157,-722.7 137.0919,-695.4089 149.7807,-658.7 116,-658.7"/>
<polygon fill="#000000" stroke="#000000" points="672.5012,-1583.5629 680.4383,-1587.2995 676.5006,-1583.6315 680.5,-1583.7 680.5,-1583.7 680.5,-1583.7 676.5006,-1583.6315 680.5617,-1580.1005 672.5012,-1583.5629 672.5012,-1583.5629"/>
<ellipse fill="none" stroke="#000000" cx="669.3016" cy="-1583.5081" rx="3.2" ry="3.2"/>
</g>
<!-- rasp_application_request_activity -->
<g id="node9" class="node">
<title>rasp_application_request_activity</title>
<g id="a_node9"><a xlink:href="../../tables/rasp_application_request_activity.html" xlink:title="rasp_application_request_activity" target="_top">
<polygon fill="#ffffff" stroke="transparent" points="654,-558.2 654,-619.2 859,-619.2 859,-558.2 654,-558.2"/>
<polygon fill="#f5f5f5" stroke="transparent" points="654.5,-595.7 654.5,-618.7 859.5,-618.7 859.5,-595.7 654.5,-595.7"/>
<polygon fill="none" stroke="#000000" points="654.5,-595.7 654.5,-618.7 859.5,-618.7 859.5,-595.7 654.5,-595.7"/>
<text text-anchor="start" x="659.2029" y="-604.8" font-family="Helvetica,sans-Serif" font-weight="bold" font-size="11.00" fill="#000000">rasp_application_request_activity</text>
<text text-anchor="start" x="825.0219" y="-603.8" font-family="Helvetica,sans-Serif" font-size="11.00" fill="#000000">[table]</text>
<polygon fill="none" stroke="#000000" points="654.5,-576.7 654.5,-595.7 859.5,-595.7 859.5,-576.7 654.5,-576.7"/>
<text text-anchor="start" x="657.5" y="-582.8" font-family="Helvetica,sans-Serif" font-size="11.00" fill="#000000">...</text>
<polygon fill="#ffffff" stroke="transparent" points="654.5,-557.7 654.5,-576.7 742.5,-576.7 742.5,-557.7 654.5,-557.7"/>
<polygon fill="none" stroke="#000000" points="654.5,-557.7 654.5,-576.7 742.5,-576.7 742.5,-557.7 654.5,-557.7"/>
<text text-anchor="start" x="657.5" y="-563.8" font-family="Helvetica,sans-Serif" font-size="11.00" fill="#000000">&lt; 2</text>
<polygon fill="#ffffff" stroke="transparent" points="742.5,-557.7 742.5,-576.7 813.5,-576.7 813.5,-557.7 742.5,-557.7"/>
<polygon fill="none" stroke="#000000" points="742.5,-557.7 742.5,-576.7 813.5,-576.7 813.5,-557.7 742.5,-557.7"/>
<text text-anchor="start" x="778.1105" y="-563.8" font-family="Helvetica,sans-Serif" font-size="11.00" fill="#000000">0 rows</text>
<polygon fill="#ffffff" stroke="transparent" points="813.5,-557.7 813.5,-576.7 859.5,-576.7 859.5,-557.7 813.5,-557.7"/>
<polygon fill="none" stroke="#000000" points="813.5,-557.7 813.5,-576.7 859.5,-576.7 859.5,-557.7 813.5,-557.7"/>
<text text-anchor="start" x="850.3862" y="-563.8" font-family="Helvetica,sans-Serif" font-size="11.00" fill="#000000"> &#160;</text>
</a>
</g>
</g>
<!-- rasp_application_request_activity&#45;&gt;servers -->
<g id="edge10" class="edge">
<title>rasp_application_request_activity:w&#45;&gt;servers:e</title>
<path fill="none" stroke="#000000" d="M640.127,-587.0082C618.5446,-591.4108 610.0842,-606.7137 595,-629.7 551.2001,-696.4454 634.3335,-804.7 554.5,-804.7"/>
<polygon fill="#000000" stroke="#000000" points="646.5329,-586.4252 654.8263,-589.2852 650.5165,-586.0626 654.5,-585.7 654.5,-585.7 654.5,-585.7 650.5165,-586.0626 654.1737,-582.1148 646.5329,-586.4252 646.5329,-586.4252"/>
<ellipse fill="none" stroke="#000000" cx="643.3461" cy="-586.7153" rx="3.2" ry="3.2"/>
</g>
<!-- rasp_attack_event -->
<g id="node10" class="node">
<title>rasp_attack_event</title>
<g id="a_node10"><a xlink:href="../../tables/rasp_attack_event.html" xlink:title="rasp_attack_event" target="_top">
<polygon fill="#ffffff" stroke="transparent" points="959,-450.2 959,-511.2 1091,-511.2 1091,-450.2 959,-450.2"/>
<polygon fill="#f5f5f5" stroke="transparent" points="959,-487.7 959,-510.7 1091,-510.7 1091,-487.7 959,-487.7"/>
<polygon fill="none" stroke="#000000" points="959,-487.7 959,-510.7 1091,-510.7 1091,-487.7 959,-487.7"/>
<text text-anchor="start" x="963.5667" y="-496.8" font-family="Helvetica,sans-Serif" font-weight="bold" font-size="11.00" fill="#000000">rasp_attack_event</text>
<text text-anchor="start" x="1056.5219" y="-495.8" font-family="Helvetica,sans-Serif" font-size="11.00" fill="#000000">[table]</text>
<polygon fill="none" stroke="#000000" points="959,-468.7 959,-487.7 1091,-487.7 1091,-468.7 959,-468.7"/>
<text text-anchor="start" x="962" y="-474.8" font-family="Helvetica,sans-Serif" font-size="11.00" fill="#000000">...</text>
<polygon fill="#ffffff" stroke="transparent" points="959,-449.7 959,-468.7 1006,-468.7 1006,-449.7 959,-449.7"/>
<polygon fill="none" stroke="#000000" points="959,-449.7 959,-468.7 1006,-468.7 1006,-449.7 959,-449.7"/>
<text text-anchor="start" x="962" y="-455.8" font-family="Helvetica,sans-Serif" font-size="11.00" fill="#000000">&lt; 7</text>
<polygon fill="#ffffff" stroke="transparent" points="1006,-449.7 1006,-468.7 1057,-468.7 1057,-449.7 1006,-449.7"/>
<polygon fill="none" stroke="#000000" points="1006,-449.7 1006,-468.7 1057,-468.7 1057,-449.7 1006,-449.7"/>
<text text-anchor="start" x="1021.6105" y="-455.8" font-family="Helvetica,sans-Serif" font-size="11.00" fill="#000000">0 rows</text>
<polygon fill="#ffffff" stroke="transparent" points="1057,-449.7 1057,-468.7 1091,-468.7 1091,-449.7 1057,-449.7"/>
<polygon fill="none" stroke="#000000" points="1057,-449.7 1057,-468.7 1091,-468.7 1091,-449.7 1057,-449.7"/>
<text text-anchor="start" x="1072.4053" y="-455.8" font-family="Helvetica,sans-Serif" font-size="11.00" fill="#000000">5 &gt;</text>
</a>
</g>
</g>
<!-- rasp_attack_event&#45;&gt;servers -->
<g id="edge12" class="edge">
<title>rasp_attack_event:w&#45;&gt;servers:e</title>
<path fill="none" stroke="#000000" d="M944.5783,-475.3587C936.3532,-472.4167 930.7744,-467.531 918,-465.7 846.9484,-455.5158 648.6806,-418.0508 595,-465.7 538.2597,-516.0651 630.369,-804.7 554.5,-804.7"/>
<polygon fill="#000000" stroke="#000000" points="951.1034,-476.418 958.4231,-481.2535 955.0517,-477.059 959,-477.7 959,-477.7 959,-477.7 955.0517,-477.059 959.5769,-474.1465 951.1034,-476.418 951.1034,-476.418"/>
<ellipse fill="none" stroke="#000000" cx="947.9447" cy="-475.9052" rx="3.2" ry="3.2"/>
</g>
<!-- rasp_messages -->
<g id="node11" class="node">
<title>rasp_messages</title>
<g id="a_node11"><a xlink:href="../../tables/rasp_messages.html" xlink:title="rasp_messages" target="_top">
<polygon fill="#ffffff" stroke="transparent" points="696.5,-476.2 696.5,-537.2 816.5,-537.2 816.5,-476.2 696.5,-476.2"/>
<polygon fill="#f5f5f5" stroke="transparent" points="696.5,-513.7 696.5,-536.7 816.5,-536.7 816.5,-513.7 696.5,-513.7"/>
<polygon fill="none" stroke="#000000" points="696.5,-513.7 696.5,-536.7 816.5,-536.7 816.5,-513.7 696.5,-513.7"/>
<text text-anchor="start" x="701.186" y="-522.8" font-family="Helvetica,sans-Serif" font-weight="bold" font-size="11.00" fill="#000000">rasp_messages</text>
<text text-anchor="start" x="782.0219" y="-521.8" font-family="Helvetica,sans-Serif" font-size="11.00" fill="#000000">[table]</text>
<polygon fill="none" stroke="#000000" points="696.5,-494.7 696.5,-513.7 816.5,-513.7 816.5,-494.7 696.5,-494.7"/>
<text text-anchor="start" x="699.5" y="-500.8" font-family="Helvetica,sans-Serif" font-size="11.00" fill="#000000">...</text>
<polygon fill="#ffffff" stroke="transparent" points="696.5,-475.7 696.5,-494.7 737.5,-494.7 737.5,-475.7 696.5,-475.7"/>
<polygon fill="none" stroke="#000000" points="696.5,-475.7 696.5,-494.7 737.5,-494.7 737.5,-475.7 696.5,-475.7"/>
<text text-anchor="start" x="699.5" y="-481.8" font-family="Helvetica,sans-Serif" font-size="11.00" fill="#000000">&lt; 2</text>
<polygon fill="#ffffff" stroke="transparent" points="737.5,-475.7 737.5,-494.7 785.5,-494.7 785.5,-475.7 737.5,-475.7"/>
<polygon fill="none" stroke="#000000" points="737.5,-475.7 737.5,-494.7 785.5,-494.7 785.5,-475.7 737.5,-475.7"/>
<text text-anchor="start" x="750.1105" y="-481.8" font-family="Helvetica,sans-Serif" font-size="11.00" fill="#000000">0 rows</text>
<polygon fill="#ffffff" stroke="transparent" points="785.5,-475.7 785.5,-494.7 816.5,-494.7 816.5,-475.7 785.5,-475.7"/>
<polygon fill="none" stroke="#000000" points="785.5,-475.7 785.5,-494.7 816.5,-494.7 816.5,-475.7 785.5,-475.7"/>
<text text-anchor="start" x="797.9053" y="-481.8" font-family="Helvetica,sans-Serif" font-size="11.00" fill="#000000">3 &gt;</text>
</a>
</g>
</g>
<!-- rasp_attack_event&#45;&gt;rasp_messages -->
<g id="edge11" class="edge">
<title>rasp_attack_event:w&#45;&gt;rasp_messages:e</title>
<path fill="none" stroke="#000000" d="M944.4561,-478.1735C892.0955,-481.6973 875.7236,-503.7 816.5,-503.7"/>
<polygon fill="#000000" stroke="#000000" points="951.0042,-477.9604 959.1172,-481.2981 955.0021,-477.8302 959,-477.7 959,-477.7 959,-477.7 955.0021,-477.8302 958.8828,-474.1019 951.0042,-477.9604 951.0042,-477.9604"/>
<ellipse fill="none" stroke="#000000" cx="947.8059" cy="-478.0645" rx="3.2" ry="3.2"/>
</g>
<!-- rasp_messages&#45;&gt;servers -->
<g id="edge14" class="edge">
<title>rasp_messages:w&#45;&gt;servers:e</title>
<path fill="none" stroke="#000000" d="M682.0587,-503.8966C642.6469,-505.1234 621.9909,-512.8526 595,-547.7 559.5966,-593.4086 612.3159,-804.7 554.5,-804.7"/>
<polygon fill="#000000" stroke="#000000" points="688.5007,-503.809 696.549,-507.2997 692.5004,-503.7545 696.5,-503.7 696.5,-503.7 696.5,-503.7 692.5004,-503.7545 696.451,-500.1003 688.5007,-503.809 688.5007,-503.809"/>
<ellipse fill="none" stroke="#000000" cx="685.301" cy="-503.8525" rx="3.2" ry="3.2"/>
</g>
<!-- rasp_attacks_applications_servers_map -->
<g id="node12" class="node">
<title>rasp_attacks_applications_servers_map</title>
<g id="a_node12"><a xlink:href="../../tables/rasp_attacks_applications_servers_map.html" xlink:title="rasp_attacks_applications_servers_map" target="_top">
<polygon fill="#ffffff" stroke="transparent" points="637,-366.2 637,-427.2 876,-427.2 876,-366.2 637,-366.2"/>
<polygon fill="#f5f5f5" stroke="transparent" points="637.5,-403.7 637.5,-426.7 876.5,-426.7 876.5,-403.7 637.5,-403.7"/>
<polygon fill="none" stroke="#000000" points="637.5,-403.7 637.5,-426.7 876.5,-426.7 876.5,-403.7 637.5,-403.7"/>
<text text-anchor="start" x="642.3954" y="-412.8" font-family="Helvetica,sans-Serif" font-weight="bold" font-size="11.00" fill="#000000">rasp_attacks_applications_servers_map</text>
<text text-anchor="start" x="842.0219" y="-411.8" font-family="Helvetica,sans-Serif" font-size="11.00" fill="#000000">[table]</text>
<polygon fill="none" stroke="#000000" points="637.5,-384.7 637.5,-403.7 876.5,-403.7 876.5,-384.7 637.5,-384.7"/>
<text text-anchor="start" x="640.5" y="-390.8" font-family="Helvetica,sans-Serif" font-size="11.00" fill="#000000">...</text>
<polygon fill="#ffffff" stroke="transparent" points="637.5,-365.7 637.5,-384.7 742.5,-384.7 742.5,-365.7 637.5,-365.7"/>
<polygon fill="none" stroke="#000000" points="637.5,-365.7 637.5,-384.7 742.5,-384.7 742.5,-365.7 637.5,-365.7"/>
<text text-anchor="start" x="640.5" y="-371.8" font-family="Helvetica,sans-Serif" font-size="11.00" fill="#000000">&lt; 2</text>
<polygon fill="#ffffff" stroke="transparent" points="742.5,-365.7 742.5,-384.7 822.5,-384.7 822.5,-365.7 742.5,-365.7"/>
<polygon fill="none" stroke="#000000" points="742.5,-365.7 742.5,-384.7 822.5,-384.7 822.5,-365.7 742.5,-365.7"/>
<text text-anchor="start" x="787.1105" y="-371.8" font-family="Helvetica,sans-Serif" font-size="11.00" fill="#000000">0 rows</text>
<polygon fill="#ffffff" stroke="transparent" points="822.5,-365.7 822.5,-384.7 876.5,-384.7 876.5,-365.7 822.5,-365.7"/>
<polygon fill="none" stroke="#000000" points="822.5,-365.7 822.5,-384.7 876.5,-384.7 876.5,-365.7 822.5,-365.7"/>
<text text-anchor="start" x="867.3862" y="-371.8" font-family="Helvetica,sans-Serif" font-size="11.00" fill="#000000"> &#160;</text>
</a>
</g>
</g>
<!-- rasp_attacks_applications_servers_map&#45;&gt;servers -->
<g id="edge13" class="edge">
<title>rasp_attacks_applications_servers_map:w&#45;&gt;servers:e</title>
<path fill="none" stroke="#000000" d="M623.0664,-396.2682C607.6377,-402.789 604.2152,-420.948 595,-441.7 562.0586,-515.882 635.6672,-804.7 554.5,-804.7"/>
<polygon fill="#000000" stroke="#000000" points="629.6237,-395.1015 638.1307,-397.2443 633.5619,-394.4007 637.5,-393.7 637.5,-393.7 637.5,-393.7 633.5619,-394.4007 636.8693,-390.1557 629.6237,-395.1015 629.6237,-395.1015"/>
<ellipse fill="none" stroke="#000000" cx="626.4732" cy="-395.6621" rx="3.2" ry="3.2"/>
</g>
<!-- rasp_messages_day_aggs -->
<g id="node13" class="node">
<title>rasp_messages_day_aggs</title>
<g id="a_node13"><a xlink:href="../../tables/rasp_messages_day_aggs.html" xlink:title="rasp_messages_day_aggs" target="_top">
<polygon fill="#ffffff" stroke="transparent" points="669.5,-284.2 669.5,-345.2 843.5,-345.2 843.5,-284.2 669.5,-284.2"/>
<polygon fill="#f5f5f5" stroke="transparent" points="669.5,-321.7 669.5,-344.7 843.5,-344.7 843.5,-321.7 669.5,-321.7"/>
<polygon fill="none" stroke="#000000" points="669.5,-321.7 669.5,-344.7 843.5,-344.7 843.5,-321.7 669.5,-321.7"/>
<text text-anchor="start" x="674.2838" y="-330.8" font-family="Helvetica,sans-Serif" font-weight="bold" font-size="11.00" fill="#000000">rasp_messages_day_aggs</text>
<text text-anchor="start" x="809.0219" y="-329.8" font-family="Helvetica,sans-Serif" font-size="11.00" fill="#000000">[table]</text>
<polygon fill="none" stroke="#000000" points="669.5,-302.7 669.5,-321.7 843.5,-321.7 843.5,-302.7 669.5,-302.7"/>
<text text-anchor="start" x="672.5" y="-308.8" font-family="Helvetica,sans-Serif" font-size="11.00" fill="#000000">...</text>
<polygon fill="#ffffff" stroke="transparent" points="669.5,-283.7 669.5,-302.7 741.5,-302.7 741.5,-283.7 669.5,-283.7"/>
<polygon fill="none" stroke="#000000" points="669.5,-283.7 669.5,-302.7 741.5,-302.7 741.5,-283.7 669.5,-283.7"/>
<text text-anchor="start" x="672.5" y="-289.8" font-family="Helvetica,sans-Serif" font-size="11.00" fill="#000000">&lt; 3</text>
<polygon fill="#ffffff" stroke="transparent" points="741.5,-283.7 741.5,-302.7 805.5,-302.7 805.5,-283.7 741.5,-283.7"/>
<polygon fill="none" stroke="#000000" points="741.5,-283.7 741.5,-302.7 805.5,-302.7 805.5,-283.7 741.5,-283.7"/>
<text text-anchor="start" x="770.1105" y="-289.8" font-family="Helvetica,sans-Serif" font-size="11.00" fill="#000000">0 rows</text>
<polygon fill="#ffffff" stroke="transparent" points="805.5,-283.7 805.5,-302.7 843.5,-302.7 843.5,-283.7 805.5,-283.7"/>
<polygon fill="none" stroke="#000000" points="805.5,-283.7 805.5,-302.7 843.5,-302.7 843.5,-283.7 805.5,-283.7"/>
<text text-anchor="start" x="834.3862" y="-289.8" font-family="Helvetica,sans-Serif" font-size="11.00" fill="#000000"> &#160;</text>
</a>
</g>
</g>
<!-- rasp_messages_day_aggs&#45;&gt;servers -->
<g id="edge16" class="edge">
<title>rasp_messages_day_aggs:w&#45;&gt;servers:e</title>
<path fill="none" stroke="#000000" d="M654.9432,-312.3688C626.7126,-315.2355 612.7361,-327.6378 595,-355.7 568.238,-398.0432 604.5914,-804.7 554.5,-804.7"/>
<polygon fill="#000000" stroke="#000000" points="661.5084,-312.0672 669.6653,-315.2962 665.5042,-311.8836 669.5,-311.7 669.5,-311.7 669.5,-311.7 665.5042,-311.8836 669.3347,-308.1038 661.5084,-312.0672 661.5084,-312.0672"/>
<ellipse fill="none" stroke="#000000" cx="658.3118" cy="-312.2141" rx="3.2" ry="3.2"/>
</g>
<!-- rasp_messages_day_aggs&#45;&gt;organizations -->
<g id="edge15" class="edge">
<title>rasp_messages_day_aggs:w&#45;&gt;organizations:e</title>
<path fill="none" stroke="#000000" d="M654.8639,-312.6444C628.0229,-316.4674 617.7647,-331.7444 595,-355.7 573.2261,-378.613 585.5036,-397.5649 562,-418.7 485.5954,-487.4049 438.8781,-457.6952 347,-503.7 258.3242,-548.1013 235.9666,-560.7072 157,-620.7 137.2166,-635.7299 140.8452,-658.7 116,-658.7"/>
<polygon fill="#000000" stroke="#000000" points="661.5166,-312.2152 669.7318,-315.2925 665.5083,-311.9576 669.5,-311.7 669.5,-311.7 669.5,-311.7 665.5083,-311.9576 669.2682,-308.1075 661.5166,-312.2152 661.5166,-312.2152"/>
<ellipse fill="none" stroke="#000000" cx="658.3232" cy="-312.4213" rx="3.2" ry="3.2"/>
</g>
<!-- rasp_messages_hour_aggs -->
<g id="node14" class="node">
<title>rasp_messages_hour_aggs</title>
<g id="a_node14"><a xlink:href="../../tables/rasp_messages_hour_aggs.html" xlink:title="rasp_messages_hour_aggs" target="_top">
<polygon fill="#ffffff" stroke="transparent" points="667.5,-202.2 667.5,-263.2 845.5,-263.2 845.5,-202.2 667.5,-202.2"/>
<polygon fill="#f5f5f5" stroke="transparent" points="667.5,-239.7 667.5,-262.7 845.5,-262.7 845.5,-239.7 667.5,-239.7"/>
<polygon fill="none" stroke="#000000" points="667.5,-239.7 667.5,-262.7 845.5,-262.7 845.5,-239.7 667.5,-239.7"/>
<text text-anchor="start" x="672.1454" y="-248.8" font-family="Helvetica,sans-Serif" font-weight="bold" font-size="11.00" fill="#000000">rasp_messages_hour_aggs</text>
<text text-anchor="start" x="811.0219" y="-247.8" font-family="Helvetica,sans-Serif" font-size="11.00" fill="#000000">[table]</text>
<polygon fill="none" stroke="#000000" points="667.5,-220.7 667.5,-239.7 845.5,-239.7 845.5,-220.7 667.5,-220.7"/>
<text text-anchor="start" x="670.5" y="-226.8" font-family="Helvetica,sans-Serif" font-size="11.00" fill="#000000">...</text>
<polygon fill="#ffffff" stroke="transparent" points="667.5,-201.7 667.5,-220.7 741.5,-220.7 741.5,-201.7 667.5,-201.7"/>
<polygon fill="none" stroke="#000000" points="667.5,-201.7 667.5,-220.7 741.5,-220.7 741.5,-201.7 667.5,-201.7"/>
<text text-anchor="start" x="670.5" y="-207.8" font-family="Helvetica,sans-Serif" font-size="11.00" fill="#000000">&lt; 3</text>
<polygon fill="#ffffff" stroke="transparent" points="741.5,-201.7 741.5,-220.7 806.5,-220.7 806.5,-201.7 741.5,-201.7"/>
<polygon fill="none" stroke="#000000" points="741.5,-201.7 741.5,-220.7 806.5,-220.7 806.5,-201.7 741.5,-201.7"/>
<text text-anchor="start" x="771.1105" y="-207.8" font-family="Helvetica,sans-Serif" font-size="11.00" fill="#000000">0 rows</text>
<polygon fill="#ffffff" stroke="transparent" points="806.5,-201.7 806.5,-220.7 845.5,-220.7 845.5,-201.7 806.5,-201.7"/>
<polygon fill="none" stroke="#000000" points="806.5,-201.7 806.5,-220.7 845.5,-220.7 845.5,-201.7 806.5,-201.7"/>
<text text-anchor="start" x="836.3862" y="-207.8" font-family="Helvetica,sans-Serif" font-size="11.00" fill="#000000"> &#160;</text>
</a>
</g>
</g>
<!-- rasp_messages_hour_aggs&#45;&gt;servers -->
<g id="edge18" class="edge">
<title>rasp_messages_hour_aggs:w&#45;&gt;servers:e</title>
<path fill="none" stroke="#000000" d="M652.8642,-230.4281C625.4739,-233.4417 611.9506,-246.0976 595,-273.7 564.0354,-324.1227 613.6714,-804.7 554.5,-804.7"/>
<polygon fill="#000000" stroke="#000000" points="659.5099,-230.0975 667.6789,-233.2956 663.5049,-229.8988 667.5,-229.7 667.5,-229.7 667.5,-229.7 663.5049,-229.8988 667.3211,-226.1044 659.5099,-230.0975 659.5099,-230.0975"/>
<ellipse fill="none" stroke="#000000" cx="656.3138" cy="-230.2565" rx="3.2" ry="3.2"/>
</g>
<!-- rasp_messages_hour_aggs&#45;&gt;organizations -->
<g id="edge17" class="edge">
<title>rasp_messages_hour_aggs:w&#45;&gt;organizations:e</title>
<path fill="none" stroke="#000000" d="M652.9167,-230.8188C627.3123,-235.1669 618.659,-251.7922 595,-273.7 576.5382,-290.7953 581.3746,-303.6467 562,-319.7 407.5684,-447.6582 284.3001,-363.7255 157,-518.7 115.8464,-568.8002 180.8356,-658.7 116,-658.7"/>
<polygon fill="#000000" stroke="#000000" points="659.5234,-230.312 667.7754,-233.2895 663.5117,-230.006 667.5,-229.7 667.5,-229.7 667.5,-229.7 663.5117,-230.006 667.2246,-226.1105 659.5234,-230.312 659.5234,-230.312"/>
<ellipse fill="none" stroke="#000000" cx="656.3328" cy="-230.5568" rx="3.2" ry="3.2"/>
</g>
<!-- rasp_messages_minute_aggs -->
<g id="node15" class="node">
<title>rasp_messages_minute_aggs</title>
<g id="a_node15"><a xlink:href="../../tables/rasp_messages_minute_aggs.html" xlink:title="rasp_messages_minute_aggs" target="_top">
<polygon fill="#ffffff" stroke="transparent" points="662,-120.2 662,-181.2 851,-181.2 851,-120.2 662,-120.2"/>
<polygon fill="#f5f5f5" stroke="transparent" points="662.5,-157.7 662.5,-180.7 851.5,-180.7 851.5,-157.7 662.5,-157.7"/>
<polygon fill="none" stroke="#000000" points="662.5,-157.7 662.5,-180.7 851.5,-180.7 851.5,-157.7 662.5,-157.7"/>
<text text-anchor="start" x="667.1465" y="-166.8" font-family="Helvetica,sans-Serif" font-weight="bold" font-size="11.00" fill="#000000">rasp_messages_minute_aggs</text>
<text text-anchor="start" x="817.0219" y="-165.8" font-family="Helvetica,sans-Serif" font-size="11.00" fill="#000000">[table]</text>
<polygon fill="none" stroke="#000000" points="662.5,-138.7 662.5,-157.7 851.5,-157.7 851.5,-138.7 662.5,-138.7"/>
<text text-anchor="start" x="665.5" y="-144.8" font-family="Helvetica,sans-Serif" font-size="11.00" fill="#000000">...</text>
<polygon fill="#ffffff" stroke="transparent" points="662.5,-119.7 662.5,-138.7 742.5,-138.7 742.5,-119.7 662.5,-119.7"/>
<polygon fill="none" stroke="#000000" points="662.5,-119.7 662.5,-138.7 742.5,-138.7 742.5,-119.7 662.5,-119.7"/>
<text text-anchor="start" x="665.5" y="-125.8" font-family="Helvetica,sans-Serif" font-size="11.00" fill="#000000">&lt; 3</text>
<polygon fill="#ffffff" stroke="transparent" points="742.5,-119.7 742.5,-138.7 809.5,-138.7 809.5,-119.7 742.5,-119.7"/>
<polygon fill="none" stroke="#000000" points="742.5,-119.7 742.5,-138.7 809.5,-138.7 809.5,-119.7 742.5,-119.7"/>
<text text-anchor="start" x="774.1105" y="-125.8" font-family="Helvetica,sans-Serif" font-size="11.00" fill="#000000">0 rows</text>
<polygon fill="#ffffff" stroke="transparent" points="809.5,-119.7 809.5,-138.7 851.5,-138.7 851.5,-119.7 809.5,-119.7"/>
<polygon fill="none" stroke="#000000" points="809.5,-119.7 809.5,-138.7 851.5,-138.7 851.5,-119.7 809.5,-119.7"/>
<text text-anchor="start" x="842.3862" y="-125.8" font-family="Helvetica,sans-Serif" font-size="11.00" fill="#000000"> &#160;</text>
</a>
</g>
</g>
<!-- rasp_messages_minute_aggs&#45;&gt;servers -->
<g id="edge20" class="edge">
<title>rasp_messages_minute_aggs:w&#45;&gt;servers:e</title>
<path fill="none" stroke="#000000" d="M647.9338,-148.581C622.5528,-151.9797 610.4044,-165.3815 595,-191.7 560.5192,-250.6105 622.7596,-804.7 554.5,-804.7"/>
<polygon fill="#000000" stroke="#000000" points="654.5146,-148.183 662.7174,-151.2934 658.5073,-147.9415 662.5,-147.7 662.5,-147.7 662.5,-147.7 658.5073,-147.9415 662.2826,-144.1066 654.5146,-148.183 654.5146,-148.183"/>
<ellipse fill="none" stroke="#000000" cx="651.3204" cy="-148.3762" rx="3.2" ry="3.2"/>
</g>
<!-- rasp_messages_minute_aggs&#45;&gt;organizations -->
<g id="edge19" class="edge">
<title>rasp_messages_minute_aggs:w&#45;&gt;organizations:e</title>
<path fill="none" stroke="#000000" d="M647.7727,-147.7714C404.1947,-150.1697 302.9236,-213.5425 157,-415.7 124.948,-460.1037 170.7632,-658.7 116,-658.7"/>
<polygon fill="#000000" stroke="#000000" points="654.5001,-147.7388 662.5175,-151.3 658.5,-147.7194 662.5,-147.7 662.5,-147.7 662.5,-147.7 658.5,-147.7194 662.4825,-144.1 654.5001,-147.7388 654.5001,-147.7388"/>
<ellipse fill="none" stroke="#000000" cx="651.3001" cy="-147.7543" rx="3.2" ry="3.2"/>
</g>
<!-- rasp_messages_second_aggs -->
<g id="node16" class="node">
<title>rasp_messages_second_aggs</title>
<g id="a_node16"><a xlink:href="../../tables/rasp_messages_second_aggs.html" xlink:title="rasp_messages_second_aggs" target="_top">
<polygon fill="#ffffff" stroke="transparent" points="660.5,-38.2 660.5,-99.2 852.5,-99.2 852.5,-38.2 660.5,-38.2"/>
<polygon fill="#f5f5f5" stroke="transparent" points="660.5,-75.7 660.5,-98.7 852.5,-98.7 852.5,-75.7 660.5,-75.7"/>
<polygon fill="none" stroke="#000000" points="660.5,-75.7 660.5,-98.7 852.5,-98.7 852.5,-75.7 660.5,-75.7"/>
<text text-anchor="start" x="665.4189" y="-84.8" font-family="Helvetica,sans-Serif" font-weight="bold" font-size="11.00" fill="#000000">rasp_messages_second_aggs</text>
<text text-anchor="start" x="818.0219" y="-83.8" font-family="Helvetica,sans-Serif" font-size="11.00" fill="#000000">[table]</text>
<polygon fill="none" stroke="#000000" points="660.5,-56.7 660.5,-75.7 852.5,-75.7 852.5,-56.7 660.5,-56.7"/>
<text text-anchor="start" x="663.5" y="-62.8" font-family="Helvetica,sans-Serif" font-size="11.00" fill="#000000">...</text>
<polygon fill="#ffffff" stroke="transparent" points="660.5,-37.7 660.5,-56.7 741.5,-56.7 741.5,-37.7 660.5,-37.7"/>
<polygon fill="none" stroke="#000000" points="660.5,-37.7 660.5,-56.7 741.5,-56.7 741.5,-37.7 660.5,-37.7"/>
<text text-anchor="start" x="663.5" y="-43.8" font-family="Helvetica,sans-Serif" font-size="11.00" fill="#000000">&lt; 3</text>
<polygon fill="#ffffff" stroke="transparent" points="741.5,-37.7 741.5,-56.7 809.5,-56.7 809.5,-37.7 741.5,-37.7"/>
<polygon fill="none" stroke="#000000" points="741.5,-37.7 741.5,-56.7 809.5,-56.7 809.5,-37.7 741.5,-37.7"/>
<text text-anchor="start" x="774.1105" y="-43.8" font-family="Helvetica,sans-Serif" font-size="11.00" fill="#000000">0 rows</text>
<polygon fill="#ffffff" stroke="transparent" points="809.5,-37.7 809.5,-56.7 852.5,-56.7 852.5,-37.7 809.5,-37.7"/>
<polygon fill="none" stroke="#000000" points="809.5,-37.7 809.5,-56.7 852.5,-56.7 852.5,-37.7 809.5,-37.7"/>
<text text-anchor="start" x="843.3862" y="-43.8" font-family="Helvetica,sans-Serif" font-size="11.00" fill="#000000"> &#160;</text>
</a>
</g>
</g>
<!-- rasp_messages_second_aggs&#45;&gt;servers -->
<g id="edge22" class="edge">
<title>rasp_messages_second_aggs:w&#45;&gt;servers:e</title>
<path fill="none" stroke="#000000" d="M645.9125,-66.6549C621.3555,-70.2192 609.7383,-83.8838 595,-109.7 556.6491,-176.8769 631.8532,-804.7 554.5,-804.7"/>
<polygon fill="#000000" stroke="#000000" points="652.5171,-66.2226 660.7352,-69.2923 656.5085,-65.9613 660.5,-65.7 660.5,-65.7 660.5,-65.7 656.5085,-65.9613 660.2648,-62.1077 652.5171,-66.2226 652.5171,-66.2226"/>
<ellipse fill="none" stroke="#000000" cx="649.3239" cy="-66.4317" rx="3.2" ry="3.2"/>
</g>
<!-- rasp_messages_second_aggs&#45;&gt;organizations -->
<g id="edge21" class="edge">
<title>rasp_messages_second_aggs:w&#45;&gt;organizations:e</title>
<path fill="none" stroke="#000000" d="M646.0755,-65.6765C418.532,-64.9588 290.7233,-49.4023 157,-238.7 102.893,-315.2935 209.777,-658.7 116,-658.7"/>
<polygon fill="#000000" stroke="#000000" points="652.5,-65.6869 660.4941,-69.3 656.5,-65.6934 660.5,-65.7 660.5,-65.7 660.5,-65.7 656.5,-65.6934 660.5059,-62.1 652.5,-65.6869 652.5,-65.6869"/>
<ellipse fill="none" stroke="#000000" cx="649.3" cy="-65.6816" rx="3.2" ry="3.2"/>
</g>
<!-- rasp_server_license&#45;&gt;organizations -->
<g id="edge23" class="edge">
<title>rasp_server_license:w&#45;&gt;organizations:e</title>
<path fill="none" stroke="#000000" d="M150.8428,-658.7C139.4139,-658.7 132.1563,-658.7 116,-658.7"/>
<polygon fill="#000000" stroke="#000000" points="157.5,-658.7001 165.5,-662.3 161.5,-658.7 165.5,-658.7 165.5,-658.7 165.5,-658.7 161.5,-658.7 165.5,-655.1 157.5,-658.7001 157.5,-658.7001"/>
<ellipse fill="none" stroke="#000000" cx="154.3" cy="-658.7001" rx="3.2" ry="3.2"/>
</g>
<!-- route_coverage_server_analytics -->
<g id="node18" class="node">
<title>route_coverage_server_analytics</title>
<g id="a_node18"><a xlink:href="../../tables/route_coverage_server_analytics.html" xlink:title="route_coverage_server_analytics" target="_top">
<polygon fill="#ffffff" stroke="transparent" points="654.5,-1474.2 654.5,-1535.2 858.5,-1535.2 858.5,-1474.2 654.5,-1474.2"/>
<polygon fill="#f5f5f5" stroke="transparent" points="654.5,-1511.7 654.5,-1534.7 858.5,-1534.7 858.5,-1511.7 654.5,-1511.7"/>
<polygon fill="none" stroke="#000000" points="654.5,-1511.7 654.5,-1534.7 858.5,-1534.7 858.5,-1511.7 654.5,-1511.7"/>
<text text-anchor="start" x="659.0092" y="-1520.8" font-family="Helvetica,sans-Serif" font-weight="bold" font-size="11.00" fill="#000000">route_coverage_server_analytics</text>
<text text-anchor="start" x="824.0219" y="-1519.8" font-family="Helvetica,sans-Serif" font-size="11.00" fill="#000000">[table]</text>
<polygon fill="none" stroke="#000000" points="654.5,-1492.7 654.5,-1511.7 858.5,-1511.7 858.5,-1492.7 654.5,-1492.7"/>
<text text-anchor="start" x="657.5" y="-1498.8" font-family="Helvetica,sans-Serif" font-size="11.00" fill="#000000">...</text>
<polygon fill="#ffffff" stroke="transparent" points="654.5,-1473.7 654.5,-1492.7 741.5,-1492.7 741.5,-1473.7 654.5,-1473.7"/>
<polygon fill="none" stroke="#000000" points="654.5,-1473.7 654.5,-1492.7 741.5,-1492.7 741.5,-1473.7 654.5,-1473.7"/>
<text text-anchor="start" x="657.5" y="-1479.8" font-family="Helvetica,sans-Serif" font-size="11.00" fill="#000000">&lt; 2</text>
<polygon fill="#ffffff" stroke="transparent" points="741.5,-1473.7 741.5,-1492.7 812.5,-1492.7 812.5,-1473.7 741.5,-1473.7"/>
<polygon fill="none" stroke="#000000" points="741.5,-1473.7 741.5,-1492.7 812.5,-1492.7 812.5,-1473.7 741.5,-1473.7"/>
<text text-anchor="start" x="777.1105" y="-1479.8" font-family="Helvetica,sans-Serif" font-size="11.00" fill="#000000">0 rows</text>
<polygon fill="#ffffff" stroke="transparent" points="812.5,-1473.7 812.5,-1492.7 858.5,-1492.7 858.5,-1473.7 812.5,-1473.7"/>
<polygon fill="none" stroke="#000000" points="812.5,-1473.7 812.5,-1492.7 858.5,-1492.7 858.5,-1473.7 812.5,-1473.7"/>
<text text-anchor="start" x="849.3862" y="-1479.8" font-family="Helvetica,sans-Serif" font-size="11.00" fill="#000000"> &#160;</text>
</a>
</g>
</g>
<!-- route_coverage_server_analytics&#45;&gt;servers -->
<g id="edge24" class="edge">
<title>route_coverage_server_analytics:w&#45;&gt;servers:e</title>
<path fill="none" stroke="#000000" d="M639.9037,-1500.7029C618.8164,-1497.4581 608.1788,-1486.0944 595,-1463.7 557.7932,-1400.4751 627.8604,-804.7 554.5,-804.7"/>
<polygon fill="#000000" stroke="#000000" points="646.5186,-1501.1547 654.2546,-1505.2916 650.5093,-1501.4274 654.5,-1501.7 654.5,-1501.7 654.5,-1501.7 650.5093,-1501.4274 654.7454,-1498.1084 646.5186,-1501.1547 646.5186,-1501.1547"/>
<ellipse fill="none" stroke="#000000" cx="643.326" cy="-1500.9366" rx="3.2" ry="3.2"/>
</g>
<!-- server_properties -->
<g id="node19" class="node">
<title>server_properties</title>
<g id="a_node19"><a xlink:href="../../tables/server_properties.html" xlink:title="server_properties" target="_top">
<polygon fill="#ffffff" stroke="transparent" points="692.5,-1392.2 692.5,-1453.2 820.5,-1453.2 820.5,-1392.2 692.5,-1392.2"/>
<polygon fill="#f5f5f5" stroke="transparent" points="692.5,-1429.7 692.5,-1452.7 820.5,-1452.7 820.5,-1429.7 692.5,-1429.7"/>
<polygon fill="none" stroke="#000000" points="692.5,-1429.7 692.5,-1452.7 820.5,-1452.7 820.5,-1429.7 692.5,-1429.7"/>
<text text-anchor="start" x="697.2177" y="-1438.8" font-family="Helvetica,sans-Serif" font-weight="bold" font-size="11.00" fill="#000000">server_properties</text>
<text text-anchor="start" x="786.0219" y="-1437.8" font-family="Helvetica,sans-Serif" font-size="11.00" fill="#000000">[table]</text>
<polygon fill="none" stroke="#000000" points="692.5,-1410.7 692.5,-1429.7 820.5,-1429.7 820.5,-1410.7 692.5,-1410.7"/>
<text text-anchor="start" x="695.5" y="-1416.8" font-family="Helvetica,sans-Serif" font-size="11.00" fill="#000000">...</text>
<polygon fill="#ffffff" stroke="transparent" points="692.5,-1391.7 692.5,-1410.7 741.5,-1410.7 741.5,-1391.7 692.5,-1391.7"/>
<polygon fill="none" stroke="#000000" points="692.5,-1391.7 692.5,-1410.7 741.5,-1410.7 741.5,-1391.7 692.5,-1391.7"/>
<text text-anchor="start" x="695.5" y="-1397.8" font-family="Helvetica,sans-Serif" font-size="11.00" fill="#000000">&lt; 1</text>
<polygon fill="#ffffff" stroke="transparent" points="741.5,-1391.7 741.5,-1410.7 793.5,-1410.7 793.5,-1391.7 741.5,-1391.7"/>
<polygon fill="none" stroke="#000000" points="741.5,-1391.7 741.5,-1410.7 793.5,-1410.7 793.5,-1391.7 741.5,-1391.7"/>
<text text-anchor="start" x="758.1105" y="-1397.8" font-family="Helvetica,sans-Serif" font-size="11.00" fill="#000000">0 rows</text>
<polygon fill="#ffffff" stroke="transparent" points="793.5,-1391.7 793.5,-1410.7 820.5,-1410.7 820.5,-1391.7 793.5,-1391.7"/>
<polygon fill="none" stroke="#000000" points="793.5,-1391.7 793.5,-1410.7 820.5,-1410.7 820.5,-1391.7 793.5,-1391.7"/>
<text text-anchor="start" x="811.3862" y="-1397.8" font-family="Helvetica,sans-Serif" font-size="11.00" fill="#000000"> &#160;</text>
</a>
</g>
</g>
<!-- server_properties&#45;&gt;servers -->
<g id="edge25" class="edge">
<title>server_properties:w&#45;&gt;servers:e</title>
<path fill="none" stroke="#000000" d="M682.0094,-1419.6726C642.3073,-1419.3893 620.4192,-1416.2269 595,-1381.7 556.8969,-1329.9445 618.7688,-804.7 554.5,-804.7"/>
<polygon fill="#000000" stroke="#000000" points="691.7105,-1415.6979 691.6895,-1423.6979 690.0895,-1423.6937 690.1105,-1415.6937 691.7105,-1415.6979"/>
<polyline fill="none" stroke="#000000" points="692.5,-1419.7 688.5,-1419.6895 "/>
<ellipse fill="none" stroke="#000000" cx="685.3" cy="-1419.6812" rx="3.2" ry="3.2"/>
</g>
<!-- server_syslog -->
<g id="node20" class="node">
<title>server_syslog</title>
<g id="a_node20"><a xlink:href="../../tables/server_syslog.html" xlink:title="server_syslog" target="_top">
<polygon fill="#ffffff" stroke="transparent" points="701.5,-1310.2 701.5,-1371.2 811.5,-1371.2 811.5,-1310.2 701.5,-1310.2"/>
<polygon fill="#f5f5f5" stroke="transparent" points="701.5,-1347.7 701.5,-1370.7 811.5,-1370.7 811.5,-1347.7 701.5,-1347.7"/>
<polygon fill="none" stroke="#000000" points="701.5,-1347.7 701.5,-1370.7 811.5,-1370.7 811.5,-1347.7 701.5,-1347.7"/>
<text text-anchor="start" x="706.0804" y="-1356.8" font-family="Helvetica,sans-Serif" font-weight="bold" font-size="11.00" fill="#000000">server_syslog</text>
<text text-anchor="start" x="777.0219" y="-1355.8" font-family="Helvetica,sans-Serif" font-size="11.00" fill="#000000">[table]</text>
<polygon fill="none" stroke="#000000" points="701.5,-1328.7 701.5,-1347.7 811.5,-1347.7 811.5,-1328.7 701.5,-1328.7"/>
<text text-anchor="start" x="704.5" y="-1334.8" font-family="Helvetica,sans-Serif" font-size="11.00" fill="#000000">...</text>
<polygon fill="#ffffff" stroke="transparent" points="701.5,-1309.7 701.5,-1328.7 737.5,-1328.7 737.5,-1309.7 701.5,-1309.7"/>
<polygon fill="none" stroke="#000000" points="701.5,-1309.7 701.5,-1328.7 737.5,-1328.7 737.5,-1309.7 701.5,-1309.7"/>
<text text-anchor="start" x="704.5" y="-1315.8" font-family="Helvetica,sans-Serif" font-size="11.00" fill="#000000">&lt; 1</text>
<polygon fill="#ffffff" stroke="transparent" points="737.5,-1309.7 737.5,-1328.7 782.5,-1328.7 782.5,-1309.7 737.5,-1309.7"/>
<polygon fill="none" stroke="#000000" points="737.5,-1309.7 737.5,-1328.7 782.5,-1328.7 782.5,-1309.7 737.5,-1309.7"/>
<text text-anchor="start" x="747.1105" y="-1315.8" font-family="Helvetica,sans-Serif" font-size="11.00" fill="#000000">0 rows</text>
<polygon fill="#ffffff" stroke="transparent" points="782.5,-1309.7 782.5,-1328.7 811.5,-1328.7 811.5,-1309.7 782.5,-1309.7"/>
<polygon fill="none" stroke="#000000" points="782.5,-1309.7 782.5,-1328.7 811.5,-1328.7 811.5,-1309.7 782.5,-1309.7"/>
<text text-anchor="start" x="792.9053" y="-1315.8" font-family="Helvetica,sans-Serif" font-size="11.00" fill="#000000">1 &gt;</text>
</a>
</g>
</g>
<!-- server_syslog&#45;&gt;servers -->
<g id="edge26" class="edge">
<title>server_syslog:w&#45;&gt;servers:e</title>
<path fill="none" stroke="#000000" d="M690.9792,-1337.7127C647.5127,-1337.751 623.3962,-1336.6795 595,-1299.7 561.3907,-1255.9317 609.6838,-804.7 554.5,-804.7"/>
<polygon fill="#000000" stroke="#000000" points="700.6951,-1333.701 700.7049,-1341.701 699.1049,-1341.7029 699.0951,-1333.7029 700.6951,-1333.701"/>
<polyline fill="none" stroke="#000000" points="701.5,-1337.7 697.5,-1337.7049 "/>
<ellipse fill="none" stroke="#000000" cx="694.3" cy="-1337.7088" rx="3.2" ry="3.2"/>
</g>
<!-- servers_metadata -->
<g id="node21" class="node">
<title>servers_metadata</title>
<g id="a_node21"><a xlink:href="../../tables/servers_metadata.html" xlink:title="servers_metadata" target="_top">
<polygon fill="#ffffff" stroke="transparent" points="691,-1228.2 691,-1289.2 822,-1289.2 822,-1228.2 691,-1228.2"/>
<polygon fill="#f5f5f5" stroke="transparent" points="691.5,-1265.7 691.5,-1288.7 822.5,-1288.7 822.5,-1265.7 691.5,-1265.7"/>
<polygon fill="none" stroke="#000000" points="691.5,-1265.7 691.5,-1288.7 822.5,-1288.7 822.5,-1265.7 691.5,-1265.7"/>
<text text-anchor="start" x="696.4907" y="-1274.8" font-family="Helvetica,sans-Serif" font-weight="bold" font-size="11.00" fill="#000000">servers_metadata</text>
<text text-anchor="start" x="788.0219" y="-1273.8" font-family="Helvetica,sans-Serif" font-size="11.00" fill="#000000">[table]</text>
<polygon fill="none" stroke="#000000" points="691.5,-1246.7 691.5,-1265.7 822.5,-1265.7 822.5,-1246.7 691.5,-1246.7"/>
<text text-anchor="start" x="694.5" y="-1252.8" font-family="Helvetica,sans-Serif" font-size="11.00" fill="#000000">...</text>
<polygon fill="#ffffff" stroke="transparent" points="691.5,-1227.7 691.5,-1246.7 742.5,-1246.7 742.5,-1227.7 691.5,-1227.7"/>
<polygon fill="none" stroke="#000000" points="691.5,-1227.7 691.5,-1246.7 742.5,-1246.7 742.5,-1227.7 691.5,-1227.7"/>
<text text-anchor="start" x="694.5" y="-1233.8" font-family="Helvetica,sans-Serif" font-size="11.00" fill="#000000">&lt; 1</text>
<polygon fill="#ffffff" stroke="transparent" points="742.5,-1227.7 742.5,-1246.7 795.5,-1246.7 795.5,-1227.7 742.5,-1227.7"/>
<polygon fill="none" stroke="#000000" points="742.5,-1227.7 742.5,-1246.7 795.5,-1246.7 795.5,-1227.7 742.5,-1227.7"/>
<text text-anchor="start" x="760.1105" y="-1233.8" font-family="Helvetica,sans-Serif" font-size="11.00" fill="#000000">0 rows</text>
<polygon fill="#ffffff" stroke="transparent" points="795.5,-1227.7 795.5,-1246.7 822.5,-1246.7 822.5,-1227.7 795.5,-1227.7"/>
<polygon fill="none" stroke="#000000" points="795.5,-1227.7 795.5,-1246.7 822.5,-1246.7 822.5,-1227.7 795.5,-1227.7"/>
<text text-anchor="start" x="813.3862" y="-1233.8" font-family="Helvetica,sans-Serif" font-size="11.00" fill="#000000"> &#160;</text>
</a>
</g>
</g>
<!-- servers_metadata&#45;&gt;servers -->
<g id="edge29" class="edge">
<title>servers_metadata:w&#45;&gt;servers:e</title>
<path fill="none" stroke="#000000" d="M680.6143,-1255.6565C641.6581,-1255.2616 620.4963,-1251.469 595,-1217.7 539.433,-1144.1033 646.718,-804.7 554.5,-804.7"/>
<polygon fill="#000000" stroke="#000000" points="690.716,-1251.6968 690.684,-1259.6968 689.084,-1259.6904 689.116,-1251.6904 690.716,-1251.6968"/>
<polyline fill="none" stroke="#000000" points="691.5,-1255.7 687.5,-1255.684 "/>
<ellipse fill="none" stroke="#000000" cx="684.3001" cy="-1255.6712" rx="3.2" ry="3.2"/>
</g>
<!-- tags_servers -->
<g id="node22" class="node">
<title>tags_servers</title>
<g id="a_node22"><a xlink:href="../../tables/tags_servers.html" xlink:title="tags_servers" target="_top">
<polygon fill="#ffffff" stroke="transparent" points="704,-1146.2 704,-1207.2 809,-1207.2 809,-1146.2 704,-1146.2"/>
<polygon fill="#f5f5f5" stroke="transparent" points="704.5,-1183.7 704.5,-1206.7 809.5,-1206.7 809.5,-1183.7 704.5,-1183.7"/>
<polygon fill="none" stroke="#000000" points="704.5,-1183.7 704.5,-1206.7 809.5,-1206.7 809.5,-1183.7 704.5,-1183.7"/>
<text text-anchor="start" x="709.0224" y="-1192.8" font-family="Helvetica,sans-Serif" font-weight="bold" font-size="11.00" fill="#000000">tags_servers</text>
<text text-anchor="start" x="775.0219" y="-1191.8" font-family="Helvetica,sans-Serif" font-size="11.00" fill="#000000">[table]</text>
<polygon fill="none" stroke="#000000" points="704.5,-1164.7 704.5,-1183.7 809.5,-1183.7 809.5,-1164.7 704.5,-1164.7"/>
<text text-anchor="start" x="707.5" y="-1170.8" font-family="Helvetica,sans-Serif" font-size="11.00" fill="#000000">...</text>
<polygon fill="#ffffff" stroke="transparent" points="704.5,-1145.7 704.5,-1164.7 742.5,-1164.7 742.5,-1145.7 704.5,-1145.7"/>
<polygon fill="none" stroke="#000000" points="704.5,-1145.7 704.5,-1164.7 742.5,-1164.7 742.5,-1145.7 704.5,-1145.7"/>
<text text-anchor="start" x="707.5" y="-1151.8" font-family="Helvetica,sans-Serif" font-size="11.00" fill="#000000">&lt; 1</text>
<polygon fill="#ffffff" stroke="transparent" points="742.5,-1145.7 742.5,-1164.7 788.5,-1164.7 788.5,-1145.7 742.5,-1145.7"/>
<polygon fill="none" stroke="#000000" points="742.5,-1145.7 742.5,-1164.7 788.5,-1164.7 788.5,-1145.7 742.5,-1145.7"/>
<text text-anchor="start" x="753.1105" y="-1151.8" font-family="Helvetica,sans-Serif" font-size="11.00" fill="#000000">0 rows</text>
<polygon fill="#ffffff" stroke="transparent" points="788.5,-1145.7 788.5,-1164.7 809.5,-1164.7 809.5,-1145.7 788.5,-1145.7"/>
<polygon fill="none" stroke="#000000" points="788.5,-1145.7 788.5,-1164.7 809.5,-1164.7 809.5,-1145.7 788.5,-1145.7"/>
<text text-anchor="start" x="800.3862" y="-1151.8" font-family="Helvetica,sans-Serif" font-size="11.00" fill="#000000"> &#160;</text>
</a>
</g>
</g>
<!-- tags_servers&#45;&gt;servers -->
<g id="edge30" class="edge">
<title>tags_servers:w&#45;&gt;servers:e</title>
<path fill="none" stroke="#000000" d="M689.8446,-1173.7182C647.8145,-1173.696 624.1384,-1171.7874 595,-1135.7 548.4465,-1078.0442 628.6041,-804.7 554.5,-804.7"/>
<polygon fill="#000000" stroke="#000000" points="696.5,-1173.71 704.5045,-1177.3 700.5,-1173.705 704.5,-1173.7 704.5,-1173.7 704.5,-1173.7 700.5,-1173.705 704.4955,-1170.1 696.5,-1173.71 696.5,-1173.71"/>
<ellipse fill="none" stroke="#000000" cx="693.3" cy="-1173.714" rx="3.2" ry="3.2"/>
</g>
<!-- url_server_day_aggs -->
<g id="node23" class="node">
<title>url_server_day_aggs</title>
<g id="a_node23"><a xlink:href="../../tables/url_server_day_aggs.html" xlink:title="url_server_day_aggs" target="_top">
<polygon fill="#ffffff" stroke="transparent" points="684,-1064.2 684,-1125.2 829,-1125.2 829,-1064.2 684,-1064.2"/>
<polygon fill="#f5f5f5" stroke="transparent" points="684.5,-1101.7 684.5,-1124.7 829.5,-1124.7 829.5,-1101.7 684.5,-1101.7"/>
<polygon fill="none" stroke="#000000" points="684.5,-1101.7 684.5,-1124.7 829.5,-1124.7 829.5,-1101.7 684.5,-1101.7"/>
<text text-anchor="start" x="689.1548" y="-1110.8" font-family="Helvetica,sans-Serif" font-weight="bold" font-size="11.00" fill="#000000">url_server_day_aggs</text>
<text text-anchor="start" x="795.0219" y="-1109.8" font-family="Helvetica,sans-Serif" font-size="11.00" fill="#000000">[table]</text>
<polygon fill="none" stroke="#000000" points="684.5,-1082.7 684.5,-1101.7 829.5,-1101.7 829.5,-1082.7 684.5,-1082.7"/>
<text text-anchor="start" x="687.5" y="-1088.8" font-family="Helvetica,sans-Serif" font-size="11.00" fill="#000000">...</text>
<polygon fill="#ffffff" stroke="transparent" points="684.5,-1063.7 684.5,-1082.7 742.5,-1082.7 742.5,-1063.7 684.5,-1063.7"/>
<polygon fill="none" stroke="#000000" points="684.5,-1063.7 684.5,-1082.7 742.5,-1082.7 742.5,-1063.7 684.5,-1063.7"/>
<text text-anchor="start" x="687.5" y="-1069.8" font-family="Helvetica,sans-Serif" font-size="11.00" fill="#000000">&lt; 1</text>
<polygon fill="#ffffff" stroke="transparent" points="742.5,-1063.7 742.5,-1082.7 798.5,-1082.7 798.5,-1063.7 742.5,-1063.7"/>
<polygon fill="none" stroke="#000000" points="742.5,-1063.7 742.5,-1082.7 798.5,-1082.7 798.5,-1063.7 742.5,-1063.7"/>
<text text-anchor="start" x="763.1105" y="-1069.8" font-family="Helvetica,sans-Serif" font-size="11.00" fill="#000000">0 rows</text>
<polygon fill="#ffffff" stroke="transparent" points="798.5,-1063.7 798.5,-1082.7 829.5,-1082.7 829.5,-1063.7 798.5,-1063.7"/>
<polygon fill="none" stroke="#000000" points="798.5,-1063.7 798.5,-1082.7 829.5,-1082.7 829.5,-1063.7 798.5,-1063.7"/>
<text text-anchor="start" x="820.3862" y="-1069.8" font-family="Helvetica,sans-Serif" font-size="11.00" fill="#000000"> &#160;</text>
</a>
</g>
</g>
<!-- url_server_day_aggs&#45;&gt;servers -->
<g id="edge31" class="edge">
<title>url_server_day_aggs:w&#45;&gt;servers:e</title>
<path fill="none" stroke="#000000" d="M669.7848,-1091.4778C636.4323,-1090.2912 618.4447,-1083.5823 595,-1053.7 560.3959,-1009.594 610.5605,-804.7 554.5,-804.7"/>
<polygon fill="#000000" stroke="#000000" points="676.5009,-1091.5792 684.4456,-1095.2996 680.5005,-1091.6396 684.5,-1091.7 684.5,-1091.7 684.5,-1091.7 680.5005,-1091.6396 684.5544,-1088.1004 676.5009,-1091.5792 676.5009,-1091.5792"/>
<ellipse fill="none" stroke="#000000" cx="673.3013" cy="-1091.5309" rx="3.2" ry="3.2"/>
</g>
<!-- vulnerability_instance_server -->
<g id="node24" class="node">
<title>vulnerability_instance_server</title>
<g id="a_node24"><a xlink:href="../../tables/vulnerability_instance_server.html" xlink:title="vulnerability_instance_server" target="_top">
<polygon fill="#ffffff" stroke="transparent" points="664.5,-982.2 664.5,-1043.2 848.5,-1043.2 848.5,-982.2 664.5,-982.2"/>
<polygon fill="#f5f5f5" stroke="transparent" points="664.5,-1019.7 664.5,-1042.7 848.5,-1042.7 848.5,-1019.7 664.5,-1019.7"/>
<polygon fill="none" stroke="#000000" points="664.5,-1019.7 664.5,-1042.7 848.5,-1042.7 848.5,-1019.7 664.5,-1019.7"/>
<text text-anchor="start" x="669.1012" y="-1028.8" font-family="Helvetica,sans-Serif" font-weight="bold" font-size="11.00" fill="#000000">vulnerability_instance_server</text>
<text text-anchor="start" x="814.0219" y="-1027.8" font-family="Helvetica,sans-Serif" font-size="11.00" fill="#000000">[table]</text>
<polygon fill="none" stroke="#000000" points="664.5,-1000.7 664.5,-1019.7 848.5,-1019.7 848.5,-1000.7 664.5,-1000.7"/>
<text text-anchor="start" x="667.5" y="-1006.8" font-family="Helvetica,sans-Serif" font-size="11.00" fill="#000000">...</text>
<polygon fill="#ffffff" stroke="transparent" points="664.5,-981.7 664.5,-1000.7 737.5,-1000.7 737.5,-981.7 664.5,-981.7"/>
<polygon fill="none" stroke="#000000" points="664.5,-981.7 664.5,-1000.7 737.5,-1000.7 737.5,-981.7 664.5,-981.7"/>
<text text-anchor="start" x="667.5" y="-987.8" font-family="Helvetica,sans-Serif" font-size="11.00" fill="#000000">&lt; 2</text>
<polygon fill="#ffffff" stroke="transparent" points="737.5,-981.7 737.5,-1000.7 801.5,-1000.7 801.5,-981.7 737.5,-981.7"/>
<polygon fill="none" stroke="#000000" points="737.5,-981.7 737.5,-1000.7 801.5,-1000.7 801.5,-981.7 737.5,-981.7"/>
<text text-anchor="start" x="766.1105" y="-987.8" font-family="Helvetica,sans-Serif" font-size="11.00" fill="#000000">0 rows</text>
<polygon fill="#ffffff" stroke="transparent" points="801.5,-981.7 801.5,-1000.7 848.5,-1000.7 848.5,-981.7 801.5,-981.7"/>
<polygon fill="none" stroke="#000000" points="801.5,-981.7 801.5,-1000.7 848.5,-1000.7 848.5,-981.7 801.5,-981.7"/>
<text text-anchor="start" x="829.9053" y="-987.8" font-family="Helvetica,sans-Serif" font-size="11.00" fill="#000000">1 &gt;</text>
</a>
</g>
</g>
<!-- vulnerability_instance_server&#45;&gt;servers -->
<g id="edge32" class="edge">
<title>vulnerability_instance_server:w&#45;&gt;servers:e</title>
<path fill="none" stroke="#000000" d="M649.8561,-1008.9717C625.1748,-1006.2189 613.1588,-995.3805 595,-971.7 548.5258,-911.094 630.8737,-804.7 554.5,-804.7"/>
<polygon fill="#000000" stroke="#000000" points="656.5099,-1009.3026 664.3212,-1013.2956 660.5049,-1009.5013 664.5,-1009.7 664.5,-1009.7 664.5,-1009.7 660.5049,-1009.5013 664.6788,-1006.1044 656.5099,-1009.3026 656.5099,-1009.3026"/>
<ellipse fill="none" stroke="#000000" cx="653.3138" cy="-1009.1436" rx="3.2" ry="3.2"/>
</g>
</g>
</svg>
