<?xml version="1.0" encoding="UTF-8" standalone="no"?>
<!DOCTYPE svg PUBLIC "-//W3C//DTD SVG 1.1//EN"
 "http://www.w3.org/Graphics/SVG/1.1/DTD/svg11.dtd">
<!-- Generated by graphviz version 2.40.1 (20161225.0304)
 -->
<!-- Title: oneDegreeRelationshipsDiagram Pages: 1 -->
<svg width="478pt" height="325pt"
 viewBox="0.00 0.00 478.00 325.20" xmlns="http://www.w3.org/2000/svg" xmlns:xlink="http://www.w3.org/1999/xlink">
<g id="graph0" class="graph" transform="scale(1 1) rotate(0) translate(4 321.2)">
<title>oneDegreeRelationshipsDiagram</title>
<polygon fill="#ffffff" stroke="transparent" points="-4,4 -4,-321.2 474,-321.2 474,4 -4,4"/>
<text text-anchor="middle" x="72.4936" y="-7.3" font-family="Helvetica,sans-Serif" font-size="11.00" fill="#000000">Generated by SchemaSpy</text>
<!-- alert_recipients -->
<g id="node1" class="node">
<title>alert_recipients</title>
<g id="a_node1"><a xlink:href="../../tables/alert_recipients.html" xlink:title="alert_recipients" target="_top">
<polygon fill="#ffffff" stroke="transparent" points="282,-161.7 282,-295.7 462,-295.7 462,-161.7 282,-161.7"/>
<polygon fill="#f5f5f5" stroke="transparent" points="284,-270.7 284,-293.7 460,-293.7 460,-270.7 284,-270.7"/>
<polygon fill="none" stroke="#000000" points="284,-270.7 284,-293.7 460,-293.7 460,-270.7 284,-270.7"/>
<text text-anchor="start" x="289" y="-279.8" font-family="Helvetica,sans-Serif" font-weight="bold" font-size="11.00" fill="#000000">alert_recipients</text>
<text text-anchor="start" x="425.0437" y="-278.8" font-family="Helvetica,sans-Serif" font-size="11.00" fill="#000000">[table]</text>
<polygon fill="none" stroke="#000000" points="284,-248.7 284,-270.7 393,-270.7 393,-248.7 284,-248.7"/>
<image xlink:href="../../images/primaryKeys.png" width="11px" height="12px" preserveAspectRatio="xMinYMin meet" x="289" y="-265.7"/>
<text text-anchor="start" x="304" y="-255.8" font-family="Helvetica,sans-Serif" font-size="11.00" fill="#000000">recipient_id</text>
<polygon fill="none" stroke="#000000" points="393,-248.7 393,-270.7 460,-270.7 460,-248.7 393,-248.7"/>
<text text-anchor="start" x="396" y="-256.4" font-family="Helvetica,sans-Serif" font-size="11.00" fill="#000000">bigint[19]</text>
<polygon fill="#ffffff" stroke="transparent" points="284,-226.7 284,-248.7 393,-248.7 393,-226.7 284,-226.7"/>
<polygon fill="none" stroke="#000000" points="284,-226.7 284,-248.7 393,-248.7 393,-226.7 284,-226.7"/>
<image xlink:href="../../images/foreignKeys.png" width="11px" height="12px" preserveAspectRatio="xMinYMin meet" x="289" y="-243.7"/>
<text text-anchor="start" x="304" y="-233.8" font-family="Helvetica,sans-Serif" font-size="11.00" fill="#000000">alert_id</text>
<polygon fill="none" stroke="#000000" points="393,-226.7 393,-248.7 460,-248.7 460,-226.7 393,-226.7"/>
<text text-anchor="start" x="395.9365" y="-234.4" font-family="Helvetica,sans-Serif" font-size="11.00" fill="#000000">varchar[255]</text>
<polygon fill="none" stroke="#000000" points="284,-204.7 284,-226.7 393,-226.7 393,-204.7 284,-204.7"/>
<text text-anchor="start" x="304" y="-211.8" font-family="Helvetica,sans-Serif" font-size="11.00" fill="#000000">recipient_name</text>
<polygon fill="none" stroke="#000000" points="393,-204.7 393,-226.7 460,-226.7 460,-204.7 393,-204.7"/>
<text text-anchor="start" x="395.9365" y="-212.4" font-family="Helvetica,sans-Serif" font-size="11.00" fill="#000000">varchar[255]</text>
<polygon fill="#ffffff" stroke="transparent" points="284,-182.7 284,-204.7 393,-204.7 393,-182.7 284,-182.7"/>
<polygon fill="none" stroke="#000000" points="284,-182.7 284,-204.7 393,-204.7 393,-182.7 284,-182.7"/>
<image xlink:href="../../images/foreignKeys.png" width="11px" height="12px" preserveAspectRatio="xMinYMin meet" x="289" y="-199.7"/>
<text text-anchor="start" x="304" y="-189.8" font-family="Helvetica,sans-Serif" font-size="11.00" fill="#000000">users_id</text>
<polygon fill="none" stroke="#000000" points="393,-182.7 393,-204.7 460,-204.7 460,-182.7 393,-182.7"/>
<text text-anchor="start" x="395.9365" y="-190.4" font-family="Helvetica,sans-Serif" font-size="11.00" fill="#000000">varchar[255]</text>
<polygon fill="#ffffff" stroke="transparent" points="284,-163.7 284,-182.7 330,-182.7 330,-163.7 284,-163.7"/>
<polygon fill="none" stroke="#000000" points="284,-163.7 284,-182.7 330,-182.7 330,-163.7 284,-163.7"/>
<text text-anchor="start" x="287" y="-169.8" font-family="Helvetica,sans-Serif" font-size="11.00" fill="#000000">&lt; 2</text>
<polygon fill="#ffffff" stroke="transparent" points="330,-163.7 330,-182.7 393,-182.7 393,-163.7 330,-163.7"/>
<polygon fill="none" stroke="#000000" points="330,-163.7 330,-182.7 393,-182.7 393,-163.7 330,-163.7"/>
<text text-anchor="start" x="357.6105" y="-169.8" font-family="Helvetica,sans-Serif" font-size="11.00" fill="#000000">0 rows</text>
<polygon fill="#ffffff" stroke="transparent" points="393,-163.7 393,-182.7 460,-182.7 460,-163.7 393,-163.7"/>
<polygon fill="none" stroke="#000000" points="393,-163.7 393,-182.7 460,-182.7 460,-163.7 393,-163.7"/>
<text text-anchor="start" x="441.4053" y="-169.8" font-family="Helvetica,sans-Serif" font-size="11.00" fill="#000000">0 &gt;</text>
<polygon fill="none" stroke="#000000" stroke-width="2" points="283,-162.7 283,-294.7 461,-294.7 461,-162.7 283,-162.7"/>
</a>
</g>
</g>
<!-- alerts -->
<g id="node2" class="node">
<title>alerts</title>
<g id="a_node2"><a xlink:href="../../tables/alerts.html" xlink:title="alerts" target="_top">
<polygon fill="#ffffff" stroke="transparent" points="62.5,-208.2 62.5,-313.2 178.5,-313.2 178.5,-208.2 62.5,-208.2"/>
<polygon fill="#f5f5f5" stroke="transparent" points="62.5,-289.7 62.5,-312.7 178.5,-312.7 178.5,-289.7 62.5,-289.7"/>
<polygon fill="none" stroke="#000000" points="62.5,-289.7 62.5,-312.7 178.5,-312.7 178.5,-289.7 62.5,-289.7"/>
<text text-anchor="start" x="67.5" y="-298.8" font-family="Helvetica,sans-Serif" font-weight="bold" font-size="11.00" fill="#000000">alerts</text>
<text text-anchor="start" x="143.5437" y="-297.8" font-family="Helvetica,sans-Serif" font-size="11.00" fill="#000000">[table]</text>
<polygon fill="none" stroke="#000000" points="62.5,-267.7 62.5,-289.7 178.5,-289.7 178.5,-267.7 62.5,-267.7"/>
<image xlink:href="../../images/primaryKeys.png" width="11px" height="12px" preserveAspectRatio="xMinYMin meet" x="67.5" y="-284.7"/>
<text text-anchor="start" x="82.5" y="-274.8" font-family="Helvetica,sans-Serif" font-size="11.00" fill="#000000">alert_id</text>
<polygon fill="#ffffff" stroke="transparent" points="62.5,-245.7 62.5,-267.7 178.5,-267.7 178.5,-245.7 62.5,-245.7"/>
<polygon fill="none" stroke="#000000" points="62.5,-245.7 62.5,-267.7 178.5,-267.7 178.5,-245.7 62.5,-245.7"/>
<image xlink:href="../../images/foreignKeys.png" width="11px" height="12px" preserveAspectRatio="xMinYMin meet" x="67.5" y="-262.7"/>
<text text-anchor="start" x="82.5" y="-252.8" font-family="Helvetica,sans-Serif" font-size="11.00" fill="#000000">organizations_id</text>
<polygon fill="none" stroke="#000000" points="62.5,-226.7 62.5,-245.7 178.5,-245.7 178.5,-226.7 62.5,-226.7"/>
<text text-anchor="start" x="65.5" y="-232.8" font-family="Helvetica,sans-Serif" font-size="11.00" fill="#000000">...</text>
<polygon fill="#ffffff" stroke="transparent" points="62.5,-207.7 62.5,-226.7 101.5,-226.7 101.5,-207.7 62.5,-207.7"/>
<polygon fill="none" stroke="#000000" points="62.5,-207.7 62.5,-226.7 101.5,-226.7 101.5,-207.7 62.5,-207.7"/>
<text text-anchor="start" x="65.5" y="-213.8" font-family="Helvetica,sans-Serif" font-size="11.00" fill="#000000">&lt; 1</text>
<polygon fill="#ffffff" stroke="transparent" points="101.5,-207.7 101.5,-226.7 148.5,-226.7 148.5,-207.7 101.5,-207.7"/>
<polygon fill="none" stroke="#000000" points="101.5,-207.7 101.5,-226.7 148.5,-226.7 148.5,-207.7 101.5,-207.7"/>
<text text-anchor="start" x="113.1105" y="-213.8" font-family="Helvetica,sans-Serif" font-size="11.00" fill="#000000">0 rows</text>
<polygon fill="#ffffff" stroke="transparent" points="148.5,-207.7 148.5,-226.7 178.5,-226.7 178.5,-207.7 148.5,-207.7"/>
<polygon fill="none" stroke="#000000" points="148.5,-207.7 148.5,-226.7 178.5,-226.7 178.5,-207.7 148.5,-207.7"/>
<text text-anchor="start" x="159.9053" y="-213.8" font-family="Helvetica,sans-Serif" font-size="11.00" fill="#000000">3 &gt;</text>
</a>
</g>
</g>
<!-- alert_recipients&#45;&gt;alerts -->
<g id="edge1" class="edge">
<title>alert_recipients:w&#45;&gt;alerts:e</title>
<path fill="none" stroke="#000000" d="M269.4921,-238.972C232.1582,-245.8924 223.4996,-278.7 178.5,-278.7"/>
<polygon fill="#000000" stroke="#000000" points="276.0306,-238.3988 284.3145,-241.2862 280.0153,-238.0494 284,-237.7 284,-237.7 284,-237.7 280.0153,-238.0494 283.6855,-234.1138 276.0306,-238.3988 276.0306,-238.3988"/>
<ellipse fill="none" stroke="#000000" cx="272.8428" cy="-238.6783" rx="3.2" ry="3.2"/>
</g>
<!-- users -->
<g id="node3" class="node">
<title>users</title>
<g id="a_node3"><a xlink:href="../../tables/users.html" xlink:title="users" target="_top">
<polygon fill="#ffffff" stroke="transparent" points="8,-38.2 8,-187.2 233,-187.2 233,-38.2 8,-38.2"/>
<polygon fill="#f5f5f5" stroke="transparent" points="8.5,-163.7 8.5,-186.7 233.5,-186.7 233.5,-163.7 8.5,-163.7"/>
<polygon fill="none" stroke="#000000" points="8.5,-163.7 8.5,-186.7 233.5,-186.7 233.5,-163.7 8.5,-163.7"/>
<text text-anchor="start" x="13.5" y="-172.8" font-family="Helvetica,sans-Serif" font-weight="bold" font-size="11.00" fill="#000000">users</text>
<text text-anchor="start" x="198.5437" y="-171.8" font-family="Helvetica,sans-Serif" font-size="11.00" fill="#000000">[table]</text>
<polygon fill="none" stroke="#000000" points="8.5,-141.7 8.5,-163.7 233.5,-163.7 233.5,-141.7 8.5,-141.7"/>
<image xlink:href="../../images/primaryKeys.png" width="11px" height="12px" preserveAspectRatio="xMinYMin meet" x="13.5" y="-158.7"/>
<text text-anchor="start" x="28.5" y="-148.8" font-family="Helvetica,sans-Serif" font-size="11.00" fill="#000000">user_id</text>
<polygon fill="#ffffff" stroke="transparent" points="8.5,-119.7 8.5,-141.7 233.5,-141.7 233.5,-119.7 8.5,-119.7"/>
<polygon fill="none" stroke="#000000" points="8.5,-119.7 8.5,-141.7 233.5,-141.7 233.5,-119.7 8.5,-119.7"/>
<text text-anchor="start" x="28.5" y="-126.8" font-family="Helvetica,sans-Serif" font-size="11.00" fill="#000000">user_uid</text>
<polygon fill="#ffffff" stroke="transparent" points="8.5,-97.7 8.5,-119.7 233.5,-119.7 233.5,-97.7 8.5,-97.7"/>
<polygon fill="none" stroke="#000000" points="8.5,-97.7 8.5,-119.7 233.5,-119.7 233.5,-97.7 8.5,-97.7"/>
<image xlink:href="../../images/foreignKeys.png" width="11px" height="12px" preserveAspectRatio="xMinYMin meet" x="13.5" y="-114.7"/>
<text text-anchor="start" x="28.5" y="-104.8" font-family="Helvetica,sans-Serif" font-size="11.00" fill="#000000">default_org</text>
<polygon fill="#ffffff" stroke="transparent" points="8.5,-75.7 8.5,-97.7 233.5,-97.7 233.5,-75.7 8.5,-75.7"/>
<polygon fill="none" stroke="#000000" points="8.5,-75.7 8.5,-97.7 233.5,-97.7 233.5,-75.7 8.5,-75.7"/>
<text text-anchor="start" x="28.5" y="-82.8" font-family="Helvetica,sans-Serif" font-size="11.00" fill="#000000">type</text>
<polygon fill="none" stroke="#000000" points="8.5,-56.7 8.5,-75.7 233.5,-75.7 233.5,-56.7 8.5,-56.7"/>
<text text-anchor="start" x="11.5" y="-62.8" font-family="Helvetica,sans-Serif" font-size="11.00" fill="#000000">...</text>
<polygon fill="#ffffff" stroke="transparent" points="8.5,-37.7 8.5,-56.7 98.5,-56.7 98.5,-37.7 8.5,-37.7"/>
<polygon fill="none" stroke="#000000" points="8.5,-37.7 8.5,-56.7 98.5,-56.7 98.5,-37.7 8.5,-37.7"/>
<text text-anchor="start" x="11.5" y="-43.8" font-family="Helvetica,sans-Serif" font-size="11.00" fill="#000000">&lt; 1</text>
<polygon fill="#ffffff" stroke="transparent" points="98.5,-37.7 98.5,-56.7 171.5,-56.7 171.5,-37.7 98.5,-37.7"/>
<polygon fill="none" stroke="#000000" points="98.5,-37.7 98.5,-56.7 171.5,-56.7 171.5,-37.7 98.5,-37.7"/>
<text text-anchor="start" x="136.1105" y="-43.8" font-family="Helvetica,sans-Serif" font-size="11.00" fill="#000000">6 rows</text>
<polygon fill="#ffffff" stroke="transparent" points="171.5,-37.7 171.5,-56.7 233.5,-56.7 233.5,-37.7 171.5,-37.7"/>
<polygon fill="none" stroke="#000000" points="171.5,-37.7 171.5,-56.7 233.5,-56.7 233.5,-37.7 171.5,-37.7"/>
<text text-anchor="start" x="208.7904" y="-43.8" font-family="Helvetica,sans-Serif" font-size="11.00" fill="#000000">33 &gt;</text>
</a>
</g>
</g>
<!-- alert_recipients&#45;&gt;users -->
<g id="edge2" class="edge">
<title>alert_recipients:w&#45;&gt;users:e</title>
<path fill="none" stroke="#000000" d="M270.2601,-189.3123C256.5688,-178.7354 256.5379,-152.7 233.5,-152.7"/>
<polygon fill="#000000" stroke="#000000" points="276.3792,-191.2663 282.9048,-197.1294 280.1896,-192.4832 284,-193.7 284,-193.7 284,-193.7 280.1896,-192.4832 285.0952,-190.2706 276.3792,-191.2663 276.3792,-191.2663"/>
<ellipse fill="none" stroke="#000000" cx="273.3308" cy="-190.2928" rx="3.2" ry="3.2"/>
</g>
</g>
</svg>
