digraph "twoDegreesRelationshipsDiagram" {
  graph [
    rankdir="RL"
    bgcolor="#ffffff"
    label="\nGenerated by SchemaSpy"
    labeljust="l"
    nodesep="0.18"
    ranksep="0.46"
    fontname="Helvetica"
    fontsize="11"
    ration="compress"
  ];
  node [
    fontname="Helvetica"
    fontsize="11"
    shape="plaintext"
  ];
  edge [
    arrowsize="0.8"
  ];
  "app_route_coverage_observations":"route_hash":w -> "app_route_coverage_analytics":"route_hash.type":e [arrowhead=none dir=back arrowtail=crowodot];
  "app_route_coverage_observations_sessions":"elipses":w -> "agent_session":"elipses":e [arrowhead=none dir=back arrowtail=crowodot];
  "app_route_coverage_observations_sessions":"elipses":w -> "app_route_coverage_observations":"observation_hash":e [arrowhead=none dir=back arrowtail=crowodot];
  "app_route_coverage_servers":"route_hash":w -> "app_route_coverage_analytics":"route_hash.type":e [arrowhead=none dir=back arrowtail=crowodot];
  "app_route_coverage_sessions":"agent_session_id":w -> "agent_session":"elipses":e [arrowhead=none dir=back arrowtail=crowodot];
  "app_route_coverage_sessions":"route_hash":w -> "app_route_coverage_analytics":"route_hash.type":e [arrowhead=none dir=back arrowtail=crowodot];
  "app_route_coverage_snapshot":"route_hash":w -> "app_route_coverage_analytics":"route_hash.type":e [arrowhead=none dir=back arrowtail=crowodot];
  "agent_session" [
   label=<
    <TABLE BORDER="0" CELLBORDER="1" CELLSPACING="0" BGCOLOR="#ffffff">
      <TR><TD COLSPAN="3"  BGCOLOR="#f5f5f5"><TABLE BORDER="0" CELLSPACING="0"><TR><TD ALIGN="LEFT"><B>agent_session</B></TD><TD ALIGN="RIGHT">[table]</TD></TR></TABLE></TD></TR>
      <TR><TD PORT="elipses" COLSPAN="3" ALIGN="LEFT">...</TD></TR>
      <TR><TD ALIGN="LEFT" BGCOLOR="#ffffff">&lt; 1</TD><TD ALIGN="RIGHT" BGCOLOR="#ffffff">3 rows</TD><TD ALIGN="RIGHT" BGCOLOR="#ffffff">6 &gt;</TD></TR>
    </TABLE>>
    URL="../../tables/agent_session.html"
    target="_top"
    tooltip="agent_session"
  ];
  "app_route_coverage_analytics" [
   label=<
    <TABLE BORDER="2" CELLBORDER="1" CELLSPACING="0" BGCOLOR="#ffffff">
      <TR><TD COLSPAN="4"  BGCOLOR="#f5f5f5"><TABLE BORDER="0" CELLSPACING="0"><TR><TD ALIGN="LEFT"><B>app_route_coverage_analytics</B></TD><TD ALIGN="RIGHT">[table]</TD></TR></TABLE></TD></TR>
      <TR><TD PORT="route_hash_string" COLSPAN="2" BGCOLOR="#ffffff" ALIGN="LEFT"><TABLE BORDER="0" CELLSPACING="0" ALIGN="LEFT"><TR ALIGN="LEFT"><TD ALIGN="LEFT" FIXEDSIZE="TRUE" WIDTH="15" HEIGHT="16"></TD><TD ALIGN="LEFT" FIXEDSIZE="TRUE" WIDTH="175" HEIGHT="16">route_hash_string</TD></TR></TABLE></TD><TD PORT="route_hash_string.type" ALIGN="LEFT">varchar[64]</TD></TR>
      <TR><TD PORT="route" COLSPAN="2" ALIGN="LEFT"><TABLE BORDER="0" CELLSPACING="0" ALIGN="LEFT"><TR ALIGN="LEFT"><TD ALIGN="LEFT" FIXEDSIZE="TRUE" WIDTH="15" HEIGHT="16"></TD><TD ALIGN="LEFT" FIXEDSIZE="TRUE" WIDTH="175" HEIGHT="16">route</TD></TR></TABLE></TD><TD PORT="route.type" ALIGN="LEFT">varchar[1000]</TD></TR>
      <TR><TD PORT="applications_id" COLSPAN="2" BGCOLOR="#ffffff" ALIGN="LEFT"><TABLE BORDER="0" CELLSPACING="0" ALIGN="LEFT"><TR ALIGN="LEFT"><TD ALIGN="LEFT" FIXEDSIZE="TRUE" WIDTH="15" HEIGHT="16"></TD><TD ALIGN="LEFT" FIXEDSIZE="TRUE" WIDTH="175" HEIGHT="16">applications_id</TD></TR></TABLE></TD><TD PORT="applications_id.type" ALIGN="LEFT">varchar[255]</TD></TR>
      <TR><TD PORT="dt_discovered" COLSPAN="2" ALIGN="LEFT"><TABLE BORDER="0" CELLSPACING="0" ALIGN="LEFT"><TR ALIGN="LEFT"><TD ALIGN="LEFT" FIXEDSIZE="TRUE" WIDTH="15" HEIGHT="16"></TD><TD ALIGN="LEFT" FIXEDSIZE="TRUE" WIDTH="175" HEIGHT="16">dt_discovered</TD></TR></TABLE></TD><TD PORT="dt_discovered.type" ALIGN="LEFT">bigint[19]</TD></TR>
      <TR><TD PORT="dt_exercised" COLSPAN="2" BGCOLOR="#ffffff" ALIGN="LEFT"><TABLE BORDER="0" CELLSPACING="0" ALIGN="LEFT"><TR ALIGN="LEFT"><TD ALIGN="LEFT" FIXEDSIZE="TRUE" WIDTH="15" HEIGHT="16"></TD><TD ALIGN="LEFT" FIXEDSIZE="TRUE" WIDTH="175" HEIGHT="16">dt_exercised</TD></TR></TABLE></TD><TD PORT="dt_exercised.type" ALIGN="LEFT">bigint[19]</TD></TR>
      <TR><TD PORT="route_hash" COLSPAN="2" ALIGN="LEFT"><TABLE BORDER="0" CELLSPACING="0" ALIGN="LEFT"><TR ALIGN="LEFT"><TD ALIGN="LEFT" FIXEDSIZE="TRUE" WIDTH="15" HEIGHT="16"><IMG SRC="../../images/primaryKeys.png"/></TD><TD ALIGN="LEFT" FIXEDSIZE="TRUE" WIDTH="175" HEIGHT="16">route_hash</TD></TR></TABLE></TD><TD PORT="route_hash.type" ALIGN="LEFT">bigint[19]</TD></TR>
      <TR><TD ALIGN="LEFT" BGCOLOR="#ffffff">&lt; 0</TD><TD ALIGN="RIGHT" BGCOLOR="#ffffff">0 rows</TD><TD ALIGN="RIGHT" BGCOLOR="#ffffff">4 &gt;</TD></TR>
    </TABLE>>
    URL="../../tables/app_route_coverage_analytics.html"
    target="_top"
    tooltip="app_route_coverage_analytics"
  ];
  "app_route_coverage_observations" [
   label=<
    <TABLE BORDER="0" CELLBORDER="1" CELLSPACING="0" BGCOLOR="#ffffff">
      <TR><TD COLSPAN="3"  BGCOLOR="#f5f5f5"><TABLE BORDER="0" CELLSPACING="0"><TR><TD ALIGN="LEFT"><B>app_route_coverage_observations</B></TD><TD ALIGN="RIGHT">[table]</TD></TR></TABLE></TD></TR>
      <TR><TD PORT="observation_hash" COLSPAN="3" ALIGN="LEFT"><TABLE BORDER="0" CELLSPACING="0" ALIGN="LEFT"><TR ALIGN="LEFT"><TD ALIGN="LEFT" FIXEDSIZE="TRUE" WIDTH="15" HEIGHT="16"><IMG SRC="../../images/primaryKeys.png"/></TD><TD ALIGN="LEFT" FIXEDSIZE="TRUE" WIDTH="198" HEIGHT="16">observation_hash</TD></TR></TABLE></TD></TR>
      <TR><TD PORT="route_hash_string" COLSPAN="3" BGCOLOR="#ffffff" ALIGN="LEFT"><TABLE BORDER="0" CELLSPACING="0" ALIGN="LEFT"><TR ALIGN="LEFT"><TD ALIGN="LEFT" FIXEDSIZE="TRUE" WIDTH="15" HEIGHT="16"></TD><TD ALIGN="LEFT" FIXEDSIZE="TRUE" WIDTH="198" HEIGHT="16">route_hash_string</TD></TR></TABLE></TD></TR>
      <TR><TD PORT="http_verb" COLSPAN="3" BGCOLOR="#ffffff" ALIGN="LEFT"><TABLE BORDER="0" CELLSPACING="0" ALIGN="LEFT"><TR ALIGN="LEFT"><TD ALIGN="LEFT" FIXEDSIZE="TRUE" WIDTH="15" HEIGHT="16"></TD><TD ALIGN="LEFT" FIXEDSIZE="TRUE" WIDTH="198" HEIGHT="16">http_verb</TD></TR></TABLE></TD></TR>
      <TR><TD PORT="route_hash" COLSPAN="3" BGCOLOR="#ffffff" ALIGN="LEFT"><TABLE BORDER="0" CELLSPACING="0" ALIGN="LEFT"><TR ALIGN="LEFT"><TD ALIGN="LEFT" FIXEDSIZE="TRUE" WIDTH="15" HEIGHT="16"><IMG SRC="../../images/foreignKeys.png"/></TD><TD ALIGN="LEFT" FIXEDSIZE="TRUE" WIDTH="198" HEIGHT="16">route_hash</TD></TR></TABLE></TD></TR>
      <TR><TD PORT="elipses" COLSPAN="3" ALIGN="LEFT">...</TD></TR>
      <TR><TD ALIGN="LEFT" BGCOLOR="#ffffff">&lt; 1</TD><TD ALIGN="RIGHT" BGCOLOR="#ffffff">0 rows</TD><TD ALIGN="RIGHT" BGCOLOR="#ffffff">1 &gt;</TD></TR>
    </TABLE>>
    URL="../../tables/app_route_coverage_observations.html"
    target="_top"
    tooltip="app_route_coverage_observations"
  ];
  "app_route_coverage_observations_sessions" [
   label=<
    <TABLE BORDER="0" CELLBORDER="1" CELLSPACING="0" BGCOLOR="#ffffff">
      <TR><TD COLSPAN="3"  BGCOLOR="#f5f5f5"><TABLE BORDER="0" CELLSPACING="0"><TR><TD ALIGN="LEFT"><B>app_route_coverage_observations_sessions</B></TD><TD ALIGN="RIGHT">[table]</TD></TR></TABLE></TD></TR>
      <TR><TD PORT="elipses" COLSPAN="3" ALIGN="LEFT">...</TD></TR>
      <TR><TD ALIGN="LEFT" BGCOLOR="#ffffff">&lt; 2</TD><TD ALIGN="RIGHT" BGCOLOR="#ffffff">0 rows</TD><TD ALIGN="RIGHT" BGCOLOR="#ffffff">  </TD></TR>
    </TABLE>>
    URL="../../tables/app_route_coverage_observations_sessions.html"
    target="_top"
    tooltip="app_route_coverage_observations_sessions"
  ];
  "app_route_coverage_servers" [
   label=<
    <TABLE BORDER="0" CELLBORDER="1" CELLSPACING="0" BGCOLOR="#ffffff">
      <TR><TD COLSPAN="3"  BGCOLOR="#f5f5f5"><TABLE BORDER="0" CELLSPACING="0"><TR><TD ALIGN="LEFT"><B>app_route_coverage_servers</B></TD><TD ALIGN="RIGHT">[table]</TD></TR></TABLE></TD></TR>
      <TR><TD PORT="route_hash_string" COLSPAN="3" BGCOLOR="#ffffff" ALIGN="LEFT"><TABLE BORDER="0" CELLSPACING="0" ALIGN="LEFT"><TR ALIGN="LEFT"><TD ALIGN="LEFT" FIXEDSIZE="TRUE" WIDTH="15" HEIGHT="16"></TD><TD ALIGN="LEFT" FIXEDSIZE="TRUE" WIDTH="166" HEIGHT="16">route_hash_string</TD></TR></TABLE></TD></TR>
      <TR><TD PORT="servers_id" COLSPAN="3" ALIGN="LEFT"><TABLE BORDER="0" CELLSPACING="0" ALIGN="LEFT"><TR ALIGN="LEFT"><TD ALIGN="LEFT" FIXEDSIZE="TRUE" WIDTH="15" HEIGHT="16"><IMG SRC="../../images/primaryKeys.png"/></TD><TD ALIGN="LEFT" FIXEDSIZE="TRUE" WIDTH="166" HEIGHT="16">servers_id</TD></TR></TABLE></TD></TR>
      <TR><TD PORT="route_hash" COLSPAN="3" ALIGN="LEFT"><TABLE BORDER="0" CELLSPACING="0" ALIGN="LEFT"><TR ALIGN="LEFT"><TD ALIGN="LEFT" FIXEDSIZE="TRUE" WIDTH="15" HEIGHT="16"><IMG SRC="../../images/primaryKeys.png"/></TD><TD ALIGN="LEFT" FIXEDSIZE="TRUE" WIDTH="166" HEIGHT="16">route_hash</TD></TR></TABLE></TD></TR>
      <TR><TD ALIGN="LEFT" BGCOLOR="#ffffff">&lt; 1</TD><TD ALIGN="RIGHT" BGCOLOR="#ffffff">0 rows</TD><TD ALIGN="RIGHT" BGCOLOR="#ffffff">  </TD></TR>
    </TABLE>>
    URL="../../tables/app_route_coverage_servers.html"
    target="_top"
    tooltip="app_route_coverage_servers"
  ];
  "app_route_coverage_sessions" [
   label=<
    <TABLE BORDER="0" CELLBORDER="1" CELLSPACING="0" BGCOLOR="#ffffff">
      <TR><TD COLSPAN="3"  BGCOLOR="#f5f5f5"><TABLE BORDER="0" CELLSPACING="0"><TR><TD ALIGN="LEFT"><B>app_route_coverage_sessions</B></TD><TD ALIGN="RIGHT">[table]</TD></TR></TABLE></TD></TR>
      <TR><TD PORT="route_hash" COLSPAN="3" ALIGN="LEFT"><TABLE BORDER="0" CELLSPACING="0" ALIGN="LEFT"><TR ALIGN="LEFT"><TD ALIGN="LEFT" FIXEDSIZE="TRUE" WIDTH="15" HEIGHT="16"><IMG SRC="../../images/primaryKeys.png"/></TD><TD ALIGN="LEFT" FIXEDSIZE="TRUE" WIDTH="175" HEIGHT="16">route_hash</TD></TR></TABLE></TD></TR>
      <TR><TD PORT="agent_session_id" COLSPAN="3" ALIGN="LEFT"><TABLE BORDER="0" CELLSPACING="0" ALIGN="LEFT"><TR ALIGN="LEFT"><TD ALIGN="LEFT" FIXEDSIZE="TRUE" WIDTH="15" HEIGHT="16"><IMG SRC="../../images/primaryKeys.png"/></TD><TD ALIGN="LEFT" FIXEDSIZE="TRUE" WIDTH="175" HEIGHT="16">agent_session_id</TD></TR></TABLE></TD></TR>
      <TR><TD PORT="elipses" COLSPAN="3" ALIGN="LEFT">...</TD></TR>
      <TR><TD ALIGN="LEFT" BGCOLOR="#ffffff">&lt; 2</TD><TD ALIGN="RIGHT" BGCOLOR="#ffffff">0 rows</TD><TD ALIGN="RIGHT" BGCOLOR="#ffffff">  </TD></TR>
    </TABLE>>
    URL="../../tables/app_route_coverage_sessions.html"
    target="_top"
    tooltip="app_route_coverage_sessions"
  ];
  "app_route_coverage_snapshot" [
   label=<
    <TABLE BORDER="0" CELLBORDER="1" CELLSPACING="0" BGCOLOR="#ffffff">
      <TR><TD COLSPAN="3"  BGCOLOR="#f5f5f5"><TABLE BORDER="0" CELLSPACING="0"><TR><TD ALIGN="LEFT"><B>app_route_coverage_snapshot</B></TD><TD ALIGN="RIGHT">[table]</TD></TR></TABLE></TD></TR>
      <TR><TD PORT="dt_timestamp" COLSPAN="3" ALIGN="LEFT"><TABLE BORDER="0" CELLSPACING="0" ALIGN="LEFT"><TR ALIGN="LEFT"><TD ALIGN="LEFT" FIXEDSIZE="TRUE" WIDTH="15" HEIGHT="16"><IMG SRC="../../images/primaryKeys.png"/></TD><TD ALIGN="LEFT" FIXEDSIZE="TRUE" WIDTH="177" HEIGHT="16">dt_timestamp</TD></TR></TABLE></TD></TR>
      <TR><TD PORT="applications_id" COLSPAN="3" ALIGN="LEFT"><TABLE BORDER="0" CELLSPACING="0" ALIGN="LEFT"><TR ALIGN="LEFT"><TD ALIGN="LEFT" FIXEDSIZE="TRUE" WIDTH="15" HEIGHT="16"><IMG SRC="../../images/primaryKeys.png"/></TD><TD ALIGN="LEFT" FIXEDSIZE="TRUE" WIDTH="177" HEIGHT="16">applications_id</TD></TR></TABLE></TD></TR>
      <TR><TD PORT="route_hash" COLSPAN="3" ALIGN="LEFT"><TABLE BORDER="0" CELLSPACING="0" ALIGN="LEFT"><TR ALIGN="LEFT"><TD ALIGN="LEFT" FIXEDSIZE="TRUE" WIDTH="15" HEIGHT="16"><IMG SRC="../../images/foreignKeys.png"/></TD><TD ALIGN="LEFT" FIXEDSIZE="TRUE" WIDTH="177" HEIGHT="16">route_hash</TD></TR></TABLE></TD></TR>
      <TR><TD PORT="elipses" COLSPAN="3" ALIGN="LEFT">...</TD></TR>
      <TR><TD ALIGN="LEFT" BGCOLOR="#ffffff">&lt; 1</TD><TD ALIGN="RIGHT" BGCOLOR="#ffffff">0 rows</TD><TD ALIGN="RIGHT" BGCOLOR="#ffffff">  </TD></TR>
    </TABLE>>
    URL="../../tables/app_route_coverage_snapshot.html"
    target="_top"
    tooltip="app_route_coverage_snapshot"
  ];
}
