<?xml version="1.0" encoding="UTF-8" standalone="no"?>
<!DOCTYPE svg PUBLIC "-//W3C//DTD SVG 1.1//EN"
 "http://www.w3.org/Graphics/SVG/1.1/DTD/svg11.dtd">
<!-- Generated by graphviz version 2.40.1 (20161225.0304)
 -->
<!-- Title: oneDegreeRelationshipsDiagram Pages: 1 -->
<svg width="565pt" height="603pt"
 viewBox="0.00 0.00 565.00 603.20" xmlns="http://www.w3.org/2000/svg" xmlns:xlink="http://www.w3.org/1999/xlink">
<g id="graph0" class="graph" transform="scale(1 1) rotate(0) translate(4 599.2)">
<title>oneDegreeRelationshipsDiagram</title>
<polygon fill="#ffffff" stroke="transparent" points="-4,4 -4,-599.2 561,-599.2 561,4 -4,4"/>
<text text-anchor="middle" x="72.4936" y="-7.3" font-family="Helvetica,sans-Serif" font-size="11.00" fill="#000000">Generated by SchemaSpy</text>
<!-- app_route_coverage_observations -->
<g id="node1" class="node">
<title>app_route_coverage_observations</title>
<g id="a_node1"><a xlink:href="../../tables/app_route_coverage_observations.html" xlink:title="app_route_coverage_observations" target="_top">
<polygon fill="#ffffff" stroke="transparent" points="330,-442.2 330,-591.2 549,-591.2 549,-442.2 330,-442.2"/>
<polygon fill="#f5f5f5" stroke="transparent" points="330.5,-567.7 330.5,-590.7 549.5,-590.7 549.5,-567.7 330.5,-567.7"/>
<polygon fill="none" stroke="#000000" points="330.5,-567.7 330.5,-590.7 549.5,-590.7 549.5,-567.7 330.5,-567.7"/>
<text text-anchor="start" x="335.5" y="-576.8" font-family="Helvetica,sans-Serif" font-weight="bold" font-size="11.00" fill="#000000">app_route_coverage_observations</text>
<text text-anchor="start" x="514.5437" y="-575.8" font-family="Helvetica,sans-Serif" font-size="11.00" fill="#000000">[table]</text>
<polygon fill="none" stroke="#000000" points="330.5,-545.7 330.5,-567.7 549.5,-567.7 549.5,-545.7 330.5,-545.7"/>
<image xlink:href="../../images/primaryKeys.png" width="11px" height="12px" preserveAspectRatio="xMinYMin meet" x="335.5" y="-562.7"/>
<text text-anchor="start" x="350.5" y="-552.8" font-family="Helvetica,sans-Serif" font-size="11.00" fill="#000000">observation_hash</text>
<polygon fill="#ffffff" stroke="transparent" points="330.5,-523.7 330.5,-545.7 549.5,-545.7 549.5,-523.7 330.5,-523.7"/>
<polygon fill="none" stroke="#000000" points="330.5,-523.7 330.5,-545.7 549.5,-545.7 549.5,-523.7 330.5,-523.7"/>
<text text-anchor="start" x="350.5" y="-530.8" font-family="Helvetica,sans-Serif" font-size="11.00" fill="#000000">route_hash_string</text>
<polygon fill="#ffffff" stroke="transparent" points="330.5,-501.7 330.5,-523.7 549.5,-523.7 549.5,-501.7 330.5,-501.7"/>
<polygon fill="none" stroke="#000000" points="330.5,-501.7 330.5,-523.7 549.5,-523.7 549.5,-501.7 330.5,-501.7"/>
<text text-anchor="start" x="350.5" y="-508.8" font-family="Helvetica,sans-Serif" font-size="11.00" fill="#000000">http_verb</text>
<polygon fill="#ffffff" stroke="transparent" points="330.5,-479.7 330.5,-501.7 549.5,-501.7 549.5,-479.7 330.5,-479.7"/>
<polygon fill="none" stroke="#000000" points="330.5,-479.7 330.5,-501.7 549.5,-501.7 549.5,-479.7 330.5,-479.7"/>
<image xlink:href="../../images/foreignKeys.png" width="11px" height="12px" preserveAspectRatio="xMinYMin meet" x="335.5" y="-496.7"/>
<text text-anchor="start" x="350.5" y="-486.8" font-family="Helvetica,sans-Serif" font-size="11.00" fill="#000000">route_hash</text>
<polygon fill="none" stroke="#000000" points="330.5,-460.7 330.5,-479.7 549.5,-479.7 549.5,-460.7 330.5,-460.7"/>
<text text-anchor="start" x="333.5" y="-466.8" font-family="Helvetica,sans-Serif" font-size="11.00" fill="#000000">...</text>
<polygon fill="#ffffff" stroke="transparent" points="330.5,-441.7 330.5,-460.7 420.5,-460.7 420.5,-441.7 330.5,-441.7"/>
<polygon fill="none" stroke="#000000" points="330.5,-441.7 330.5,-460.7 420.5,-460.7 420.5,-441.7 330.5,-441.7"/>
<text text-anchor="start" x="333.5" y="-447.8" font-family="Helvetica,sans-Serif" font-size="11.00" fill="#000000">&lt; 1</text>
<polygon fill="#ffffff" stroke="transparent" points="420.5,-441.7 420.5,-460.7 493.5,-460.7 493.5,-441.7 420.5,-441.7"/>
<polygon fill="none" stroke="#000000" points="420.5,-441.7 420.5,-460.7 493.5,-460.7 493.5,-441.7 420.5,-441.7"/>
<text text-anchor="start" x="458.1105" y="-447.8" font-family="Helvetica,sans-Serif" font-size="11.00" fill="#000000">0 rows</text>
<polygon fill="#ffffff" stroke="transparent" points="493.5,-441.7 493.5,-460.7 549.5,-460.7 549.5,-441.7 493.5,-441.7"/>
<polygon fill="none" stroke="#000000" points="493.5,-441.7 493.5,-460.7 549.5,-460.7 549.5,-441.7 493.5,-441.7"/>
<text text-anchor="start" x="530.9053" y="-447.8" font-family="Helvetica,sans-Serif" font-size="11.00" fill="#000000">1 &gt;</text>
</a>
</g>
</g>
<!-- app_route_coverage_analytics -->
<g id="node2" class="node">
<title>app_route_coverage_analytics</title>
<g id="a_node2"><a xlink:href="../../tables/app_route_coverage_analytics.html" xlink:title="app_route_coverage_analytics" target="_top">
<polygon fill="#ffffff" stroke="transparent" points="8,-267.7 8,-445.7 281,-445.7 281,-267.7 8,-267.7"/>
<polygon fill="#f5f5f5" stroke="transparent" points="10.5,-420.7 10.5,-443.7 279.5,-443.7 279.5,-420.7 10.5,-420.7"/>
<polygon fill="none" stroke="#000000" points="10.5,-420.7 10.5,-443.7 279.5,-443.7 279.5,-420.7 10.5,-420.7"/>
<text text-anchor="start" x="15.5" y="-429.8" font-family="Helvetica,sans-Serif" font-weight="bold" font-size="11.00" fill="#000000">app_route_coverage_analytics</text>
<text text-anchor="start" x="244.5437" y="-428.8" font-family="Helvetica,sans-Serif" font-size="11.00" fill="#000000">[table]</text>
<polygon fill="#ffffff" stroke="transparent" points="10.5,-398.7 10.5,-420.7 206.5,-420.7 206.5,-398.7 10.5,-398.7"/>
<polygon fill="none" stroke="#000000" points="10.5,-398.7 10.5,-420.7 206.5,-420.7 206.5,-398.7 10.5,-398.7"/>
<text text-anchor="start" x="30.5" y="-405.8" font-family="Helvetica,sans-Serif" font-size="11.00" fill="#000000">route_hash_string</text>
<polygon fill="none" stroke="#000000" points="206.5,-398.7 206.5,-420.7 279.5,-420.7 279.5,-398.7 206.5,-398.7"/>
<text text-anchor="start" x="209.5" y="-406.4" font-family="Helvetica,sans-Serif" font-size="11.00" fill="#000000">varchar[64]</text>
<polygon fill="none" stroke="#000000" points="10.5,-376.7 10.5,-398.7 206.5,-398.7 206.5,-376.7 10.5,-376.7"/>
<text text-anchor="start" x="30.5" y="-383.8" font-family="Helvetica,sans-Serif" font-size="11.00" fill="#000000">route</text>
<polygon fill="none" stroke="#000000" points="206.5,-376.7 206.5,-398.7 279.5,-398.7 279.5,-376.7 206.5,-376.7"/>
<text text-anchor="start" x="209.3791" y="-384.4" font-family="Helvetica,sans-Serif" font-size="11.00" fill="#000000">varchar[1000]</text>
<polygon fill="#ffffff" stroke="transparent" points="10.5,-354.7 10.5,-376.7 206.5,-376.7 206.5,-354.7 10.5,-354.7"/>
<polygon fill="none" stroke="#000000" points="10.5,-354.7 10.5,-376.7 206.5,-376.7 206.5,-354.7 10.5,-354.7"/>
<text text-anchor="start" x="30.5" y="-361.8" font-family="Helvetica,sans-Serif" font-size="11.00" fill="#000000">applications_id</text>
<polygon fill="none" stroke="#000000" points="206.5,-354.7 206.5,-376.7 279.5,-376.7 279.5,-354.7 206.5,-354.7"/>
<text text-anchor="start" x="209.5" y="-362.4" font-family="Helvetica,sans-Serif" font-size="11.00" fill="#000000">varchar[255]</text>
<polygon fill="none" stroke="#000000" points="10.5,-332.7 10.5,-354.7 206.5,-354.7 206.5,-332.7 10.5,-332.7"/>
<text text-anchor="start" x="30.5" y="-339.8" font-family="Helvetica,sans-Serif" font-size="11.00" fill="#000000">dt_discovered</text>
<polygon fill="none" stroke="#000000" points="206.5,-332.7 206.5,-354.7 279.5,-354.7 279.5,-332.7 206.5,-332.7"/>
<text text-anchor="start" x="209.5" y="-340.4" font-family="Helvetica,sans-Serif" font-size="11.00" fill="#000000">bigint[19]</text>
<polygon fill="#ffffff" stroke="transparent" points="10.5,-310.7 10.5,-332.7 206.5,-332.7 206.5,-310.7 10.5,-310.7"/>
<polygon fill="none" stroke="#000000" points="10.5,-310.7 10.5,-332.7 206.5,-332.7 206.5,-310.7 10.5,-310.7"/>
<text text-anchor="start" x="30.5" y="-317.8" font-family="Helvetica,sans-Serif" font-size="11.00" fill="#000000">dt_exercised</text>
<polygon fill="none" stroke="#000000" points="206.5,-310.7 206.5,-332.7 279.5,-332.7 279.5,-310.7 206.5,-310.7"/>
<text text-anchor="start" x="209.5" y="-318.4" font-family="Helvetica,sans-Serif" font-size="11.00" fill="#000000">bigint[19]</text>
<polygon fill="none" stroke="#000000" points="10.5,-288.7 10.5,-310.7 206.5,-310.7 206.5,-288.7 10.5,-288.7"/>
<image xlink:href="../../images/primaryKeys.png" width="11px" height="12px" preserveAspectRatio="xMinYMin meet" x="15.5" y="-305.7"/>
<text text-anchor="start" x="30.5" y="-295.8" font-family="Helvetica,sans-Serif" font-size="11.00" fill="#000000">route_hash</text>
<polygon fill="none" stroke="#000000" points="206.5,-288.7 206.5,-310.7 279.5,-310.7 279.5,-288.7 206.5,-288.7"/>
<text text-anchor="start" x="209.5" y="-296.4" font-family="Helvetica,sans-Serif" font-size="11.00" fill="#000000">bigint[19]</text>
<polygon fill="#ffffff" stroke="transparent" points="10.5,-269.7 10.5,-288.7 99.5,-288.7 99.5,-269.7 10.5,-269.7"/>
<polygon fill="none" stroke="#000000" points="10.5,-269.7 10.5,-288.7 99.5,-288.7 99.5,-269.7 10.5,-269.7"/>
<text text-anchor="start" x="13.5" y="-275.8" font-family="Helvetica,sans-Serif" font-size="11.00" fill="#000000">&lt; 0</text>
<polygon fill="#ffffff" stroke="transparent" points="99.5,-269.7 99.5,-288.7 206.5,-288.7 206.5,-269.7 99.5,-269.7"/>
<polygon fill="none" stroke="#000000" points="99.5,-269.7 99.5,-288.7 206.5,-288.7 206.5,-269.7 99.5,-269.7"/>
<text text-anchor="start" x="171.1105" y="-275.8" font-family="Helvetica,sans-Serif" font-size="11.00" fill="#000000">0 rows</text>
<polygon fill="#ffffff" stroke="transparent" points="206.5,-269.7 206.5,-288.7 279.5,-288.7 279.5,-269.7 206.5,-269.7"/>
<polygon fill="none" stroke="#000000" points="206.5,-269.7 206.5,-288.7 279.5,-288.7 279.5,-269.7 206.5,-269.7"/>
<text text-anchor="start" x="260.9053" y="-275.8" font-family="Helvetica,sans-Serif" font-size="11.00" fill="#000000">4 &gt;</text>
<polygon fill="none" stroke="#000000" stroke-width="2" points="9,-268.7 9,-444.7 280,-444.7 280,-268.7 9,-268.7"/>
</a>
</g>
</g>
<!-- app_route_coverage_observations&#45;&gt;app_route_coverage_analytics -->
<g id="edge1" class="edge">
<title>app_route_coverage_observations:w&#45;&gt;app_route_coverage_analytics:e</title>
<path fill="none" stroke="#000000" d="M316.0464,-488.4219C257.8318,-466.8724 361.6999,-299.7 279.5,-299.7"/>
<polygon fill="#000000" stroke="#000000" points="322.5976,-489.4544 329.9395,-494.2561 326.5488,-490.0772 330.5,-490.7 330.5,-490.7 330.5,-490.7 326.5488,-490.0772 331.0605,-487.1439 322.5976,-489.4544 322.5976,-489.4544"/>
<ellipse fill="none" stroke="#000000" cx="319.4366" cy="-488.9562" rx="3.2" ry="3.2"/>
</g>
<!-- app_route_coverage_servers -->
<g id="node3" class="node">
<title>app_route_coverage_servers</title>
<g id="a_node3"><a xlink:href="../../tables/app_route_coverage_servers.html" xlink:title="app_route_coverage_servers" target="_top">
<polygon fill="#ffffff" stroke="transparent" points="346,-312.7 346,-420.7 533,-420.7 533,-312.7 346,-312.7"/>
<polygon fill="#f5f5f5" stroke="transparent" points="346.5,-397.7 346.5,-420.7 533.5,-420.7 533.5,-397.7 346.5,-397.7"/>
<polygon fill="none" stroke="#000000" points="346.5,-397.7 346.5,-420.7 533.5,-420.7 533.5,-397.7 346.5,-397.7"/>
<text text-anchor="start" x="351.5" y="-406.8" font-family="Helvetica,sans-Serif" font-weight="bold" font-size="11.00" fill="#000000">app_route_coverage_servers</text>
<text text-anchor="start" x="499.0219" y="-405.8" font-family="Helvetica,sans-Serif" font-size="11.00" fill="#000000">[table]</text>
<polygon fill="#ffffff" stroke="transparent" points="346.5,-375.7 346.5,-397.7 533.5,-397.7 533.5,-375.7 346.5,-375.7"/>
<polygon fill="none" stroke="#000000" points="346.5,-375.7 346.5,-397.7 533.5,-397.7 533.5,-375.7 346.5,-375.7"/>
<text text-anchor="start" x="366.5" y="-382.8" font-family="Helvetica,sans-Serif" font-size="11.00" fill="#000000">route_hash_string</text>
<polygon fill="none" stroke="#000000" points="346.5,-353.7 346.5,-375.7 533.5,-375.7 533.5,-353.7 346.5,-353.7"/>
<image xlink:href="../../images/primaryKeys.png" width="11px" height="12px" preserveAspectRatio="xMinYMin meet" x="351.5" y="-370.7"/>
<text text-anchor="start" x="366.5" y="-360.8" font-family="Helvetica,sans-Serif" font-size="11.00" fill="#000000">servers_id</text>
<polygon fill="none" stroke="#000000" points="346.5,-331.7 346.5,-353.7 533.5,-353.7 533.5,-331.7 346.5,-331.7"/>
<image xlink:href="../../images/primaryKeys.png" width="11px" height="12px" preserveAspectRatio="xMinYMin meet" x="351.5" y="-348.7"/>
<text text-anchor="start" x="366.5" y="-338.8" font-family="Helvetica,sans-Serif" font-size="11.00" fill="#000000">route_hash</text>
<polygon fill="#ffffff" stroke="transparent" points="346.5,-312.7 346.5,-331.7 425.5,-331.7 425.5,-312.7 346.5,-312.7"/>
<polygon fill="none" stroke="#000000" points="346.5,-312.7 346.5,-331.7 425.5,-331.7 425.5,-312.7 346.5,-312.7"/>
<text text-anchor="start" x="349.5" y="-318.8" font-family="Helvetica,sans-Serif" font-size="11.00" fill="#000000">&lt; 1</text>
<polygon fill="#ffffff" stroke="transparent" points="425.5,-312.7 425.5,-331.7 492.5,-331.7 492.5,-312.7 425.5,-312.7"/>
<polygon fill="none" stroke="#000000" points="425.5,-312.7 425.5,-331.7 492.5,-331.7 492.5,-312.7 425.5,-312.7"/>
<text text-anchor="start" x="457.1105" y="-318.8" font-family="Helvetica,sans-Serif" font-size="11.00" fill="#000000">0 rows</text>
<polygon fill="#ffffff" stroke="transparent" points="492.5,-312.7 492.5,-331.7 533.5,-331.7 533.5,-312.7 492.5,-312.7"/>
<polygon fill="none" stroke="#000000" points="492.5,-312.7 492.5,-331.7 533.5,-331.7 533.5,-312.7 492.5,-312.7"/>
<text text-anchor="start" x="524.3862" y="-318.8" font-family="Helvetica,sans-Serif" font-size="11.00" fill="#000000"> &#160;</text>
</a>
</g>
</g>
<!-- app_route_coverage_servers&#45;&gt;app_route_coverage_analytics -->
<g id="edge2" class="edge">
<title>app_route_coverage_servers:w&#45;&gt;app_route_coverage_analytics:e</title>
<path fill="none" stroke="#000000" d="M332.1905,-339.7444C311.3192,-330.0295 309.2161,-299.7 279.5,-299.7"/>
<polygon fill="#000000" stroke="#000000" points="338.6654,-341.0818 345.7718,-346.2256 342.5827,-341.8909 346.5,-342.7 346.5,-342.7 346.5,-342.7 342.5827,-341.8909 347.2282,-339.1744 338.6654,-341.0818 338.6654,-341.0818"/>
<ellipse fill="none" stroke="#000000" cx="335.5315" cy="-340.4345" rx="3.2" ry="3.2"/>
</g>
<!-- app_route_coverage_sessions -->
<g id="node4" class="node">
<title>app_route_coverage_sessions</title>
<g id="a_node4"><a xlink:href="../../tables/app_route_coverage_sessions.html" xlink:title="app_route_coverage_sessions" target="_top">
<polygon fill="#ffffff" stroke="transparent" points="341.5,-186.2 341.5,-291.2 537.5,-291.2 537.5,-186.2 341.5,-186.2"/>
<polygon fill="#f5f5f5" stroke="transparent" points="341.5,-267.7 341.5,-290.7 537.5,-290.7 537.5,-267.7 341.5,-267.7"/>
<polygon fill="none" stroke="#000000" points="341.5,-267.7 341.5,-290.7 537.5,-290.7 537.5,-267.7 341.5,-267.7"/>
<text text-anchor="start" x="346.5" y="-276.8" font-family="Helvetica,sans-Serif" font-weight="bold" font-size="11.00" fill="#000000">app_route_coverage_sessions</text>
<text text-anchor="start" x="502.5437" y="-275.8" font-family="Helvetica,sans-Serif" font-size="11.00" fill="#000000">[table]</text>
<polygon fill="none" stroke="#000000" points="341.5,-245.7 341.5,-267.7 537.5,-267.7 537.5,-245.7 341.5,-245.7"/>
<image xlink:href="../../images/primaryKeys.png" width="11px" height="12px" preserveAspectRatio="xMinYMin meet" x="346.5" y="-262.7"/>
<text text-anchor="start" x="361.5" y="-252.8" font-family="Helvetica,sans-Serif" font-size="11.00" fill="#000000">route_hash</text>
<polygon fill="none" stroke="#000000" points="341.5,-223.7 341.5,-245.7 537.5,-245.7 537.5,-223.7 341.5,-223.7"/>
<image xlink:href="../../images/primaryKeys.png" width="11px" height="12px" preserveAspectRatio="xMinYMin meet" x="346.5" y="-240.7"/>
<text text-anchor="start" x="361.5" y="-230.8" font-family="Helvetica,sans-Serif" font-size="11.00" fill="#000000">agent_session_id</text>
<polygon fill="none" stroke="#000000" points="341.5,-204.7 341.5,-223.7 537.5,-223.7 537.5,-204.7 341.5,-204.7"/>
<text text-anchor="start" x="344.5" y="-210.8" font-family="Helvetica,sans-Serif" font-size="11.00" fill="#000000">...</text>
<polygon fill="#ffffff" stroke="transparent" points="341.5,-185.7 341.5,-204.7 424.5,-204.7 424.5,-185.7 341.5,-185.7"/>
<polygon fill="none" stroke="#000000" points="341.5,-185.7 341.5,-204.7 424.5,-204.7 424.5,-185.7 341.5,-185.7"/>
<text text-anchor="start" x="344.5" y="-191.8" font-family="Helvetica,sans-Serif" font-size="11.00" fill="#000000">&lt; 2</text>
<polygon fill="#ffffff" stroke="transparent" points="424.5,-185.7 424.5,-204.7 493.5,-204.7 493.5,-185.7 424.5,-185.7"/>
<polygon fill="none" stroke="#000000" points="424.5,-185.7 424.5,-204.7 493.5,-204.7 493.5,-185.7 424.5,-185.7"/>
<text text-anchor="start" x="458.1105" y="-191.8" font-family="Helvetica,sans-Serif" font-size="11.00" fill="#000000">0 rows</text>
<polygon fill="#ffffff" stroke="transparent" points="493.5,-185.7 493.5,-204.7 537.5,-204.7 537.5,-185.7 493.5,-185.7"/>
<polygon fill="none" stroke="#000000" points="493.5,-185.7 493.5,-204.7 537.5,-204.7 537.5,-185.7 493.5,-185.7"/>
<text text-anchor="start" x="528.3862" y="-191.8" font-family="Helvetica,sans-Serif" font-size="11.00" fill="#000000"> &#160;</text>
</a>
</g>
</g>
<!-- app_route_coverage_sessions&#45;&gt;app_route_coverage_analytics -->
<g id="edge3" class="edge">
<title>app_route_coverage_sessions:w&#45;&gt;app_route_coverage_analytics:e</title>
<path fill="none" stroke="#000000" d="M327.238,-260.0741C308.5677,-270.211 307.2705,-299.7 279.5,-299.7"/>
<polygon fill="#000000" stroke="#000000" points="333.7149,-258.5419 342.3288,-260.2033 337.6075,-257.6209 341.5,-256.7 341.5,-256.7 341.5,-256.7 337.6075,-257.6209 340.6712,-253.1967 333.7149,-258.5419 333.7149,-258.5419"/>
<ellipse fill="none" stroke="#000000" cx="330.6009" cy="-259.2786" rx="3.2" ry="3.2"/>
</g>
<!-- app_route_coverage_snapshot -->
<g id="node5" class="node">
<title>app_route_coverage_snapshot</title>
<g id="a_node5"><a xlink:href="../../tables/app_route_coverage_snapshot.html" xlink:title="app_route_coverage_snapshot" target="_top">
<polygon fill="#ffffff" stroke="transparent" points="340.5,-38.2 340.5,-165.2 538.5,-165.2 538.5,-38.2 340.5,-38.2"/>
<polygon fill="#f5f5f5" stroke="transparent" points="340.5,-141.7 340.5,-164.7 538.5,-164.7 538.5,-141.7 340.5,-141.7"/>
<polygon fill="none" stroke="#000000" points="340.5,-141.7 340.5,-164.7 538.5,-164.7 538.5,-141.7 340.5,-141.7"/>
<text text-anchor="start" x="345.5" y="-150.8" font-family="Helvetica,sans-Serif" font-weight="bold" font-size="11.00" fill="#000000">app_route_coverage_snapshot</text>
<text text-anchor="start" x="503.5437" y="-149.8" font-family="Helvetica,sans-Serif" font-size="11.00" fill="#000000">[table]</text>
<polygon fill="none" stroke="#000000" points="340.5,-119.7 340.5,-141.7 538.5,-141.7 538.5,-119.7 340.5,-119.7"/>
<image xlink:href="../../images/primaryKeys.png" width="11px" height="12px" preserveAspectRatio="xMinYMin meet" x="345.5" y="-136.7"/>
<text text-anchor="start" x="360.5" y="-126.8" font-family="Helvetica,sans-Serif" font-size="11.00" fill="#000000">dt_timestamp</text>
<polygon fill="none" stroke="#000000" points="340.5,-97.7 340.5,-119.7 538.5,-119.7 538.5,-97.7 340.5,-97.7"/>
<image xlink:href="../../images/primaryKeys.png" width="11px" height="12px" preserveAspectRatio="xMinYMin meet" x="345.5" y="-114.7"/>
<text text-anchor="start" x="360.5" y="-104.8" font-family="Helvetica,sans-Serif" font-size="11.00" fill="#000000">applications_id</text>
<polygon fill="none" stroke="#000000" points="340.5,-75.7 340.5,-97.7 538.5,-97.7 538.5,-75.7 340.5,-75.7"/>
<image xlink:href="../../images/foreignKeys.png" width="11px" height="12px" preserveAspectRatio="xMinYMin meet" x="345.5" y="-92.7"/>
<text text-anchor="start" x="360.5" y="-82.8" font-family="Helvetica,sans-Serif" font-size="11.00" fill="#000000">route_hash</text>
<polygon fill="none" stroke="#000000" points="340.5,-56.7 340.5,-75.7 538.5,-75.7 538.5,-56.7 340.5,-56.7"/>
<text text-anchor="start" x="343.5" y="-62.8" font-family="Helvetica,sans-Serif" font-size="11.00" fill="#000000">...</text>
<polygon fill="#ffffff" stroke="transparent" points="340.5,-37.7 340.5,-56.7 424.5,-56.7 424.5,-37.7 340.5,-37.7"/>
<polygon fill="none" stroke="#000000" points="340.5,-37.7 340.5,-56.7 424.5,-56.7 424.5,-37.7 340.5,-37.7"/>
<text text-anchor="start" x="343.5" y="-43.8" font-family="Helvetica,sans-Serif" font-size="11.00" fill="#000000">&lt; 1</text>
<polygon fill="#ffffff" stroke="transparent" points="424.5,-37.7 424.5,-56.7 494.5,-56.7 494.5,-37.7 424.5,-37.7"/>
<polygon fill="none" stroke="#000000" points="424.5,-37.7 424.5,-56.7 494.5,-56.7 494.5,-37.7 424.5,-37.7"/>
<text text-anchor="start" x="459.1105" y="-43.8" font-family="Helvetica,sans-Serif" font-size="11.00" fill="#000000">0 rows</text>
<polygon fill="#ffffff" stroke="transparent" points="494.5,-37.7 494.5,-56.7 538.5,-56.7 538.5,-37.7 494.5,-37.7"/>
<polygon fill="none" stroke="#000000" points="494.5,-37.7 494.5,-56.7 538.5,-56.7 538.5,-37.7 494.5,-37.7"/>
<text text-anchor="start" x="529.3862" y="-43.8" font-family="Helvetica,sans-Serif" font-size="11.00" fill="#000000"> &#160;</text>
</a>
</g>
</g>
<!-- app_route_coverage_snapshot&#45;&gt;app_route_coverage_analytics -->
<g id="edge4" class="edge">
<title>app_route_coverage_snapshot:w&#45;&gt;app_route_coverage_analytics:e</title>
<path fill="none" stroke="#000000" d="M325.9384,-88.6726C256.6756,-110.1456 372.3947,-299.7 279.5,-299.7"/>
<polygon fill="#000000" stroke="#000000" points="332.5724,-87.774 340.9833,-90.2674 336.5362,-87.237 340.5,-86.7 340.5,-86.7 340.5,-86.7 336.5362,-87.237 340.0167,-83.1326 332.5724,-87.774 332.5724,-87.774"/>
<ellipse fill="none" stroke="#000000" cx="329.4014" cy="-88.2036" rx="3.2" ry="3.2"/>
</g>
</g>
</svg>
