<?xml version="1.0" encoding="UTF-8" standalone="no"?>
<!DOCTYPE svg PUBLIC "-//W3C//DTD SVG 1.1//EN"
 "http://www.w3.org/Graphics/SVG/1.1/DTD/svg11.dtd">
<!-- Generated by graphviz version 2.40.1 (20161225.0304)
 -->
<!-- Title: twoDegreesRelationshipsDiagram Pages: 1 -->
<svg width="875pt" height="586pt"
 viewBox="0.00 0.00 875.00 585.70" xmlns="http://www.w3.org/2000/svg" xmlns:xlink="http://www.w3.org/1999/xlink">
<g id="graph0" class="graph" transform="scale(1 1) rotate(0) translate(4 581.7)">
<title>twoDegreesRelationshipsDiagram</title>
<polygon fill="#ffffff" stroke="transparent" points="-4,4 -4,-581.7 871,-581.7 871,4 -4,4"/>
<text text-anchor="middle" x="72.4936" y="-7.3" font-family="Helvetica,sans-Serif" font-size="11.00" fill="#000000">Generated by SchemaSpy</text>
<!-- app_route_coverage_observations -->
<g id="node1" class="node">
<title>app_route_coverage_observations</title>
<g id="a_node1"><a xlink:href="../../tables/app_route_coverage_observations.html" xlink:title="app_route_coverage_observations" target="_top">
<polygon fill="#ffffff" stroke="transparent" points="330,-186.2 330,-335.2 549,-335.2 549,-186.2 330,-186.2"/>
<polygon fill="#f5f5f5" stroke="transparent" points="330.5,-311.7 330.5,-334.7 549.5,-334.7 549.5,-311.7 330.5,-311.7"/>
<polygon fill="none" stroke="#000000" points="330.5,-311.7 330.5,-334.7 549.5,-334.7 549.5,-311.7 330.5,-311.7"/>
<text text-anchor="start" x="335.5" y="-320.8" font-family="Helvetica,sans-Serif" font-weight="bold" font-size="11.00" fill="#000000">app_route_coverage_observations</text>
<text text-anchor="start" x="514.5437" y="-319.8" font-family="Helvetica,sans-Serif" font-size="11.00" fill="#000000">[table]</text>
<polygon fill="none" stroke="#000000" points="330.5,-289.7 330.5,-311.7 549.5,-311.7 549.5,-289.7 330.5,-289.7"/>
<image xlink:href="../../images/primaryKeys.png" width="11px" height="12px" preserveAspectRatio="xMinYMin meet" x="335.5" y="-306.7"/>
<text text-anchor="start" x="350.5" y="-296.8" font-family="Helvetica,sans-Serif" font-size="11.00" fill="#000000">observation_hash</text>
<polygon fill="#ffffff" stroke="transparent" points="330.5,-267.7 330.5,-289.7 549.5,-289.7 549.5,-267.7 330.5,-267.7"/>
<polygon fill="none" stroke="#000000" points="330.5,-267.7 330.5,-289.7 549.5,-289.7 549.5,-267.7 330.5,-267.7"/>
<text text-anchor="start" x="350.5" y="-274.8" font-family="Helvetica,sans-Serif" font-size="11.00" fill="#000000">route_hash_string</text>
<polygon fill="#ffffff" stroke="transparent" points="330.5,-245.7 330.5,-267.7 549.5,-267.7 549.5,-245.7 330.5,-245.7"/>
<polygon fill="none" stroke="#000000" points="330.5,-245.7 330.5,-267.7 549.5,-267.7 549.5,-245.7 330.5,-245.7"/>
<text text-anchor="start" x="350.5" y="-252.8" font-family="Helvetica,sans-Serif" font-size="11.00" fill="#000000">http_verb</text>
<polygon fill="#ffffff" stroke="transparent" points="330.5,-223.7 330.5,-245.7 549.5,-245.7 549.5,-223.7 330.5,-223.7"/>
<polygon fill="none" stroke="#000000" points="330.5,-223.7 330.5,-245.7 549.5,-245.7 549.5,-223.7 330.5,-223.7"/>
<image xlink:href="../../images/foreignKeys.png" width="11px" height="12px" preserveAspectRatio="xMinYMin meet" x="335.5" y="-240.7"/>
<text text-anchor="start" x="350.5" y="-230.8" font-family="Helvetica,sans-Serif" font-size="11.00" fill="#000000">route_hash</text>
<polygon fill="none" stroke="#000000" points="330.5,-204.7 330.5,-223.7 549.5,-223.7 549.5,-204.7 330.5,-204.7"/>
<text text-anchor="start" x="333.5" y="-210.8" font-family="Helvetica,sans-Serif" font-size="11.00" fill="#000000">...</text>
<polygon fill="#ffffff" stroke="transparent" points="330.5,-185.7 330.5,-204.7 420.5,-204.7 420.5,-185.7 330.5,-185.7"/>
<polygon fill="none" stroke="#000000" points="330.5,-185.7 330.5,-204.7 420.5,-204.7 420.5,-185.7 330.5,-185.7"/>
<text text-anchor="start" x="333.5" y="-191.8" font-family="Helvetica,sans-Serif" font-size="11.00" fill="#000000">&lt; 1</text>
<polygon fill="#ffffff" stroke="transparent" points="420.5,-185.7 420.5,-204.7 493.5,-204.7 493.5,-185.7 420.5,-185.7"/>
<polygon fill="none" stroke="#000000" points="420.5,-185.7 420.5,-204.7 493.5,-204.7 493.5,-185.7 420.5,-185.7"/>
<text text-anchor="start" x="458.1105" y="-191.8" font-family="Helvetica,sans-Serif" font-size="11.00" fill="#000000">0 rows</text>
<polygon fill="#ffffff" stroke="transparent" points="493.5,-185.7 493.5,-204.7 549.5,-204.7 549.5,-185.7 493.5,-185.7"/>
<polygon fill="none" stroke="#000000" points="493.5,-185.7 493.5,-204.7 549.5,-204.7 549.5,-185.7 493.5,-185.7"/>
<text text-anchor="start" x="530.9053" y="-191.8" font-family="Helvetica,sans-Serif" font-size="11.00" fill="#000000">1 &gt;</text>
</a>
</g>
</g>
<!-- app_route_coverage_analytics -->
<g id="node2" class="node">
<title>app_route_coverage_analytics</title>
<g id="a_node2"><a xlink:href="../../tables/app_route_coverage_analytics.html" xlink:title="app_route_coverage_analytics" target="_top">
<polygon fill="#ffffff" stroke="transparent" points="8,-305.7 8,-483.7 281,-483.7 281,-305.7 8,-305.7"/>
<polygon fill="#f5f5f5" stroke="transparent" points="10.5,-458.7 10.5,-481.7 279.5,-481.7 279.5,-458.7 10.5,-458.7"/>
<polygon fill="none" stroke="#000000" points="10.5,-458.7 10.5,-481.7 279.5,-481.7 279.5,-458.7 10.5,-458.7"/>
<text text-anchor="start" x="15.5" y="-467.8" font-family="Helvetica,sans-Serif" font-weight="bold" font-size="11.00" fill="#000000">app_route_coverage_analytics</text>
<text text-anchor="start" x="244.5437" y="-466.8" font-family="Helvetica,sans-Serif" font-size="11.00" fill="#000000">[table]</text>
<polygon fill="#ffffff" stroke="transparent" points="10.5,-436.7 10.5,-458.7 206.5,-458.7 206.5,-436.7 10.5,-436.7"/>
<polygon fill="none" stroke="#000000" points="10.5,-436.7 10.5,-458.7 206.5,-458.7 206.5,-436.7 10.5,-436.7"/>
<text text-anchor="start" x="30.5" y="-443.8" font-family="Helvetica,sans-Serif" font-size="11.00" fill="#000000">route_hash_string</text>
<polygon fill="none" stroke="#000000" points="206.5,-436.7 206.5,-458.7 279.5,-458.7 279.5,-436.7 206.5,-436.7"/>
<text text-anchor="start" x="209.5" y="-444.4" font-family="Helvetica,sans-Serif" font-size="11.00" fill="#000000">varchar[64]</text>
<polygon fill="none" stroke="#000000" points="10.5,-414.7 10.5,-436.7 206.5,-436.7 206.5,-414.7 10.5,-414.7"/>
<text text-anchor="start" x="30.5" y="-421.8" font-family="Helvetica,sans-Serif" font-size="11.00" fill="#000000">route</text>
<polygon fill="none" stroke="#000000" points="206.5,-414.7 206.5,-436.7 279.5,-436.7 279.5,-414.7 206.5,-414.7"/>
<text text-anchor="start" x="209.3791" y="-422.4" font-family="Helvetica,sans-Serif" font-size="11.00" fill="#000000">varchar[1000]</text>
<polygon fill="#ffffff" stroke="transparent" points="10.5,-392.7 10.5,-414.7 206.5,-414.7 206.5,-392.7 10.5,-392.7"/>
<polygon fill="none" stroke="#000000" points="10.5,-392.7 10.5,-414.7 206.5,-414.7 206.5,-392.7 10.5,-392.7"/>
<text text-anchor="start" x="30.5" y="-399.8" font-family="Helvetica,sans-Serif" font-size="11.00" fill="#000000">applications_id</text>
<polygon fill="none" stroke="#000000" points="206.5,-392.7 206.5,-414.7 279.5,-414.7 279.5,-392.7 206.5,-392.7"/>
<text text-anchor="start" x="209.5" y="-400.4" font-family="Helvetica,sans-Serif" font-size="11.00" fill="#000000">varchar[255]</text>
<polygon fill="none" stroke="#000000" points="10.5,-370.7 10.5,-392.7 206.5,-392.7 206.5,-370.7 10.5,-370.7"/>
<text text-anchor="start" x="30.5" y="-377.8" font-family="Helvetica,sans-Serif" font-size="11.00" fill="#000000">dt_discovered</text>
<polygon fill="none" stroke="#000000" points="206.5,-370.7 206.5,-392.7 279.5,-392.7 279.5,-370.7 206.5,-370.7"/>
<text text-anchor="start" x="209.5" y="-378.4" font-family="Helvetica,sans-Serif" font-size="11.00" fill="#000000">bigint[19]</text>
<polygon fill="#ffffff" stroke="transparent" points="10.5,-348.7 10.5,-370.7 206.5,-370.7 206.5,-348.7 10.5,-348.7"/>
<polygon fill="none" stroke="#000000" points="10.5,-348.7 10.5,-370.7 206.5,-370.7 206.5,-348.7 10.5,-348.7"/>
<text text-anchor="start" x="30.5" y="-355.8" font-family="Helvetica,sans-Serif" font-size="11.00" fill="#000000">dt_exercised</text>
<polygon fill="none" stroke="#000000" points="206.5,-348.7 206.5,-370.7 279.5,-370.7 279.5,-348.7 206.5,-348.7"/>
<text text-anchor="start" x="209.5" y="-356.4" font-family="Helvetica,sans-Serif" font-size="11.00" fill="#000000">bigint[19]</text>
<polygon fill="none" stroke="#000000" points="10.5,-326.7 10.5,-348.7 206.5,-348.7 206.5,-326.7 10.5,-326.7"/>
<image xlink:href="../../images/primaryKeys.png" width="11px" height="12px" preserveAspectRatio="xMinYMin meet" x="15.5" y="-343.7"/>
<text text-anchor="start" x="30.5" y="-333.8" font-family="Helvetica,sans-Serif" font-size="11.00" fill="#000000">route_hash</text>
<polygon fill="none" stroke="#000000" points="206.5,-326.7 206.5,-348.7 279.5,-348.7 279.5,-326.7 206.5,-326.7"/>
<text text-anchor="start" x="209.5" y="-334.4" font-family="Helvetica,sans-Serif" font-size="11.00" fill="#000000">bigint[19]</text>
<polygon fill="#ffffff" stroke="transparent" points="10.5,-307.7 10.5,-326.7 99.5,-326.7 99.5,-307.7 10.5,-307.7"/>
<polygon fill="none" stroke="#000000" points="10.5,-307.7 10.5,-326.7 99.5,-326.7 99.5,-307.7 10.5,-307.7"/>
<text text-anchor="start" x="13.5" y="-313.8" font-family="Helvetica,sans-Serif" font-size="11.00" fill="#000000">&lt; 0</text>
<polygon fill="#ffffff" stroke="transparent" points="99.5,-307.7 99.5,-326.7 206.5,-326.7 206.5,-307.7 99.5,-307.7"/>
<polygon fill="none" stroke="#000000" points="99.5,-307.7 99.5,-326.7 206.5,-326.7 206.5,-307.7 99.5,-307.7"/>
<text text-anchor="start" x="171.1105" y="-313.8" font-family="Helvetica,sans-Serif" font-size="11.00" fill="#000000">0 rows</text>
<polygon fill="#ffffff" stroke="transparent" points="206.5,-307.7 206.5,-326.7 279.5,-326.7 279.5,-307.7 206.5,-307.7"/>
<polygon fill="none" stroke="#000000" points="206.5,-307.7 206.5,-326.7 279.5,-326.7 279.5,-307.7 206.5,-307.7"/>
<text text-anchor="start" x="260.9053" y="-313.8" font-family="Helvetica,sans-Serif" font-size="11.00" fill="#000000">4 &gt;</text>
<polygon fill="none" stroke="#000000" stroke-width="2" points="9,-306.7 9,-482.7 280,-482.7 280,-306.7 9,-306.7"/>
</a>
</g>
</g>
<!-- app_route_coverage_observations&#45;&gt;app_route_coverage_analytics -->
<g id="edge1" class="edge">
<title>app_route_coverage_observations:w&#45;&gt;app_route_coverage_analytics:e</title>
<path fill="none" stroke="#000000" d="M316.4248,-238.6119C290.0054,-257.4261 324.5959,-337.7 279.5,-337.7"/>
<polygon fill="#000000" stroke="#000000" points="322.7922,-236.8423 331.464,-238.1685 326.6461,-235.7711 330.5,-234.7 330.5,-234.7 330.5,-234.7 326.6461,-235.7711 329.536,-231.2315 322.7922,-236.8423 322.7922,-236.8423"/>
<ellipse fill="none" stroke="#000000" cx="319.709" cy="-237.6992" rx="3.2" ry="3.2"/>
</g>
<!-- app_route_coverage_observations_sessions -->
<g id="node3" class="node">
<title>app_route_coverage_observations_sessions</title>
<g id="a_node3"><a xlink:href="../../tables/app_route_coverage_observations_sessions.html" xlink:title="app_route_coverage_observations_sessions" target="_top">
<polygon fill="#ffffff" stroke="transparent" points="598,-281.2 598,-342.2 859,-342.2 859,-281.2 598,-281.2"/>
<polygon fill="#f5f5f5" stroke="transparent" points="598.5,-318.7 598.5,-341.7 859.5,-341.7 859.5,-318.7 598.5,-318.7"/>
<polygon fill="none" stroke="#000000" points="598.5,-318.7 598.5,-341.7 859.5,-341.7 859.5,-318.7 598.5,-318.7"/>
<text text-anchor="start" x="603.3806" y="-327.8" font-family="Helvetica,sans-Serif" font-weight="bold" font-size="11.00" fill="#000000">app_route_coverage_observations_sessions</text>
<text text-anchor="start" x="825.0219" y="-326.8" font-family="Helvetica,sans-Serif" font-size="11.00" fill="#000000">[table]</text>
<polygon fill="none" stroke="#000000" points="598.5,-299.7 598.5,-318.7 859.5,-318.7 859.5,-299.7 598.5,-299.7"/>
<text text-anchor="start" x="601.5" y="-305.8" font-family="Helvetica,sans-Serif" font-size="11.00" fill="#000000">...</text>
<polygon fill="#ffffff" stroke="transparent" points="598.5,-280.7 598.5,-299.7 714.5,-299.7 714.5,-280.7 598.5,-280.7"/>
<polygon fill="none" stroke="#000000" points="598.5,-280.7 598.5,-299.7 714.5,-299.7 714.5,-280.7 598.5,-280.7"/>
<text text-anchor="start" x="601.5" y="-286.8" font-family="Helvetica,sans-Serif" font-size="11.00" fill="#000000">&lt; 2</text>
<polygon fill="#ffffff" stroke="transparent" points="714.5,-280.7 714.5,-299.7 799.5,-299.7 799.5,-280.7 714.5,-280.7"/>
<polygon fill="none" stroke="#000000" points="714.5,-280.7 714.5,-299.7 799.5,-299.7 799.5,-280.7 714.5,-280.7"/>
<text text-anchor="start" x="764.1105" y="-286.8" font-family="Helvetica,sans-Serif" font-size="11.00" fill="#000000">0 rows</text>
<polygon fill="#ffffff" stroke="transparent" points="799.5,-280.7 799.5,-299.7 859.5,-299.7 859.5,-280.7 799.5,-280.7"/>
<polygon fill="none" stroke="#000000" points="799.5,-280.7 799.5,-299.7 859.5,-299.7 859.5,-280.7 799.5,-280.7"/>
<text text-anchor="start" x="850.3862" y="-286.8" font-family="Helvetica,sans-Serif" font-size="11.00" fill="#000000"> &#160;</text>
</a>
</g>
</g>
<!-- app_route_coverage_observations_sessions&#45;&gt;app_route_coverage_observations -->
<g id="edge3" class="edge">
<title>app_route_coverage_observations_sessions:w&#45;&gt;app_route_coverage_observations:e</title>
<path fill="none" stroke="#000000" d="M583.9118,-307.3065C572.6344,-305.0145 565.7048,-300.7 549.5,-300.7"/>
<polygon fill="#000000" stroke="#000000" points="590.5362,-307.9392 598.1577,-312.2837 594.5181,-308.3196 598.5,-308.7 598.5,-308.7 598.5,-308.7 594.5181,-308.3196 598.8423,-305.1163 590.5362,-307.9392 590.5362,-307.9392"/>
<ellipse fill="none" stroke="#000000" cx="587.3507" cy="-307.6349" rx="3.2" ry="3.2"/>
</g>
<!-- agent_session -->
<g id="node4" class="node">
<title>agent_session</title>
<g id="a_node4"><a xlink:href="../../tables/agent_session.html" xlink:title="agent_session" target="_top">
<polygon fill="#ffffff" stroke="transparent" points="383,-356.2 383,-417.2 496,-417.2 496,-356.2 383,-356.2"/>
<polygon fill="#f5f5f5" stroke="transparent" points="383.5,-393.7 383.5,-416.7 496.5,-416.7 496.5,-393.7 383.5,-393.7"/>
<polygon fill="none" stroke="#000000" points="383.5,-393.7 383.5,-416.7 496.5,-416.7 496.5,-393.7 383.5,-393.7"/>
<text text-anchor="start" x="388.0415" y="-402.8" font-family="Helvetica,sans-Serif" font-weight="bold" font-size="11.00" fill="#000000">agent_session</text>
<text text-anchor="start" x="462.0219" y="-401.8" font-family="Helvetica,sans-Serif" font-size="11.00" fill="#000000">[table]</text>
<polygon fill="none" stroke="#000000" points="383.5,-374.7 383.5,-393.7 496.5,-393.7 496.5,-374.7 383.5,-374.7"/>
<text text-anchor="start" x="386.5" y="-380.8" font-family="Helvetica,sans-Serif" font-size="11.00" fill="#000000">...</text>
<polygon fill="#ffffff" stroke="transparent" points="383.5,-355.7 383.5,-374.7 420.5,-374.7 420.5,-355.7 383.5,-355.7"/>
<polygon fill="none" stroke="#000000" points="383.5,-355.7 383.5,-374.7 420.5,-374.7 420.5,-355.7 383.5,-355.7"/>
<text text-anchor="start" x="386.5" y="-361.8" font-family="Helvetica,sans-Serif" font-size="11.00" fill="#000000">&lt; 1</text>
<polygon fill="#ffffff" stroke="transparent" points="420.5,-355.7 420.5,-374.7 466.5,-374.7 466.5,-355.7 420.5,-355.7"/>
<polygon fill="none" stroke="#000000" points="420.5,-355.7 420.5,-374.7 466.5,-374.7 466.5,-355.7 420.5,-355.7"/>
<text text-anchor="start" x="431.1105" y="-361.8" font-family="Helvetica,sans-Serif" font-size="11.00" fill="#000000">3 rows</text>
<polygon fill="#ffffff" stroke="transparent" points="466.5,-355.7 466.5,-374.7 496.5,-374.7 496.5,-355.7 466.5,-355.7"/>
<polygon fill="none" stroke="#000000" points="466.5,-355.7 466.5,-374.7 496.5,-374.7 496.5,-355.7 466.5,-355.7"/>
<text text-anchor="start" x="477.9053" y="-361.8" font-family="Helvetica,sans-Serif" font-size="11.00" fill="#000000">6 &gt;</text>
</a>
</g>
</g>
<!-- app_route_coverage_observations_sessions&#45;&gt;agent_session -->
<g id="edge2" class="edge">
<title>app_route_coverage_observations_sessions:w&#45;&gt;agent_session:e</title>
<path fill="none" stroke="#000000" d="M584.3687,-312.3936C573.8518,-319.3203 571.8155,-334.5657 557,-345.7 531.6163,-364.7766 528.2529,-383.7 496.5,-383.7"/>
<polygon fill="#000000" stroke="#000000" points="590.76,-310.7231 599.4104,-312.183 594.63,-309.7115 598.5,-308.7 598.5,-308.7 598.5,-308.7 594.63,-309.7115 597.5896,-305.217 590.76,-310.7231 590.76,-310.7231"/>
<ellipse fill="none" stroke="#000000" cx="587.664" cy="-311.5323" rx="3.2" ry="3.2"/>
</g>
<!-- app_route_coverage_servers -->
<g id="node5" class="node">
<title>app_route_coverage_servers</title>
<g id="a_node5"><a xlink:href="../../tables/app_route_coverage_servers.html" xlink:title="app_route_coverage_servers" target="_top">
<polygon fill="#ffffff" stroke="transparent" points="346,-465.7 346,-573.7 533,-573.7 533,-465.7 346,-465.7"/>
<polygon fill="#f5f5f5" stroke="transparent" points="346.5,-550.7 346.5,-573.7 533.5,-573.7 533.5,-550.7 346.5,-550.7"/>
<polygon fill="none" stroke="#000000" points="346.5,-550.7 346.5,-573.7 533.5,-573.7 533.5,-550.7 346.5,-550.7"/>
<text text-anchor="start" x="351.5" y="-559.8" font-family="Helvetica,sans-Serif" font-weight="bold" font-size="11.00" fill="#000000">app_route_coverage_servers</text>
<text text-anchor="start" x="499.0219" y="-558.8" font-family="Helvetica,sans-Serif" font-size="11.00" fill="#000000">[table]</text>
<polygon fill="#ffffff" stroke="transparent" points="346.5,-528.7 346.5,-550.7 533.5,-550.7 533.5,-528.7 346.5,-528.7"/>
<polygon fill="none" stroke="#000000" points="346.5,-528.7 346.5,-550.7 533.5,-550.7 533.5,-528.7 346.5,-528.7"/>
<text text-anchor="start" x="366.5" y="-535.8" font-family="Helvetica,sans-Serif" font-size="11.00" fill="#000000">route_hash_string</text>
<polygon fill="none" stroke="#000000" points="346.5,-506.7 346.5,-528.7 533.5,-528.7 533.5,-506.7 346.5,-506.7"/>
<image xlink:href="../../images/primaryKeys.png" width="11px" height="12px" preserveAspectRatio="xMinYMin meet" x="351.5" y="-523.7"/>
<text text-anchor="start" x="366.5" y="-513.8" font-family="Helvetica,sans-Serif" font-size="11.00" fill="#000000">servers_id</text>
<polygon fill="none" stroke="#000000" points="346.5,-484.7 346.5,-506.7 533.5,-506.7 533.5,-484.7 346.5,-484.7"/>
<image xlink:href="../../images/primaryKeys.png" width="11px" height="12px" preserveAspectRatio="xMinYMin meet" x="351.5" y="-501.7"/>
<text text-anchor="start" x="366.5" y="-491.8" font-family="Helvetica,sans-Serif" font-size="11.00" fill="#000000">route_hash</text>
<polygon fill="#ffffff" stroke="transparent" points="346.5,-465.7 346.5,-484.7 425.5,-484.7 425.5,-465.7 346.5,-465.7"/>
<polygon fill="none" stroke="#000000" points="346.5,-465.7 346.5,-484.7 425.5,-484.7 425.5,-465.7 346.5,-465.7"/>
<text text-anchor="start" x="349.5" y="-471.8" font-family="Helvetica,sans-Serif" font-size="11.00" fill="#000000">&lt; 1</text>
<polygon fill="#ffffff" stroke="transparent" points="425.5,-465.7 425.5,-484.7 492.5,-484.7 492.5,-465.7 425.5,-465.7"/>
<polygon fill="none" stroke="#000000" points="425.5,-465.7 425.5,-484.7 492.5,-484.7 492.5,-465.7 425.5,-465.7"/>
<text text-anchor="start" x="457.1105" y="-471.8" font-family="Helvetica,sans-Serif" font-size="11.00" fill="#000000">0 rows</text>
<polygon fill="#ffffff" stroke="transparent" points="492.5,-465.7 492.5,-484.7 533.5,-484.7 533.5,-465.7 492.5,-465.7"/>
<polygon fill="none" stroke="#000000" points="492.5,-465.7 492.5,-484.7 533.5,-484.7 533.5,-465.7 492.5,-465.7"/>
<text text-anchor="start" x="524.3862" y="-471.8" font-family="Helvetica,sans-Serif" font-size="11.00" fill="#000000"> &#160;</text>
</a>
</g>
</g>
<!-- app_route_coverage_servers&#45;&gt;app_route_coverage_analytics -->
<g id="edge4" class="edge">
<title>app_route_coverage_servers:w&#45;&gt;app_route_coverage_analytics:e</title>
<path fill="none" stroke="#000000" d="M332.0588,-493.2182C282.0324,-473.1172 350.114,-337.7 279.5,-337.7"/>
<polygon fill="#000000" stroke="#000000" points="338.6156,-494.345 345.8902,-499.248 342.5578,-495.0225 346.5,-495.7 346.5,-495.7 346.5,-495.7 342.5578,-495.0225 347.1098,-492.152 338.6156,-494.345 338.6156,-494.345"/>
<ellipse fill="none" stroke="#000000" cx="335.4618" cy="-493.803" rx="3.2" ry="3.2"/>
</g>
<!-- app_route_coverage_sessions -->
<g id="node6" class="node">
<title>app_route_coverage_sessions</title>
<g id="a_node6"><a xlink:href="../../tables/app_route_coverage_sessions.html" xlink:title="app_route_coverage_sessions" target="_top">
<polygon fill="#ffffff" stroke="transparent" points="630.5,-367.2 630.5,-472.2 826.5,-472.2 826.5,-367.2 630.5,-367.2"/>
<polygon fill="#f5f5f5" stroke="transparent" points="630.5,-448.7 630.5,-471.7 826.5,-471.7 826.5,-448.7 630.5,-448.7"/>
<polygon fill="none" stroke="#000000" points="630.5,-448.7 630.5,-471.7 826.5,-471.7 826.5,-448.7 630.5,-448.7"/>
<text text-anchor="start" x="635.5" y="-457.8" font-family="Helvetica,sans-Serif" font-weight="bold" font-size="11.00" fill="#000000">app_route_coverage_sessions</text>
<text text-anchor="start" x="791.5437" y="-456.8" font-family="Helvetica,sans-Serif" font-size="11.00" fill="#000000">[table]</text>
<polygon fill="none" stroke="#000000" points="630.5,-426.7 630.5,-448.7 826.5,-448.7 826.5,-426.7 630.5,-426.7"/>
<image xlink:href="../../images/primaryKeys.png" width="11px" height="12px" preserveAspectRatio="xMinYMin meet" x="635.5" y="-443.7"/>
<text text-anchor="start" x="650.5" y="-433.8" font-family="Helvetica,sans-Serif" font-size="11.00" fill="#000000">route_hash</text>
<polygon fill="none" stroke="#000000" points="630.5,-404.7 630.5,-426.7 826.5,-426.7 826.5,-404.7 630.5,-404.7"/>
<image xlink:href="../../images/primaryKeys.png" width="11px" height="12px" preserveAspectRatio="xMinYMin meet" x="635.5" y="-421.7"/>
<text text-anchor="start" x="650.5" y="-411.8" font-family="Helvetica,sans-Serif" font-size="11.00" fill="#000000">agent_session_id</text>
<polygon fill="none" stroke="#000000" points="630.5,-385.7 630.5,-404.7 826.5,-404.7 826.5,-385.7 630.5,-385.7"/>
<text text-anchor="start" x="633.5" y="-391.8" font-family="Helvetica,sans-Serif" font-size="11.00" fill="#000000">...</text>
<polygon fill="#ffffff" stroke="transparent" points="630.5,-366.7 630.5,-385.7 713.5,-385.7 713.5,-366.7 630.5,-366.7"/>
<polygon fill="none" stroke="#000000" points="630.5,-366.7 630.5,-385.7 713.5,-385.7 713.5,-366.7 630.5,-366.7"/>
<text text-anchor="start" x="633.5" y="-372.8" font-family="Helvetica,sans-Serif" font-size="11.00" fill="#000000">&lt; 2</text>
<polygon fill="#ffffff" stroke="transparent" points="713.5,-366.7 713.5,-385.7 782.5,-385.7 782.5,-366.7 713.5,-366.7"/>
<polygon fill="none" stroke="#000000" points="713.5,-366.7 713.5,-385.7 782.5,-385.7 782.5,-366.7 713.5,-366.7"/>
<text text-anchor="start" x="747.1105" y="-372.8" font-family="Helvetica,sans-Serif" font-size="11.00" fill="#000000">0 rows</text>
<polygon fill="#ffffff" stroke="transparent" points="782.5,-366.7 782.5,-385.7 826.5,-385.7 826.5,-366.7 782.5,-366.7"/>
<polygon fill="none" stroke="#000000" points="782.5,-366.7 782.5,-385.7 826.5,-385.7 826.5,-366.7 782.5,-366.7"/>
<text text-anchor="start" x="817.3862" y="-372.8" font-family="Helvetica,sans-Serif" font-size="11.00" fill="#000000"> &#160;</text>
</a>
</g>
</g>
<!-- app_route_coverage_sessions&#45;&gt;app_route_coverage_analytics -->
<g id="edge6" class="edge">
<title>app_route_coverage_sessions:w&#45;&gt;app_route_coverage_analytics:e</title>
<path fill="none" stroke="#000000" d="M615.8807,-438.0197C538.894,-440.9927 375.6408,-462.9212 322,-427.7 285.0231,-403.4205 323.7356,-337.7 279.5,-337.7"/>
<polygon fill="#000000" stroke="#000000" points="622.5019,-437.8749 630.5787,-441.2991 626.501,-437.7875 630.5,-437.7 630.5,-437.7 630.5,-437.7 626.501,-437.7875 630.4213,-434.1009 622.5019,-437.8749 622.5019,-437.8749"/>
<ellipse fill="none" stroke="#000000" cx="619.3027" cy="-437.9449" rx="3.2" ry="3.2"/>
</g>
<!-- app_route_coverage_sessions&#45;&gt;agent_session -->
<g id="edge5" class="edge">
<title>app_route_coverage_sessions:w&#45;&gt;agent_session:e</title>
<path fill="none" stroke="#000000" d="M616.0655,-415.0608C566.981,-410.5507 552.5878,-383.7 496.5,-383.7"/>
<polygon fill="#000000" stroke="#000000" points="622.5078,-415.346 630.3407,-419.2965 626.5039,-415.523 630.5,-415.7 630.5,-415.7 630.5,-415.7 626.5039,-415.523 630.6593,-412.1035 622.5078,-415.346 622.5078,-415.346"/>
<ellipse fill="none" stroke="#000000" cx="619.311" cy="-415.2044" rx="3.2" ry="3.2"/>
</g>
<!-- app_route_coverage_snapshot -->
<g id="node7" class="node">
<title>app_route_coverage_snapshot</title>
<g id="a_node7"><a xlink:href="../../tables/app_route_coverage_snapshot.html" xlink:title="app_route_coverage_snapshot" target="_top">
<polygon fill="#ffffff" stroke="transparent" points="340.5,-38.2 340.5,-165.2 538.5,-165.2 538.5,-38.2 340.5,-38.2"/>
<polygon fill="#f5f5f5" stroke="transparent" points="340.5,-141.7 340.5,-164.7 538.5,-164.7 538.5,-141.7 340.5,-141.7"/>
<polygon fill="none" stroke="#000000" points="340.5,-141.7 340.5,-164.7 538.5,-164.7 538.5,-141.7 340.5,-141.7"/>
<text text-anchor="start" x="345.5" y="-150.8" font-family="Helvetica,sans-Serif" font-weight="bold" font-size="11.00" fill="#000000">app_route_coverage_snapshot</text>
<text text-anchor="start" x="503.5437" y="-149.8" font-family="Helvetica,sans-Serif" font-size="11.00" fill="#000000">[table]</text>
<polygon fill="none" stroke="#000000" points="340.5,-119.7 340.5,-141.7 538.5,-141.7 538.5,-119.7 340.5,-119.7"/>
<image xlink:href="../../images/primaryKeys.png" width="11px" height="12px" preserveAspectRatio="xMinYMin meet" x="345.5" y="-136.7"/>
<text text-anchor="start" x="360.5" y="-126.8" font-family="Helvetica,sans-Serif" font-size="11.00" fill="#000000">dt_timestamp</text>
<polygon fill="none" stroke="#000000" points="340.5,-97.7 340.5,-119.7 538.5,-119.7 538.5,-97.7 340.5,-97.7"/>
<image xlink:href="../../images/primaryKeys.png" width="11px" height="12px" preserveAspectRatio="xMinYMin meet" x="345.5" y="-114.7"/>
<text text-anchor="start" x="360.5" y="-104.8" font-family="Helvetica,sans-Serif" font-size="11.00" fill="#000000">applications_id</text>
<polygon fill="none" stroke="#000000" points="340.5,-75.7 340.5,-97.7 538.5,-97.7 538.5,-75.7 340.5,-75.7"/>
<image xlink:href="../../images/foreignKeys.png" width="11px" height="12px" preserveAspectRatio="xMinYMin meet" x="345.5" y="-92.7"/>
<text text-anchor="start" x="360.5" y="-82.8" font-family="Helvetica,sans-Serif" font-size="11.00" fill="#000000">route_hash</text>
<polygon fill="none" stroke="#000000" points="340.5,-56.7 340.5,-75.7 538.5,-75.7 538.5,-56.7 340.5,-56.7"/>
<text text-anchor="start" x="343.5" y="-62.8" font-family="Helvetica,sans-Serif" font-size="11.00" fill="#000000">...</text>
<polygon fill="#ffffff" stroke="transparent" points="340.5,-37.7 340.5,-56.7 424.5,-56.7 424.5,-37.7 340.5,-37.7"/>
<polygon fill="none" stroke="#000000" points="340.5,-37.7 340.5,-56.7 424.5,-56.7 424.5,-37.7 340.5,-37.7"/>
<text text-anchor="start" x="343.5" y="-43.8" font-family="Helvetica,sans-Serif" font-size="11.00" fill="#000000">&lt; 1</text>
<polygon fill="#ffffff" stroke="transparent" points="424.5,-37.7 424.5,-56.7 494.5,-56.7 494.5,-37.7 424.5,-37.7"/>
<polygon fill="none" stroke="#000000" points="424.5,-37.7 424.5,-56.7 494.5,-56.7 494.5,-37.7 424.5,-37.7"/>
<text text-anchor="start" x="459.1105" y="-43.8" font-family="Helvetica,sans-Serif" font-size="11.00" fill="#000000">0 rows</text>
<polygon fill="#ffffff" stroke="transparent" points="494.5,-37.7 494.5,-56.7 538.5,-56.7 538.5,-37.7 494.5,-37.7"/>
<polygon fill="none" stroke="#000000" points="494.5,-37.7 494.5,-56.7 538.5,-56.7 538.5,-37.7 494.5,-37.7"/>
<text text-anchor="start" x="529.3862" y="-43.8" font-family="Helvetica,sans-Serif" font-size="11.00" fill="#000000"> &#160;</text>
</a>
</g>
</g>
<!-- app_route_coverage_snapshot&#45;&gt;app_route_coverage_analytics -->
<g id="edge7" class="edge">
<title>app_route_coverage_snapshot:w&#45;&gt;app_route_coverage_analytics:e</title>
<path fill="none" stroke="#000000" d="M326.1657,-88.3028C240.8814,-109.6797 388.9213,-337.7 279.5,-337.7"/>
<polygon fill="#000000" stroke="#000000" points="332.5495,-87.5891 340.9001,-90.2777 336.5248,-87.1445 340.5,-86.7 340.5,-86.7 340.5,-86.7 336.5248,-87.1445 340.0999,-83.1223 332.5495,-87.5891 332.5495,-87.5891"/>
<ellipse fill="none" stroke="#000000" cx="329.3694" cy="-87.9447" rx="3.2" ry="3.2"/>
</g>
</g>
</svg>
