<?xml version="1.0" encoding="UTF-8" standalone="no"?>
<!DOCTYPE svg PUBLIC "-//W3C//DTD SVG 1.1//EN"
 "http://www.w3.org/Graphics/SVG/1.1/DTD/svg11.dtd">
<!-- Generated by graphviz version 2.40.1 (20161225.0304)
 -->
<!-- Title: oneDegreeRelationshipsDiagram Pages: 1 -->
<svg width="732pt" height="523pt"
 viewBox="0.00 0.00 732.00 523.20" xmlns="http://www.w3.org/2000/svg" xmlns:xlink="http://www.w3.org/1999/xlink">
<g id="graph0" class="graph" transform="scale(1 1) rotate(0) translate(4 519.2)">
<title>oneDegreeRelationshipsDiagram</title>
<polygon fill="#ffffff" stroke="transparent" points="-4,4 -4,-519.2 728,-519.2 728,4 -4,4"/>
<text text-anchor="middle" x="72.4936" y="-7.3" font-family="Helvetica,sans-Serif" font-size="11.00" fill="#000000">Generated by SchemaSpy</text>
<!-- app_libraries -->
<g id="node1" class="node">
<title>app_libraries</title>
<g id="a_node1"><a xlink:href="../../tables/app_libraries.html" xlink:title="app_libraries" target="_top">
<polygon fill="#ffffff" stroke="transparent" points="240,-153.7 240,-353.7 442,-353.7 442,-153.7 240,-153.7"/>
<polygon fill="#f5f5f5" stroke="transparent" points="242,-328.7 242,-351.7 440,-351.7 440,-328.7 242,-328.7"/>
<polygon fill="none" stroke="#000000" points="242,-328.7 242,-351.7 440,-351.7 440,-328.7 242,-328.7"/>
<text text-anchor="start" x="247" y="-337.8" font-family="Helvetica,sans-Serif" font-weight="bold" font-size="11.00" fill="#000000">app_libraries</text>
<text text-anchor="start" x="405.0437" y="-336.8" font-family="Helvetica,sans-Serif" font-size="11.00" fill="#000000">[table]</text>
<polygon fill="none" stroke="#000000" points="242,-306.7 242,-328.7 357,-328.7 357,-306.7 242,-306.7"/>
<image xlink:href="../../images/primaryKeys.png" width="11px" height="12px" preserveAspectRatio="xMinYMin meet" x="247" y="-323.7"/>
<text text-anchor="start" x="262" y="-313.8" font-family="Helvetica,sans-Serif" font-size="11.00" fill="#000000">app_library_id</text>
<polygon fill="none" stroke="#000000" points="357,-306.7 357,-328.7 440,-328.7 440,-306.7 357,-306.7"/>
<text text-anchor="start" x="360" y="-314.4" font-family="Helvetica,sans-Serif" font-size="11.00" fill="#000000">bigint[19]</text>
<polygon fill="#ffffff" stroke="transparent" points="242,-284.7 242,-306.7 357,-306.7 357,-284.7 242,-284.7"/>
<polygon fill="none" stroke="#000000" points="242,-284.7 242,-306.7 357,-306.7 357,-284.7 242,-284.7"/>
<text text-anchor="start" x="262" y="-291.8" font-family="Helvetica,sans-Serif" font-size="11.00" fill="#000000">sha1</text>
<polygon fill="none" stroke="#000000" points="357,-284.7 357,-306.7 440,-306.7 440,-284.7 357,-284.7"/>
<text text-anchor="start" x="360" y="-292.4" font-family="Helvetica,sans-Serif" font-size="11.00" fill="#000000">varchar[255]</text>
<polygon fill="none" stroke="#000000" points="242,-262.7 242,-284.7 357,-284.7 357,-262.7 242,-262.7"/>
<text text-anchor="start" x="262" y="-269.8" font-family="Helvetica,sans-Serif" font-size="11.00" fill="#000000">url</text>
<polygon fill="none" stroke="#000000" points="357,-262.7 357,-284.7 440,-284.7 440,-262.7 357,-262.7"/>
<text text-anchor="start" x="360" y="-270.4" font-family="Helvetica,sans-Serif" font-size="11.00" fill="#000000">varchar[255]</text>
<polygon fill="none" stroke="#000000" points="242,-240.7 242,-262.7 357,-262.7 357,-240.7 242,-240.7"/>
<text text-anchor="start" x="262" y="-247.8" font-family="Helvetica,sans-Serif" font-size="11.00" fill="#000000">usedClassCount</text>
<polygon fill="none" stroke="#000000" points="357,-240.7 357,-262.7 440,-262.7 440,-240.7 357,-240.7"/>
<text text-anchor="start" x="360" y="-248.4" font-family="Helvetica,sans-Serif" font-size="11.00" fill="#000000">int[10]</text>
<polygon fill="#ffffff" stroke="transparent" points="242,-218.7 242,-240.7 357,-240.7 357,-218.7 242,-218.7"/>
<polygon fill="none" stroke="#000000" points="242,-218.7 242,-240.7 357,-240.7 357,-218.7 242,-218.7"/>
<image xlink:href="../../images/foreignKeys.png" width="11px" height="12px" preserveAspectRatio="xMinYMin meet" x="247" y="-235.7"/>
<text text-anchor="start" x="262" y="-225.8" font-family="Helvetica,sans-Serif" font-size="11.00" fill="#000000">application_fk</text>
<polygon fill="none" stroke="#000000" points="357,-218.7 357,-240.7 440,-240.7 440,-218.7 357,-218.7"/>
<text text-anchor="start" x="360" y="-226.4" font-family="Helvetica,sans-Serif" font-size="11.00" fill="#000000">varchar[255]</text>
<polygon fill="#ffffff" stroke="transparent" points="242,-196.7 242,-218.7 357,-218.7 357,-196.7 242,-196.7"/>
<polygon fill="none" stroke="#000000" points="242,-196.7 242,-218.7 357,-218.7 357,-196.7 242,-196.7"/>
<image xlink:href="../../images/foreignKeys.png" width="11px" height="12px" preserveAspectRatio="xMinYMin meet" x="247" y="-213.7"/>
<text text-anchor="start" x="262" y="-203.8" font-family="Helvetica,sans-Serif" font-size="11.00" fill="#000000">org_libraries_id</text>
<polygon fill="none" stroke="#000000" points="357,-196.7 357,-218.7 440,-218.7 440,-196.7 357,-196.7"/>
<text text-anchor="start" x="359.6783" y="-204.4" font-family="Helvetica,sans-Serif" font-size="11.00" fill="#000000">int unsigned[10]</text>
<polygon fill="none" stroke="#000000" points="242,-174.7 242,-196.7 357,-196.7 357,-174.7 242,-174.7"/>
<text text-anchor="start" x="262" y="-181.8" font-family="Helvetica,sans-Serif" font-size="11.00" fill="#000000">status</text>
<polygon fill="none" stroke="#000000" points="357,-174.7 357,-196.7 440,-196.7 440,-174.7 357,-174.7"/>
<text text-anchor="start" x="360" y="-182.4" font-family="Helvetica,sans-Serif" font-size="11.00" fill="#000000">varchar[15]</text>
<polygon fill="#ffffff" stroke="transparent" points="242,-155.7 242,-174.7 291,-174.7 291,-155.7 242,-155.7"/>
<polygon fill="none" stroke="#000000" points="242,-155.7 242,-174.7 291,-174.7 291,-155.7 242,-155.7"/>
<text text-anchor="start" x="245" y="-161.8" font-family="Helvetica,sans-Serif" font-size="11.00" fill="#000000">&lt; 2</text>
<polygon fill="#ffffff" stroke="transparent" points="291,-155.7 291,-174.7 357,-174.7 357,-155.7 291,-155.7"/>
<polygon fill="none" stroke="#000000" points="291,-155.7 291,-174.7 357,-174.7 357,-155.7 291,-155.7"/>
<text text-anchor="start" x="321.6105" y="-161.8" font-family="Helvetica,sans-Serif" font-size="11.00" fill="#000000">0 rows</text>
<polygon fill="#ffffff" stroke="transparent" points="357,-155.7 357,-174.7 440,-174.7 440,-155.7 357,-155.7"/>
<polygon fill="none" stroke="#000000" points="357,-155.7 357,-174.7 440,-174.7 440,-155.7 357,-155.7"/>
<text text-anchor="start" x="421.4053" y="-161.8" font-family="Helvetica,sans-Serif" font-size="11.00" fill="#000000">2 &gt;</text>
<polygon fill="none" stroke="#000000" stroke-width="2" points="241,-154.7 241,-352.7 441,-352.7 441,-154.7 241,-154.7"/>
</a>
</g>
</g>
<!-- applications -->
<g id="node2" class="node">
<title>applications</title>
<g id="a_node2"><a xlink:href="../../tables/applications.html" xlink:title="applications" target="_top">
<polygon fill="#ffffff" stroke="transparent" points="8,-208.2 8,-467.2 191,-467.2 191,-208.2 8,-208.2"/>
<polygon fill="#f5f5f5" stroke="transparent" points="8.5,-443.7 8.5,-466.7 191.5,-466.7 191.5,-443.7 8.5,-443.7"/>
<polygon fill="none" stroke="#000000" points="8.5,-443.7 8.5,-466.7 191.5,-466.7 191.5,-443.7 8.5,-443.7"/>
<text text-anchor="start" x="13.5" y="-452.8" font-family="Helvetica,sans-Serif" font-weight="bold" font-size="11.00" fill="#000000">applications</text>
<text text-anchor="start" x="156.5437" y="-451.8" font-family="Helvetica,sans-Serif" font-size="11.00" fill="#000000">[table]</text>
<polygon fill="none" stroke="#000000" points="8.5,-421.7 8.5,-443.7 191.5,-443.7 191.5,-421.7 8.5,-421.7"/>
<image xlink:href="../../images/primaryKeys.png" width="11px" height="12px" preserveAspectRatio="xMinYMin meet" x="13.5" y="-438.7"/>
<text text-anchor="start" x="28.5" y="-428.8" font-family="Helvetica,sans-Serif" font-size="11.00" fill="#000000">application_id</text>
<polygon fill="#ffffff" stroke="transparent" points="8.5,-399.7 8.5,-421.7 191.5,-421.7 191.5,-399.7 8.5,-399.7"/>
<polygon fill="none" stroke="#000000" points="8.5,-399.7 8.5,-421.7 191.5,-421.7 191.5,-399.7 8.5,-399.7"/>
<text text-anchor="start" x="28.5" y="-406.8" font-family="Helvetica,sans-Serif" font-size="11.00" fill="#000000">app_name</text>
<polygon fill="#ffffff" stroke="transparent" points="8.5,-377.7 8.5,-399.7 191.5,-399.7 191.5,-377.7 8.5,-377.7"/>
<polygon fill="none" stroke="#000000" points="8.5,-377.7 8.5,-399.7 191.5,-399.7 191.5,-377.7 8.5,-377.7"/>
<text text-anchor="start" x="28.5" y="-384.8" font-family="Helvetica,sans-Serif" font-size="11.00" fill="#000000">app_short_name</text>
<polygon fill="#ffffff" stroke="transparent" points="8.5,-355.7 8.5,-377.7 191.5,-377.7 191.5,-355.7 8.5,-355.7"/>
<polygon fill="none" stroke="#000000" points="8.5,-355.7 8.5,-377.7 191.5,-377.7 191.5,-355.7 8.5,-355.7"/>
<image xlink:href="../../images/foreignKeys.png" width="11px" height="12px" preserveAspectRatio="xMinYMin meet" x="13.5" y="-372.7"/>
<text text-anchor="start" x="28.5" y="-362.8" font-family="Helvetica,sans-Serif" font-size="11.00" fill="#000000">app_license_fk</text>
<polygon fill="#ffffff" stroke="transparent" points="8.5,-333.7 8.5,-355.7 191.5,-355.7 191.5,-333.7 8.5,-333.7"/>
<polygon fill="none" stroke="#000000" points="8.5,-333.7 8.5,-355.7 191.5,-355.7 191.5,-333.7 8.5,-333.7"/>
<image xlink:href="../../images/foreignKeys.png" width="11px" height="12px" preserveAspectRatio="xMinYMin meet" x="13.5" y="-350.7"/>
<text text-anchor="start" x="28.5" y="-340.8" font-family="Helvetica,sans-Serif" font-size="11.00" fill="#000000">app_parent_fk</text>
<polygon fill="#ffffff" stroke="transparent" points="8.5,-311.7 8.5,-333.7 191.5,-333.7 191.5,-311.7 8.5,-311.7"/>
<polygon fill="none" stroke="#000000" points="8.5,-311.7 8.5,-333.7 191.5,-333.7 191.5,-311.7 8.5,-311.7"/>
<text text-anchor="start" x="28.5" y="-318.8" font-family="Helvetica,sans-Serif" font-size="11.00" fill="#000000">app_display_name</text>
<polygon fill="#ffffff" stroke="transparent" points="8.5,-289.7 8.5,-311.7 191.5,-311.7 191.5,-289.7 8.5,-289.7"/>
<polygon fill="none" stroke="#000000" points="8.5,-289.7 8.5,-311.7 191.5,-311.7 191.5,-289.7 8.5,-289.7"/>
<text text-anchor="start" x="28.5" y="-296.8" font-family="Helvetica,sans-Serif" font-size="11.00" fill="#000000">importance</text>
<polygon fill="#ffffff" stroke="transparent" points="8.5,-267.7 8.5,-289.7 191.5,-289.7 191.5,-267.7 8.5,-267.7"/>
<polygon fill="none" stroke="#000000" points="8.5,-267.7 8.5,-289.7 191.5,-289.7 191.5,-267.7 8.5,-267.7"/>
<image xlink:href="../../images/foreignKeys.png" width="11px" height="12px" preserveAspectRatio="xMinYMin meet" x="13.5" y="-284.7"/>
<text text-anchor="start" x="28.5" y="-274.8" font-family="Helvetica,sans-Serif" font-size="11.00" fill="#000000">organizations_id</text>
<polygon fill="#ffffff" stroke="transparent" points="8.5,-245.7 8.5,-267.7 191.5,-267.7 191.5,-245.7 8.5,-245.7"/>
<polygon fill="none" stroke="#000000" points="8.5,-245.7 8.5,-267.7 191.5,-267.7 191.5,-245.7 8.5,-245.7"/>
<text text-anchor="start" x="28.5" y="-252.8" font-family="Helvetica,sans-Serif" font-size="11.00" fill="#000000">agent_language</text>
<polygon fill="none" stroke="#000000" points="8.5,-226.7 8.5,-245.7 191.5,-245.7 191.5,-226.7 8.5,-226.7"/>
<text text-anchor="start" x="11.5" y="-232.8" font-family="Helvetica,sans-Serif" font-size="11.00" fill="#000000">...</text>
<polygon fill="#ffffff" stroke="transparent" points="8.5,-207.7 8.5,-226.7 77.5,-226.7 77.5,-207.7 8.5,-207.7"/>
<polygon fill="none" stroke="#000000" points="8.5,-207.7 8.5,-226.7 77.5,-226.7 77.5,-207.7 8.5,-207.7"/>
<text text-anchor="start" x="11.5" y="-213.8" font-family="Helvetica,sans-Serif" font-size="11.00" fill="#000000">&lt; 3</text>
<polygon fill="#ffffff" stroke="transparent" points="77.5,-207.7 77.5,-226.7 139.5,-226.7 139.5,-207.7 77.5,-207.7"/>
<polygon fill="none" stroke="#000000" points="77.5,-207.7 77.5,-226.7 139.5,-226.7 139.5,-207.7 77.5,-207.7"/>
<text text-anchor="start" x="104.1105" y="-213.8" font-family="Helvetica,sans-Serif" font-size="11.00" fill="#000000">0 rows</text>
<polygon fill="#ffffff" stroke="transparent" points="139.5,-207.7 139.5,-226.7 191.5,-226.7 191.5,-207.7 139.5,-207.7"/>
<polygon fill="none" stroke="#000000" points="139.5,-207.7 139.5,-226.7 191.5,-226.7 191.5,-207.7 139.5,-207.7"/>
<text text-anchor="start" x="166.7904" y="-213.8" font-family="Helvetica,sans-Serif" font-size="11.00" fill="#000000">57 &gt;</text>
</a>
</g>
</g>
<!-- app_libraries&#45;&gt;applications -->
<g id="edge1" class="edge">
<title>app_libraries:w&#45;&gt;applications:e</title>
<path fill="none" stroke="#000000" d="M227.5232,-231.8424C164.592,-253.5378 278.8429,-432.7 191.5,-432.7"/>
<polygon fill="#000000" stroke="#000000" points="234.0862,-230.8712 242.527,-233.2612 238.0431,-230.2856 242,-229.7 242,-229.7 242,-229.7 238.0431,-230.2856 241.473,-226.1388 234.0862,-230.8712 234.0862,-230.8712"/>
<ellipse fill="none" stroke="#000000" cx="230.9207" cy="-231.3397" rx="3.2" ry="3.2"/>
</g>
<!-- org_libraries -->
<g id="node3" class="node">
<title>org_libraries</title>
<g id="a_node3"><a xlink:href="../../tables/org_libraries.html" xlink:title="org_libraries" target="_top">
<polygon fill="#ffffff" stroke="transparent" points="41.5,-38.2 41.5,-187.2 157.5,-187.2 157.5,-38.2 41.5,-38.2"/>
<polygon fill="#f5f5f5" stroke="transparent" points="41.5,-163.7 41.5,-186.7 157.5,-186.7 157.5,-163.7 41.5,-163.7"/>
<polygon fill="none" stroke="#000000" points="41.5,-163.7 41.5,-186.7 157.5,-186.7 157.5,-163.7 41.5,-163.7"/>
<text text-anchor="start" x="46.5" y="-172.8" font-family="Helvetica,sans-Serif" font-weight="bold" font-size="11.00" fill="#000000">org_libraries</text>
<text text-anchor="start" x="122.5437" y="-171.8" font-family="Helvetica,sans-Serif" font-size="11.00" fill="#000000">[table]</text>
<polygon fill="none" stroke="#000000" points="41.5,-141.7 41.5,-163.7 157.5,-163.7 157.5,-141.7 41.5,-141.7"/>
<image xlink:href="../../images/primaryKeys.png" width="11px" height="12px" preserveAspectRatio="xMinYMin meet" x="46.5" y="-158.7"/>
<text text-anchor="start" x="61.5" y="-148.8" font-family="Helvetica,sans-Serif" font-size="11.00" fill="#000000">id</text>
<polygon fill="#ffffff" stroke="transparent" points="41.5,-119.7 41.5,-141.7 157.5,-141.7 157.5,-119.7 41.5,-119.7"/>
<polygon fill="none" stroke="#000000" points="41.5,-119.7 41.5,-141.7 157.5,-141.7 157.5,-119.7 41.5,-119.7"/>
<image xlink:href="../../images/foreignKeys.png" width="11px" height="12px" preserveAspectRatio="xMinYMin meet" x="46.5" y="-136.7"/>
<text text-anchor="start" x="61.5" y="-126.8" font-family="Helvetica,sans-Serif" font-size="11.00" fill="#000000">sha1</text>
<polygon fill="#ffffff" stroke="transparent" points="41.5,-97.7 41.5,-119.7 157.5,-119.7 157.5,-97.7 41.5,-97.7"/>
<polygon fill="none" stroke="#000000" points="41.5,-97.7 41.5,-119.7 157.5,-119.7 157.5,-97.7 41.5,-97.7"/>
<image xlink:href="../../images/foreignKeys.png" width="11px" height="12px" preserveAspectRatio="xMinYMin meet" x="46.5" y="-114.7"/>
<text text-anchor="start" x="61.5" y="-104.8" font-family="Helvetica,sans-Serif" font-size="11.00" fill="#000000">organizations_id</text>
<polygon fill="#ffffff" stroke="transparent" points="41.5,-75.7 41.5,-97.7 157.5,-97.7 157.5,-75.7 41.5,-75.7"/>
<polygon fill="none" stroke="#000000" points="41.5,-75.7 41.5,-97.7 157.5,-97.7 157.5,-75.7 41.5,-75.7"/>
<image xlink:href="../../images/foreignKeys.png" width="11px" height="12px" preserveAspectRatio="xMinYMin meet" x="46.5" y="-92.7"/>
<text text-anchor="start" x="61.5" y="-82.8" font-family="Helvetica,sans-Serif" font-size="11.00" fill="#000000">agent_language</text>
<polygon fill="none" stroke="#000000" points="41.5,-56.7 41.5,-75.7 157.5,-75.7 157.5,-56.7 41.5,-56.7"/>
<text text-anchor="start" x="44.5" y="-62.8" font-family="Helvetica,sans-Serif" font-size="11.00" fill="#000000">...</text>
<polygon fill="#ffffff" stroke="transparent" points="41.5,-37.7 41.5,-56.7 80.5,-56.7 80.5,-37.7 41.5,-37.7"/>
<polygon fill="none" stroke="#000000" points="41.5,-37.7 41.5,-56.7 80.5,-56.7 80.5,-37.7 41.5,-37.7"/>
<text text-anchor="start" x="44.5" y="-43.8" font-family="Helvetica,sans-Serif" font-size="11.00" fill="#000000">&lt; 3</text>
<polygon fill="#ffffff" stroke="transparent" points="80.5,-37.7 80.5,-56.7 127.5,-56.7 127.5,-37.7 80.5,-37.7"/>
<polygon fill="none" stroke="#000000" points="80.5,-37.7 80.5,-56.7 127.5,-56.7 127.5,-37.7 80.5,-37.7"/>
<text text-anchor="start" x="92.1105" y="-43.8" font-family="Helvetica,sans-Serif" font-size="11.00" fill="#000000">0 rows</text>
<polygon fill="#ffffff" stroke="transparent" points="127.5,-37.7 127.5,-56.7 157.5,-56.7 157.5,-37.7 127.5,-37.7"/>
<polygon fill="none" stroke="#000000" points="127.5,-37.7 127.5,-56.7 157.5,-56.7 157.5,-37.7 127.5,-37.7"/>
<text text-anchor="start" x="138.9053" y="-43.8" font-family="Helvetica,sans-Serif" font-size="11.00" fill="#000000">2 &gt;</text>
</a>
</g>
</g>
<!-- app_libraries&#45;&gt;org_libraries -->
<g id="edge2" class="edge">
<title>app_libraries:w&#45;&gt;org_libraries:e</title>
<path fill="none" stroke="#000000" d="M227.7405,-205.4758C197.6978,-195.1862 196.8839,-152.7 157.5,-152.7"/>
<polygon fill="#000000" stroke="#000000" points="234.0956,-206.467 241.4452,-211.257 238.0478,-207.0835 242,-207.7 242,-207.7 242,-207.7 238.0478,-207.0835 242.5548,-204.143 234.0956,-206.467 234.0956,-206.467"/>
<ellipse fill="none" stroke="#000000" cx="230.9338" cy="-205.9738" rx="3.2" ry="3.2"/>
</g>
<!-- app_libraries_servers -->
<g id="node4" class="node">
<title>app_libraries_servers</title>
<g id="a_node4"><a xlink:href="../../tables/app_libraries_servers.html" xlink:title="app_libraries_servers" target="_top">
<polygon fill="#ffffff" stroke="transparent" points="529.5,-78.7 529.5,-164.7 677.5,-164.7 677.5,-78.7 529.5,-78.7"/>
<polygon fill="#f5f5f5" stroke="transparent" points="529.5,-141.7 529.5,-164.7 677.5,-164.7 677.5,-141.7 529.5,-141.7"/>
<polygon fill="none" stroke="#000000" points="529.5,-141.7 529.5,-164.7 677.5,-164.7 677.5,-141.7 529.5,-141.7"/>
<text text-anchor="start" x="534.4404" y="-150.8" font-family="Helvetica,sans-Serif" font-weight="bold" font-size="11.00" fill="#000000">app_libraries_servers</text>
<text text-anchor="start" x="643.0219" y="-149.8" font-family="Helvetica,sans-Serif" font-size="11.00" fill="#000000">[table]</text>
<polygon fill="none" stroke="#000000" points="529.5,-119.7 529.5,-141.7 677.5,-141.7 677.5,-119.7 529.5,-119.7"/>
<image xlink:href="../../images/primaryKeys.png" width="11px" height="12px" preserveAspectRatio="xMinYMin meet" x="534.5" y="-136.7"/>
<text text-anchor="start" x="551.5" y="-126.8" font-family="Helvetica,sans-Serif" font-size="11.00" fill="#000000">app_library_id</text>
<polygon fill="none" stroke="#000000" points="529.5,-97.7 529.5,-119.7 677.5,-119.7 677.5,-97.7 529.5,-97.7"/>
<image xlink:href="../../images/primaryKeys.png" width="11px" height="12px" preserveAspectRatio="xMinYMin meet" x="534.5" y="-114.7"/>
<text text-anchor="start" x="551.5" y="-104.8" font-family="Helvetica,sans-Serif" font-size="11.00" fill="#000000">server_id</text>
<polygon fill="#ffffff" stroke="transparent" points="529.5,-78.7 529.5,-97.7 588.5,-97.7 588.5,-78.7 529.5,-78.7"/>
<polygon fill="none" stroke="#000000" points="529.5,-78.7 529.5,-97.7 588.5,-97.7 588.5,-78.7 529.5,-78.7"/>
<text text-anchor="start" x="532.5" y="-84.8" font-family="Helvetica,sans-Serif" font-size="11.00" fill="#000000">&lt; 2</text>
<polygon fill="#ffffff" stroke="transparent" points="588.5,-78.7 588.5,-97.7 645.5,-97.7 645.5,-78.7 588.5,-78.7"/>
<polygon fill="none" stroke="#000000" points="588.5,-78.7 588.5,-97.7 645.5,-97.7 645.5,-78.7 588.5,-78.7"/>
<text text-anchor="start" x="610.1105" y="-84.8" font-family="Helvetica,sans-Serif" font-size="11.00" fill="#000000">0 rows</text>
<polygon fill="#ffffff" stroke="transparent" points="645.5,-78.7 645.5,-97.7 677.5,-97.7 677.5,-78.7 645.5,-78.7"/>
<polygon fill="none" stroke="#000000" points="645.5,-78.7 645.5,-97.7 677.5,-97.7 677.5,-78.7 645.5,-78.7"/>
<text text-anchor="start" x="668.3862" y="-84.8" font-family="Helvetica,sans-Serif" font-size="11.00" fill="#000000"> &#160;</text>
</a>
</g>
</g>
<!-- app_libraries_servers&#45;&gt;app_libraries -->
<g id="edge3" class="edge">
<title>app_libraries_servers:w&#45;&gt;app_libraries:e</title>
<path fill="none" stroke="#000000" d="M514.8726,-133.0943C499.1152,-139.1771 494.938,-156.1371 483,-175.7 448.6507,-231.9883 505.9412,-317.7 440,-317.7"/>
<polygon fill="#000000" stroke="#000000" points="521.6051,-131.9923 530.0816,-134.2527 525.5525,-131.3462 529.5,-130.7 529.5,-130.7 529.5,-130.7 525.5525,-131.3462 528.9184,-127.1473 521.6051,-131.9923 521.6051,-131.9923"/>
<ellipse fill="none" stroke="#000000" cx="518.4471" cy="-132.5093" rx="3.2" ry="3.2"/>
</g>
<!-- notifications_messages -->
<g id="node5" class="node">
<title>notifications_messages</title>
<g id="a_node5"><a xlink:href="../../tables/notifications_messages.html" xlink:title="notifications_messages" target="_top">
<polygon fill="#ffffff" stroke="transparent" points="491,-186.2 491,-511.2 716,-511.2 716,-186.2 491,-186.2"/>
<polygon fill="#f5f5f5" stroke="transparent" points="491.5,-487.7 491.5,-510.7 716.5,-510.7 716.5,-487.7 491.5,-487.7"/>
<polygon fill="none" stroke="#000000" points="491.5,-487.7 491.5,-510.7 716.5,-510.7 716.5,-487.7 491.5,-487.7"/>
<text text-anchor="start" x="496.5" y="-496.8" font-family="Helvetica,sans-Serif" font-weight="bold" font-size="11.00" fill="#000000">notifications_messages</text>
<text text-anchor="start" x="681.5437" y="-495.8" font-family="Helvetica,sans-Serif" font-size="11.00" fill="#000000">[table]</text>
<polygon fill="none" stroke="#000000" points="491.5,-465.7 491.5,-487.7 716.5,-487.7 716.5,-465.7 491.5,-465.7"/>
<image xlink:href="../../images/primaryKeys.png" width="11px" height="12px" preserveAspectRatio="xMinYMin meet" x="496.5" y="-482.7"/>
<text text-anchor="start" x="511.5" y="-472.8" font-family="Helvetica,sans-Serif" font-size="11.00" fill="#000000">id</text>
<polygon fill="#ffffff" stroke="transparent" points="491.5,-443.7 491.5,-465.7 716.5,-465.7 716.5,-443.7 491.5,-443.7"/>
<polygon fill="none" stroke="#000000" points="491.5,-443.7 491.5,-465.7 716.5,-465.7 716.5,-443.7 491.5,-443.7"/>
<image xlink:href="../../images/foreignKeys.png" width="11px" height="12px" preserveAspectRatio="xMinYMin meet" x="496.5" y="-460.7"/>
<text text-anchor="start" x="511.5" y="-450.8" font-family="Helvetica,sans-Serif" font-size="11.00" fill="#000000">organizations_id</text>
<polygon fill="#ffffff" stroke="transparent" points="491.5,-421.7 491.5,-443.7 716.5,-443.7 716.5,-421.7 491.5,-421.7"/>
<polygon fill="none" stroke="#000000" points="491.5,-421.7 491.5,-443.7 716.5,-443.7 716.5,-421.7 491.5,-421.7"/>
<image xlink:href="../../images/foreignKeys.png" width="11px" height="12px" preserveAspectRatio="xMinYMin meet" x="496.5" y="-438.7"/>
<text text-anchor="start" x="511.5" y="-428.8" font-family="Helvetica,sans-Serif" font-size="11.00" fill="#000000">applications_id</text>
<polygon fill="#ffffff" stroke="transparent" points="491.5,-399.7 491.5,-421.7 716.5,-421.7 716.5,-399.7 491.5,-399.7"/>
<polygon fill="none" stroke="#000000" points="491.5,-399.7 491.5,-421.7 716.5,-421.7 716.5,-399.7 491.5,-399.7"/>
<text text-anchor="start" x="511.5" y="-406.8" font-family="Helvetica,sans-Serif" font-size="11.00" fill="#000000">traces_id</text>
<polygon fill="#ffffff" stroke="transparent" points="491.5,-377.7 491.5,-399.7 716.5,-399.7 716.5,-377.7 491.5,-377.7"/>
<polygon fill="none" stroke="#000000" points="491.5,-377.7 491.5,-399.7 716.5,-399.7 716.5,-377.7 491.5,-377.7"/>
<image xlink:href="../../images/foreignKeys.png" width="11px" height="12px" preserveAspectRatio="xMinYMin meet" x="496.5" y="-394.7"/>
<text text-anchor="start" x="511.5" y="-384.8" font-family="Helvetica,sans-Serif" font-size="11.00" fill="#000000">app_libraries_id</text>
<polygon fill="#ffffff" stroke="transparent" points="491.5,-355.7 491.5,-377.7 716.5,-377.7 716.5,-355.7 491.5,-355.7"/>
<polygon fill="none" stroke="#000000" points="491.5,-355.7 491.5,-377.7 716.5,-377.7 716.5,-355.7 491.5,-355.7"/>
<image xlink:href="../../images/foreignKeys.png" width="11px" height="12px" preserveAspectRatio="xMinYMin meet" x="496.5" y="-372.7"/>
<text text-anchor="start" x="511.5" y="-362.8" font-family="Helvetica,sans-Serif" font-size="11.00" fill="#000000">rasp_attacks_id</text>
<polygon fill="#ffffff" stroke="transparent" points="491.5,-333.7 491.5,-355.7 716.5,-355.7 716.5,-333.7 491.5,-333.7"/>
<polygon fill="none" stroke="#000000" points="491.5,-333.7 491.5,-355.7 716.5,-355.7 716.5,-333.7 491.5,-333.7"/>
<image xlink:href="../../images/foreignKeys.png" width="11px" height="12px" preserveAspectRatio="xMinYMin meet" x="496.5" y="-350.7"/>
<text text-anchor="start" x="511.5" y="-340.8" font-family="Helvetica,sans-Serif" font-size="11.00" fill="#000000">servers_id</text>
<polygon fill="#ffffff" stroke="transparent" points="491.5,-311.7 491.5,-333.7 716.5,-333.7 716.5,-311.7 491.5,-311.7"/>
<polygon fill="none" stroke="#000000" points="491.5,-311.7 491.5,-333.7 716.5,-333.7 716.5,-311.7 491.5,-311.7"/>
<text text-anchor="start" x="511.5" y="-318.8" font-family="Helvetica,sans-Serif" font-size="11.00" fill="#000000">traces_notes_id</text>
<polygon fill="#ffffff" stroke="transparent" points="491.5,-289.7 491.5,-311.7 716.5,-311.7 716.5,-289.7 491.5,-289.7"/>
<polygon fill="none" stroke="#000000" points="491.5,-289.7 491.5,-311.7 716.5,-311.7 716.5,-289.7 491.5,-289.7"/>
<image xlink:href="../../images/foreignKeys.png" width="11px" height="12px" preserveAspectRatio="xMinYMin meet" x="496.5" y="-306.7"/>
<text text-anchor="start" x="511.5" y="-296.8" font-family="Helvetica,sans-Serif" font-size="11.00" fill="#000000">organization_remediation_policy_id</text>
<polygon fill="#ffffff" stroke="transparent" points="491.5,-267.7 491.5,-289.7 716.5,-289.7 716.5,-267.7 491.5,-267.7"/>
<polygon fill="none" stroke="#000000" points="491.5,-267.7 491.5,-289.7 716.5,-289.7 716.5,-267.7 491.5,-267.7"/>
<image xlink:href="../../images/foreignKeys.png" width="11px" height="12px" preserveAspectRatio="xMinYMin meet" x="496.5" y="-284.7"/>
<text text-anchor="start" x="511.5" y="-274.8" font-family="Helvetica,sans-Serif" font-size="11.00" fill="#000000">app_compliance_policy_id</text>
<polygon fill="#ffffff" stroke="transparent" points="491.5,-245.7 491.5,-267.7 716.5,-267.7 716.5,-245.7 491.5,-245.7"/>
<polygon fill="none" stroke="#000000" points="491.5,-245.7 491.5,-267.7 716.5,-267.7 716.5,-245.7 491.5,-245.7"/>
<image xlink:href="../../images/foreignKeys.png" width="11px" height="12px" preserveAspectRatio="xMinYMin meet" x="496.5" y="-262.7"/>
<text text-anchor="start" x="511.5" y="-252.8" font-family="Helvetica,sans-Serif" font-size="11.00" fill="#000000">vulnerability_instances_id</text>
<polygon fill="#ffffff" stroke="transparent" points="491.5,-223.7 491.5,-245.7 716.5,-245.7 716.5,-223.7 491.5,-223.7"/>
<polygon fill="none" stroke="#000000" points="491.5,-223.7 491.5,-245.7 716.5,-245.7 716.5,-223.7 491.5,-223.7"/>
<image xlink:href="../../images/foreignKeys.png" width="11px" height="12px" preserveAspectRatio="xMinYMin meet" x="496.5" y="-240.7"/>
<text text-anchor="start" x="511.5" y="-230.8" font-family="Helvetica,sans-Serif" font-size="11.00" fill="#000000">vulnerability_notes_id</text>
<polygon fill="none" stroke="#000000" points="491.5,-204.7 491.5,-223.7 716.5,-223.7 716.5,-204.7 491.5,-204.7"/>
<text text-anchor="start" x="494.5" y="-210.8" font-family="Helvetica,sans-Serif" font-size="11.00" fill="#000000">...</text>
<polygon fill="#ffffff" stroke="transparent" points="491.5,-185.7 491.5,-204.7 584.5,-204.7 584.5,-185.7 491.5,-185.7"/>
<polygon fill="none" stroke="#000000" points="491.5,-185.7 491.5,-204.7 584.5,-204.7 584.5,-185.7 491.5,-185.7"/>
<text text-anchor="start" x="494.5" y="-191.8" font-family="Helvetica,sans-Serif" font-size="11.00" fill="#000000">&lt; 9</text>
<polygon fill="#ffffff" stroke="transparent" points="584.5,-185.7 584.5,-204.7 658.5,-204.7 658.5,-185.7 584.5,-185.7"/>
<polygon fill="none" stroke="#000000" points="584.5,-185.7 584.5,-204.7 658.5,-204.7 658.5,-185.7 584.5,-185.7"/>
<text text-anchor="start" x="623.1105" y="-191.8" font-family="Helvetica,sans-Serif" font-size="11.00" fill="#000000">0 rows</text>
<polygon fill="#ffffff" stroke="transparent" points="658.5,-185.7 658.5,-204.7 716.5,-204.7 716.5,-185.7 658.5,-185.7"/>
<polygon fill="none" stroke="#000000" points="658.5,-185.7 658.5,-204.7 716.5,-204.7 716.5,-185.7 658.5,-185.7"/>
<text text-anchor="start" x="697.9053" y="-191.8" font-family="Helvetica,sans-Serif" font-size="11.00" fill="#000000">4 &gt;</text>
</a>
</g>
</g>
<!-- notifications_messages&#45;&gt;app_libraries -->
<g id="edge4" class="edge">
<title>notifications_messages:w&#45;&gt;app_libraries:e</title>
<path fill="none" stroke="#000000" d="M477.7777,-384.2586C459.062,-368.715 473.044,-317.7 440,-317.7"/>
<polygon fill="#000000" stroke="#000000" points="483.8887,-386.2365 490.3914,-392.1251 487.6944,-387.4682 491.5,-388.7 491.5,-388.7 491.5,-388.7 487.6944,-387.4682 492.6086,-385.2749 483.8887,-386.2365 483.8887,-386.2365"/>
<ellipse fill="none" stroke="#000000" cx="480.8442" cy="-385.2511" rx="3.2" ry="3.2"/>
</g>
<!-- notifications_messages&#45;&gt;applications -->
<g id="edge5" class="edge">
<title>notifications_messages:w&#45;&gt;applications:e</title>
<path fill="none" stroke="#000000" d="M477.0592,-432.7C355.555,-432.7 319.8854,-432.7 191.5,-432.7"/>
<polygon fill="#000000" stroke="#000000" points="483.5,-432.7001 491.5,-436.3 487.5,-432.7 491.5,-432.7 491.5,-432.7 491.5,-432.7 487.5,-432.7 491.5,-429.1 483.5,-432.7001 483.5,-432.7001"/>
<ellipse fill="none" stroke="#000000" cx="480.3" cy="-432.7001" rx="3.2" ry="3.2"/>
</g>
</g>
</svg>
