<?xml version="1.0" encoding="UTF-8" standalone="no"?>
<!DOCTYPE svg PUBLIC "-//W3C//DTD SVG 1.1//EN"
 "http://www.w3.org/Graphics/SVG/1.1/DTD/svg11.dtd">
<!-- Generated by graphviz version 2.40.1 (20161225.0304)
 -->
<!-- Title: oneDegreeRelationshipsDiagram Pages: 1 -->
<svg width="773pt" height="435pt"
 viewBox="0.00 0.00 773.00 435.20" xmlns="http://www.w3.org/2000/svg" xmlns:xlink="http://www.w3.org/1999/xlink">
<g id="graph0" class="graph" transform="scale(1 1) rotate(0) translate(4 431.2)">
<title>oneDegreeRelationshipsDiagram</title>
<polygon fill="#ffffff" stroke="transparent" points="-4,4 -4,-431.2 769,-431.2 769,4 -4,4"/>
<text text-anchor="middle" x="72.4936" y="-7.3" font-family="Helvetica,sans-Serif" font-size="11.00" fill="#000000">Generated by SchemaSpy</text>
<!-- app_license -->
<g id="node1" class="node">
<title>app_license</title>
<g id="a_node1"><a xlink:href="../../tables/app_license.html" xlink:title="app_license" target="_top">
<polygon fill="#ffffff" stroke="transparent" points="315,-132.7 315,-332.7 518,-332.7 518,-132.7 315,-132.7"/>
<polygon fill="#f5f5f5" stroke="transparent" points="317.5,-307.7 317.5,-330.7 516.5,-330.7 516.5,-307.7 317.5,-307.7"/>
<polygon fill="none" stroke="#000000" points="317.5,-307.7 317.5,-330.7 516.5,-330.7 516.5,-307.7 317.5,-307.7"/>
<text text-anchor="start" x="322.5" y="-316.8" font-family="Helvetica,sans-Serif" font-weight="bold" font-size="11.00" fill="#000000">app_license</text>
<text text-anchor="start" x="481.5437" y="-315.8" font-family="Helvetica,sans-Serif" font-size="11.00" fill="#000000">[table]</text>
<polygon fill="none" stroke="#000000" points="317.5,-285.7 317.5,-307.7 433.5,-307.7 433.5,-285.7 317.5,-285.7"/>
<image xlink:href="../../images/primaryKeys.png" width="11px" height="12px" preserveAspectRatio="xMinYMin meet" x="322.5" y="-302.7"/>
<text text-anchor="start" x="337.5" y="-292.8" font-family="Helvetica,sans-Serif" font-size="11.00" fill="#000000">app_license_id</text>
<polygon fill="none" stroke="#000000" points="433.5,-285.7 433.5,-307.7 516.5,-307.7 516.5,-285.7 433.5,-285.7"/>
<text text-anchor="start" x="436.5" y="-293.4" font-family="Helvetica,sans-Serif" font-size="11.00" fill="#000000">varchar[255]</text>
<polygon fill="none" stroke="#000000" points="317.5,-263.7 317.5,-285.7 433.5,-285.7 433.5,-263.7 317.5,-263.7"/>
<text text-anchor="start" x="337.5" y="-270.8" font-family="Helvetica,sans-Serif" font-size="11.00" fill="#000000">appliedDate</text>
<polygon fill="none" stroke="#000000" points="433.5,-263.7 433.5,-285.7 516.5,-285.7 516.5,-263.7 433.5,-263.7"/>
<text text-anchor="start" x="436.5" y="-271.4" font-family="Helvetica,sans-Serif" font-size="11.00" fill="#000000">datetime[19]</text>
<polygon fill="#ffffff" stroke="transparent" points="317.5,-241.7 317.5,-263.7 433.5,-263.7 433.5,-241.7 317.5,-241.7"/>
<polygon fill="none" stroke="#000000" points="317.5,-241.7 317.5,-263.7 433.5,-263.7 433.5,-241.7 317.5,-241.7"/>
<text text-anchor="start" x="337.5" y="-248.8" font-family="Helvetica,sans-Serif" font-size="11.00" fill="#000000">endDate</text>
<polygon fill="none" stroke="#000000" points="433.5,-241.7 433.5,-263.7 516.5,-263.7 516.5,-241.7 433.5,-241.7"/>
<text text-anchor="start" x="436.5" y="-249.4" font-family="Helvetica,sans-Serif" font-size="11.00" fill="#000000">date[10]</text>
<polygon fill="none" stroke="#000000" points="317.5,-219.7 317.5,-241.7 433.5,-241.7 433.5,-219.7 317.5,-219.7"/>
<text text-anchor="start" x="337.5" y="-226.8" font-family="Helvetica,sans-Serif" font-size="11.00" fill="#000000">service_level</text>
<polygon fill="none" stroke="#000000" points="433.5,-219.7 433.5,-241.7 516.5,-241.7 516.5,-219.7 433.5,-219.7"/>
<text text-anchor="start" x="436.5" y="-227.4" font-family="Helvetica,sans-Serif" font-size="11.00" fill="#000000">unknown[0]</text>
<polygon fill="#ffffff" stroke="transparent" points="317.5,-197.7 317.5,-219.7 433.5,-219.7 433.5,-197.7 317.5,-197.7"/>
<polygon fill="none" stroke="#000000" points="317.5,-197.7 317.5,-219.7 433.5,-219.7 433.5,-197.7 317.5,-197.7"/>
<text text-anchor="start" x="337.5" y="-204.8" font-family="Helvetica,sans-Serif" font-size="11.00" fill="#000000">serviceLevel</text>
<polygon fill="none" stroke="#000000" points="433.5,-197.7 433.5,-219.7 516.5,-219.7 516.5,-197.7 433.5,-197.7"/>
<text text-anchor="start" x="436.5" y="-205.4" font-family="Helvetica,sans-Serif" font-size="11.00" fill="#000000">int[10]</text>
<polygon fill="none" stroke="#000000" points="317.5,-175.7 317.5,-197.7 433.5,-197.7 433.5,-175.7 317.5,-175.7"/>
<text text-anchor="start" x="337.5" y="-182.8" font-family="Helvetica,sans-Serif" font-size="11.00" fill="#000000">startDate</text>
<polygon fill="none" stroke="#000000" points="433.5,-175.7 433.5,-197.7 516.5,-197.7 516.5,-175.7 433.5,-175.7"/>
<text text-anchor="start" x="436.5" y="-183.4" font-family="Helvetica,sans-Serif" font-size="11.00" fill="#000000">date[10]</text>
<polygon fill="#ffffff" stroke="transparent" points="317.5,-153.7 317.5,-175.7 433.5,-175.7 433.5,-153.7 317.5,-153.7"/>
<polygon fill="none" stroke="#000000" points="317.5,-153.7 317.5,-175.7 433.5,-175.7 433.5,-153.7 317.5,-153.7"/>
<image xlink:href="../../images/foreignKeys.png" width="11px" height="12px" preserveAspectRatio="xMinYMin meet" x="322.5" y="-170.7"/>
<text text-anchor="start" x="337.5" y="-160.8" font-family="Helvetica,sans-Serif" font-size="11.00" fill="#000000">organizations_id</text>
<polygon fill="none" stroke="#000000" points="433.5,-153.7 433.5,-175.7 516.5,-175.7 516.5,-153.7 433.5,-153.7"/>
<text text-anchor="start" x="436.1783" y="-161.4" font-family="Helvetica,sans-Serif" font-size="11.00" fill="#000000">int unsigned[10]</text>
<polygon fill="#ffffff" stroke="transparent" points="317.5,-134.7 317.5,-153.7 366.5,-153.7 366.5,-134.7 317.5,-134.7"/>
<polygon fill="none" stroke="#000000" points="317.5,-134.7 317.5,-153.7 366.5,-153.7 366.5,-134.7 317.5,-134.7"/>
<text text-anchor="start" x="320.5" y="-140.8" font-family="Helvetica,sans-Serif" font-size="11.00" fill="#000000">&lt; 1</text>
<polygon fill="#ffffff" stroke="transparent" points="366.5,-134.7 366.5,-153.7 433.5,-153.7 433.5,-134.7 366.5,-134.7"/>
<polygon fill="none" stroke="#000000" points="366.5,-134.7 366.5,-153.7 433.5,-153.7 433.5,-134.7 366.5,-134.7"/>
<text text-anchor="start" x="398.1105" y="-140.8" font-family="Helvetica,sans-Serif" font-size="11.00" fill="#000000">0 rows</text>
<polygon fill="#ffffff" stroke="transparent" points="433.5,-134.7 433.5,-153.7 516.5,-153.7 516.5,-134.7 433.5,-134.7"/>
<polygon fill="none" stroke="#000000" points="433.5,-134.7 433.5,-153.7 516.5,-153.7 516.5,-134.7 433.5,-134.7"/>
<text text-anchor="start" x="497.9053" y="-140.8" font-family="Helvetica,sans-Serif" font-size="11.00" fill="#000000">2 &gt;</text>
<polygon fill="none" stroke="#000000" stroke-width="2" points="316,-133.7 316,-331.7 517,-331.7 517,-133.7 316,-133.7"/>
</a>
</g>
</g>
<!-- organizations -->
<g id="node2" class="node">
<title>organizations</title>
<g id="a_node2"><a xlink:href="../../tables/organizations.html" xlink:title="organizations" target="_top">
<polygon fill="#ffffff" stroke="transparent" points="8,-44.2 8,-259.2 266,-259.2 266,-44.2 8,-44.2"/>
<polygon fill="#f5f5f5" stroke="transparent" points="8,-235.7 8,-258.7 266,-258.7 266,-235.7 8,-235.7"/>
<polygon fill="none" stroke="#000000" points="8,-235.7 8,-258.7 266,-258.7 266,-235.7 8,-235.7"/>
<text text-anchor="start" x="13" y="-244.8" font-family="Helvetica,sans-Serif" font-weight="bold" font-size="11.00" fill="#000000">organizations</text>
<text text-anchor="start" x="231.0437" y="-243.8" font-family="Helvetica,sans-Serif" font-size="11.00" fill="#000000">[table]</text>
<polygon fill="#ffffff" stroke="transparent" points="8,-213.7 8,-235.7 266,-235.7 266,-213.7 8,-213.7"/>
<polygon fill="none" stroke="#000000" points="8,-213.7 8,-235.7 266,-235.7 266,-213.7 8,-213.7"/>
<text text-anchor="start" x="28" y="-220.8" font-family="Helvetica,sans-Serif" font-size="11.00" fill="#000000">name</text>
<polygon fill="#ffffff" stroke="transparent" points="8,-191.7 8,-213.7 266,-213.7 266,-191.7 8,-191.7"/>
<polygon fill="none" stroke="#000000" points="8,-191.7 8,-213.7 266,-213.7 266,-191.7 8,-191.7"/>
<image xlink:href="../../images/foreignKeys.png" width="11px" height="12px" preserveAspectRatio="xMinYMin meet" x="13" y="-208.7"/>
<text text-anchor="start" x="28" y="-198.8" font-family="Helvetica,sans-Serif" font-size="11.00" fill="#000000">configKey_fk</text>
<polygon fill="#ffffff" stroke="transparent" points="8,-169.7 8,-191.7 266,-191.7 266,-169.7 8,-169.7"/>
<polygon fill="none" stroke="#000000" points="8,-169.7 8,-191.7 266,-191.7 266,-169.7 8,-169.7"/>
<image xlink:href="../../images/foreignKeys.png" width="11px" height="12px" preserveAspectRatio="xMinYMin meet" x="13" y="-186.7"/>
<text text-anchor="start" x="28" y="-176.8" font-family="Helvetica,sans-Serif" font-size="11.00" fill="#000000">passwordPolicy_fk</text>
<polygon fill="#ffffff" stroke="transparent" points="8,-147.7 8,-169.7 266,-169.7 266,-147.7 8,-147.7"/>
<polygon fill="none" stroke="#000000" points="8,-147.7 8,-169.7 266,-169.7 266,-147.7 8,-147.7"/>
<image xlink:href="../../images/foreignKeys.png" width="11px" height="12px" preserveAspectRatio="xMinYMin meet" x="13" y="-164.7"/>
<text text-anchor="start" x="28" y="-154.8" font-family="Helvetica,sans-Serif" font-size="11.00" fill="#000000">report_settings_fk</text>
<polygon fill="none" stroke="#000000" points="8,-125.7 8,-147.7 266,-147.7 266,-125.7 8,-125.7"/>
<image xlink:href="../../images/primaryKeys.png" width="11px" height="12px" preserveAspectRatio="xMinYMin meet" x="13" y="-142.7"/>
<text text-anchor="start" x="28" y="-132.8" font-family="Helvetica,sans-Serif" font-size="11.00" fill="#000000">id</text>
<polygon fill="#ffffff" stroke="transparent" points="8,-103.7 8,-125.7 266,-125.7 266,-103.7 8,-103.7"/>
<polygon fill="none" stroke="#000000" points="8,-103.7 8,-125.7 266,-125.7 266,-103.7 8,-103.7"/>
<text text-anchor="start" x="28" y="-110.8" font-family="Helvetica,sans-Serif" font-size="11.00" fill="#000000">uuid</text>
<polygon fill="#ffffff" stroke="transparent" points="8,-81.7 8,-103.7 266,-103.7 266,-81.7 8,-81.7"/>
<polygon fill="none" stroke="#000000" points="8,-81.7 8,-103.7 266,-103.7 266,-81.7 8,-81.7"/>
<image xlink:href="../../images/foreignKeys.png" width="11px" height="12px" preserveAspectRatio="xMinYMin meet" x="13" y="-98.7"/>
<text text-anchor="start" x="28" y="-88.8" font-family="Helvetica,sans-Serif" font-size="11.00" fill="#000000">saml_idp_config_fk</text>
<polygon fill="none" stroke="#000000" points="8,-62.7 8,-81.7 266,-81.7 266,-62.7 8,-62.7"/>
<text text-anchor="start" x="11" y="-68.8" font-family="Helvetica,sans-Serif" font-size="11.00" fill="#000000">...</text>
<polygon fill="#ffffff" stroke="transparent" points="8,-43.7 8,-62.7 115,-62.7 115,-43.7 8,-43.7"/>
<polygon fill="none" stroke="#000000" points="8,-43.7 8,-62.7 115,-62.7 115,-43.7 8,-43.7"/>
<text text-anchor="start" x="11" y="-49.8" font-family="Helvetica,sans-Serif" font-size="11.00" fill="#000000">&lt; 4</text>
<polygon fill="#ffffff" stroke="transparent" points="115,-43.7 115,-62.7 196,-62.7 196,-43.7 115,-43.7"/>
<polygon fill="none" stroke="#000000" points="115,-43.7 115,-62.7 196,-62.7 196,-43.7 115,-43.7"/>
<text text-anchor="start" x="160.6105" y="-49.8" font-family="Helvetica,sans-Serif" font-size="11.00" fill="#000000">3 rows</text>
<polygon fill="#ffffff" stroke="transparent" points="196,-43.7 196,-62.7 266,-62.7 266,-43.7 196,-43.7"/>
<polygon fill="none" stroke="#000000" points="196,-43.7 196,-62.7 266,-62.7 266,-43.7 196,-43.7"/>
<text text-anchor="start" x="241.2904" y="-49.8" font-family="Helvetica,sans-Serif" font-size="11.00" fill="#000000">81 &gt;</text>
</a>
</g>
</g>
<!-- app_license&#45;&gt;organizations -->
<g id="edge1" class="edge">
<title>app_license:w&#45;&gt;organizations:e</title>
<path fill="none" stroke="#000000" d="M303.2773,-161.0395C290.3531,-153.4498 286.1505,-136.7 266,-136.7"/>
<polygon fill="#000000" stroke="#000000" points="309.7525,-162.706 316.6027,-168.1864 313.6262,-163.703 317.5,-164.7 317.5,-164.7 317.5,-164.7 313.6262,-163.703 318.3973,-161.2136 309.7525,-162.706 309.7525,-162.706"/>
<ellipse fill="none" stroke="#000000" cx="306.6535" cy="-161.9084" rx="3.2" ry="3.2"/>
</g>
<!-- applications -->
<g id="node3" class="node">
<title>applications</title>
<g id="a_node3"><a xlink:href="../../tables/applications.html" xlink:title="applications" target="_top">
<polygon fill="#ffffff" stroke="transparent" points="570.5,-38.2 570.5,-297.2 753.5,-297.2 753.5,-38.2 570.5,-38.2"/>
<polygon fill="#f5f5f5" stroke="transparent" points="571,-273.7 571,-296.7 754,-296.7 754,-273.7 571,-273.7"/>
<polygon fill="none" stroke="#000000" points="571,-273.7 571,-296.7 754,-296.7 754,-273.7 571,-273.7"/>
<text text-anchor="start" x="576" y="-282.8" font-family="Helvetica,sans-Serif" font-weight="bold" font-size="11.00" fill="#000000">applications</text>
<text text-anchor="start" x="719.0437" y="-281.8" font-family="Helvetica,sans-Serif" font-size="11.00" fill="#000000">[table]</text>
<polygon fill="none" stroke="#000000" points="571,-251.7 571,-273.7 754,-273.7 754,-251.7 571,-251.7"/>
<image xlink:href="../../images/primaryKeys.png" width="11px" height="12px" preserveAspectRatio="xMinYMin meet" x="576" y="-268.7"/>
<text text-anchor="start" x="591" y="-258.8" font-family="Helvetica,sans-Serif" font-size="11.00" fill="#000000">application_id</text>
<polygon fill="#ffffff" stroke="transparent" points="571,-229.7 571,-251.7 754,-251.7 754,-229.7 571,-229.7"/>
<polygon fill="none" stroke="#000000" points="571,-229.7 571,-251.7 754,-251.7 754,-229.7 571,-229.7"/>
<text text-anchor="start" x="591" y="-236.8" font-family="Helvetica,sans-Serif" font-size="11.00" fill="#000000">app_name</text>
<polygon fill="#ffffff" stroke="transparent" points="571,-207.7 571,-229.7 754,-229.7 754,-207.7 571,-207.7"/>
<polygon fill="none" stroke="#000000" points="571,-207.7 571,-229.7 754,-229.7 754,-207.7 571,-207.7"/>
<text text-anchor="start" x="591" y="-214.8" font-family="Helvetica,sans-Serif" font-size="11.00" fill="#000000">app_short_name</text>
<polygon fill="#ffffff" stroke="transparent" points="571,-185.7 571,-207.7 754,-207.7 754,-185.7 571,-185.7"/>
<polygon fill="none" stroke="#000000" points="571,-185.7 571,-207.7 754,-207.7 754,-185.7 571,-185.7"/>
<image xlink:href="../../images/foreignKeys.png" width="11px" height="12px" preserveAspectRatio="xMinYMin meet" x="576" y="-202.7"/>
<text text-anchor="start" x="591" y="-192.8" font-family="Helvetica,sans-Serif" font-size="11.00" fill="#000000">app_license_fk</text>
<polygon fill="#ffffff" stroke="transparent" points="571,-163.7 571,-185.7 754,-185.7 754,-163.7 571,-163.7"/>
<polygon fill="none" stroke="#000000" points="571,-163.7 571,-185.7 754,-185.7 754,-163.7 571,-163.7"/>
<image xlink:href="../../images/foreignKeys.png" width="11px" height="12px" preserveAspectRatio="xMinYMin meet" x="576" y="-180.7"/>
<text text-anchor="start" x="591" y="-170.8" font-family="Helvetica,sans-Serif" font-size="11.00" fill="#000000">app_parent_fk</text>
<polygon fill="#ffffff" stroke="transparent" points="571,-141.7 571,-163.7 754,-163.7 754,-141.7 571,-141.7"/>
<polygon fill="none" stroke="#000000" points="571,-141.7 571,-163.7 754,-163.7 754,-141.7 571,-141.7"/>
<text text-anchor="start" x="591" y="-148.8" font-family="Helvetica,sans-Serif" font-size="11.00" fill="#000000">app_display_name</text>
<polygon fill="#ffffff" stroke="transparent" points="571,-119.7 571,-141.7 754,-141.7 754,-119.7 571,-119.7"/>
<polygon fill="none" stroke="#000000" points="571,-119.7 571,-141.7 754,-141.7 754,-119.7 571,-119.7"/>
<text text-anchor="start" x="591" y="-126.8" font-family="Helvetica,sans-Serif" font-size="11.00" fill="#000000">importance</text>
<polygon fill="#ffffff" stroke="transparent" points="571,-97.7 571,-119.7 754,-119.7 754,-97.7 571,-97.7"/>
<polygon fill="none" stroke="#000000" points="571,-97.7 571,-119.7 754,-119.7 754,-97.7 571,-97.7"/>
<image xlink:href="../../images/foreignKeys.png" width="11px" height="12px" preserveAspectRatio="xMinYMin meet" x="576" y="-114.7"/>
<text text-anchor="start" x="591" y="-104.8" font-family="Helvetica,sans-Serif" font-size="11.00" fill="#000000">organizations_id</text>
<polygon fill="#ffffff" stroke="transparent" points="571,-75.7 571,-97.7 754,-97.7 754,-75.7 571,-75.7"/>
<polygon fill="none" stroke="#000000" points="571,-75.7 571,-97.7 754,-97.7 754,-75.7 571,-75.7"/>
<text text-anchor="start" x="591" y="-82.8" font-family="Helvetica,sans-Serif" font-size="11.00" fill="#000000">agent_language</text>
<polygon fill="none" stroke="#000000" points="571,-56.7 571,-75.7 754,-75.7 754,-56.7 571,-56.7"/>
<text text-anchor="start" x="574" y="-62.8" font-family="Helvetica,sans-Serif" font-size="11.00" fill="#000000">...</text>
<polygon fill="#ffffff" stroke="transparent" points="571,-37.7 571,-56.7 640,-56.7 640,-37.7 571,-37.7"/>
<polygon fill="none" stroke="#000000" points="571,-37.7 571,-56.7 640,-56.7 640,-37.7 571,-37.7"/>
<text text-anchor="start" x="574" y="-43.8" font-family="Helvetica,sans-Serif" font-size="11.00" fill="#000000">&lt; 3</text>
<polygon fill="#ffffff" stroke="transparent" points="640,-37.7 640,-56.7 702,-56.7 702,-37.7 640,-37.7"/>
<polygon fill="none" stroke="#000000" points="640,-37.7 640,-56.7 702,-56.7 702,-37.7 640,-37.7"/>
<text text-anchor="start" x="666.6105" y="-43.8" font-family="Helvetica,sans-Serif" font-size="11.00" fill="#000000">0 rows</text>
<polygon fill="#ffffff" stroke="transparent" points="702,-37.7 702,-56.7 754,-56.7 754,-37.7 702,-37.7"/>
<polygon fill="none" stroke="#000000" points="702,-37.7 702,-56.7 754,-56.7 754,-37.7 702,-37.7"/>
<text text-anchor="start" x="729.2904" y="-43.8" font-family="Helvetica,sans-Serif" font-size="11.00" fill="#000000">57 &gt;</text>
</a>
</g>
</g>
<!-- applications&#45;&gt;app_license -->
<g id="edge2" class="edge">
<title>applications:w&#45;&gt;app_license:e</title>
<path fill="none" stroke="#000000" d="M560.4014,-198.6083C527.3956,-212.4333 562.9643,-296.7 516.5,-296.7"/>
<polygon fill="#000000" stroke="#000000" points="569.5038,-192.9051 570.9215,-200.7785 569.3468,-201.062 567.9291,-193.1886 569.5038,-192.9051"/>
<polyline fill="none" stroke="#000000" points="571,-196.7 567.0633,-197.4089 "/>
<ellipse fill="none" stroke="#000000" cx="563.9139" cy="-197.9759" rx="3.2" ry="3.2"/>
</g>
<!-- applications&#45;&gt;organizations -->
<g id="edge3" class="edge">
<title>applications:w&#45;&gt;organizations:e</title>
<path fill="none" stroke="#000000" d="M556.3185,-108.6571C450.6702,-108.0426 417.4042,-101.3508 307,-122.7 288.0949,-126.3557 285.2553,-136.7 266,-136.7"/>
<polygon fill="#000000" stroke="#000000" points="563,-108.6766 570.9894,-112.3 567,-108.6883 571,-108.7 571,-108.7 571,-108.7 567,-108.6883 571.0106,-105.1 563,-108.6766 563,-108.6766"/>
<ellipse fill="none" stroke="#000000" cx="559.8" cy="-108.6672" rx="3.2" ry="3.2"/>
</g>
<!-- notifications_license_records -->
<g id="node4" class="node">
<title>notifications_license_records</title>
<g id="a_node4"><a xlink:href="../../tables/notifications_license_records.html" xlink:title="notifications_license_records" target="_top">
<polygon fill="#ffffff" stroke="transparent" points="567,-318.2 567,-423.2 757,-423.2 757,-318.2 567,-318.2"/>
<polygon fill="#f5f5f5" stroke="transparent" points="567,-399.7 567,-422.7 757,-422.7 757,-399.7 567,-399.7"/>
<polygon fill="none" stroke="#000000" points="567,-399.7 567,-422.7 757,-422.7 757,-399.7 567,-399.7"/>
<text text-anchor="start" x="572" y="-408.8" font-family="Helvetica,sans-Serif" font-weight="bold" font-size="11.00" fill="#000000">notifications_license_records</text>
<text text-anchor="start" x="722.0437" y="-407.8" font-family="Helvetica,sans-Serif" font-size="11.00" fill="#000000">[table]</text>
<polygon fill="none" stroke="#000000" points="567,-377.7 567,-399.7 757,-399.7 757,-377.7 567,-377.7"/>
<image xlink:href="../../images/primaryKeys.png" width="11px" height="12px" preserveAspectRatio="xMinYMin meet" x="572" y="-394.7"/>
<text text-anchor="start" x="587" y="-384.8" font-family="Helvetica,sans-Serif" font-size="11.00" fill="#000000">id</text>
<polygon fill="#ffffff" stroke="transparent" points="567,-355.7 567,-377.7 757,-377.7 757,-355.7 567,-355.7"/>
<polygon fill="none" stroke="#000000" points="567,-355.7 567,-377.7 757,-377.7 757,-355.7 567,-355.7"/>
<image xlink:href="../../images/foreignKeys.png" width="11px" height="12px" preserveAspectRatio="xMinYMin meet" x="572" y="-372.7"/>
<text text-anchor="start" x="587" y="-362.8" font-family="Helvetica,sans-Serif" font-size="11.00" fill="#000000">app_license_id</text>
<polygon fill="none" stroke="#000000" points="567,-336.7 567,-355.7 757,-355.7 757,-336.7 567,-336.7"/>
<text text-anchor="start" x="570" y="-342.8" font-family="Helvetica,sans-Serif" font-size="11.00" fill="#000000">...</text>
<polygon fill="#ffffff" stroke="transparent" points="567,-317.7 567,-336.7 647,-336.7 647,-317.7 567,-317.7"/>
<polygon fill="none" stroke="#000000" points="567,-317.7 567,-336.7 647,-336.7 647,-317.7 567,-317.7"/>
<text text-anchor="start" x="570" y="-323.8" font-family="Helvetica,sans-Serif" font-size="11.00" fill="#000000">&lt; 1</text>
<polygon fill="#ffffff" stroke="transparent" points="647,-317.7 647,-336.7 715,-336.7 715,-317.7 647,-317.7"/>
<polygon fill="none" stroke="#000000" points="647,-317.7 647,-336.7 715,-336.7 715,-317.7 647,-317.7"/>
<text text-anchor="start" x="679.6105" y="-323.8" font-family="Helvetica,sans-Serif" font-size="11.00" fill="#000000">0 rows</text>
<polygon fill="#ffffff" stroke="transparent" points="715,-317.7 715,-336.7 757,-336.7 757,-317.7 715,-317.7"/>
<polygon fill="none" stroke="#000000" points="715,-317.7 715,-336.7 757,-336.7 757,-317.7 715,-317.7"/>
<text text-anchor="start" x="747.8862" y="-323.8" font-family="Helvetica,sans-Serif" font-size="11.00" fill="#000000"> &#160;</text>
</a>
</g>
</g>
<!-- notifications_license_records&#45;&gt;app_license -->
<g id="edge4" class="edge">
<title>notifications_license_records:w&#45;&gt;app_license:e</title>
<path fill="none" stroke="#000000" d="M556.5613,-364.371C533.6018,-352.2249 550.6663,-296.7 516.5,-296.7"/>
<polygon fill="#000000" stroke="#000000" points="567.0903,-362.6218 565.3481,-370.4298 563.7865,-370.0814 565.5287,-362.2733 567.0903,-362.6218"/>
<polyline fill="none" stroke="#000000" points="567,-366.7 563.096,-365.8289 "/>
<ellipse fill="none" stroke="#000000" cx="559.9728" cy="-365.1321" rx="3.2" ry="3.2"/>
</g>
</g>
</svg>
