<?xml version="1.0" encoding="UTF-8" standalone="no"?>
<!DOCTYPE svg PUBLIC "-//W3C//DTD SVG 1.1//EN"
 "http://www.w3.org/Graphics/SVG/1.1/DTD/svg11.dtd">
<!-- Generated by graphviz version 2.40.1 (20161225.0304)
 -->
<!-- Title: oneDegreeRelationshipsDiagram Pages: 1 -->
<svg width="559pt" height="435pt"
 viewBox="0.00 0.00 559.00 435.20" xmlns="http://www.w3.org/2000/svg" xmlns:xlink="http://www.w3.org/1999/xlink">
<g id="graph0" class="graph" transform="scale(1 1) rotate(0) translate(4 431.2)">
<title>oneDegreeRelationshipsDiagram</title>
<polygon fill="#ffffff" stroke="transparent" points="-4,4 -4,-431.2 555,-431.2 555,4 -4,4"/>
<text text-anchor="middle" x="72.4936" y="-7.3" font-family="Helvetica,sans-Serif" font-size="11.00" fill="#000000">Generated by SchemaSpy</text>
<!-- app_assess_rules_env_configs -->
<g id="node1" class="node">
<title>app_assess_rules_env_configs</title>
<g id="a_node1"><a xlink:href="../../tables/app_assess_rules_env_configs.html" xlink:title="app_assess_rules_env_configs" target="_top">
<polygon fill="#ffffff" stroke="transparent" points="240,-139.7 240,-317.7 543,-317.7 543,-139.7 240,-139.7"/>
<polygon fill="#f5f5f5" stroke="transparent" points="242.5,-292.7 242.5,-315.7 541.5,-315.7 541.5,-292.7 242.5,-292.7"/>
<polygon fill="none" stroke="#000000" points="242.5,-292.7 242.5,-315.7 541.5,-315.7 541.5,-292.7 242.5,-292.7"/>
<text text-anchor="start" x="247.5" y="-301.8" font-family="Helvetica,sans-Serif" font-weight="bold" font-size="11.00" fill="#000000">app_assess_rules_env_configs</text>
<text text-anchor="start" x="506.5437" y="-300.8" font-family="Helvetica,sans-Serif" font-size="11.00" fill="#000000">[table]</text>
<polygon fill="none" stroke="#000000" points="242.5,-270.7 242.5,-292.7 443.5,-292.7 443.5,-270.7 242.5,-270.7"/>
<image xlink:href="../../images/primaryKeys.png" width="11px" height="12px" preserveAspectRatio="xMinYMin meet" x="247.5" y="-287.7"/>
<text text-anchor="start" x="262.5" y="-277.8" font-family="Helvetica,sans-Serif" font-size="11.00" fill="#000000">id</text>
<polygon fill="none" stroke="#000000" points="443.5,-270.7 443.5,-292.7 541.5,-292.7 541.5,-270.7 443.5,-270.7"/>
<text text-anchor="start" x="446.3429" y="-278.4" font-family="Helvetica,sans-Serif" font-size="11.00" fill="#000000">bigint unsigned[20]</text>
<polygon fill="#ffffff" stroke="transparent" points="242.5,-248.7 242.5,-270.7 443.5,-270.7 443.5,-248.7 242.5,-248.7"/>
<polygon fill="none" stroke="#000000" points="242.5,-248.7 242.5,-270.7 443.5,-270.7 443.5,-248.7 242.5,-248.7"/>
<image xlink:href="../../images/foreignKeys.png" width="11px" height="12px" preserveAspectRatio="xMinYMin meet" x="247.5" y="-265.7"/>
<text text-anchor="start" x="262.5" y="-255.8" font-family="Helvetica,sans-Serif" font-size="11.00" fill="#000000">applications_id</text>
<polygon fill="none" stroke="#000000" points="443.5,-248.7 443.5,-270.7 541.5,-270.7 541.5,-248.7 443.5,-248.7"/>
<text text-anchor="start" x="446.5" y="-256.4" font-family="Helvetica,sans-Serif" font-size="11.00" fill="#000000">varchar[255]</text>
<polygon fill="#ffffff" stroke="transparent" points="242.5,-226.7 242.5,-248.7 443.5,-248.7 443.5,-226.7 242.5,-226.7"/>
<polygon fill="none" stroke="#000000" points="242.5,-226.7 242.5,-248.7 443.5,-248.7 443.5,-226.7 242.5,-226.7"/>
<image xlink:href="../../images/foreignKeys.png" width="11px" height="12px" preserveAspectRatio="xMinYMin meet" x="247.5" y="-243.7"/>
<text text-anchor="start" x="262.5" y="-233.8" font-family="Helvetica,sans-Serif" font-size="11.00" fill="#000000">rules_name</text>
<polygon fill="none" stroke="#000000" points="443.5,-226.7 443.5,-248.7 541.5,-248.7 541.5,-226.7 443.5,-226.7"/>
<text text-anchor="start" x="446.5" y="-234.4" font-family="Helvetica,sans-Serif" font-size="11.00" fill="#000000">varchar[255]</text>
<polygon fill="none" stroke="#000000" points="242.5,-204.7 242.5,-226.7 443.5,-226.7 443.5,-204.7 242.5,-204.7"/>
<text text-anchor="start" x="262.5" y="-211.8" font-family="Helvetica,sans-Serif" font-size="11.00" fill="#000000">dev_enabled</text>
<polygon fill="none" stroke="#000000" points="443.5,-204.7 443.5,-226.7 541.5,-226.7 541.5,-204.7 443.5,-204.7"/>
<text text-anchor="start" x="446.5" y="-212.4" font-family="Helvetica,sans-Serif" font-size="11.00" fill="#000000">bit[1]</text>
<polygon fill="none" stroke="#000000" points="242.5,-182.7 242.5,-204.7 443.5,-204.7 443.5,-182.7 242.5,-182.7"/>
<text text-anchor="start" x="262.5" y="-189.8" font-family="Helvetica,sans-Serif" font-size="11.00" fill="#000000">qa_enabled</text>
<polygon fill="none" stroke="#000000" points="443.5,-182.7 443.5,-204.7 541.5,-204.7 541.5,-182.7 443.5,-182.7"/>
<text text-anchor="start" x="446.5" y="-190.4" font-family="Helvetica,sans-Serif" font-size="11.00" fill="#000000">bit[1]</text>
<polygon fill="none" stroke="#000000" points="242.5,-160.7 242.5,-182.7 443.5,-182.7 443.5,-160.7 242.5,-160.7"/>
<text text-anchor="start" x="262.5" y="-167.8" font-family="Helvetica,sans-Serif" font-size="11.00" fill="#000000">prod_enabled</text>
<polygon fill="none" stroke="#000000" points="443.5,-160.7 443.5,-182.7 541.5,-182.7 541.5,-160.7 443.5,-160.7"/>
<text text-anchor="start" x="446.5" y="-168.4" font-family="Helvetica,sans-Serif" font-size="11.00" fill="#000000">bit[1]</text>
<polygon fill="#ffffff" stroke="transparent" points="242.5,-141.7 242.5,-160.7 334.5,-160.7 334.5,-141.7 242.5,-141.7"/>
<polygon fill="none" stroke="#000000" points="242.5,-141.7 242.5,-160.7 334.5,-160.7 334.5,-141.7 242.5,-141.7"/>
<text text-anchor="start" x="245.5" y="-147.8" font-family="Helvetica,sans-Serif" font-size="11.00" fill="#000000">&lt; 2</text>
<polygon fill="#ffffff" stroke="transparent" points="334.5,-141.7 334.5,-160.7 443.5,-160.7 443.5,-141.7 334.5,-141.7"/>
<polygon fill="none" stroke="#000000" points="334.5,-141.7 334.5,-160.7 443.5,-160.7 443.5,-141.7 334.5,-141.7"/>
<text text-anchor="start" x="408.1105" y="-147.8" font-family="Helvetica,sans-Serif" font-size="11.00" fill="#000000">0 rows</text>
<polygon fill="#ffffff" stroke="transparent" points="443.5,-141.7 443.5,-160.7 541.5,-160.7 541.5,-141.7 443.5,-141.7"/>
<polygon fill="none" stroke="#000000" points="443.5,-141.7 443.5,-160.7 541.5,-160.7 541.5,-141.7 443.5,-141.7"/>
<text text-anchor="start" x="522.9053" y="-147.8" font-family="Helvetica,sans-Serif" font-size="11.00" fill="#000000">0 &gt;</text>
<polygon fill="none" stroke="#000000" stroke-width="2" points="241,-140.7 241,-316.7 542,-316.7 542,-140.7 241,-140.7"/>
</a>
</g>
</g>
<!-- applications -->
<g id="node2" class="node">
<title>applications</title>
<g id="a_node2"><a xlink:href="../../tables/applications.html" xlink:title="applications" target="_top">
<polygon fill="#ffffff" stroke="transparent" points="8,-164.2 8,-423.2 191,-423.2 191,-164.2 8,-164.2"/>
<polygon fill="#f5f5f5" stroke="transparent" points="8.5,-399.7 8.5,-422.7 191.5,-422.7 191.5,-399.7 8.5,-399.7"/>
<polygon fill="none" stroke="#000000" points="8.5,-399.7 8.5,-422.7 191.5,-422.7 191.5,-399.7 8.5,-399.7"/>
<text text-anchor="start" x="13.5" y="-408.8" font-family="Helvetica,sans-Serif" font-weight="bold" font-size="11.00" fill="#000000">applications</text>
<text text-anchor="start" x="156.5437" y="-407.8" font-family="Helvetica,sans-Serif" font-size="11.00" fill="#000000">[table]</text>
<polygon fill="none" stroke="#000000" points="8.5,-377.7 8.5,-399.7 191.5,-399.7 191.5,-377.7 8.5,-377.7"/>
<image xlink:href="../../images/primaryKeys.png" width="11px" height="12px" preserveAspectRatio="xMinYMin meet" x="13.5" y="-394.7"/>
<text text-anchor="start" x="28.5" y="-384.8" font-family="Helvetica,sans-Serif" font-size="11.00" fill="#000000">application_id</text>
<polygon fill="#ffffff" stroke="transparent" points="8.5,-355.7 8.5,-377.7 191.5,-377.7 191.5,-355.7 8.5,-355.7"/>
<polygon fill="none" stroke="#000000" points="8.5,-355.7 8.5,-377.7 191.5,-377.7 191.5,-355.7 8.5,-355.7"/>
<text text-anchor="start" x="28.5" y="-362.8" font-family="Helvetica,sans-Serif" font-size="11.00" fill="#000000">app_name</text>
<polygon fill="#ffffff" stroke="transparent" points="8.5,-333.7 8.5,-355.7 191.5,-355.7 191.5,-333.7 8.5,-333.7"/>
<polygon fill="none" stroke="#000000" points="8.5,-333.7 8.5,-355.7 191.5,-355.7 191.5,-333.7 8.5,-333.7"/>
<text text-anchor="start" x="28.5" y="-340.8" font-family="Helvetica,sans-Serif" font-size="11.00" fill="#000000">app_short_name</text>
<polygon fill="#ffffff" stroke="transparent" points="8.5,-311.7 8.5,-333.7 191.5,-333.7 191.5,-311.7 8.5,-311.7"/>
<polygon fill="none" stroke="#000000" points="8.5,-311.7 8.5,-333.7 191.5,-333.7 191.5,-311.7 8.5,-311.7"/>
<image xlink:href="../../images/foreignKeys.png" width="11px" height="12px" preserveAspectRatio="xMinYMin meet" x="13.5" y="-328.7"/>
<text text-anchor="start" x="28.5" y="-318.8" font-family="Helvetica,sans-Serif" font-size="11.00" fill="#000000">app_license_fk</text>
<polygon fill="#ffffff" stroke="transparent" points="8.5,-289.7 8.5,-311.7 191.5,-311.7 191.5,-289.7 8.5,-289.7"/>
<polygon fill="none" stroke="#000000" points="8.5,-289.7 8.5,-311.7 191.5,-311.7 191.5,-289.7 8.5,-289.7"/>
<image xlink:href="../../images/foreignKeys.png" width="11px" height="12px" preserveAspectRatio="xMinYMin meet" x="13.5" y="-306.7"/>
<text text-anchor="start" x="28.5" y="-296.8" font-family="Helvetica,sans-Serif" font-size="11.00" fill="#000000">app_parent_fk</text>
<polygon fill="#ffffff" stroke="transparent" points="8.5,-267.7 8.5,-289.7 191.5,-289.7 191.5,-267.7 8.5,-267.7"/>
<polygon fill="none" stroke="#000000" points="8.5,-267.7 8.5,-289.7 191.5,-289.7 191.5,-267.7 8.5,-267.7"/>
<text text-anchor="start" x="28.5" y="-274.8" font-family="Helvetica,sans-Serif" font-size="11.00" fill="#000000">app_display_name</text>
<polygon fill="#ffffff" stroke="transparent" points="8.5,-245.7 8.5,-267.7 191.5,-267.7 191.5,-245.7 8.5,-245.7"/>
<polygon fill="none" stroke="#000000" points="8.5,-245.7 8.5,-267.7 191.5,-267.7 191.5,-245.7 8.5,-245.7"/>
<text text-anchor="start" x="28.5" y="-252.8" font-family="Helvetica,sans-Serif" font-size="11.00" fill="#000000">importance</text>
<polygon fill="#ffffff" stroke="transparent" points="8.5,-223.7 8.5,-245.7 191.5,-245.7 191.5,-223.7 8.5,-223.7"/>
<polygon fill="none" stroke="#000000" points="8.5,-223.7 8.5,-245.7 191.5,-245.7 191.5,-223.7 8.5,-223.7"/>
<image xlink:href="../../images/foreignKeys.png" width="11px" height="12px" preserveAspectRatio="xMinYMin meet" x="13.5" y="-240.7"/>
<text text-anchor="start" x="28.5" y="-230.8" font-family="Helvetica,sans-Serif" font-size="11.00" fill="#000000">organizations_id</text>
<polygon fill="#ffffff" stroke="transparent" points="8.5,-201.7 8.5,-223.7 191.5,-223.7 191.5,-201.7 8.5,-201.7"/>
<polygon fill="none" stroke="#000000" points="8.5,-201.7 8.5,-223.7 191.5,-223.7 191.5,-201.7 8.5,-201.7"/>
<text text-anchor="start" x="28.5" y="-208.8" font-family="Helvetica,sans-Serif" font-size="11.00" fill="#000000">agent_language</text>
<polygon fill="none" stroke="#000000" points="8.5,-182.7 8.5,-201.7 191.5,-201.7 191.5,-182.7 8.5,-182.7"/>
<text text-anchor="start" x="11.5" y="-188.8" font-family="Helvetica,sans-Serif" font-size="11.00" fill="#000000">...</text>
<polygon fill="#ffffff" stroke="transparent" points="8.5,-163.7 8.5,-182.7 77.5,-182.7 77.5,-163.7 8.5,-163.7"/>
<polygon fill="none" stroke="#000000" points="8.5,-163.7 8.5,-182.7 77.5,-182.7 77.5,-163.7 8.5,-163.7"/>
<text text-anchor="start" x="11.5" y="-169.8" font-family="Helvetica,sans-Serif" font-size="11.00" fill="#000000">&lt; 3</text>
<polygon fill="#ffffff" stroke="transparent" points="77.5,-163.7 77.5,-182.7 139.5,-182.7 139.5,-163.7 77.5,-163.7"/>
<polygon fill="none" stroke="#000000" points="77.5,-163.7 77.5,-182.7 139.5,-182.7 139.5,-163.7 77.5,-163.7"/>
<text text-anchor="start" x="104.1105" y="-169.8" font-family="Helvetica,sans-Serif" font-size="11.00" fill="#000000">0 rows</text>
<polygon fill="#ffffff" stroke="transparent" points="139.5,-163.7 139.5,-182.7 191.5,-182.7 191.5,-163.7 139.5,-163.7"/>
<polygon fill="none" stroke="#000000" points="139.5,-163.7 139.5,-182.7 191.5,-182.7 191.5,-163.7 139.5,-163.7"/>
<text text-anchor="start" x="166.7904" y="-169.8" font-family="Helvetica,sans-Serif" font-size="11.00" fill="#000000">57 &gt;</text>
</a>
</g>
</g>
<!-- app_assess_rules_env_configs&#45;&gt;applications -->
<g id="edge1" class="edge">
<title>app_assess_rules_env_configs:w&#45;&gt;applications:e</title>
<path fill="none" stroke="#000000" d="M228.021,-263.1504C193.6928,-283.6651 247.1307,-388.7 191.5,-388.7"/>
<polygon fill="#000000" stroke="#000000" points="234.7179,-261.5546 243.3346,-263.2019 238.609,-260.6273 242.5,-259.7 242.5,-259.7 242.5,-259.7 238.609,-260.6273 241.6654,-256.1981 234.7179,-261.5546 234.7179,-261.5546"/>
<ellipse fill="none" stroke="#000000" cx="231.6051" cy="-262.2964" rx="3.2" ry="3.2"/>
</g>
<!-- rules -->
<g id="node3" class="node">
<title>rules</title>
<g id="a_node3"><a xlink:href="../../tables/rules.html" xlink:title="rules" target="_top">
<polygon fill="#ffffff" stroke="transparent" points="36,-38.2 36,-143.2 163,-143.2 163,-38.2 36,-38.2"/>
<polygon fill="#f5f5f5" stroke="transparent" points="36.5,-119.7 36.5,-142.7 163.5,-142.7 163.5,-119.7 36.5,-119.7"/>
<polygon fill="none" stroke="#000000" points="36.5,-119.7 36.5,-142.7 163.5,-142.7 163.5,-119.7 36.5,-119.7"/>
<text text-anchor="start" x="41.5" y="-128.8" font-family="Helvetica,sans-Serif" font-weight="bold" font-size="11.00" fill="#000000">rules</text>
<text text-anchor="start" x="128.5437" y="-127.8" font-family="Helvetica,sans-Serif" font-size="11.00" fill="#000000">[table]</text>
<polygon fill="none" stroke="#000000" points="36.5,-97.7 36.5,-119.7 163.5,-119.7 163.5,-97.7 36.5,-97.7"/>
<image xlink:href="../../images/primaryKeys.png" width="11px" height="12px" preserveAspectRatio="xMinYMin meet" x="41.5" y="-114.7"/>
<text text-anchor="start" x="56.5" y="-104.8" font-family="Helvetica,sans-Serif" font-size="11.00" fill="#000000">name</text>
<polygon fill="#ffffff" stroke="transparent" points="36.5,-75.7 36.5,-97.7 163.5,-97.7 163.5,-75.7 36.5,-75.7"/>
<polygon fill="none" stroke="#000000" points="36.5,-75.7 36.5,-97.7 163.5,-97.7 163.5,-75.7 36.5,-75.7"/>
<text text-anchor="start" x="56.5" y="-82.8" font-family="Helvetica,sans-Serif" font-size="11.00" fill="#000000">title</text>
<polygon fill="none" stroke="#000000" points="36.5,-56.7 36.5,-75.7 163.5,-75.7 163.5,-56.7 36.5,-56.7"/>
<text text-anchor="start" x="39.5" y="-62.8" font-family="Helvetica,sans-Serif" font-size="11.00" fill="#000000">...</text>
<polygon fill="#ffffff" stroke="transparent" points="36.5,-37.7 36.5,-56.7 70.5,-56.7 70.5,-37.7 36.5,-37.7"/>
<polygon fill="none" stroke="#000000" points="36.5,-37.7 36.5,-56.7 70.5,-56.7 70.5,-37.7 36.5,-37.7"/>
<text text-anchor="start" x="39.5" y="-43.8" font-family="Helvetica,sans-Serif" font-size="11.00" fill="#000000"> &#160;</text>
<polygon fill="#ffffff" stroke="transparent" points="70.5,-37.7 70.5,-56.7 125.5,-56.7 125.5,-37.7 70.5,-37.7"/>
<polygon fill="none" stroke="#000000" points="70.5,-37.7 70.5,-56.7 125.5,-56.7 125.5,-37.7 70.5,-37.7"/>
<text text-anchor="start" x="83.9956" y="-43.8" font-family="Helvetica,sans-Serif" font-size="11.00" fill="#000000">82 rows</text>
<polygon fill="#ffffff" stroke="transparent" points="125.5,-37.7 125.5,-56.7 163.5,-56.7 163.5,-37.7 125.5,-37.7"/>
<polygon fill="none" stroke="#000000" points="125.5,-37.7 125.5,-56.7 163.5,-56.7 163.5,-37.7 125.5,-37.7"/>
<text text-anchor="start" x="138.7904" y="-43.8" font-family="Helvetica,sans-Serif" font-size="11.00" fill="#000000">16 &gt;</text>
</a>
</g>
</g>
<!-- app_assess_rules_env_configs&#45;&gt;rules -->
<g id="edge2" class="edge">
<title>app_assess_rules_env_configs:w&#45;&gt;rules:e</title>
<path fill="none" stroke="#000000" d="M228.2964,-235.2382C183.5432,-217.404 225.2152,-108.7 163.5,-108.7"/>
<polygon fill="#000000" stroke="#000000" points="234.6175,-236.3338 241.8852,-241.2471 238.5588,-237.0169 242.5,-237.7 242.5,-237.7 242.5,-237.7 238.5588,-237.0169 243.1148,-234.1529 234.6175,-236.3338 234.6175,-236.3338"/>
<ellipse fill="none" stroke="#000000" cx="231.4645" cy="-235.7873" rx="3.2" ry="3.2"/>
</g>
</g>
</svg>
