<?xml version="1.0" encoding="UTF-8" standalone="no"?>
<!DOCTYPE svg PUBLIC "-//W3C//DTD SVG 1.1//EN"
 "http://www.w3.org/Graphics/SVG/1.1/DTD/svg11.dtd">
<!-- Generated by graphviz version 2.40.1 (20161225.0304)
 -->
<!-- Title: twoDegreesRelationshipsDiagram Pages: 1 -->
<svg width="711pt" height="633pt"
 viewBox="0.00 0.00 711.00 633.20" xmlns="http://www.w3.org/2000/svg" xmlns:xlink="http://www.w3.org/1999/xlink">
<g id="graph0" class="graph" transform="scale(1 1) rotate(0) translate(4 629.2)">
<title>twoDegreesRelationshipsDiagram</title>
<polygon fill="#ffffff" stroke="transparent" points="-4,4 -4,-629.2 707,-629.2 707,4 -4,4"/>
<text text-anchor="middle" x="72.4936" y="-7.3" font-family="Helvetica,sans-Serif" font-size="11.00" fill="#000000">Generated by SchemaSpy</text>
<!-- app_compliance_policy -->
<g id="node1" class="node">
<title>app_compliance_policy</title>
<g id="a_node1"><a xlink:href="../../tables/app_compliance_policy.html" xlink:title="app_compliance_policy" target="_top">
<polygon fill="#ffffff" stroke="transparent" points="165,-288.2 165,-415.2 322,-415.2 322,-288.2 165,-288.2"/>
<polygon fill="#f5f5f5" stroke="transparent" points="165.5,-391.7 165.5,-414.7 322.5,-414.7 322.5,-391.7 165.5,-391.7"/>
<polygon fill="none" stroke="#000000" points="165.5,-391.7 165.5,-414.7 322.5,-414.7 322.5,-391.7 165.5,-391.7"/>
<text text-anchor="start" x="170.3479" y="-400.8" font-family="Helvetica,sans-Serif" font-weight="bold" font-size="11.00" fill="#000000">app_compliance_policy</text>
<text text-anchor="start" x="288.0219" y="-399.8" font-family="Helvetica,sans-Serif" font-size="11.00" fill="#000000">[table]</text>
<polygon fill="none" stroke="#000000" points="165.5,-369.7 165.5,-391.7 322.5,-391.7 322.5,-369.7 165.5,-369.7"/>
<image xlink:href="../../images/primaryKeys.png" width="11px" height="12px" preserveAspectRatio="xMinYMin meet" x="170.5" y="-386.7"/>
<text text-anchor="start" x="186.5" y="-376.8" font-family="Helvetica,sans-Serif" font-size="11.00" fill="#000000">id</text>
<polygon fill="#ffffff" stroke="transparent" points="165.5,-347.7 165.5,-369.7 322.5,-369.7 322.5,-347.7 165.5,-347.7"/>
<polygon fill="none" stroke="#000000" points="165.5,-347.7 165.5,-369.7 322.5,-369.7 322.5,-347.7 165.5,-347.7"/>
<text text-anchor="start" x="186.5" y="-354.8" font-family="Helvetica,sans-Serif" font-size="11.00" fill="#000000">name</text>
<polygon fill="#ffffff" stroke="transparent" points="165.5,-325.7 165.5,-347.7 322.5,-347.7 322.5,-325.7 165.5,-325.7"/>
<polygon fill="none" stroke="#000000" points="165.5,-325.7 165.5,-347.7 322.5,-347.7 322.5,-325.7 165.5,-325.7"/>
<image xlink:href="../../images/foreignKeys.png" width="11px" height="12px" preserveAspectRatio="xMinYMin meet" x="170.5" y="-342.7"/>
<text text-anchor="start" x="186.5" y="-332.8" font-family="Helvetica,sans-Serif" font-size="11.00" fill="#000000">organizations_id</text>
<polygon fill="none" stroke="#000000" points="165.5,-306.7 165.5,-325.7 322.5,-325.7 322.5,-306.7 165.5,-306.7"/>
<text text-anchor="start" x="168.5" y="-312.8" font-family="Helvetica,sans-Serif" font-size="11.00" fill="#000000">...</text>
<polygon fill="#ffffff" stroke="transparent" points="165.5,-287.7 165.5,-306.7 221.5,-306.7 221.5,-287.7 165.5,-287.7"/>
<polygon fill="none" stroke="#000000" points="165.5,-287.7 165.5,-306.7 221.5,-306.7 221.5,-287.7 165.5,-287.7"/>
<text text-anchor="start" x="168.5" y="-293.8" font-family="Helvetica,sans-Serif" font-size="11.00" fill="#000000">&lt; 1</text>
<polygon fill="#ffffff" stroke="transparent" points="221.5,-287.7 221.5,-306.7 283.5,-306.7 283.5,-287.7 221.5,-287.7"/>
<polygon fill="none" stroke="#000000" points="221.5,-287.7 221.5,-306.7 283.5,-306.7 283.5,-287.7 221.5,-287.7"/>
<text text-anchor="start" x="241.9956" y="-293.8" font-family="Helvetica,sans-Serif" font-size="11.00" fill="#000000">21 rows</text>
<polygon fill="#ffffff" stroke="transparent" points="283.5,-287.7 283.5,-306.7 322.5,-306.7 322.5,-287.7 283.5,-287.7"/>
<polygon fill="none" stroke="#000000" points="283.5,-287.7 283.5,-306.7 322.5,-306.7 322.5,-287.7 283.5,-287.7"/>
<text text-anchor="start" x="303.9053" y="-293.8" font-family="Helvetica,sans-Serif" font-size="11.00" fill="#000000">7 &gt;</text>
</a>
</g>
</g>
<!-- organizations -->
<g id="node2" class="node">
<title>organizations</title>
<g id="a_node2"><a xlink:href="../../tables/organizations.html" xlink:title="organizations" target="_top">
<polygon fill="#ffffff" stroke="transparent" points="8,-408.2 8,-469.2 116,-469.2 116,-408.2 8,-408.2"/>
<polygon fill="#f5f5f5" stroke="transparent" points="8,-445.7 8,-468.7 116,-468.7 116,-445.7 8,-445.7"/>
<polygon fill="none" stroke="#000000" points="8,-445.7 8,-468.7 116,-468.7 116,-445.7 8,-445.7"/>
<text text-anchor="start" x="12.7976" y="-454.8" font-family="Helvetica,sans-Serif" font-weight="bold" font-size="11.00" fill="#000000">organizations</text>
<text text-anchor="start" x="81.5219" y="-453.8" font-family="Helvetica,sans-Serif" font-size="11.00" fill="#000000">[table]</text>
<polygon fill="none" stroke="#000000" points="8,-426.7 8,-445.7 116,-445.7 116,-426.7 8,-426.7"/>
<text text-anchor="start" x="11" y="-432.8" font-family="Helvetica,sans-Serif" font-size="11.00" fill="#000000">...</text>
<polygon fill="#ffffff" stroke="transparent" points="8,-407.7 8,-426.7 40,-426.7 40,-407.7 8,-407.7"/>
<polygon fill="none" stroke="#000000" points="8,-407.7 8,-426.7 40,-426.7 40,-407.7 8,-407.7"/>
<text text-anchor="start" x="11" y="-413.8" font-family="Helvetica,sans-Serif" font-size="11.00" fill="#000000">&lt; 4</text>
<polygon fill="#ffffff" stroke="transparent" points="40,-407.7 40,-426.7 83,-426.7 83,-407.7 40,-407.7"/>
<polygon fill="none" stroke="#000000" points="40,-407.7 40,-426.7 83,-426.7 83,-407.7 40,-407.7"/>
<text text-anchor="start" x="47.6105" y="-413.8" font-family="Helvetica,sans-Serif" font-size="11.00" fill="#000000">3 rows</text>
<polygon fill="#ffffff" stroke="transparent" points="83,-407.7 83,-426.7 116,-426.7 116,-407.7 83,-407.7"/>
<polygon fill="none" stroke="#000000" points="83,-407.7 83,-426.7 116,-426.7 116,-407.7 83,-407.7"/>
<text text-anchor="start" x="91.2904" y="-413.8" font-family="Helvetica,sans-Serif" font-size="11.00" fill="#000000">81 &gt;</text>
</a>
</g>
</g>
<!-- app_compliance_policy&#45;&gt;organizations -->
<g id="edge1" class="edge">
<title>app_compliance_policy:w&#45;&gt;organizations:e</title>
<path fill="none" stroke="#000000" d="M151.5953,-340.7035C126.7081,-359.2249 159.2365,-435.7 116,-435.7"/>
<polygon fill="#000000" stroke="#000000" points="157.8123,-338.9135 166.4961,-340.1595 161.6562,-337.8068 165.5,-336.7 165.5,-336.7 165.5,-336.7 161.6562,-337.8068 164.5039,-333.2405 157.8123,-338.9135 157.8123,-338.9135"/>
<ellipse fill="none" stroke="#000000" cx="154.7372" cy="-339.7989" rx="3.2" ry="3.2"/>
</g>
<!-- app_compliance_policy_application_importance -->
<g id="node3" class="node">
<title>app_compliance_policy_application_importance</title>
<g id="a_node3"><a xlink:href="../../tables/app_compliance_policy_application_importance.html" xlink:title="app_compliance_policy_application_importance" target="_top">
<polygon fill="#ffffff" stroke="transparent" points="395,-478.2 395,-539.2 671,-539.2 671,-478.2 395,-478.2"/>
<polygon fill="#f5f5f5" stroke="transparent" points="395,-515.7 395,-538.7 671,-538.7 671,-515.7 395,-515.7"/>
<polygon fill="none" stroke="#000000" points="395,-515.7 395,-538.7 671,-538.7 671,-515.7 395,-515.7"/>
<text text-anchor="start" x="399.7504" y="-524.8" font-family="Helvetica,sans-Serif" font-weight="bold" font-size="11.00" fill="#000000">app_compliance_policy_application_importance</text>
<text text-anchor="start" x="636.5219" y="-523.8" font-family="Helvetica,sans-Serif" font-size="11.00" fill="#000000">[table]</text>
<polygon fill="none" stroke="#000000" points="395,-496.7 395,-515.7 671,-515.7 671,-496.7 395,-496.7"/>
<text text-anchor="start" x="398" y="-502.8" font-family="Helvetica,sans-Serif" font-size="11.00" fill="#000000">...</text>
<polygon fill="#ffffff" stroke="transparent" points="395,-477.7 395,-496.7 518,-496.7 518,-477.7 395,-477.7"/>
<polygon fill="none" stroke="#000000" points="395,-477.7 395,-496.7 518,-496.7 518,-477.7 395,-477.7"/>
<text text-anchor="start" x="398" y="-483.8" font-family="Helvetica,sans-Serif" font-size="11.00" fill="#000000">&lt; 1</text>
<polygon fill="#ffffff" stroke="transparent" points="518,-477.7 518,-496.7 607,-496.7 607,-477.7 518,-477.7"/>
<polygon fill="none" stroke="#000000" points="518,-477.7 518,-496.7 607,-496.7 607,-477.7 518,-477.7"/>
<text text-anchor="start" x="571.6105" y="-483.8" font-family="Helvetica,sans-Serif" font-size="11.00" fill="#000000">0 rows</text>
<polygon fill="#ffffff" stroke="transparent" points="607,-477.7 607,-496.7 671,-496.7 671,-477.7 607,-477.7"/>
<polygon fill="none" stroke="#000000" points="607,-477.7 607,-496.7 671,-496.7 671,-477.7 607,-477.7"/>
<text text-anchor="start" x="661.8862" y="-483.8" font-family="Helvetica,sans-Serif" font-size="11.00" fill="#000000"> &#160;</text>
</a>
</g>
</g>
<!-- app_compliance_policy_application_importance&#45;&gt;app_compliance_policy -->
<g id="edge2" class="edge">
<title>app_compliance_policy_application_importance:w&#45;&gt;app_compliance_policy:e</title>
<path fill="none" stroke="#000000" d="M380.6877,-502.9729C339.6825,-484.6929 381.0791,-380.7 322.5,-380.7"/>
<polygon fill="#000000" stroke="#000000" points="387.1414,-504.2026 394.3262,-509.2364 391.0707,-504.9513 395,-505.7 395,-505.7 395,-505.7 391.0707,-504.9513 395.6738,-502.1636 387.1414,-504.2026 387.1414,-504.2026"/>
<ellipse fill="none" stroke="#000000" cx="383.9979" cy="-503.6036" rx="3.2" ry="3.2"/>
</g>
<!-- app_compliance_policy_applications -->
<g id="node4" class="node">
<title>app_compliance_policy_applications</title>
<g id="a_node4"><a xlink:href="../../tables/app_compliance_policy_applications.html" xlink:title="app_compliance_policy_applications" target="_top">
<polygon fill="#ffffff" stroke="transparent" points="422.5,-396.2 422.5,-457.2 643.5,-457.2 643.5,-396.2 422.5,-396.2"/>
<polygon fill="#f5f5f5" stroke="transparent" points="423,-433.7 423,-456.7 644,-456.7 644,-433.7 423,-433.7"/>
<polygon fill="none" stroke="#000000" points="423,-433.7 423,-456.7 644,-456.7 644,-433.7 423,-433.7"/>
<text text-anchor="start" x="427.7559" y="-442.8" font-family="Helvetica,sans-Serif" font-weight="bold" font-size="11.00" fill="#000000">app_compliance_policy_applications</text>
<text text-anchor="start" x="609.5219" y="-441.8" font-family="Helvetica,sans-Serif" font-size="11.00" fill="#000000">[table]</text>
<polygon fill="none" stroke="#000000" points="423,-414.7 423,-433.7 644,-433.7 644,-414.7 423,-414.7"/>
<text text-anchor="start" x="426" y="-420.8" font-family="Helvetica,sans-Serif" font-size="11.00" fill="#000000">...</text>
<polygon fill="#ffffff" stroke="transparent" points="423,-395.7 423,-414.7 519,-414.7 519,-395.7 423,-395.7"/>
<polygon fill="none" stroke="#000000" points="423,-395.7 423,-414.7 519,-414.7 519,-395.7 423,-395.7"/>
<text text-anchor="start" x="426" y="-401.8" font-family="Helvetica,sans-Serif" font-size="11.00" fill="#000000">&lt; 2</text>
<polygon fill="#ffffff" stroke="transparent" points="519,-395.7 519,-414.7 594,-414.7 594,-395.7 519,-395.7"/>
<polygon fill="none" stroke="#000000" points="519,-395.7 519,-414.7 594,-414.7 594,-395.7 519,-395.7"/>
<text text-anchor="start" x="558.6105" y="-401.8" font-family="Helvetica,sans-Serif" font-size="11.00" fill="#000000">0 rows</text>
<polygon fill="#ffffff" stroke="transparent" points="594,-395.7 594,-414.7 644,-414.7 644,-395.7 594,-395.7"/>
<polygon fill="none" stroke="#000000" points="594,-395.7 594,-414.7 644,-414.7 644,-395.7 594,-395.7"/>
<text text-anchor="start" x="634.8862" y="-401.8" font-family="Helvetica,sans-Serif" font-size="11.00" fill="#000000"> &#160;</text>
</a>
</g>
</g>
<!-- app_compliance_policy_applications&#45;&gt;app_compliance_policy -->
<g id="edge3" class="edge">
<title>app_compliance_policy_applications:w&#45;&gt;app_compliance_policy:e</title>
<path fill="none" stroke="#000000" d="M408.5641,-422.2693C373.1461,-414.8082 365.7696,-380.7 322.5,-380.7"/>
<polygon fill="#000000" stroke="#000000" points="415.039,-422.911 422.6449,-427.2824 419.0195,-423.3055 423,-423.7 423,-423.7 423,-423.7 419.0195,-423.3055 423.3551,-420.1176 415.039,-422.911 415.039,-422.911"/>
<ellipse fill="none" stroke="#000000" cx="411.8546" cy="-422.5954" rx="3.2" ry="3.2"/>
</g>
<!-- app_compliance_policy_rule_severity -->
<g id="node5" class="node">
<title>app_compliance_policy_rule_severity</title>
<g id="a_node5"><a xlink:href="../../tables/app_compliance_policy_rule_severity.html" xlink:title="app_compliance_policy_rule_severity" target="_top">
<polygon fill="#ffffff" stroke="transparent" points="371,-284.7 371,-374.7 695,-374.7 695,-284.7 371,-284.7"/>
<polygon fill="#f5f5f5" stroke="transparent" points="373,-349.7 373,-372.7 693,-372.7 693,-349.7 373,-349.7"/>
<polygon fill="none" stroke="#000000" points="373,-349.7 373,-372.7 693,-372.7 693,-349.7 373,-349.7"/>
<text text-anchor="start" x="378" y="-358.8" font-family="Helvetica,sans-Serif" font-weight="bold" font-size="11.00" fill="#000000">app_compliance_policy_rule_severity</text>
<text text-anchor="start" x="658.0437" y="-357.8" font-family="Helvetica,sans-Serif" font-size="11.00" fill="#000000">[table]</text>
<polygon fill="none" stroke="#000000" points="373,-327.7 373,-349.7 610,-349.7 610,-327.7 373,-327.7"/>
<image xlink:href="../../images/primaryKeys.png" width="11px" height="12px" preserveAspectRatio="xMinYMin meet" x="378" y="-344.7"/>
<text text-anchor="start" x="393" y="-334.8" font-family="Helvetica,sans-Serif" font-size="11.00" fill="#000000">app_compliance_policy_id</text>
<polygon fill="none" stroke="#000000" points="610,-327.7 610,-349.7 693,-349.7 693,-327.7 610,-327.7"/>
<text text-anchor="start" x="612.6783" y="-335.4" font-family="Helvetica,sans-Serif" font-size="11.00" fill="#000000">int unsigned[10]</text>
<polygon fill="none" stroke="#000000" points="373,-305.7 373,-327.7 610,-327.7 610,-305.7 373,-305.7"/>
<image xlink:href="../../images/primaryKeys.png" width="11px" height="12px" preserveAspectRatio="xMinYMin meet" x="378" y="-322.7"/>
<text text-anchor="start" x="393" y="-312.8" font-family="Helvetica,sans-Serif" font-size="11.00" fill="#000000">rule_severity</text>
<polygon fill="none" stroke="#000000" points="610,-305.7 610,-327.7 693,-327.7 693,-305.7 610,-305.7"/>
<text text-anchor="start" x="613" y="-313.4" font-family="Helvetica,sans-Serif" font-size="11.00" fill="#000000">varchar[50]</text>
<polygon fill="#ffffff" stroke="transparent" points="373,-286.7 373,-305.7 483,-305.7 483,-286.7 373,-286.7"/>
<polygon fill="none" stroke="#000000" points="373,-286.7 373,-305.7 483,-305.7 483,-286.7 373,-286.7"/>
<text text-anchor="start" x="376" y="-292.8" font-family="Helvetica,sans-Serif" font-size="11.00" fill="#000000">&lt; 1</text>
<polygon fill="#ffffff" stroke="transparent" points="483,-286.7 483,-305.7 610,-305.7 610,-286.7 483,-286.7"/>
<polygon fill="none" stroke="#000000" points="483,-286.7 483,-305.7 610,-305.7 610,-286.7 483,-286.7"/>
<text text-anchor="start" x="574.6105" y="-292.8" font-family="Helvetica,sans-Serif" font-size="11.00" fill="#000000">0 rows</text>
<polygon fill="#ffffff" stroke="transparent" points="610,-286.7 610,-305.7 693,-305.7 693,-286.7 610,-286.7"/>
<polygon fill="none" stroke="#000000" points="610,-286.7 610,-305.7 693,-305.7 693,-286.7 610,-286.7"/>
<text text-anchor="start" x="674.4053" y="-292.8" font-family="Helvetica,sans-Serif" font-size="11.00" fill="#000000">0 &gt;</text>
<polygon fill="none" stroke="#000000" stroke-width="2" points="372,-285.7 372,-373.7 694,-373.7 694,-285.7 372,-285.7"/>
</a>
</g>
</g>
<!-- app_compliance_policy_rule_severity&#45;&gt;app_compliance_policy -->
<g id="edge4" class="edge">
<title>app_compliance_policy_rule_severity:w&#45;&gt;app_compliance_policy:e</title>
<path fill="none" stroke="#000000" d="M359.1788,-343.1947C345.481,-354.0296 345.7627,-380.7 322.5,-380.7"/>
<polygon fill="#000000" stroke="#000000" points="365.3922,-341.1741 374.1134,-342.1235 369.1961,-339.9371 373,-338.7 373,-338.7 373,-338.7 369.1961,-339.9371 371.8866,-335.2765 365.3922,-341.1741 365.3922,-341.1741"/>
<ellipse fill="none" stroke="#000000" cx="362.3491" cy="-342.1638" rx="3.2" ry="3.2"/>
</g>
<!-- app_compliance_policy_rules -->
<g id="node6" class="node">
<title>app_compliance_policy_rules</title>
<g id="a_node6"><a xlink:href="../../tables/app_compliance_policy_rules.html" xlink:title="app_compliance_policy_rules" target="_top">
<polygon fill="#ffffff" stroke="transparent" points="439.5,-202.2 439.5,-263.2 626.5,-263.2 626.5,-202.2 439.5,-202.2"/>
<polygon fill="#f5f5f5" stroke="transparent" points="440,-239.7 440,-262.7 627,-262.7 627,-239.7 440,-239.7"/>
<polygon fill="none" stroke="#000000" points="440,-239.7 440,-262.7 627,-262.7 627,-239.7 440,-239.7"/>
<text text-anchor="start" x="444.8741" y="-248.8" font-family="Helvetica,sans-Serif" font-weight="bold" font-size="11.00" fill="#000000">app_compliance_policy_rules</text>
<text text-anchor="start" x="592.5219" y="-247.8" font-family="Helvetica,sans-Serif" font-size="11.00" fill="#000000">[table]</text>
<polygon fill="none" stroke="#000000" points="440,-220.7 440,-239.7 627,-239.7 627,-220.7 440,-220.7"/>
<text text-anchor="start" x="443" y="-226.8" font-family="Helvetica,sans-Serif" font-size="11.00" fill="#000000">...</text>
<polygon fill="#ffffff" stroke="transparent" points="440,-201.7 440,-220.7 508,-220.7 508,-201.7 440,-201.7"/>
<polygon fill="none" stroke="#000000" points="440,-201.7 440,-220.7 508,-220.7 508,-201.7 440,-201.7"/>
<text text-anchor="start" x="443" y="-207.8" font-family="Helvetica,sans-Serif" font-size="11.00" fill="#000000">&lt; 2</text>
<polygon fill="#ffffff" stroke="transparent" points="508,-201.7 508,-220.7 591,-220.7 591,-201.7 508,-201.7"/>
<polygon fill="none" stroke="#000000" points="508,-201.7 508,-220.7 591,-220.7 591,-201.7 508,-201.7"/>
<text text-anchor="start" x="534.2089" y="-207.8" font-family="Helvetica,sans-Serif" font-size="11.00" fill="#000000">1,005 rows</text>
<polygon fill="#ffffff" stroke="transparent" points="591,-201.7 591,-220.7 627,-220.7 627,-201.7 591,-201.7"/>
<polygon fill="none" stroke="#000000" points="591,-201.7 591,-220.7 627,-220.7 627,-201.7 591,-201.7"/>
<text text-anchor="start" x="617.8862" y="-207.8" font-family="Helvetica,sans-Serif" font-size="11.00" fill="#000000"> &#160;</text>
</a>
</g>
</g>
<!-- app_compliance_policy_rules&#45;&gt;app_compliance_policy -->
<g id="edge5" class="edge">
<title>app_compliance_policy_rules:w&#45;&gt;app_compliance_policy:e</title>
<path fill="none" stroke="#000000" d="M425.586,-230.4833C397.0028,-233.8963 385.2342,-248.486 363,-274.7 330.378,-313.1612 372.9327,-380.7 322.5,-380.7"/>
<polygon fill="#000000" stroke="#000000" points="432.0118,-230.1341 440.1954,-233.2947 436.0059,-229.9171 440,-229.7 440,-229.7 440,-229.7 436.0059,-229.9171 439.8046,-226.1053 432.0118,-230.1341 432.0118,-230.1341"/>
<ellipse fill="none" stroke="#000000" cx="428.8165" cy="-230.3078" rx="3.2" ry="3.2"/>
</g>
<!-- app_compliance_policy_security_standards -->
<g id="node7" class="node">
<title>app_compliance_policy_security_standards</title>
<g id="a_node7"><a xlink:href="../../tables/app_compliance_policy_security_standards.html" xlink:title="app_compliance_policy_security_standards" target="_top">
<polygon fill="#ffffff" stroke="transparent" points="405.5,-120.2 405.5,-181.2 660.5,-181.2 660.5,-120.2 405.5,-120.2"/>
<polygon fill="#f5f5f5" stroke="transparent" points="406,-157.7 406,-180.7 661,-180.7 661,-157.7 406,-157.7"/>
<polygon fill="none" stroke="#000000" points="406,-157.7 406,-180.7 661,-180.7 661,-157.7 406,-157.7"/>
<text text-anchor="start" x="410.6416" y="-166.8" font-family="Helvetica,sans-Serif" font-weight="bold" font-size="11.00" fill="#000000">app_compliance_policy_security_standards</text>
<text text-anchor="start" x="626.5219" y="-165.8" font-family="Helvetica,sans-Serif" font-size="11.00" fill="#000000">[table]</text>
<polygon fill="none" stroke="#000000" points="406,-138.7 406,-157.7 661,-157.7 661,-138.7 406,-138.7"/>
<text text-anchor="start" x="409" y="-144.8" font-family="Helvetica,sans-Serif" font-size="11.00" fill="#000000">...</text>
<polygon fill="#ffffff" stroke="transparent" points="406,-119.7 406,-138.7 519,-138.7 519,-119.7 406,-119.7"/>
<polygon fill="none" stroke="#000000" points="406,-119.7 406,-138.7 519,-138.7 519,-119.7 406,-119.7"/>
<text text-anchor="start" x="409" y="-125.8" font-family="Helvetica,sans-Serif" font-size="11.00" fill="#000000">&lt; 2</text>
<polygon fill="#ffffff" stroke="transparent" points="519,-119.7 519,-138.7 603,-138.7 603,-119.7 519,-119.7"/>
<polygon fill="none" stroke="#000000" points="519,-119.7 519,-138.7 603,-138.7 603,-119.7 519,-119.7"/>
<text text-anchor="start" x="567.6105" y="-125.8" font-family="Helvetica,sans-Serif" font-size="11.00" fill="#000000">0 rows</text>
<polygon fill="#ffffff" stroke="transparent" points="603,-119.7 603,-138.7 661,-138.7 661,-119.7 603,-119.7"/>
<polygon fill="none" stroke="#000000" points="603,-119.7 603,-138.7 661,-138.7 661,-119.7 603,-119.7"/>
<text text-anchor="start" x="651.8862" y="-125.8" font-family="Helvetica,sans-Serif" font-size="11.00" fill="#000000"> &#160;</text>
</a>
</g>
</g>
<!-- app_compliance_policy_security_standards&#45;&gt;app_compliance_policy -->
<g id="edge6" class="edge">
<title>app_compliance_policy_security_standards:w&#45;&gt;app_compliance_policy:e</title>
<path fill="none" stroke="#000000" d="M391.6558,-150.2096C377.052,-156.2843 373.2016,-172.6886 363,-191.7 322.3807,-267.3972 408.4069,-380.7 322.5,-380.7"/>
<polygon fill="#000000" stroke="#000000" points="398.1197,-149.0788 406.6204,-151.2461 402.0599,-148.3894 406,-147.7 406,-147.7 406,-147.7 402.0599,-148.3894 405.3796,-144.1539 398.1197,-149.0788 398.1197,-149.0788"/>
<ellipse fill="none" stroke="#000000" cx="394.9676" cy="-149.6303" rx="3.2" ry="3.2"/>
</g>
<!-- notifications_messages -->
<g id="node8" class="node">
<title>notifications_messages</title>
<g id="a_node8"><a xlink:href="../../tables/notifications_messages.html" xlink:title="notifications_messages" target="_top">
<polygon fill="#ffffff" stroke="transparent" points="454.5,-560.2 454.5,-621.2 611.5,-621.2 611.5,-560.2 454.5,-560.2"/>
<polygon fill="#f5f5f5" stroke="transparent" points="455,-597.7 455,-620.7 612,-620.7 612,-597.7 455,-597.7"/>
<polygon fill="none" stroke="#000000" points="455,-597.7 455,-620.7 612,-620.7 612,-597.7 455,-597.7"/>
<text text-anchor="start" x="459.8479" y="-606.8" font-family="Helvetica,sans-Serif" font-weight="bold" font-size="11.00" fill="#000000">notifications_messages</text>
<text text-anchor="start" x="577.5219" y="-605.8" font-family="Helvetica,sans-Serif" font-size="11.00" fill="#000000">[table]</text>
<polygon fill="none" stroke="#000000" points="455,-578.7 455,-597.7 612,-597.7 612,-578.7 455,-578.7"/>
<text text-anchor="start" x="458" y="-584.8" font-family="Helvetica,sans-Serif" font-size="11.00" fill="#000000">...</text>
<polygon fill="#ffffff" stroke="transparent" points="455,-559.7 455,-578.7 514,-578.7 514,-559.7 455,-559.7"/>
<polygon fill="none" stroke="#000000" points="455,-559.7 455,-578.7 514,-578.7 514,-559.7 455,-559.7"/>
<text text-anchor="start" x="458" y="-565.8" font-family="Helvetica,sans-Serif" font-size="11.00" fill="#000000">&lt; 9</text>
<polygon fill="#ffffff" stroke="transparent" points="514,-559.7 514,-578.7 571,-578.7 571,-559.7 514,-559.7"/>
<polygon fill="none" stroke="#000000" points="514,-559.7 514,-578.7 571,-578.7 571,-559.7 514,-559.7"/>
<text text-anchor="start" x="535.6105" y="-565.8" font-family="Helvetica,sans-Serif" font-size="11.00" fill="#000000">0 rows</text>
<polygon fill="#ffffff" stroke="transparent" points="571,-559.7 571,-578.7 612,-578.7 612,-559.7 571,-559.7"/>
<polygon fill="none" stroke="#000000" points="571,-559.7 571,-578.7 612,-578.7 612,-559.7 571,-559.7"/>
<text text-anchor="start" x="593.4053" y="-565.8" font-family="Helvetica,sans-Serif" font-size="11.00" fill="#000000">4 &gt;</text>
</a>
</g>
</g>
<!-- notifications_messages&#45;&gt;app_compliance_policy -->
<g id="edge7" class="edge">
<title>notifications_messages:w&#45;&gt;app_compliance_policy:e</title>
<path fill="none" stroke="#000000" d="M440.4298,-587.48C406.1693,-586.2743 388.3731,-579.3903 363,-549.7 312.8208,-490.9827 399.7378,-380.7 322.5,-380.7"/>
<polygon fill="#000000" stroke="#000000" points="447.0009,-587.5791 454.9456,-591.2996 451.0005,-587.6396 455,-587.7 455,-587.7 455,-587.7 451.0005,-587.6396 455.0544,-584.1004 447.0009,-587.5791 447.0009,-587.5791"/>
<ellipse fill="none" stroke="#000000" cx="443.8013" cy="-587.5308" rx="3.2" ry="3.2"/>
</g>
<!-- notifications_messages&#45;&gt;organizations -->
<g id="edge8" class="edge">
<title>notifications_messages:w&#45;&gt;organizations:e</title>
<path fill="none" stroke="#000000" d="M440.4251,-587.2905C289.2074,-578.6362 276.12,-435.7 116,-435.7"/>
<polygon fill="#000000" stroke="#000000" points="447.0032,-587.4753 454.8989,-591.2986 451.0016,-587.5876 455,-587.7 455,-587.7 455,-587.7 451.0016,-587.5876 455.1011,-584.1014 447.0032,-587.4753 447.0032,-587.4753"/>
<ellipse fill="none" stroke="#000000" cx="443.8044" cy="-587.3854" rx="3.2" ry="3.2"/>
</g>
<!-- notifications_user_app_compliance_policy -->
<g id="node9" class="node">
<title>notifications_user_app_compliance_policy</title>
<g id="a_node9"><a xlink:href="../../tables/notifications_user_app_compliance_policy.html" xlink:title="notifications_user_app_compliance_policy" target="_top">
<polygon fill="#ffffff" stroke="transparent" points="409,-38.2 409,-99.2 657,-99.2 657,-38.2 409,-38.2"/>
<polygon fill="#f5f5f5" stroke="transparent" points="409,-75.7 409,-98.7 657,-98.7 657,-75.7 409,-75.7"/>
<polygon fill="none" stroke="#000000" points="409,-75.7 409,-98.7 657,-98.7 657,-75.7 409,-75.7"/>
<text text-anchor="start" x="413.5032" y="-84.8" font-family="Helvetica,sans-Serif" font-weight="bold" font-size="11.00" fill="#000000">notifications_user_app_compliance_policy</text>
<text text-anchor="start" x="622.5219" y="-83.8" font-family="Helvetica,sans-Serif" font-size="11.00" fill="#000000">[table]</text>
<polygon fill="none" stroke="#000000" points="409,-56.7 409,-75.7 657,-75.7 657,-56.7 409,-56.7"/>
<text text-anchor="start" x="412" y="-62.8" font-family="Helvetica,sans-Serif" font-size="11.00" fill="#000000">...</text>
<polygon fill="#ffffff" stroke="transparent" points="409,-37.7 409,-56.7 518,-56.7 518,-37.7 409,-37.7"/>
<polygon fill="none" stroke="#000000" points="409,-37.7 409,-56.7 518,-56.7 518,-37.7 409,-37.7"/>
<text text-anchor="start" x="412" y="-43.8" font-family="Helvetica,sans-Serif" font-size="11.00" fill="#000000">&lt; 2</text>
<polygon fill="#ffffff" stroke="transparent" points="518,-37.7 518,-56.7 600,-56.7 600,-37.7 518,-37.7"/>
<polygon fill="none" stroke="#000000" points="518,-37.7 518,-56.7 600,-56.7 600,-37.7 518,-37.7"/>
<text text-anchor="start" x="564.6105" y="-43.8" font-family="Helvetica,sans-Serif" font-size="11.00" fill="#000000">0 rows</text>
<polygon fill="#ffffff" stroke="transparent" points="600,-37.7 600,-56.7 657,-56.7 657,-37.7 600,-37.7"/>
<polygon fill="none" stroke="#000000" points="600,-37.7 600,-56.7 657,-56.7 657,-37.7 600,-37.7"/>
<text text-anchor="start" x="647.8862" y="-43.8" font-family="Helvetica,sans-Serif" font-size="11.00" fill="#000000"> &#160;</text>
</a>
</g>
</g>
<!-- notifications_user_app_compliance_policy&#45;&gt;app_compliance_policy -->
<g id="edge9" class="edge">
<title>notifications_user_app_compliance_policy:w&#45;&gt;app_compliance_policy:e</title>
<path fill="none" stroke="#000000" d="M394.4133,-67.931C378.4581,-73.6273 373.3703,-89.6821 363,-109.7 334.9908,-163.7666 383.391,-380.7 322.5,-380.7"/>
<polygon fill="#000000" stroke="#000000" points="401.092,-66.9095 409.5443,-69.2586 405.046,-66.3048 409,-65.7 409,-65.7 409,-65.7 405.046,-66.3048 408.4557,-62.1414 401.092,-66.9095 401.092,-66.9095"/>
<ellipse fill="none" stroke="#000000" cx="397.9287" cy="-67.3934" rx="3.2" ry="3.2"/>
</g>
</g>
</svg>
