<?xml version="1.0" encoding="UTF-8" standalone="no"?>
<!DOCTYPE svg PUBLIC "-//W3C//DTD SVG 1.1//EN"
 "http://www.w3.org/Graphics/SVG/1.1/DTD/svg11.dtd">
<!-- Generated by graphviz version 2.40.1 (20161225.0304)
 -->
<!-- Title: oneDegreeRelationshipsDiagram Pages: 1 -->
<svg width="567pt" height="347pt"
 viewBox="0.00 0.00 567.00 347.20" xmlns="http://www.w3.org/2000/svg" xmlns:xlink="http://www.w3.org/1999/xlink">
<g id="graph0" class="graph" transform="scale(1 1) rotate(0) translate(4 343.2)">
<title>oneDegreeRelationshipsDiagram</title>
<polygon fill="#ffffff" stroke="transparent" points="-4,4 -4,-343.2 563,-343.2 563,4 -4,4"/>
<text text-anchor="middle" x="72.4936" y="-7.3" font-family="Helvetica,sans-Serif" font-size="11.00" fill="#000000">Generated by SchemaSpy</text>
<!-- app_route_coverage_sessions -->
<g id="node1" class="node">
<title>app_route_coverage_sessions</title>
<g id="a_node1"><a xlink:href="../../tables/app_route_coverage_sessions.html" xlink:title="app_route_coverage_sessions" target="_top">
<polygon fill="#ffffff" stroke="transparent" points="253,-84.7 253,-218.7 551,-218.7 551,-84.7 253,-84.7"/>
<polygon fill="#f5f5f5" stroke="transparent" points="255,-193.7 255,-216.7 549,-216.7 549,-193.7 255,-193.7"/>
<polygon fill="none" stroke="#000000" points="255,-193.7 255,-216.7 549,-216.7 549,-193.7 255,-193.7"/>
<text text-anchor="start" x="260" y="-202.8" font-family="Helvetica,sans-Serif" font-weight="bold" font-size="11.00" fill="#000000">app_route_coverage_sessions</text>
<text text-anchor="start" x="514.0437" y="-201.8" font-family="Helvetica,sans-Serif" font-size="11.00" fill="#000000">[table]</text>
<polygon fill="none" stroke="#000000" points="255,-171.7 255,-193.7 451,-193.7 451,-171.7 255,-171.7"/>
<image xlink:href="../../images/primaryKeys.png" width="11px" height="12px" preserveAspectRatio="xMinYMin meet" x="260" y="-188.7"/>
<text text-anchor="start" x="275" y="-178.8" font-family="Helvetica,sans-Serif" font-size="11.00" fill="#000000">route_hash</text>
<polygon fill="none" stroke="#000000" points="451,-171.7 451,-193.7 549,-193.7 549,-171.7 451,-171.7"/>
<text text-anchor="start" x="454" y="-179.4" font-family="Helvetica,sans-Serif" font-size="11.00" fill="#000000">bigint[19]</text>
<polygon fill="none" stroke="#000000" points="255,-149.7 255,-171.7 451,-171.7 451,-149.7 255,-149.7"/>
<image xlink:href="../../images/primaryKeys.png" width="11px" height="12px" preserveAspectRatio="xMinYMin meet" x="260" y="-166.7"/>
<text text-anchor="start" x="275" y="-156.8" font-family="Helvetica,sans-Serif" font-size="11.00" fill="#000000">agent_session_id</text>
<polygon fill="none" stroke="#000000" points="451,-149.7 451,-171.7 549,-171.7 549,-149.7 451,-149.7"/>
<text text-anchor="start" x="453.8429" y="-157.4" font-family="Helvetica,sans-Serif" font-size="11.00" fill="#000000">bigint unsigned[20]</text>
<polygon fill="none" stroke="#000000" points="255,-127.7 255,-149.7 451,-149.7 451,-127.7 255,-127.7"/>
<text text-anchor="start" x="275" y="-134.8" font-family="Helvetica,sans-Serif" font-size="11.00" fill="#000000">dt_discovered</text>
<polygon fill="none" stroke="#000000" points="451,-127.7 451,-149.7 549,-149.7 549,-127.7 451,-127.7"/>
<text text-anchor="start" x="453.8429" y="-135.4" font-family="Helvetica,sans-Serif" font-size="11.00" fill="#000000">bigint unsigned[20]</text>
<polygon fill="none" stroke="#000000" points="255,-105.7 255,-127.7 451,-127.7 451,-105.7 255,-105.7"/>
<text text-anchor="start" x="275" y="-112.8" font-family="Helvetica,sans-Serif" font-size="11.00" fill="#000000">dt_exercised</text>
<polygon fill="none" stroke="#000000" points="451,-105.7 451,-127.7 549,-127.7 549,-105.7 451,-105.7"/>
<text text-anchor="start" x="453.8429" y="-113.4" font-family="Helvetica,sans-Serif" font-size="11.00" fill="#000000">bigint unsigned[20]</text>
<polygon fill="#ffffff" stroke="transparent" points="255,-86.7 255,-105.7 344,-105.7 344,-86.7 255,-86.7"/>
<polygon fill="none" stroke="#000000" points="255,-86.7 255,-105.7 344,-105.7 344,-86.7 255,-86.7"/>
<text text-anchor="start" x="258" y="-92.8" font-family="Helvetica,sans-Serif" font-size="11.00" fill="#000000">&lt; 2</text>
<polygon fill="#ffffff" stroke="transparent" points="344,-86.7 344,-105.7 451,-105.7 451,-86.7 344,-86.7"/>
<polygon fill="none" stroke="#000000" points="344,-86.7 344,-105.7 451,-105.7 451,-86.7 344,-86.7"/>
<text text-anchor="start" x="415.6105" y="-92.8" font-family="Helvetica,sans-Serif" font-size="11.00" fill="#000000">0 rows</text>
<polygon fill="#ffffff" stroke="transparent" points="451,-86.7 451,-105.7 549,-105.7 549,-86.7 451,-86.7"/>
<polygon fill="none" stroke="#000000" points="451,-86.7 451,-105.7 549,-105.7 549,-86.7 451,-86.7"/>
<text text-anchor="start" x="530.4053" y="-92.8" font-family="Helvetica,sans-Serif" font-size="11.00" fill="#000000">0 &gt;</text>
<polygon fill="none" stroke="#000000" stroke-width="2" points="254,-85.7 254,-217.7 550,-217.7 550,-85.7 254,-85.7"/>
</a>
</g>
</g>
<!-- agent_session -->
<g id="node2" class="node">
<title>agent_session</title>
<g id="a_node2"><a xlink:href="../../tables/agent_session.html" xlink:title="agent_session" target="_top">
<polygon fill="#ffffff" stroke="transparent" points="48,-38.2 48,-165.2 164,-165.2 164,-38.2 48,-38.2"/>
<polygon fill="#f5f5f5" stroke="transparent" points="48,-141.7 48,-164.7 164,-164.7 164,-141.7 48,-141.7"/>
<polygon fill="none" stroke="#000000" points="48,-141.7 48,-164.7 164,-164.7 164,-141.7 48,-141.7"/>
<text text-anchor="start" x="53" y="-150.8" font-family="Helvetica,sans-Serif" font-weight="bold" font-size="11.00" fill="#000000">agent_session</text>
<text text-anchor="start" x="129.0437" y="-149.8" font-family="Helvetica,sans-Serif" font-size="11.00" fill="#000000">[table]</text>
<polygon fill="none" stroke="#000000" points="48,-119.7 48,-141.7 164,-141.7 164,-119.7 48,-119.7"/>
<image xlink:href="../../images/primaryKeys.png" width="11px" height="12px" preserveAspectRatio="xMinYMin meet" x="53" y="-136.7"/>
<text text-anchor="start" x="68" y="-126.8" font-family="Helvetica,sans-Serif" font-size="11.00" fill="#000000">id</text>
<polygon fill="none" stroke="#000000" points="48,-97.7 48,-119.7 164,-119.7 164,-97.7 48,-97.7"/>
<image xlink:href="../../images/primaryKeys.png" width="11px" height="12px" preserveAspectRatio="xMinYMin meet" x="53" y="-114.7"/>
<text text-anchor="start" x="68" y="-104.8" font-family="Helvetica,sans-Serif" font-size="11.00" fill="#000000">session_id</text>
<polygon fill="#ffffff" stroke="transparent" points="48,-75.7 48,-97.7 164,-97.7 164,-75.7 48,-75.7"/>
<polygon fill="none" stroke="#000000" points="48,-75.7 48,-97.7 164,-97.7 164,-75.7 48,-75.7"/>
<image xlink:href="../../images/foreignKeys.png" width="11px" height="12px" preserveAspectRatio="xMinYMin meet" x="53" y="-92.7"/>
<text text-anchor="start" x="68" y="-82.8" font-family="Helvetica,sans-Serif" font-size="11.00" fill="#000000">organizations_id</text>
<polygon fill="none" stroke="#000000" points="48,-56.7 48,-75.7 164,-75.7 164,-56.7 48,-56.7"/>
<text text-anchor="start" x="51" y="-62.8" font-family="Helvetica,sans-Serif" font-size="11.00" fill="#000000">...</text>
<polygon fill="#ffffff" stroke="transparent" points="48,-37.7 48,-56.7 87,-56.7 87,-37.7 48,-37.7"/>
<polygon fill="none" stroke="#000000" points="48,-37.7 48,-56.7 87,-56.7 87,-37.7 48,-37.7"/>
<text text-anchor="start" x="51" y="-43.8" font-family="Helvetica,sans-Serif" font-size="11.00" fill="#000000">&lt; 1</text>
<polygon fill="#ffffff" stroke="transparent" points="87,-37.7 87,-56.7 134,-56.7 134,-37.7 87,-37.7"/>
<polygon fill="none" stroke="#000000" points="87,-37.7 87,-56.7 134,-56.7 134,-37.7 87,-37.7"/>
<text text-anchor="start" x="98.6105" y="-43.8" font-family="Helvetica,sans-Serif" font-size="11.00" fill="#000000">3 rows</text>
<polygon fill="#ffffff" stroke="transparent" points="134,-37.7 134,-56.7 164,-56.7 164,-37.7 134,-37.7"/>
<polygon fill="none" stroke="#000000" points="134,-37.7 134,-56.7 164,-56.7 164,-37.7 134,-37.7"/>
<text text-anchor="start" x="145.4053" y="-43.8" font-family="Helvetica,sans-Serif" font-size="11.00" fill="#000000">6 &gt;</text>
</a>
</g>
</g>
<!-- app_route_coverage_sessions&#45;&gt;agent_session -->
<g id="edge1" class="edge">
<title>app_route_coverage_sessions:w&#45;&gt;agent_session:e</title>
<path fill="none" stroke="#000000" d="M240.4749,-158.725C208.2558,-149.2266 205.1231,-108.7 164,-108.7"/>
<polygon fill="#000000" stroke="#000000" points="247.0729,-159.6221 254.515,-164.2672 251.0365,-160.1611 255,-160.7 255,-160.7 255,-160.7 251.0365,-160.1611 255.485,-157.1328 247.0729,-159.6221 247.0729,-159.6221"/>
<ellipse fill="none" stroke="#000000" cx="243.9021" cy="-159.191" rx="3.2" ry="3.2"/>
</g>
<!-- app_route_coverage_analytics -->
<g id="node3" class="node">
<title>app_route_coverage_analytics</title>
<g id="a_node3"><a xlink:href="../../tables/app_route_coverage_analytics.html" xlink:title="app_route_coverage_analytics" target="_top">
<polygon fill="#ffffff" stroke="transparent" points="8,-186.2 8,-335.2 204,-335.2 204,-186.2 8,-186.2"/>
<polygon fill="#f5f5f5" stroke="transparent" points="8,-311.7 8,-334.7 204,-334.7 204,-311.7 8,-311.7"/>
<polygon fill="none" stroke="#000000" points="8,-311.7 8,-334.7 204,-334.7 204,-311.7 8,-311.7"/>
<text text-anchor="start" x="13" y="-320.8" font-family="Helvetica,sans-Serif" font-weight="bold" font-size="11.00" fill="#000000">app_route_coverage_analytics</text>
<text text-anchor="start" x="169.0437" y="-319.8" font-family="Helvetica,sans-Serif" font-size="11.00" fill="#000000">[table]</text>
<polygon fill="#ffffff" stroke="transparent" points="8,-289.7 8,-311.7 204,-311.7 204,-289.7 8,-289.7"/>
<polygon fill="none" stroke="#000000" points="8,-289.7 8,-311.7 204,-311.7 204,-289.7 8,-289.7"/>
<text text-anchor="start" x="28" y="-296.8" font-family="Helvetica,sans-Serif" font-size="11.00" fill="#000000">route_hash_string</text>
<polygon fill="#ffffff" stroke="transparent" points="8,-267.7 8,-289.7 204,-289.7 204,-267.7 8,-267.7"/>
<polygon fill="none" stroke="#000000" points="8,-267.7 8,-289.7 204,-289.7 204,-267.7 8,-267.7"/>
<text text-anchor="start" x="28" y="-274.8" font-family="Helvetica,sans-Serif" font-size="11.00" fill="#000000">applications_id</text>
<polygon fill="#ffffff" stroke="transparent" points="8,-245.7 8,-267.7 204,-267.7 204,-245.7 8,-245.7"/>
<polygon fill="none" stroke="#000000" points="8,-245.7 8,-267.7 204,-267.7 204,-245.7 8,-245.7"/>
<text text-anchor="start" x="28" y="-252.8" font-family="Helvetica,sans-Serif" font-size="11.00" fill="#000000">dt_exercised</text>
<polygon fill="none" stroke="#000000" points="8,-223.7 8,-245.7 204,-245.7 204,-223.7 8,-223.7"/>
<image xlink:href="../../images/primaryKeys.png" width="11px" height="12px" preserveAspectRatio="xMinYMin meet" x="13" y="-240.7"/>
<text text-anchor="start" x="28" y="-230.8" font-family="Helvetica,sans-Serif" font-size="11.00" fill="#000000">route_hash</text>
<polygon fill="none" stroke="#000000" points="8,-204.7 8,-223.7 204,-223.7 204,-204.7 8,-204.7"/>
<text text-anchor="start" x="11" y="-210.8" font-family="Helvetica,sans-Serif" font-size="11.00" fill="#000000">...</text>
<polygon fill="#ffffff" stroke="transparent" points="8,-185.7 8,-204.7 82,-204.7 82,-185.7 8,-185.7"/>
<polygon fill="none" stroke="#000000" points="8,-185.7 8,-204.7 82,-204.7 82,-185.7 8,-185.7"/>
<text text-anchor="start" x="11" y="-191.8" font-family="Helvetica,sans-Serif" font-size="11.00" fill="#000000"> &#160;</text>
<polygon fill="#ffffff" stroke="transparent" points="82,-185.7 82,-204.7 151,-204.7 151,-185.7 82,-185.7"/>
<polygon fill="none" stroke="#000000" points="82,-185.7 82,-204.7 151,-204.7 151,-185.7 82,-185.7"/>
<text text-anchor="start" x="115.6105" y="-191.8" font-family="Helvetica,sans-Serif" font-size="11.00" fill="#000000">0 rows</text>
<polygon fill="#ffffff" stroke="transparent" points="151,-185.7 151,-204.7 204,-204.7 204,-185.7 151,-185.7"/>
<polygon fill="none" stroke="#000000" points="151,-185.7 151,-204.7 204,-204.7 204,-185.7 151,-185.7"/>
<text text-anchor="start" x="185.4053" y="-191.8" font-family="Helvetica,sans-Serif" font-size="11.00" fill="#000000">4 &gt;</text>
</a>
</g>
</g>
<!-- app_route_coverage_sessions&#45;&gt;app_route_coverage_analytics -->
<g id="edge2" class="edge">
<title>app_route_coverage_sessions:w&#45;&gt;app_route_coverage_analytics:e</title>
<path fill="none" stroke="#000000" d="M241.0468,-187.4988C226.161,-200.3719 230.3017,-234.7 204,-234.7"/>
<polygon fill="#000000" stroke="#000000" points="247.4349,-185.3018 256.1708,-186.1043 251.2175,-184.0009 255,-182.7 255,-182.7 255,-182.7 251.2175,-184.0009 253.8292,-179.2957 247.4349,-185.3018 247.4349,-185.3018"/>
<ellipse fill="none" stroke="#000000" cx="244.4089" cy="-186.3426" rx="3.2" ry="3.2"/>
</g>
</g>
</svg>
