<?xml version="1.0" encoding="UTF-8" standalone="no"?>
<!DOCTYPE svg PUBLIC "-//W3C//DTD SVG 1.1//EN"
 "http://www.w3.org/Graphics/SVG/1.1/DTD/svg11.dtd">
<!-- Generated by graphviz version 2.40.1 (20161225.0304)
 -->
<!-- Title: twoDegreesRelationshipsDiagram Pages: 1 -->
<svg width="747pt" height="715pt"
 viewBox="0.00 0.00 747.00 715.20" xmlns="http://www.w3.org/2000/svg" xmlns:xlink="http://www.w3.org/1999/xlink">
<g id="graph0" class="graph" transform="scale(1 1) rotate(0) translate(4 711.2)">
<title>twoDegreesRelationshipsDiagram</title>
<polygon fill="#ffffff" stroke="transparent" points="-4,4 -4,-711.2 743,-711.2 743,4 -4,4"/>
<text text-anchor="middle" x="72.4936" y="-7.3" font-family="Helvetica,sans-Serif" font-size="11.00" fill="#000000">Generated by SchemaSpy</text>
<!-- app_compliance_policy -->
<g id="node1" class="node">
<title>app_compliance_policy</title>
<g id="a_node1"><a xlink:href="../../tables/app_compliance_policy.html" xlink:title="app_compliance_policy" target="_top">
<polygon fill="#ffffff" stroke="transparent" points="165,-372.2 165,-499.2 322,-499.2 322,-372.2 165,-372.2"/>
<polygon fill="#f5f5f5" stroke="transparent" points="165.5,-475.7 165.5,-498.7 322.5,-498.7 322.5,-475.7 165.5,-475.7"/>
<polygon fill="none" stroke="#000000" points="165.5,-475.7 165.5,-498.7 322.5,-498.7 322.5,-475.7 165.5,-475.7"/>
<text text-anchor="start" x="170.3479" y="-484.8" font-family="Helvetica,sans-Serif" font-weight="bold" font-size="11.00" fill="#000000">app_compliance_policy</text>
<text text-anchor="start" x="288.0219" y="-483.8" font-family="Helvetica,sans-Serif" font-size="11.00" fill="#000000">[table]</text>
<polygon fill="none" stroke="#000000" points="165.5,-453.7 165.5,-475.7 322.5,-475.7 322.5,-453.7 165.5,-453.7"/>
<image xlink:href="../../images/primaryKeys.png" width="11px" height="12px" preserveAspectRatio="xMinYMin meet" x="170.5" y="-470.7"/>
<text text-anchor="start" x="186.5" y="-460.8" font-family="Helvetica,sans-Serif" font-size="11.00" fill="#000000">id</text>
<polygon fill="#ffffff" stroke="transparent" points="165.5,-431.7 165.5,-453.7 322.5,-453.7 322.5,-431.7 165.5,-431.7"/>
<polygon fill="none" stroke="#000000" points="165.5,-431.7 165.5,-453.7 322.5,-453.7 322.5,-431.7 165.5,-431.7"/>
<text text-anchor="start" x="186.5" y="-438.8" font-family="Helvetica,sans-Serif" font-size="11.00" fill="#000000">name</text>
<polygon fill="#ffffff" stroke="transparent" points="165.5,-409.7 165.5,-431.7 322.5,-431.7 322.5,-409.7 165.5,-409.7"/>
<polygon fill="none" stroke="#000000" points="165.5,-409.7 165.5,-431.7 322.5,-431.7 322.5,-409.7 165.5,-409.7"/>
<image xlink:href="../../images/foreignKeys.png" width="11px" height="12px" preserveAspectRatio="xMinYMin meet" x="170.5" y="-426.7"/>
<text text-anchor="start" x="186.5" y="-416.8" font-family="Helvetica,sans-Serif" font-size="11.00" fill="#000000">organizations_id</text>
<polygon fill="none" stroke="#000000" points="165.5,-390.7 165.5,-409.7 322.5,-409.7 322.5,-390.7 165.5,-390.7"/>
<text text-anchor="start" x="168.5" y="-396.8" font-family="Helvetica,sans-Serif" font-size="11.00" fill="#000000">...</text>
<polygon fill="#ffffff" stroke="transparent" points="165.5,-371.7 165.5,-390.7 221.5,-390.7 221.5,-371.7 165.5,-371.7"/>
<polygon fill="none" stroke="#000000" points="165.5,-371.7 165.5,-390.7 221.5,-390.7 221.5,-371.7 165.5,-371.7"/>
<text text-anchor="start" x="168.5" y="-377.8" font-family="Helvetica,sans-Serif" font-size="11.00" fill="#000000">&lt; 1</text>
<polygon fill="#ffffff" stroke="transparent" points="221.5,-371.7 221.5,-390.7 283.5,-390.7 283.5,-371.7 221.5,-371.7"/>
<polygon fill="none" stroke="#000000" points="221.5,-371.7 221.5,-390.7 283.5,-390.7 283.5,-371.7 221.5,-371.7"/>
<text text-anchor="start" x="241.9956" y="-377.8" font-family="Helvetica,sans-Serif" font-size="11.00" fill="#000000">21 rows</text>
<polygon fill="#ffffff" stroke="transparent" points="283.5,-371.7 283.5,-390.7 322.5,-390.7 322.5,-371.7 283.5,-371.7"/>
<polygon fill="none" stroke="#000000" points="283.5,-371.7 283.5,-390.7 322.5,-390.7 322.5,-371.7 283.5,-371.7"/>
<text text-anchor="start" x="303.9053" y="-377.8" font-family="Helvetica,sans-Serif" font-size="11.00" fill="#000000">7 &gt;</text>
</a>
</g>
</g>
<!-- organizations -->
<g id="node2" class="node">
<title>organizations</title>
<g id="a_node2"><a xlink:href="../../tables/organizations.html" xlink:title="organizations" target="_top">
<polygon fill="#ffffff" stroke="transparent" points="8,-491.2 8,-552.2 116,-552.2 116,-491.2 8,-491.2"/>
<polygon fill="#f5f5f5" stroke="transparent" points="8,-528.7 8,-551.7 116,-551.7 116,-528.7 8,-528.7"/>
<polygon fill="none" stroke="#000000" points="8,-528.7 8,-551.7 116,-551.7 116,-528.7 8,-528.7"/>
<text text-anchor="start" x="12.7976" y="-537.8" font-family="Helvetica,sans-Serif" font-weight="bold" font-size="11.00" fill="#000000">organizations</text>
<text text-anchor="start" x="81.5219" y="-536.8" font-family="Helvetica,sans-Serif" font-size="11.00" fill="#000000">[table]</text>
<polygon fill="none" stroke="#000000" points="8,-509.7 8,-528.7 116,-528.7 116,-509.7 8,-509.7"/>
<text text-anchor="start" x="11" y="-515.8" font-family="Helvetica,sans-Serif" font-size="11.00" fill="#000000">...</text>
<polygon fill="#ffffff" stroke="transparent" points="8,-490.7 8,-509.7 40,-509.7 40,-490.7 8,-490.7"/>
<polygon fill="none" stroke="#000000" points="8,-490.7 8,-509.7 40,-509.7 40,-490.7 8,-490.7"/>
<text text-anchor="start" x="11" y="-496.8" font-family="Helvetica,sans-Serif" font-size="11.00" fill="#000000">&lt; 4</text>
<polygon fill="#ffffff" stroke="transparent" points="40,-490.7 40,-509.7 83,-509.7 83,-490.7 40,-490.7"/>
<polygon fill="none" stroke="#000000" points="40,-490.7 40,-509.7 83,-509.7 83,-490.7 40,-490.7"/>
<text text-anchor="start" x="47.6105" y="-496.8" font-family="Helvetica,sans-Serif" font-size="11.00" fill="#000000">3 rows</text>
<polygon fill="#ffffff" stroke="transparent" points="83,-490.7 83,-509.7 116,-509.7 116,-490.7 83,-490.7"/>
<polygon fill="none" stroke="#000000" points="83,-490.7 83,-509.7 116,-509.7 116,-490.7 83,-490.7"/>
<text text-anchor="start" x="91.2904" y="-496.8" font-family="Helvetica,sans-Serif" font-size="11.00" fill="#000000">81 &gt;</text>
</a>
</g>
</g>
<!-- app_compliance_policy&#45;&gt;organizations -->
<g id="edge1" class="edge">
<title>app_compliance_policy:w&#45;&gt;organizations:e</title>
<path fill="none" stroke="#000000" d="M151.3646,-424.9109C127.2129,-443.6688 158.6968,-518.7 116,-518.7"/>
<polygon fill="#000000" stroke="#000000" points="157.833,-422.984 166.5278,-424.1502 161.6665,-421.842 165.5,-420.7 165.5,-420.7 165.5,-420.7 161.6665,-421.842 164.4722,-417.2498 157.833,-422.984 157.833,-422.984"/>
<ellipse fill="none" stroke="#000000" cx="154.7662" cy="-423.8977" rx="3.2" ry="3.2"/>
</g>
<!-- app_compliance_policy_application_importance -->
<g id="node3" class="node">
<title>app_compliance_policy_application_importance</title>
<g id="a_node3"><a xlink:href="../../tables/app_compliance_policy_application_importance.html" xlink:title="app_compliance_policy_application_importance" target="_top">
<polygon fill="#ffffff" stroke="transparent" points="413,-560.2 413,-621.2 689,-621.2 689,-560.2 413,-560.2"/>
<polygon fill="#f5f5f5" stroke="transparent" points="413,-597.7 413,-620.7 689,-620.7 689,-597.7 413,-597.7"/>
<polygon fill="none" stroke="#000000" points="413,-597.7 413,-620.7 689,-620.7 689,-597.7 413,-597.7"/>
<text text-anchor="start" x="417.7504" y="-606.8" font-family="Helvetica,sans-Serif" font-weight="bold" font-size="11.00" fill="#000000">app_compliance_policy_application_importance</text>
<text text-anchor="start" x="654.5219" y="-605.8" font-family="Helvetica,sans-Serif" font-size="11.00" fill="#000000">[table]</text>
<polygon fill="none" stroke="#000000" points="413,-578.7 413,-597.7 689,-597.7 689,-578.7 413,-578.7"/>
<text text-anchor="start" x="416" y="-584.8" font-family="Helvetica,sans-Serif" font-size="11.00" fill="#000000">...</text>
<polygon fill="#ffffff" stroke="transparent" points="413,-559.7 413,-578.7 536,-578.7 536,-559.7 413,-559.7"/>
<polygon fill="none" stroke="#000000" points="413,-559.7 413,-578.7 536,-578.7 536,-559.7 413,-559.7"/>
<text text-anchor="start" x="416" y="-565.8" font-family="Helvetica,sans-Serif" font-size="11.00" fill="#000000">&lt; 1</text>
<polygon fill="#ffffff" stroke="transparent" points="536,-559.7 536,-578.7 625,-578.7 625,-559.7 536,-559.7"/>
<polygon fill="none" stroke="#000000" points="536,-559.7 536,-578.7 625,-578.7 625,-559.7 536,-559.7"/>
<text text-anchor="start" x="589.6105" y="-565.8" font-family="Helvetica,sans-Serif" font-size="11.00" fill="#000000">0 rows</text>
<polygon fill="#ffffff" stroke="transparent" points="625,-559.7 625,-578.7 689,-578.7 689,-559.7 625,-559.7"/>
<polygon fill="none" stroke="#000000" points="625,-559.7 625,-578.7 689,-578.7 689,-559.7 625,-559.7"/>
<text text-anchor="start" x="679.8862" y="-565.8" font-family="Helvetica,sans-Serif" font-size="11.00" fill="#000000"> &#160;</text>
</a>
</g>
</g>
<!-- app_compliance_policy_application_importance&#45;&gt;app_compliance_policy -->
<g id="edge2" class="edge">
<title>app_compliance_policy_application_importance:w&#45;&gt;app_compliance_policy:e</title>
<path fill="none" stroke="#000000" d="M398.5855,-585.7692C382.7275,-580.8405 377.0338,-566.9558 363,-549.7 336.5964,-517.2345 364.3469,-464.7 322.5,-464.7"/>
<polygon fill="#000000" stroke="#000000" points="405.0708,-586.6379 412.522,-591.2681 409.0354,-587.1689 413,-587.7 413,-587.7 413,-587.7 409.0354,-587.1689 413.478,-584.1319 405.0708,-586.6379 405.0708,-586.6379"/>
<ellipse fill="none" stroke="#000000" cx="401.8991" cy="-586.213" rx="3.2" ry="3.2"/>
</g>
<!-- app_compliance_policy_applications -->
<g id="node4" class="node">
<title>app_compliance_policy_applications</title>
<g id="a_node4"><a xlink:href="../../tables/app_compliance_policy_applications.html" xlink:title="app_compliance_policy_applications" target="_top">
<polygon fill="#ffffff" stroke="transparent" points="440.5,-478.2 440.5,-539.2 661.5,-539.2 661.5,-478.2 440.5,-478.2"/>
<polygon fill="#f5f5f5" stroke="transparent" points="441,-515.7 441,-538.7 662,-538.7 662,-515.7 441,-515.7"/>
<polygon fill="none" stroke="#000000" points="441,-515.7 441,-538.7 662,-538.7 662,-515.7 441,-515.7"/>
<text text-anchor="start" x="445.7559" y="-524.8" font-family="Helvetica,sans-Serif" font-weight="bold" font-size="11.00" fill="#000000">app_compliance_policy_applications</text>
<text text-anchor="start" x="627.5219" y="-523.8" font-family="Helvetica,sans-Serif" font-size="11.00" fill="#000000">[table]</text>
<polygon fill="none" stroke="#000000" points="441,-496.7 441,-515.7 662,-515.7 662,-496.7 441,-496.7"/>
<text text-anchor="start" x="444" y="-502.8" font-family="Helvetica,sans-Serif" font-size="11.00" fill="#000000">...</text>
<polygon fill="#ffffff" stroke="transparent" points="441,-477.7 441,-496.7 537,-496.7 537,-477.7 441,-477.7"/>
<polygon fill="none" stroke="#000000" points="441,-477.7 441,-496.7 537,-496.7 537,-477.7 441,-477.7"/>
<text text-anchor="start" x="444" y="-483.8" font-family="Helvetica,sans-Serif" font-size="11.00" fill="#000000">&lt; 2</text>
<polygon fill="#ffffff" stroke="transparent" points="537,-477.7 537,-496.7 612,-496.7 612,-477.7 537,-477.7"/>
<polygon fill="none" stroke="#000000" points="537,-477.7 537,-496.7 612,-496.7 612,-477.7 537,-477.7"/>
<text text-anchor="start" x="576.6105" y="-483.8" font-family="Helvetica,sans-Serif" font-size="11.00" fill="#000000">0 rows</text>
<polygon fill="#ffffff" stroke="transparent" points="612,-477.7 612,-496.7 662,-496.7 662,-477.7 612,-477.7"/>
<polygon fill="none" stroke="#000000" points="612,-477.7 612,-496.7 662,-496.7 662,-477.7 612,-477.7"/>
<text text-anchor="start" x="652.8862" y="-483.8" font-family="Helvetica,sans-Serif" font-size="11.00" fill="#000000"> &#160;</text>
</a>
</g>
</g>
<!-- app_compliance_policy_applications&#45;&gt;app_compliance_policy -->
<g id="edge3" class="edge">
<title>app_compliance_policy_applications:w&#45;&gt;app_compliance_policy:e</title>
<path fill="none" stroke="#000000" d="M426.5295,-504.6865C383.5221,-498.3729 373.0053,-464.7 322.5,-464.7"/>
<polygon fill="#000000" stroke="#000000" points="433.0195,-505.141 440.7485,-509.2912 437.0098,-505.4205 441,-505.7 441,-505.7 441,-505.7 437.0098,-505.4205 441.2515,-502.1088 433.0195,-505.141 433.0195,-505.141"/>
<ellipse fill="none" stroke="#000000" cx="429.8274" cy="-504.9174" rx="3.2" ry="3.2"/>
</g>
<!-- app_compliance_policy_rule_severity -->
<g id="node5" class="node">
<title>app_compliance_policy_rule_severity</title>
<g id="a_node5"><a xlink:href="../../tables/app_compliance_policy_rule_severity.html" xlink:title="app_compliance_policy_rule_severity" target="_top">
<polygon fill="#ffffff" stroke="transparent" points="438.5,-396.2 438.5,-457.2 663.5,-457.2 663.5,-396.2 438.5,-396.2"/>
<polygon fill="#f5f5f5" stroke="transparent" points="439,-433.7 439,-456.7 664,-456.7 664,-433.7 439,-433.7"/>
<polygon fill="none" stroke="#000000" points="439,-433.7 439,-456.7 664,-456.7 664,-433.7 439,-433.7"/>
<text text-anchor="start" x="443.6219" y="-442.8" font-family="Helvetica,sans-Serif" font-weight="bold" font-size="11.00" fill="#000000">app_compliance_policy_rule_severity</text>
<text text-anchor="start" x="629.5219" y="-441.8" font-family="Helvetica,sans-Serif" font-size="11.00" fill="#000000">[table]</text>
<polygon fill="none" stroke="#000000" points="439,-414.7 439,-433.7 664,-433.7 664,-414.7 439,-414.7"/>
<text text-anchor="start" x="442" y="-420.8" font-family="Helvetica,sans-Serif" font-size="11.00" fill="#000000">...</text>
<polygon fill="#ffffff" stroke="transparent" points="439,-395.7 439,-414.7 537,-414.7 537,-395.7 439,-395.7"/>
<polygon fill="none" stroke="#000000" points="439,-395.7 439,-414.7 537,-414.7 537,-395.7 439,-395.7"/>
<text text-anchor="start" x="442" y="-401.8" font-family="Helvetica,sans-Serif" font-size="11.00" fill="#000000">&lt; 1</text>
<polygon fill="#ffffff" stroke="transparent" points="537,-395.7 537,-414.7 613,-414.7 613,-395.7 537,-395.7"/>
<polygon fill="none" stroke="#000000" points="537,-395.7 537,-414.7 613,-414.7 613,-395.7 537,-395.7"/>
<text text-anchor="start" x="577.6105" y="-401.8" font-family="Helvetica,sans-Serif" font-size="11.00" fill="#000000">0 rows</text>
<polygon fill="#ffffff" stroke="transparent" points="613,-395.7 613,-414.7 664,-414.7 664,-395.7 613,-395.7"/>
<polygon fill="none" stroke="#000000" points="613,-395.7 613,-414.7 664,-414.7 664,-395.7 613,-395.7"/>
<text text-anchor="start" x="654.8862" y="-401.8" font-family="Helvetica,sans-Serif" font-size="11.00" fill="#000000"> &#160;</text>
</a>
</g>
</g>
<!-- app_compliance_policy_rule_severity&#45;&gt;app_compliance_policy -->
<g id="edge4" class="edge">
<title>app_compliance_policy_rule_severity:w&#45;&gt;app_compliance_policy:e</title>
<path fill="none" stroke="#000000" d="M424.4796,-424.7547C382.3821,-431.1721 372.1375,-464.7 322.5,-464.7"/>
<polygon fill="#000000" stroke="#000000" points="431.021,-424.2796 439.2608,-427.2905 435.0105,-423.9898 439,-423.7 439,-423.7 439,-423.7 435.0105,-423.9898 438.7392,-420.1095 431.021,-424.2796 431.021,-424.2796"/>
<ellipse fill="none" stroke="#000000" cx="427.8294" cy="-424.5114" rx="3.2" ry="3.2"/>
</g>
<!-- app_compliance_policy_rules -->
<g id="node6" class="node">
<title>app_compliance_policy_rules</title>
<g id="a_node6"><a xlink:href="../../tables/app_compliance_policy_rules.html" xlink:title="app_compliance_policy_rules" target="_top">
<polygon fill="#ffffff" stroke="transparent" points="457.5,-314.2 457.5,-375.2 644.5,-375.2 644.5,-314.2 457.5,-314.2"/>
<polygon fill="#f5f5f5" stroke="transparent" points="458,-351.7 458,-374.7 645,-374.7 645,-351.7 458,-351.7"/>
<polygon fill="none" stroke="#000000" points="458,-351.7 458,-374.7 645,-374.7 645,-351.7 458,-351.7"/>
<text text-anchor="start" x="462.8741" y="-360.8" font-family="Helvetica,sans-Serif" font-weight="bold" font-size="11.00" fill="#000000">app_compliance_policy_rules</text>
<text text-anchor="start" x="610.5219" y="-359.8" font-family="Helvetica,sans-Serif" font-size="11.00" fill="#000000">[table]</text>
<polygon fill="none" stroke="#000000" points="458,-332.7 458,-351.7 645,-351.7 645,-332.7 458,-332.7"/>
<text text-anchor="start" x="461" y="-338.8" font-family="Helvetica,sans-Serif" font-size="11.00" fill="#000000">...</text>
<polygon fill="#ffffff" stroke="transparent" points="458,-313.7 458,-332.7 526,-332.7 526,-313.7 458,-313.7"/>
<polygon fill="none" stroke="#000000" points="458,-313.7 458,-332.7 526,-332.7 526,-313.7 458,-313.7"/>
<text text-anchor="start" x="461" y="-319.8" font-family="Helvetica,sans-Serif" font-size="11.00" fill="#000000">&lt; 2</text>
<polygon fill="#ffffff" stroke="transparent" points="526,-313.7 526,-332.7 609,-332.7 609,-313.7 526,-313.7"/>
<polygon fill="none" stroke="#000000" points="526,-313.7 526,-332.7 609,-332.7 609,-313.7 526,-313.7"/>
<text text-anchor="start" x="552.2089" y="-319.8" font-family="Helvetica,sans-Serif" font-size="11.00" fill="#000000">1,005 rows</text>
<polygon fill="#ffffff" stroke="transparent" points="609,-313.7 609,-332.7 645,-332.7 645,-313.7 609,-313.7"/>
<polygon fill="none" stroke="#000000" points="609,-313.7 609,-332.7 645,-332.7 645,-313.7 609,-313.7"/>
<text text-anchor="start" x="635.8862" y="-319.8" font-family="Helvetica,sans-Serif" font-size="11.00" fill="#000000"> &#160;</text>
</a>
</g>
</g>
<!-- app_compliance_policy_rules&#45;&gt;app_compliance_policy -->
<g id="edge5" class="edge">
<title>app_compliance_policy_rules:w&#45;&gt;app_compliance_policy:e</title>
<path fill="none" stroke="#000000" d="M443.3308,-342.1655C407.8505,-344.6276 392.7525,-357.1138 363,-385.7 334.5482,-413.0365 361.9562,-464.7 322.5,-464.7"/>
<polygon fill="#000000" stroke="#000000" points="450.004,-341.9538 458.1142,-345.2982 454.002,-341.8269 458,-341.7 458,-341.7 458,-341.7 454.002,-341.8269 457.8858,-338.1018 450.004,-341.9538 450.004,-341.9538"/>
<ellipse fill="none" stroke="#000000" cx="446.8056" cy="-342.0553" rx="3.2" ry="3.2"/>
</g>
<!-- app_compliance_policy_security_standards -->
<g id="node7" class="node">
<title>app_compliance_policy_security_standards</title>
<g id="a_node7"><a xlink:href="../../tables/app_compliance_policy_security_standards.html" xlink:title="app_compliance_policy_security_standards" target="_top">
<polygon fill="#ffffff" stroke="transparent" points="371,-120.7 371,-210.7 731,-210.7 731,-120.7 371,-120.7"/>
<polygon fill="#f5f5f5" stroke="transparent" points="373,-185.7 373,-208.7 729,-208.7 729,-185.7 373,-185.7"/>
<polygon fill="none" stroke="#000000" points="373,-185.7 373,-208.7 729,-208.7 729,-185.7 373,-185.7"/>
<text text-anchor="start" x="378" y="-194.8" font-family="Helvetica,sans-Serif" font-weight="bold" font-size="11.00" fill="#000000">app_compliance_policy_security_standards</text>
<text text-anchor="start" x="694.0437" y="-193.8" font-family="Helvetica,sans-Serif" font-size="11.00" fill="#000000">[table]</text>
<polygon fill="none" stroke="#000000" points="373,-163.7 373,-185.7 646,-185.7 646,-163.7 373,-163.7"/>
<image xlink:href="../../images/primaryKeys.png" width="11px" height="12px" preserveAspectRatio="xMinYMin meet" x="378" y="-180.7"/>
<text text-anchor="start" x="393" y="-170.8" font-family="Helvetica,sans-Serif" font-size="11.00" fill="#000000">app_compliance_policy_id</text>
<polygon fill="none" stroke="#000000" points="646,-163.7 646,-185.7 729,-185.7 729,-163.7 646,-163.7"/>
<text text-anchor="start" x="648.6783" y="-171.4" font-family="Helvetica,sans-Serif" font-size="11.00" fill="#000000">int unsigned[10]</text>
<polygon fill="none" stroke="#000000" points="373,-141.7 373,-163.7 646,-163.7 646,-141.7 373,-141.7"/>
<image xlink:href="../../images/primaryKeys.png" width="11px" height="12px" preserveAspectRatio="xMinYMin meet" x="378" y="-158.7"/>
<text text-anchor="start" x="393" y="-148.8" font-family="Helvetica,sans-Serif" font-size="11.00" fill="#000000">compliance_report_id</text>
<polygon fill="none" stroke="#000000" points="646,-141.7 646,-163.7 729,-163.7 729,-141.7 646,-141.7"/>
<text text-anchor="start" x="648.6783" y="-149.4" font-family="Helvetica,sans-Serif" font-size="11.00" fill="#000000">int unsigned[10]</text>
<polygon fill="#ffffff" stroke="transparent" points="373,-122.7 373,-141.7 501,-141.7 501,-122.7 373,-122.7"/>
<polygon fill="none" stroke="#000000" points="373,-122.7 373,-141.7 501,-141.7 501,-122.7 373,-122.7"/>
<text text-anchor="start" x="376" y="-128.8" font-family="Helvetica,sans-Serif" font-size="11.00" fill="#000000">&lt; 2</text>
<polygon fill="#ffffff" stroke="transparent" points="501,-122.7 501,-141.7 646,-141.7 646,-122.7 501,-122.7"/>
<polygon fill="none" stroke="#000000" points="501,-122.7 501,-141.7 646,-141.7 646,-122.7 501,-122.7"/>
<text text-anchor="start" x="610.6105" y="-128.8" font-family="Helvetica,sans-Serif" font-size="11.00" fill="#000000">0 rows</text>
<polygon fill="#ffffff" stroke="transparent" points="646,-122.7 646,-141.7 729,-141.7 729,-122.7 646,-122.7"/>
<polygon fill="none" stroke="#000000" points="646,-122.7 646,-141.7 729,-141.7 729,-122.7 646,-122.7"/>
<text text-anchor="start" x="710.4053" y="-128.8" font-family="Helvetica,sans-Serif" font-size="11.00" fill="#000000">0 &gt;</text>
<polygon fill="none" stroke="#000000" stroke-width="2" points="372,-121.7 372,-209.7 730,-209.7 730,-121.7 372,-121.7"/>
</a>
</g>
</g>
<!-- app_compliance_policy_security_standards&#45;&gt;app_compliance_policy -->
<g id="edge6" class="edge">
<title>app_compliance_policy_security_standards:w&#45;&gt;app_compliance_policy:e</title>
<path fill="none" stroke="#000000" d="M359.6832,-180.2342C319.7839,-220.3267 382.5482,-464.7 322.5,-464.7"/>
<polygon fill="#000000" stroke="#000000" points="365.6125,-177.7701 374.3816,-178.0244 369.3063,-176.2351 373,-174.7 373,-174.7 373,-174.7 369.3063,-176.2351 371.6184,-171.3756 365.6125,-177.7701 365.6125,-177.7701"/>
<ellipse fill="none" stroke="#000000" cx="362.6575" cy="-178.9982" rx="3.2" ry="3.2"/>
</g>
<!-- compliance_report -->
<g id="node8" class="node">
<title>compliance_report</title>
<g id="a_node8"><a xlink:href="../../tables/compliance_report.html" xlink:title="compliance_report" target="_top">
<polygon fill="#ffffff" stroke="transparent" points="177,-39.2 177,-144.2 310,-144.2 310,-39.2 177,-39.2"/>
<polygon fill="#f5f5f5" stroke="transparent" points="177.5,-120.7 177.5,-143.7 310.5,-143.7 310.5,-120.7 177.5,-120.7"/>
<polygon fill="none" stroke="#000000" points="177.5,-120.7 177.5,-143.7 310.5,-143.7 310.5,-120.7 177.5,-120.7"/>
<text text-anchor="start" x="182.2708" y="-129.8" font-family="Helvetica,sans-Serif" font-weight="bold" font-size="11.00" fill="#000000">compliance_report</text>
<text text-anchor="start" x="276.0219" y="-128.8" font-family="Helvetica,sans-Serif" font-size="11.00" fill="#000000">[table]</text>
<polygon fill="none" stroke="#000000" points="177.5,-98.7 177.5,-120.7 310.5,-120.7 310.5,-98.7 177.5,-98.7"/>
<image xlink:href="../../images/primaryKeys.png" width="11px" height="12px" preserveAspectRatio="xMinYMin meet" x="182.5" y="-115.7"/>
<text text-anchor="start" x="200.5" y="-105.8" font-family="Helvetica,sans-Serif" font-size="11.00" fill="#000000">id</text>
<polygon fill="#ffffff" stroke="transparent" points="177.5,-76.7 177.5,-98.7 310.5,-98.7 310.5,-76.7 177.5,-76.7"/>
<polygon fill="none" stroke="#000000" points="177.5,-76.7 177.5,-98.7 310.5,-98.7 310.5,-76.7 177.5,-76.7"/>
<text text-anchor="start" x="200.5" y="-83.8" font-family="Helvetica,sans-Serif" font-size="11.00" fill="#000000">name</text>
<polygon fill="none" stroke="#000000" points="177.5,-57.7 177.5,-76.7 310.5,-76.7 310.5,-57.7 177.5,-57.7"/>
<text text-anchor="start" x="180.5" y="-63.8" font-family="Helvetica,sans-Serif" font-size="11.00" fill="#000000">...</text>
<polygon fill="#ffffff" stroke="transparent" points="177.5,-38.7 177.5,-57.7 220.5,-57.7 220.5,-38.7 177.5,-38.7"/>
<polygon fill="none" stroke="#000000" points="177.5,-38.7 177.5,-57.7 220.5,-57.7 220.5,-38.7 177.5,-38.7"/>
<text text-anchor="start" x="180.5" y="-44.8" font-family="Helvetica,sans-Serif" font-size="11.00" fill="#000000"> &#160;</text>
<polygon fill="#ffffff" stroke="transparent" points="220.5,-38.7 220.5,-57.7 273.5,-57.7 273.5,-38.7 220.5,-38.7"/>
<polygon fill="none" stroke="#000000" points="220.5,-38.7 220.5,-57.7 273.5,-57.7 273.5,-38.7 220.5,-38.7"/>
<text text-anchor="start" x="238.1105" y="-44.8" font-family="Helvetica,sans-Serif" font-size="11.00" fill="#000000">7 rows</text>
<polygon fill="#ffffff" stroke="transparent" points="273.5,-38.7 273.5,-57.7 310.5,-57.7 310.5,-38.7 273.5,-38.7"/>
<polygon fill="none" stroke="#000000" points="273.5,-38.7 273.5,-57.7 310.5,-57.7 310.5,-38.7 273.5,-38.7"/>
<text text-anchor="start" x="291.9053" y="-44.8" font-family="Helvetica,sans-Serif" font-size="11.00" fill="#000000">2 &gt;</text>
</a>
</g>
</g>
<!-- app_compliance_policy_security_standards&#45;&gt;compliance_report -->
<g id="edge7" class="edge">
<title>app_compliance_policy_security_standards:w&#45;&gt;compliance_report:e</title>
<path fill="none" stroke="#000000" d="M358.9149,-149.468C339.85,-139.4679 338.5536,-109.7 310.5,-109.7"/>
<polygon fill="#000000" stroke="#000000" points="365.2026,-150.9108 372.1948,-156.2088 369.1013,-151.8054 373,-152.7 373,-152.7 373,-152.7 369.1013,-151.8054 373.8052,-149.1912 365.2026,-150.9108 365.2026,-150.9108"/>
<ellipse fill="none" stroke="#000000" cx="362.0837" cy="-150.1951" rx="3.2" ry="3.2"/>
</g>
<!-- compliance_report_category -->
<g id="node9" class="node">
<title>compliance_report_category</title>
<g id="a_node9"><a xlink:href="../../tables/compliance_report_category.html" xlink:title="compliance_report_category" target="_top">
<polygon fill="#ffffff" stroke="transparent" points="460.5,-38.2 460.5,-99.2 641.5,-99.2 641.5,-38.2 460.5,-38.2"/>
<polygon fill="#f5f5f5" stroke="transparent" points="461,-75.7 461,-98.7 642,-98.7 642,-75.7 461,-75.7"/>
<polygon fill="none" stroke="#000000" points="461,-75.7 461,-98.7 642,-98.7 642,-75.7 461,-75.7"/>
<text text-anchor="start" x="465.6241" y="-84.8" font-family="Helvetica,sans-Serif" font-weight="bold" font-size="11.00" fill="#000000">compliance_report_category</text>
<text text-anchor="start" x="607.5219" y="-83.8" font-family="Helvetica,sans-Serif" font-size="11.00" fill="#000000">[table]</text>
<polygon fill="none" stroke="#000000" points="461,-56.7 461,-75.7 642,-75.7 642,-56.7 461,-56.7"/>
<text text-anchor="start" x="464" y="-62.8" font-family="Helvetica,sans-Serif" font-size="11.00" fill="#000000">...</text>
<polygon fill="#ffffff" stroke="transparent" points="461,-37.7 461,-56.7 529,-56.7 529,-37.7 461,-37.7"/>
<polygon fill="none" stroke="#000000" points="461,-37.7 461,-56.7 529,-56.7 529,-37.7 461,-37.7"/>
<text text-anchor="start" x="464" y="-43.8" font-family="Helvetica,sans-Serif" font-size="11.00" fill="#000000">&lt; 1</text>
<polygon fill="#ffffff" stroke="transparent" points="529,-37.7 529,-56.7 597,-56.7 597,-37.7 529,-37.7"/>
<polygon fill="none" stroke="#000000" points="529,-37.7 529,-56.7 597,-56.7 597,-37.7 529,-37.7"/>
<text text-anchor="start" x="555.4956" y="-43.8" font-family="Helvetica,sans-Serif" font-size="11.00" fill="#000000">87 rows</text>
<polygon fill="#ffffff" stroke="transparent" points="597,-37.7 597,-56.7 642,-56.7 642,-37.7 597,-37.7"/>
<polygon fill="none" stroke="#000000" points="597,-37.7 597,-56.7 642,-56.7 642,-37.7 597,-37.7"/>
<text text-anchor="start" x="623.4053" y="-43.8" font-family="Helvetica,sans-Serif" font-size="11.00" fill="#000000">1 &gt;</text>
</a>
</g>
</g>
<!-- compliance_report_category&#45;&gt;compliance_report -->
<g id="edge8" class="edge">
<title>compliance_report_category:w&#45;&gt;compliance_report:e</title>
<path fill="none" stroke="#000000" d="M446.4033,-66.3911C389.3375,-71.9889 375.0167,-109.7 310.5,-109.7"/>
<polygon fill="#000000" stroke="#000000" points="453.009,-66.0784 461.1703,-69.296 457.0045,-65.8892 461,-65.7 461,-65.7 461,-65.7 457.0045,-65.8892 460.8297,-62.104 453.009,-66.0784 453.009,-66.0784"/>
<ellipse fill="none" stroke="#000000" cx="449.8125" cy="-66.2298" rx="3.2" ry="3.2"/>
</g>
<!-- notifications_messages -->
<g id="node10" class="node">
<title>notifications_messages</title>
<g id="a_node10"><a xlink:href="../../tables/notifications_messages.html" xlink:title="notifications_messages" target="_top">
<polygon fill="#ffffff" stroke="transparent" points="472.5,-642.2 472.5,-703.2 629.5,-703.2 629.5,-642.2 472.5,-642.2"/>
<polygon fill="#f5f5f5" stroke="transparent" points="473,-679.7 473,-702.7 630,-702.7 630,-679.7 473,-679.7"/>
<polygon fill="none" stroke="#000000" points="473,-679.7 473,-702.7 630,-702.7 630,-679.7 473,-679.7"/>
<text text-anchor="start" x="477.8479" y="-688.8" font-family="Helvetica,sans-Serif" font-weight="bold" font-size="11.00" fill="#000000">notifications_messages</text>
<text text-anchor="start" x="595.5219" y="-687.8" font-family="Helvetica,sans-Serif" font-size="11.00" fill="#000000">[table]</text>
<polygon fill="none" stroke="#000000" points="473,-660.7 473,-679.7 630,-679.7 630,-660.7 473,-660.7"/>
<text text-anchor="start" x="476" y="-666.8" font-family="Helvetica,sans-Serif" font-size="11.00" fill="#000000">...</text>
<polygon fill="#ffffff" stroke="transparent" points="473,-641.7 473,-660.7 532,-660.7 532,-641.7 473,-641.7"/>
<polygon fill="none" stroke="#000000" points="473,-641.7 473,-660.7 532,-660.7 532,-641.7 473,-641.7"/>
<text text-anchor="start" x="476" y="-647.8" font-family="Helvetica,sans-Serif" font-size="11.00" fill="#000000">&lt; 9</text>
<polygon fill="#ffffff" stroke="transparent" points="532,-641.7 532,-660.7 589,-660.7 589,-641.7 532,-641.7"/>
<polygon fill="none" stroke="#000000" points="532,-641.7 532,-660.7 589,-660.7 589,-641.7 532,-641.7"/>
<text text-anchor="start" x="553.6105" y="-647.8" font-family="Helvetica,sans-Serif" font-size="11.00" fill="#000000">0 rows</text>
<polygon fill="#ffffff" stroke="transparent" points="589,-641.7 589,-660.7 630,-660.7 630,-641.7 589,-641.7"/>
<polygon fill="none" stroke="#000000" points="589,-641.7 589,-660.7 630,-660.7 630,-641.7 589,-641.7"/>
<text text-anchor="start" x="611.4053" y="-647.8" font-family="Helvetica,sans-Serif" font-size="11.00" fill="#000000">4 &gt;</text>
</a>
</g>
</g>
<!-- notifications_messages&#45;&gt;app_compliance_policy -->
<g id="edge9" class="edge">
<title>notifications_messages:w&#45;&gt;app_compliance_policy:e</title>
<path fill="none" stroke="#000000" d="M458.3452,-669.6695C416.4873,-669.3704 394.3356,-666.1529 363,-631.7 311.6123,-575.2001 398.8737,-464.7 322.5,-464.7"/>
<polygon fill="#000000" stroke="#000000" points="465,-669.6833 472.9925,-673.3 469,-669.6917 473,-669.7 473,-669.7 473,-669.7 469,-669.6917 473.0075,-666.1 465,-669.6833 465,-669.6833"/>
<ellipse fill="none" stroke="#000000" cx="461.8" cy="-669.6766" rx="3.2" ry="3.2"/>
</g>
<!-- notifications_messages&#45;&gt;organizations -->
<g id="edge10" class="edge">
<title>notifications_messages:w&#45;&gt;organizations:e</title>
<path fill="none" stroke="#000000" d="M458.2621,-669.3188C299.8575,-660.9819 283.2288,-518.7 116,-518.7"/>
<polygon fill="#000000" stroke="#000000" points="465.0027,-669.4931 472.9069,-673.2988 469.0013,-669.5965 473,-669.7 473,-669.7 473,-669.7 469.0013,-669.5965 473.0931,-666.1012 465.0027,-669.4931 465.0027,-669.4931"/>
<ellipse fill="none" stroke="#000000" cx="461.8037" cy="-669.4103" rx="3.2" ry="3.2"/>
</g>
<!-- notifications_user_app_compliance_policy -->
<g id="node11" class="node">
<title>notifications_user_app_compliance_policy</title>
<g id="a_node11"><a xlink:href="../../tables/notifications_user_app_compliance_policy.html" xlink:title="notifications_user_app_compliance_policy" target="_top">
<polygon fill="#ffffff" stroke="transparent" points="427,-232.2 427,-293.2 675,-293.2 675,-232.2 427,-232.2"/>
<polygon fill="#f5f5f5" stroke="transparent" points="427,-269.7 427,-292.7 675,-292.7 675,-269.7 427,-269.7"/>
<polygon fill="none" stroke="#000000" points="427,-269.7 427,-292.7 675,-292.7 675,-269.7 427,-269.7"/>
<text text-anchor="start" x="431.5032" y="-278.8" font-family="Helvetica,sans-Serif" font-weight="bold" font-size="11.00" fill="#000000">notifications_user_app_compliance_policy</text>
<text text-anchor="start" x="640.5219" y="-277.8" font-family="Helvetica,sans-Serif" font-size="11.00" fill="#000000">[table]</text>
<polygon fill="none" stroke="#000000" points="427,-250.7 427,-269.7 675,-269.7 675,-250.7 427,-250.7"/>
<text text-anchor="start" x="430" y="-256.8" font-family="Helvetica,sans-Serif" font-size="11.00" fill="#000000">...</text>
<polygon fill="#ffffff" stroke="transparent" points="427,-231.7 427,-250.7 536,-250.7 536,-231.7 427,-231.7"/>
<polygon fill="none" stroke="#000000" points="427,-231.7 427,-250.7 536,-250.7 536,-231.7 427,-231.7"/>
<text text-anchor="start" x="430" y="-237.8" font-family="Helvetica,sans-Serif" font-size="11.00" fill="#000000">&lt; 2</text>
<polygon fill="#ffffff" stroke="transparent" points="536,-231.7 536,-250.7 618,-250.7 618,-231.7 536,-231.7"/>
<polygon fill="none" stroke="#000000" points="536,-231.7 536,-250.7 618,-250.7 618,-231.7 536,-231.7"/>
<text text-anchor="start" x="582.6105" y="-237.8" font-family="Helvetica,sans-Serif" font-size="11.00" fill="#000000">0 rows</text>
<polygon fill="#ffffff" stroke="transparent" points="618,-231.7 618,-250.7 675,-250.7 675,-231.7 618,-231.7"/>
<polygon fill="none" stroke="#000000" points="618,-231.7 618,-250.7 675,-250.7 675,-231.7 618,-231.7"/>
<text text-anchor="start" x="665.8862" y="-237.8" font-family="Helvetica,sans-Serif" font-size="11.00" fill="#000000"> &#160;</text>
</a>
</g>
</g>
<!-- notifications_user_app_compliance_policy&#45;&gt;app_compliance_policy -->
<g id="edge11" class="edge">
<title>notifications_user_app_compliance_policy:w&#45;&gt;app_compliance_policy:e</title>
<path fill="none" stroke="#000000" d="M412.4993,-260.8354C389.1836,-264.9026 379.6243,-279.7859 363,-303.7 320.884,-364.2841 396.2848,-464.7 322.5,-464.7"/>
<polygon fill="#000000" stroke="#000000" points="419.0244,-260.3246 427.2811,-263.289 423.0122,-260.0123 427,-259.7 427,-259.7 427,-259.7 423.0122,-260.0123 426.7189,-256.111 419.0244,-260.3246 419.0244,-260.3246"/>
<ellipse fill="none" stroke="#000000" cx="415.8342" cy="-260.5744" rx="3.2" ry="3.2"/>
</g>
</g>
</svg>
