<?xml version="1.0" encoding="UTF-8" standalone="no"?>
<!DOCTYPE svg PUBLIC "-//W3C//DTD SVG 1.1//EN"
 "http://www.w3.org/Graphics/SVG/1.1/DTD/svg11.dtd">
<!-- Generated by graphviz version 2.40.1 (20161225.0304)
 -->
<!-- Title: twoDegreesRelationshipsDiagram Pages: 1 -->
<svg width="539pt" height="475pt"
 viewBox="0.00 0.00 539.00 474.70" xmlns="http://www.w3.org/2000/svg" xmlns:xlink="http://www.w3.org/1999/xlink">
<g id="graph0" class="graph" transform="scale(1 1) rotate(0) translate(4 470.7)">
<title>twoDegreesRelationshipsDiagram</title>
<polygon fill="#ffffff" stroke="transparent" points="-4,4 -4,-470.7 535,-470.7 535,4 -4,4"/>
<text text-anchor="middle" x="72.4936" y="-7.3" font-family="Helvetica,sans-Serif" font-size="11.00" fill="#000000">Generated by SchemaSpy</text>
<!-- app_route_coverage_observations -->
<g id="node1" class="node">
<title>app_route_coverage_observations</title>
<g id="a_node1"><a xlink:href="../../tables/app_route_coverage_observations.html" xlink:title="app_route_coverage_observations" target="_top">
<polygon fill="#ffffff" stroke="transparent" points="282,-401.7 282,-462.7 494,-462.7 494,-401.7 282,-401.7"/>
<polygon fill="#f5f5f5" stroke="transparent" points="282,-439.2 282,-462.2 494,-462.2 494,-439.2 282,-439.2"/>
<polygon fill="none" stroke="#000000" points="282,-439.2 282,-462.2 494,-462.2 494,-439.2 282,-439.2"/>
<text text-anchor="start" x="286.8308" y="-448.3" font-family="Helvetica,sans-Serif" font-weight="bold" font-size="11.00" fill="#000000">app_route_coverage_observations</text>
<text text-anchor="start" x="459.5219" y="-447.3" font-family="Helvetica,sans-Serif" font-size="11.00" fill="#000000">[table]</text>
<polygon fill="none" stroke="#000000" points="282,-420.2 282,-439.2 494,-439.2 494,-420.2 282,-420.2"/>
<text text-anchor="start" x="285" y="-426.3" font-family="Helvetica,sans-Serif" font-size="11.00" fill="#000000">...</text>
<polygon fill="#ffffff" stroke="transparent" points="282,-401.2 282,-420.2 369,-420.2 369,-401.2 282,-401.2"/>
<polygon fill="none" stroke="#000000" points="282,-401.2 282,-420.2 369,-420.2 369,-401.2 282,-401.2"/>
<text text-anchor="start" x="285" y="-407.3" font-family="Helvetica,sans-Serif" font-size="11.00" fill="#000000">&lt; 1</text>
<polygon fill="#ffffff" stroke="transparent" points="369,-401.2 369,-420.2 440,-420.2 440,-401.2 369,-401.2"/>
<polygon fill="none" stroke="#000000" points="369,-401.2 369,-420.2 440,-420.2 440,-401.2 369,-401.2"/>
<text text-anchor="start" x="404.6105" y="-407.3" font-family="Helvetica,sans-Serif" font-size="11.00" fill="#000000">0 rows</text>
<polygon fill="#ffffff" stroke="transparent" points="440,-401.2 440,-420.2 494,-420.2 494,-401.2 440,-401.2"/>
<polygon fill="none" stroke="#000000" points="440,-401.2 440,-420.2 494,-420.2 494,-401.2 440,-401.2"/>
<text text-anchor="start" x="475.4053" y="-407.3" font-family="Helvetica,sans-Serif" font-size="11.00" fill="#000000">1 &gt;</text>
</a>
</g>
</g>
<!-- app_route_coverage_analytics -->
<g id="node2" class="node">
<title>app_route_coverage_analytics</title>
<g id="a_node2"><a xlink:href="../../tables/app_route_coverage_analytics.html" xlink:title="app_route_coverage_analytics" target="_top">
<polygon fill="#ffffff" stroke="transparent" points="8,-257.7 8,-406.7 204,-406.7 204,-257.7 8,-257.7"/>
<polygon fill="#f5f5f5" stroke="transparent" points="8,-383.2 8,-406.2 204,-406.2 204,-383.2 8,-383.2"/>
<polygon fill="none" stroke="#000000" points="8,-383.2 8,-406.2 204,-406.2 204,-383.2 8,-383.2"/>
<text text-anchor="start" x="13" y="-392.3" font-family="Helvetica,sans-Serif" font-weight="bold" font-size="11.00" fill="#000000">app_route_coverage_analytics</text>
<text text-anchor="start" x="169.0437" y="-391.3" font-family="Helvetica,sans-Serif" font-size="11.00" fill="#000000">[table]</text>
<polygon fill="#ffffff" stroke="transparent" points="8,-361.2 8,-383.2 204,-383.2 204,-361.2 8,-361.2"/>
<polygon fill="none" stroke="#000000" points="8,-361.2 8,-383.2 204,-383.2 204,-361.2 8,-361.2"/>
<text text-anchor="start" x="28" y="-368.3" font-family="Helvetica,sans-Serif" font-size="11.00" fill="#000000">route_hash_string</text>
<polygon fill="#ffffff" stroke="transparent" points="8,-339.2 8,-361.2 204,-361.2 204,-339.2 8,-339.2"/>
<polygon fill="none" stroke="#000000" points="8,-339.2 8,-361.2 204,-361.2 204,-339.2 8,-339.2"/>
<text text-anchor="start" x="28" y="-346.3" font-family="Helvetica,sans-Serif" font-size="11.00" fill="#000000">applications_id</text>
<polygon fill="#ffffff" stroke="transparent" points="8,-317.2 8,-339.2 204,-339.2 204,-317.2 8,-317.2"/>
<polygon fill="none" stroke="#000000" points="8,-317.2 8,-339.2 204,-339.2 204,-317.2 8,-317.2"/>
<text text-anchor="start" x="28" y="-324.3" font-family="Helvetica,sans-Serif" font-size="11.00" fill="#000000">dt_exercised</text>
<polygon fill="none" stroke="#000000" points="8,-295.2 8,-317.2 204,-317.2 204,-295.2 8,-295.2"/>
<image xlink:href="../../images/primaryKeys.png" width="11px" height="12px" preserveAspectRatio="xMinYMin meet" x="13" y="-312.2"/>
<text text-anchor="start" x="28" y="-302.3" font-family="Helvetica,sans-Serif" font-size="11.00" fill="#000000">route_hash</text>
<polygon fill="none" stroke="#000000" points="8,-276.2 8,-295.2 204,-295.2 204,-276.2 8,-276.2"/>
<text text-anchor="start" x="11" y="-282.3" font-family="Helvetica,sans-Serif" font-size="11.00" fill="#000000">...</text>
<polygon fill="#ffffff" stroke="transparent" points="8,-257.2 8,-276.2 82,-276.2 82,-257.2 8,-257.2"/>
<polygon fill="none" stroke="#000000" points="8,-257.2 8,-276.2 82,-276.2 82,-257.2 8,-257.2"/>
<text text-anchor="start" x="11" y="-263.3" font-family="Helvetica,sans-Serif" font-size="11.00" fill="#000000"> &#160;</text>
<polygon fill="#ffffff" stroke="transparent" points="82,-257.2 82,-276.2 151,-276.2 151,-257.2 82,-257.2"/>
<polygon fill="none" stroke="#000000" points="82,-257.2 82,-276.2 151,-276.2 151,-257.2 82,-257.2"/>
<text text-anchor="start" x="115.6105" y="-263.3" font-family="Helvetica,sans-Serif" font-size="11.00" fill="#000000">0 rows</text>
<polygon fill="#ffffff" stroke="transparent" points="151,-257.2 151,-276.2 204,-276.2 204,-257.2 151,-257.2"/>
<polygon fill="none" stroke="#000000" points="151,-257.2 151,-276.2 204,-276.2 204,-257.2 151,-257.2"/>
<text text-anchor="start" x="185.4053" y="-263.3" font-family="Helvetica,sans-Serif" font-size="11.00" fill="#000000">4 &gt;</text>
</a>
</g>
</g>
<!-- app_route_coverage_observations&#45;&gt;app_route_coverage_analytics -->
<g id="edge1" class="edge">
<title>app_route_coverage_observations:w&#45;&gt;app_route_coverage_analytics:e</title>
<path fill="none" stroke="#000000" d="M267.848,-425.783C257.5698,-419.5221 255.0331,-405.5323 245,-391.2 220.9465,-356.8395 245.9429,-306.2 204,-306.2"/>
<polygon fill="#000000" stroke="#000000" points="274.2235,-427.3223 281.155,-432.6994 278.1117,-428.2611 282,-429.2 282,-429.2 282,-429.2 278.1117,-428.2611 282.845,-425.7006 274.2235,-427.3223 274.2235,-427.3223"/>
<ellipse fill="none" stroke="#000000" cx="271.1129" cy="-426.5712" rx="3.2" ry="3.2"/>
</g>
<!-- app_route_coverage_servers -->
<g id="node3" class="node">
<title>app_route_coverage_servers</title>
<g id="a_node3"><a xlink:href="../../tables/app_route_coverage_servers.html" xlink:title="app_route_coverage_servers" target="_top">
<polygon fill="#ffffff" stroke="transparent" points="295,-319.7 295,-380.7 481,-380.7 481,-319.7 295,-319.7"/>
<polygon fill="#f5f5f5" stroke="transparent" points="295,-357.2 295,-380.2 481,-380.2 481,-357.2 295,-357.2"/>
<polygon fill="none" stroke="#000000" points="295,-357.2 295,-380.2 481,-380.2 481,-357.2 295,-357.2"/>
<text text-anchor="start" x="299.9786" y="-366.3" font-family="Helvetica,sans-Serif" font-weight="bold" font-size="11.00" fill="#000000">app_route_coverage_servers</text>
<text text-anchor="start" x="446.5219" y="-365.3" font-family="Helvetica,sans-Serif" font-size="11.00" fill="#000000">[table]</text>
<polygon fill="none" stroke="#000000" points="295,-338.2 295,-357.2 481,-357.2 481,-338.2 295,-338.2"/>
<text text-anchor="start" x="298" y="-344.3" font-family="Helvetica,sans-Serif" font-size="11.00" fill="#000000">...</text>
<polygon fill="#ffffff" stroke="transparent" points="295,-319.2 295,-338.2 373,-338.2 373,-319.2 295,-319.2"/>
<polygon fill="none" stroke="#000000" points="295,-319.2 295,-338.2 373,-338.2 373,-319.2 295,-319.2"/>
<text text-anchor="start" x="298" y="-325.3" font-family="Helvetica,sans-Serif" font-size="11.00" fill="#000000">&lt; 1</text>
<polygon fill="#ffffff" stroke="transparent" points="373,-319.2 373,-338.2 440,-338.2 440,-319.2 373,-319.2"/>
<polygon fill="none" stroke="#000000" points="373,-319.2 373,-338.2 440,-338.2 440,-319.2 373,-319.2"/>
<text text-anchor="start" x="404.6105" y="-325.3" font-family="Helvetica,sans-Serif" font-size="11.00" fill="#000000">0 rows</text>
<polygon fill="#ffffff" stroke="transparent" points="440,-319.2 440,-338.2 481,-338.2 481,-319.2 440,-319.2"/>
<polygon fill="none" stroke="#000000" points="440,-319.2 440,-338.2 481,-338.2 481,-319.2 440,-319.2"/>
<text text-anchor="start" x="471.8862" y="-325.3" font-family="Helvetica,sans-Serif" font-size="11.00" fill="#000000"> &#160;</text>
</a>
</g>
</g>
<!-- app_route_coverage_servers&#45;&gt;app_route_coverage_analytics -->
<g id="edge2" class="edge">
<title>app_route_coverage_servers:w&#45;&gt;app_route_coverage_analytics:e</title>
<path fill="none" stroke="#000000" d="M280.5866,-345.542C249.4708,-337.8715 242.9882,-306.2 204,-306.2"/>
<polygon fill="#000000" stroke="#000000" points="287.0524,-346.2857 294.5886,-350.7764 291.0262,-346.7429 295,-347.2 295,-347.2 295,-347.2 291.0262,-346.7429 295.4114,-343.6236 287.0524,-346.2857 287.0524,-346.2857"/>
<ellipse fill="none" stroke="#000000" cx="283.8734" cy="-345.92" rx="3.2" ry="3.2"/>
</g>
<!-- app_route_coverage_sessions -->
<g id="node4" class="node">
<title>app_route_coverage_sessions</title>
<g id="a_node4"><a xlink:href="../../tables/app_route_coverage_sessions.html" xlink:title="app_route_coverage_sessions" target="_top">
<polygon fill="#ffffff" stroke="transparent" points="292,-237.7 292,-298.7 484,-298.7 484,-237.7 292,-237.7"/>
<polygon fill="#f5f5f5" stroke="transparent" points="292,-275.2 292,-298.2 484,-298.2 484,-275.2 292,-275.2"/>
<polygon fill="none" stroke="#000000" points="292,-275.2 292,-298.2 484,-298.2 484,-275.2 292,-275.2"/>
<text text-anchor="start" x="296.6126" y="-284.3" font-family="Helvetica,sans-Serif" font-weight="bold" font-size="11.00" fill="#000000">app_route_coverage_sessions</text>
<text text-anchor="start" x="449.5219" y="-283.3" font-family="Helvetica,sans-Serif" font-size="11.00" fill="#000000">[table]</text>
<polygon fill="none" stroke="#000000" points="292,-256.2 292,-275.2 484,-275.2 484,-256.2 292,-256.2"/>
<text text-anchor="start" x="295" y="-262.3" font-family="Helvetica,sans-Serif" font-size="11.00" fill="#000000">...</text>
<polygon fill="#ffffff" stroke="transparent" points="292,-237.2 292,-256.2 373,-256.2 373,-237.2 292,-237.2"/>
<polygon fill="none" stroke="#000000" points="292,-237.2 292,-256.2 373,-256.2 373,-237.2 292,-237.2"/>
<text text-anchor="start" x="295" y="-243.3" font-family="Helvetica,sans-Serif" font-size="11.00" fill="#000000">&lt; 2</text>
<polygon fill="#ffffff" stroke="transparent" points="373,-237.2 373,-256.2 441,-256.2 441,-237.2 373,-237.2"/>
<polygon fill="none" stroke="#000000" points="373,-237.2 373,-256.2 441,-256.2 441,-237.2 373,-237.2"/>
<text text-anchor="start" x="405.6105" y="-243.3" font-family="Helvetica,sans-Serif" font-size="11.00" fill="#000000">0 rows</text>
<polygon fill="#ffffff" stroke="transparent" points="441,-237.2 441,-256.2 484,-256.2 484,-237.2 441,-237.2"/>
<polygon fill="none" stroke="#000000" points="441,-237.2 441,-256.2 484,-256.2 484,-237.2 441,-237.2"/>
<text text-anchor="start" x="474.8862" y="-243.3" font-family="Helvetica,sans-Serif" font-size="11.00" fill="#000000"> &#160;</text>
</a>
</g>
</g>
<!-- app_route_coverage_sessions&#45;&gt;app_route_coverage_analytics -->
<g id="edge3" class="edge">
<title>app_route_coverage_sessions:w&#45;&gt;app_route_coverage_analytics:e</title>
<path fill="none" stroke="#000000" d="M277.6004,-266.9617C247.7786,-274.8094 241.7543,-306.2 204,-306.2"/>
<polygon fill="#000000" stroke="#000000" points="284.0592,-266.1716 292.4372,-268.7734 288.0296,-265.6858 292,-265.2 292,-265.2 292,-265.2 288.0296,-265.6858 291.5628,-261.6266 284.0592,-266.1716 284.0592,-266.1716"/>
<ellipse fill="none" stroke="#000000" cx="280.8829" cy="-266.5602" rx="3.2" ry="3.2"/>
</g>
<!-- app_route_coverage_snapshot -->
<g id="node5" class="node">
<title>app_route_coverage_snapshot</title>
<g id="a_node5"><a xlink:href="../../tables/app_route_coverage_snapshot.html" xlink:title="app_route_coverage_snapshot" target="_top">
<polygon fill="#ffffff" stroke="transparent" points="253,-38.2 253,-216.2 523,-216.2 523,-38.2 253,-38.2"/>
<polygon fill="#f5f5f5" stroke="transparent" points="255,-191.2 255,-214.2 521,-214.2 521,-191.2 255,-191.2"/>
<polygon fill="none" stroke="#000000" points="255,-191.2 255,-214.2 521,-214.2 521,-191.2 255,-191.2"/>
<text text-anchor="start" x="260" y="-200.3" font-family="Helvetica,sans-Serif" font-weight="bold" font-size="11.00" fill="#000000">app_route_coverage_snapshot</text>
<text text-anchor="start" x="486.0437" y="-199.3" font-family="Helvetica,sans-Serif" font-size="11.00" fill="#000000">[table]</text>
<polygon fill="none" stroke="#000000" points="255,-169.2 255,-191.2 453,-191.2 453,-169.2 255,-169.2"/>
<image xlink:href="../../images/primaryKeys.png" width="11px" height="12px" preserveAspectRatio="xMinYMin meet" x="260" y="-186.2"/>
<text text-anchor="start" x="275" y="-176.3" font-family="Helvetica,sans-Serif" font-size="11.00" fill="#000000">dt_timestamp</text>
<polygon fill="none" stroke="#000000" points="453,-169.2 453,-191.2 521,-191.2 521,-169.2 453,-169.2"/>
<text text-anchor="start" x="456" y="-176.9" font-family="Helvetica,sans-Serif" font-size="11.00" fill="#000000">bigint[19]</text>
<polygon fill="none" stroke="#000000" points="255,-147.2 255,-169.2 453,-169.2 453,-147.2 255,-147.2"/>
<image xlink:href="../../images/primaryKeys.png" width="11px" height="12px" preserveAspectRatio="xMinYMin meet" x="260" y="-164.2"/>
<text text-anchor="start" x="275" y="-154.3" font-family="Helvetica,sans-Serif" font-size="11.00" fill="#000000">applications_id</text>
<polygon fill="none" stroke="#000000" points="453,-147.2 453,-169.2 521,-169.2 521,-147.2 453,-147.2"/>
<text text-anchor="start" x="456" y="-154.9" font-family="Helvetica,sans-Serif" font-size="11.00" fill="#000000">varchar[255]</text>
<polygon fill="none" stroke="#000000" points="255,-125.2 255,-147.2 453,-147.2 453,-125.2 255,-125.2"/>
<text text-anchor="start" x="275" y="-132.3" font-family="Helvetica,sans-Serif" font-size="11.00" fill="#000000">discovered_routes</text>
<polygon fill="none" stroke="#000000" points="453,-125.2 453,-147.2 521,-147.2 521,-125.2 453,-125.2"/>
<text text-anchor="start" x="455.5246" y="-132.9" font-family="Helvetica,sans-Serif" font-size="11.00" fill="#000000">mediumint[7]</text>
<polygon fill="none" stroke="#000000" points="255,-103.2 255,-125.2 453,-125.2 453,-103.2 255,-103.2"/>
<text text-anchor="start" x="275" y="-110.3" font-family="Helvetica,sans-Serif" font-size="11.00" fill="#000000">exercised_routes</text>
<polygon fill="none" stroke="#000000" points="453,-103.2 453,-125.2 521,-125.2 521,-103.2 453,-103.2"/>
<text text-anchor="start" x="455.5246" y="-110.9" font-family="Helvetica,sans-Serif" font-size="11.00" fill="#000000">mediumint[7]</text>
<polygon fill="none" stroke="#000000" points="255,-81.2 255,-103.2 453,-103.2 453,-81.2 255,-81.2"/>
<image xlink:href="../../images/foreignKeys.png" width="11px" height="12px" preserveAspectRatio="xMinYMin meet" x="260" y="-98.2"/>
<text text-anchor="start" x="275" y="-88.3" font-family="Helvetica,sans-Serif" font-size="11.00" fill="#000000">route_hash</text>
<polygon fill="none" stroke="#000000" points="453,-81.2 453,-103.2 521,-103.2 521,-81.2 453,-81.2"/>
<text text-anchor="start" x="456" y="-88.9" font-family="Helvetica,sans-Serif" font-size="11.00" fill="#000000">unknown[0]</text>
<polygon fill="none" stroke="#000000" points="255,-59.2 255,-81.2 453,-81.2 453,-59.2 255,-59.2"/>
<text text-anchor="start" x="275" y="-66.3" font-family="Helvetica,sans-Serif" font-size="11.00" fill="#000000">vulnerable_routes</text>
<polygon fill="none" stroke="#000000" points="453,-59.2 453,-81.2 521,-81.2 521,-59.2 453,-59.2"/>
<text text-anchor="start" x="455.5246" y="-66.9" font-family="Helvetica,sans-Serif" font-size="11.00" fill="#000000">mediumint[7]</text>
<polygon fill="#ffffff" stroke="transparent" points="255,-40.2 255,-59.2 345,-59.2 345,-40.2 255,-40.2"/>
<polygon fill="none" stroke="#000000" points="255,-40.2 255,-59.2 345,-59.2 345,-40.2 255,-40.2"/>
<text text-anchor="start" x="258" y="-46.3" font-family="Helvetica,sans-Serif" font-size="11.00" fill="#000000">&lt; 1</text>
<polygon fill="#ffffff" stroke="transparent" points="345,-40.2 345,-59.2 453,-59.2 453,-40.2 345,-40.2"/>
<polygon fill="none" stroke="#000000" points="345,-40.2 345,-59.2 453,-59.2 453,-40.2 345,-40.2"/>
<text text-anchor="start" x="417.6105" y="-46.3" font-family="Helvetica,sans-Serif" font-size="11.00" fill="#000000">0 rows</text>
<polygon fill="#ffffff" stroke="transparent" points="453,-40.2 453,-59.2 521,-59.2 521,-40.2 453,-40.2"/>
<polygon fill="none" stroke="#000000" points="453,-40.2 453,-59.2 521,-59.2 521,-40.2 453,-40.2"/>
<text text-anchor="start" x="502.4053" y="-46.3" font-family="Helvetica,sans-Serif" font-size="11.00" fill="#000000">0 &gt;</text>
<polygon fill="none" stroke="#000000" stroke-width="2" points="254,-39.2 254,-215.2 522,-215.2 522,-39.2 254,-39.2"/>
</a>
</g>
</g>
<!-- app_route_coverage_snapshot&#45;&gt;app_route_coverage_analytics -->
<g id="edge4" class="edge">
<title>app_route_coverage_snapshot:w&#45;&gt;app_route_coverage_analytics:e</title>
<path fill="none" stroke="#000000" d="M240.6301,-94.1819C172.8226,-115.7556 296.2367,-306.2 204,-306.2"/>
<polygon fill="#000000" stroke="#000000" points="247.075,-93.293 255.4919,-95.7662 251.0375,-92.7465 255,-92.2 255,-92.2 255,-92.2 251.0375,-92.7465 254.5081,-88.6338 247.075,-93.293 247.075,-93.293"/>
<ellipse fill="none" stroke="#000000" cx="243.905" cy="-93.7303" rx="3.2" ry="3.2"/>
</g>
</g>
</svg>
