<?xml version="1.0" encoding="UTF-8" standalone="no"?>
<!DOCTYPE svg PUBLIC "-//W3C//DTD SVG 1.1//EN"
 "http://www.w3.org/Graphics/SVG/1.1/DTD/svg11.dtd">
<!-- Generated by graphviz version 2.40.1 (20161225.0304)
 -->
<!-- Title: twoDegreesRelationshipsDiagram Pages: 1 -->
<svg width="771pt" height="633pt"
 viewBox="0.00 0.00 771.00 633.20" xmlns="http://www.w3.org/2000/svg" xmlns:xlink="http://www.w3.org/1999/xlink">
<g id="graph0" class="graph" transform="scale(1 1) rotate(0) translate(4 629.2)">
<title>twoDegreesRelationshipsDiagram</title>
<polygon fill="#ffffff" stroke="transparent" points="-4,4 -4,-629.2 767,-629.2 767,4 -4,4"/>
<text text-anchor="middle" x="72.4936" y="-7.3" font-family="Helvetica,sans-Serif" font-size="11.00" fill="#000000">Generated by SchemaSpy</text>
<!-- app_compliance_policy -->
<g id="node1" class="node">
<title>app_compliance_policy</title>
<g id="a_node1"><a xlink:href="../../tables/app_compliance_policy.html" xlink:title="app_compliance_policy" target="_top">
<polygon fill="#ffffff" stroke="transparent" points="165,-260.2 165,-387.2 322,-387.2 322,-260.2 165,-260.2"/>
<polygon fill="#f5f5f5" stroke="transparent" points="165.5,-363.7 165.5,-386.7 322.5,-386.7 322.5,-363.7 165.5,-363.7"/>
<polygon fill="none" stroke="#000000" points="165.5,-363.7 165.5,-386.7 322.5,-386.7 322.5,-363.7 165.5,-363.7"/>
<text text-anchor="start" x="170.3479" y="-372.8" font-family="Helvetica,sans-Serif" font-weight="bold" font-size="11.00" fill="#000000">app_compliance_policy</text>
<text text-anchor="start" x="288.0219" y="-371.8" font-family="Helvetica,sans-Serif" font-size="11.00" fill="#000000">[table]</text>
<polygon fill="none" stroke="#000000" points="165.5,-341.7 165.5,-363.7 322.5,-363.7 322.5,-341.7 165.5,-341.7"/>
<image xlink:href="../../images/primaryKeys.png" width="11px" height="12px" preserveAspectRatio="xMinYMin meet" x="170.5" y="-358.7"/>
<text text-anchor="start" x="186.5" y="-348.8" font-family="Helvetica,sans-Serif" font-size="11.00" fill="#000000">id</text>
<polygon fill="#ffffff" stroke="transparent" points="165.5,-319.7 165.5,-341.7 322.5,-341.7 322.5,-319.7 165.5,-319.7"/>
<polygon fill="none" stroke="#000000" points="165.5,-319.7 165.5,-341.7 322.5,-341.7 322.5,-319.7 165.5,-319.7"/>
<text text-anchor="start" x="186.5" y="-326.8" font-family="Helvetica,sans-Serif" font-size="11.00" fill="#000000">name</text>
<polygon fill="#ffffff" stroke="transparent" points="165.5,-297.7 165.5,-319.7 322.5,-319.7 322.5,-297.7 165.5,-297.7"/>
<polygon fill="none" stroke="#000000" points="165.5,-297.7 165.5,-319.7 322.5,-319.7 322.5,-297.7 165.5,-297.7"/>
<image xlink:href="../../images/foreignKeys.png" width="11px" height="12px" preserveAspectRatio="xMinYMin meet" x="170.5" y="-314.7"/>
<text text-anchor="start" x="186.5" y="-304.8" font-family="Helvetica,sans-Serif" font-size="11.00" fill="#000000">organizations_id</text>
<polygon fill="none" stroke="#000000" points="165.5,-278.7 165.5,-297.7 322.5,-297.7 322.5,-278.7 165.5,-278.7"/>
<text text-anchor="start" x="168.5" y="-284.8" font-family="Helvetica,sans-Serif" font-size="11.00" fill="#000000">...</text>
<polygon fill="#ffffff" stroke="transparent" points="165.5,-259.7 165.5,-278.7 221.5,-278.7 221.5,-259.7 165.5,-259.7"/>
<polygon fill="none" stroke="#000000" points="165.5,-259.7 165.5,-278.7 221.5,-278.7 221.5,-259.7 165.5,-259.7"/>
<text text-anchor="start" x="168.5" y="-265.8" font-family="Helvetica,sans-Serif" font-size="11.00" fill="#000000">&lt; 1</text>
<polygon fill="#ffffff" stroke="transparent" points="221.5,-259.7 221.5,-278.7 283.5,-278.7 283.5,-259.7 221.5,-259.7"/>
<polygon fill="none" stroke="#000000" points="221.5,-259.7 221.5,-278.7 283.5,-278.7 283.5,-259.7 221.5,-259.7"/>
<text text-anchor="start" x="241.9956" y="-265.8" font-family="Helvetica,sans-Serif" font-size="11.00" fill="#000000">21 rows</text>
<polygon fill="#ffffff" stroke="transparent" points="283.5,-259.7 283.5,-278.7 322.5,-278.7 322.5,-259.7 283.5,-259.7"/>
<polygon fill="none" stroke="#000000" points="283.5,-259.7 283.5,-278.7 322.5,-278.7 322.5,-259.7 283.5,-259.7"/>
<text text-anchor="start" x="303.9053" y="-265.8" font-family="Helvetica,sans-Serif" font-size="11.00" fill="#000000">7 &gt;</text>
</a>
</g>
</g>
<!-- organizations -->
<g id="node2" class="node">
<title>organizations</title>
<g id="a_node2"><a xlink:href="../../tables/organizations.html" xlink:title="organizations" target="_top">
<polygon fill="#ffffff" stroke="transparent" points="8,-386.2 8,-447.2 116,-447.2 116,-386.2 8,-386.2"/>
<polygon fill="#f5f5f5" stroke="transparent" points="8,-423.7 8,-446.7 116,-446.7 116,-423.7 8,-423.7"/>
<polygon fill="none" stroke="#000000" points="8,-423.7 8,-446.7 116,-446.7 116,-423.7 8,-423.7"/>
<text text-anchor="start" x="12.7976" y="-432.8" font-family="Helvetica,sans-Serif" font-weight="bold" font-size="11.00" fill="#000000">organizations</text>
<text text-anchor="start" x="81.5219" y="-431.8" font-family="Helvetica,sans-Serif" font-size="11.00" fill="#000000">[table]</text>
<polygon fill="none" stroke="#000000" points="8,-404.7 8,-423.7 116,-423.7 116,-404.7 8,-404.7"/>
<text text-anchor="start" x="11" y="-410.8" font-family="Helvetica,sans-Serif" font-size="11.00" fill="#000000">...</text>
<polygon fill="#ffffff" stroke="transparent" points="8,-385.7 8,-404.7 40,-404.7 40,-385.7 8,-385.7"/>
<polygon fill="none" stroke="#000000" points="8,-385.7 8,-404.7 40,-404.7 40,-385.7 8,-385.7"/>
<text text-anchor="start" x="11" y="-391.8" font-family="Helvetica,sans-Serif" font-size="11.00" fill="#000000">&lt; 4</text>
<polygon fill="#ffffff" stroke="transparent" points="40,-385.7 40,-404.7 83,-404.7 83,-385.7 40,-385.7"/>
<polygon fill="none" stroke="#000000" points="40,-385.7 40,-404.7 83,-404.7 83,-385.7 40,-385.7"/>
<text text-anchor="start" x="47.6105" y="-391.8" font-family="Helvetica,sans-Serif" font-size="11.00" fill="#000000">3 rows</text>
<polygon fill="#ffffff" stroke="transparent" points="83,-385.7 83,-404.7 116,-404.7 116,-385.7 83,-385.7"/>
<polygon fill="none" stroke="#000000" points="83,-385.7 83,-404.7 116,-404.7 116,-385.7 83,-385.7"/>
<text text-anchor="start" x="91.2904" y="-391.8" font-family="Helvetica,sans-Serif" font-size="11.00" fill="#000000">81 &gt;</text>
</a>
</g>
</g>
<!-- app_compliance_policy&#45;&gt;organizations -->
<g id="edge1" class="edge">
<title>app_compliance_policy:w&#45;&gt;organizations:e</title>
<path fill="none" stroke="#000000" d="M151.3605,-312.6879C125.0442,-331.8674 161.5464,-413.7 116,-413.7"/>
<polygon fill="#000000" stroke="#000000" points="157.8004,-310.8716 166.4772,-312.1648 161.6502,-309.7858 165.5,-308.7 165.5,-308.7 165.5,-308.7 161.6502,-309.7858 164.5228,-305.2352 157.8004,-310.8716 157.8004,-310.8716"/>
<ellipse fill="none" stroke="#000000" cx="154.7205" cy="-311.7403" rx="3.2" ry="3.2"/>
</g>
<!-- app_compliance_policy_application_importance -->
<g id="node3" class="node">
<title>app_compliance_policy_application_importance</title>
<g id="a_node3"><a xlink:href="../../tables/app_compliance_policy_application_importance.html" xlink:title="app_compliance_policy_application_importance" target="_top">
<polygon fill="#ffffff" stroke="transparent" points="371,-448.7 371,-538.7 755,-538.7 755,-448.7 371,-448.7"/>
<polygon fill="#f5f5f5" stroke="transparent" points="373,-513.7 373,-536.7 753,-536.7 753,-513.7 373,-513.7"/>
<polygon fill="none" stroke="#000000" points="373,-513.7 373,-536.7 753,-536.7 753,-513.7 373,-513.7"/>
<text text-anchor="start" x="378" y="-522.8" font-family="Helvetica,sans-Serif" font-weight="bold" font-size="11.00" fill="#000000">app_compliance_policy_application_importance</text>
<text text-anchor="start" x="718.0437" y="-521.8" font-family="Helvetica,sans-Serif" font-size="11.00" fill="#000000">[table]</text>
<polygon fill="none" stroke="#000000" points="373,-491.7 373,-513.7 670,-513.7 670,-491.7 373,-491.7"/>
<image xlink:href="../../images/primaryKeys.png" width="11px" height="12px" preserveAspectRatio="xMinYMin meet" x="378" y="-508.7"/>
<text text-anchor="start" x="393" y="-498.8" font-family="Helvetica,sans-Serif" font-size="11.00" fill="#000000">app_compliance_policy_id</text>
<polygon fill="none" stroke="#000000" points="670,-491.7 670,-513.7 753,-513.7 753,-491.7 670,-491.7"/>
<text text-anchor="start" x="672.6783" y="-499.4" font-family="Helvetica,sans-Serif" font-size="11.00" fill="#000000">int unsigned[10]</text>
<polygon fill="none" stroke="#000000" points="373,-469.7 373,-491.7 670,-491.7 670,-469.7 373,-469.7"/>
<image xlink:href="../../images/primaryKeys.png" width="11px" height="12px" preserveAspectRatio="xMinYMin meet" x="378" y="-486.7"/>
<text text-anchor="start" x="393" y="-476.8" font-family="Helvetica,sans-Serif" font-size="11.00" fill="#000000">application_importance</text>
<polygon fill="none" stroke="#000000" points="670,-469.7 670,-491.7 753,-491.7 753,-469.7 670,-469.7"/>
<text text-anchor="start" x="673" y="-477.4" font-family="Helvetica,sans-Serif" font-size="11.00" fill="#000000">varchar[50]</text>
<polygon fill="#ffffff" stroke="transparent" points="373,-450.7 373,-469.7 513,-469.7 513,-450.7 373,-450.7"/>
<polygon fill="none" stroke="#000000" points="373,-450.7 373,-469.7 513,-469.7 513,-450.7 373,-450.7"/>
<text text-anchor="start" x="376" y="-456.8" font-family="Helvetica,sans-Serif" font-size="11.00" fill="#000000">&lt; 1</text>
<polygon fill="#ffffff" stroke="transparent" points="513,-450.7 513,-469.7 670,-469.7 670,-450.7 513,-450.7"/>
<polygon fill="none" stroke="#000000" points="513,-450.7 513,-469.7 670,-469.7 670,-450.7 513,-450.7"/>
<text text-anchor="start" x="634.6105" y="-456.8" font-family="Helvetica,sans-Serif" font-size="11.00" fill="#000000">0 rows</text>
<polygon fill="#ffffff" stroke="transparent" points="670,-450.7 670,-469.7 753,-469.7 753,-450.7 670,-450.7"/>
<polygon fill="none" stroke="#000000" points="670,-450.7 670,-469.7 753,-469.7 753,-450.7 670,-450.7"/>
<text text-anchor="start" x="734.4053" y="-456.8" font-family="Helvetica,sans-Serif" font-size="11.00" fill="#000000">0 &gt;</text>
<polygon fill="none" stroke="#000000" stroke-width="2" points="372,-449.7 372,-537.7 754,-537.7 754,-449.7 372,-449.7"/>
</a>
</g>
</g>
<!-- app_compliance_policy_application_importance&#45;&gt;app_compliance_policy -->
<g id="edge2" class="edge">
<title>app_compliance_policy_application_importance:w&#45;&gt;app_compliance_policy:e</title>
<path fill="none" stroke="#000000" d="M358.7524,-499.8375C316.3726,-479.1 387.0731,-352.7 322.5,-352.7"/>
<polygon fill="#000000" stroke="#000000" points="365.1567,-501.1242 372.2909,-506.2295 369.0784,-501.9121 373,-502.7 373,-502.7 373,-502.7 369.0784,-501.9121 373.7091,-499.1705 365.1567,-501.1242 365.1567,-501.1242"/>
<ellipse fill="none" stroke="#000000" cx="362.0194" cy="-500.4938" rx="3.2" ry="3.2"/>
</g>
<!-- app_compliance_policy_applications -->
<g id="node4" class="node">
<title>app_compliance_policy_applications</title>
<g id="a_node4"><a xlink:href="../../tables/app_compliance_policy_applications.html" xlink:title="app_compliance_policy_applications" target="_top">
<polygon fill="#ffffff" stroke="transparent" points="452.5,-366.2 452.5,-427.2 673.5,-427.2 673.5,-366.2 452.5,-366.2"/>
<polygon fill="#f5f5f5" stroke="transparent" points="453,-403.7 453,-426.7 674,-426.7 674,-403.7 453,-403.7"/>
<polygon fill="none" stroke="#000000" points="453,-403.7 453,-426.7 674,-426.7 674,-403.7 453,-403.7"/>
<text text-anchor="start" x="457.7559" y="-412.8" font-family="Helvetica,sans-Serif" font-weight="bold" font-size="11.00" fill="#000000">app_compliance_policy_applications</text>
<text text-anchor="start" x="639.5219" y="-411.8" font-family="Helvetica,sans-Serif" font-size="11.00" fill="#000000">[table]</text>
<polygon fill="none" stroke="#000000" points="453,-384.7 453,-403.7 674,-403.7 674,-384.7 453,-384.7"/>
<text text-anchor="start" x="456" y="-390.8" font-family="Helvetica,sans-Serif" font-size="11.00" fill="#000000">...</text>
<polygon fill="#ffffff" stroke="transparent" points="453,-365.7 453,-384.7 549,-384.7 549,-365.7 453,-365.7"/>
<polygon fill="none" stroke="#000000" points="453,-365.7 453,-384.7 549,-384.7 549,-365.7 453,-365.7"/>
<text text-anchor="start" x="456" y="-371.8" font-family="Helvetica,sans-Serif" font-size="11.00" fill="#000000">&lt; 2</text>
<polygon fill="#ffffff" stroke="transparent" points="549,-365.7 549,-384.7 624,-384.7 624,-365.7 549,-365.7"/>
<polygon fill="none" stroke="#000000" points="549,-365.7 549,-384.7 624,-384.7 624,-365.7 549,-365.7"/>
<text text-anchor="start" x="588.6105" y="-371.8" font-family="Helvetica,sans-Serif" font-size="11.00" fill="#000000">0 rows</text>
<polygon fill="#ffffff" stroke="transparent" points="624,-365.7 624,-384.7 674,-384.7 674,-365.7 624,-365.7"/>
<polygon fill="none" stroke="#000000" points="624,-365.7 624,-384.7 674,-384.7 674,-365.7 624,-365.7"/>
<text text-anchor="start" x="664.8862" y="-371.8" font-family="Helvetica,sans-Serif" font-size="11.00" fill="#000000"> &#160;</text>
</a>
</g>
</g>
<!-- app_compliance_policy_applications&#45;&gt;app_compliance_policy -->
<g id="edge3" class="edge">
<title>app_compliance_policy_applications:w&#45;&gt;app_compliance_policy:e</title>
<path fill="none" stroke="#000000" d="M438.41,-392.8437C390.2903,-386.9559 378.0706,-352.7 322.5,-352.7"/>
<polygon fill="#000000" stroke="#000000" points="445.0137,-393.2312 452.789,-397.2938 449.0069,-393.4656 453,-393.7 453,-393.7 453,-393.7 449.0069,-393.4656 453.211,-390.1062 445.0137,-393.2312 445.0137,-393.2312"/>
<ellipse fill="none" stroke="#000000" cx="441.8192" cy="-393.0437" rx="3.2" ry="3.2"/>
</g>
<!-- app_compliance_policy_rule_severity -->
<g id="node5" class="node">
<title>app_compliance_policy_rule_severity</title>
<g id="a_node5"><a xlink:href="../../tables/app_compliance_policy_rule_severity.html" xlink:title="app_compliance_policy_rule_severity" target="_top">
<polygon fill="#ffffff" stroke="transparent" points="450.5,-284.2 450.5,-345.2 675.5,-345.2 675.5,-284.2 450.5,-284.2"/>
<polygon fill="#f5f5f5" stroke="transparent" points="451,-321.7 451,-344.7 676,-344.7 676,-321.7 451,-321.7"/>
<polygon fill="none" stroke="#000000" points="451,-321.7 451,-344.7 676,-344.7 676,-321.7 451,-321.7"/>
<text text-anchor="start" x="455.6219" y="-330.8" font-family="Helvetica,sans-Serif" font-weight="bold" font-size="11.00" fill="#000000">app_compliance_policy_rule_severity</text>
<text text-anchor="start" x="641.5219" y="-329.8" font-family="Helvetica,sans-Serif" font-size="11.00" fill="#000000">[table]</text>
<polygon fill="none" stroke="#000000" points="451,-302.7 451,-321.7 676,-321.7 676,-302.7 451,-302.7"/>
<text text-anchor="start" x="454" y="-308.8" font-family="Helvetica,sans-Serif" font-size="11.00" fill="#000000">...</text>
<polygon fill="#ffffff" stroke="transparent" points="451,-283.7 451,-302.7 549,-302.7 549,-283.7 451,-283.7"/>
<polygon fill="none" stroke="#000000" points="451,-283.7 451,-302.7 549,-302.7 549,-283.7 451,-283.7"/>
<text text-anchor="start" x="454" y="-289.8" font-family="Helvetica,sans-Serif" font-size="11.00" fill="#000000">&lt; 1</text>
<polygon fill="#ffffff" stroke="transparent" points="549,-283.7 549,-302.7 625,-302.7 625,-283.7 549,-283.7"/>
<polygon fill="none" stroke="#000000" points="549,-283.7 549,-302.7 625,-302.7 625,-283.7 549,-283.7"/>
<text text-anchor="start" x="589.6105" y="-289.8" font-family="Helvetica,sans-Serif" font-size="11.00" fill="#000000">0 rows</text>
<polygon fill="#ffffff" stroke="transparent" points="625,-283.7 625,-302.7 676,-302.7 676,-283.7 625,-283.7"/>
<polygon fill="none" stroke="#000000" points="625,-283.7 625,-302.7 676,-302.7 676,-283.7 625,-283.7"/>
<text text-anchor="start" x="666.8862" y="-289.8" font-family="Helvetica,sans-Serif" font-size="11.00" fill="#000000"> &#160;</text>
</a>
</g>
</g>
<!-- app_compliance_policy_rule_severity&#45;&gt;app_compliance_policy -->
<g id="edge4" class="edge">
<title>app_compliance_policy_rule_severity:w&#45;&gt;app_compliance_policy:e</title>
<path fill="none" stroke="#000000" d="M436.6171,-312.5563C389.1942,-318.4441 377.296,-352.7 322.5,-352.7"/>
<polygon fill="#000000" stroke="#000000" points="443.0141,-312.1755 451.214,-315.2936 447.0071,-311.9378 451,-311.7 451,-311.7 451,-311.7 447.0071,-311.9378 450.786,-308.1064 443.0141,-312.1755 443.0141,-312.1755"/>
<ellipse fill="none" stroke="#000000" cx="439.8198" cy="-312.3657" rx="3.2" ry="3.2"/>
</g>
<!-- app_compliance_policy_rules -->
<g id="node6" class="node">
<title>app_compliance_policy_rules</title>
<g id="a_node6"><a xlink:href="../../tables/app_compliance_policy_rules.html" xlink:title="app_compliance_policy_rules" target="_top">
<polygon fill="#ffffff" stroke="transparent" points="469.5,-202.2 469.5,-263.2 656.5,-263.2 656.5,-202.2 469.5,-202.2"/>
<polygon fill="#f5f5f5" stroke="transparent" points="470,-239.7 470,-262.7 657,-262.7 657,-239.7 470,-239.7"/>
<polygon fill="none" stroke="#000000" points="470,-239.7 470,-262.7 657,-262.7 657,-239.7 470,-239.7"/>
<text text-anchor="start" x="474.8741" y="-248.8" font-family="Helvetica,sans-Serif" font-weight="bold" font-size="11.00" fill="#000000">app_compliance_policy_rules</text>
<text text-anchor="start" x="622.5219" y="-247.8" font-family="Helvetica,sans-Serif" font-size="11.00" fill="#000000">[table]</text>
<polygon fill="none" stroke="#000000" points="470,-220.7 470,-239.7 657,-239.7 657,-220.7 470,-220.7"/>
<text text-anchor="start" x="473" y="-226.8" font-family="Helvetica,sans-Serif" font-size="11.00" fill="#000000">...</text>
<polygon fill="#ffffff" stroke="transparent" points="470,-201.7 470,-220.7 538,-220.7 538,-201.7 470,-201.7"/>
<polygon fill="none" stroke="#000000" points="470,-201.7 470,-220.7 538,-220.7 538,-201.7 470,-201.7"/>
<text text-anchor="start" x="473" y="-207.8" font-family="Helvetica,sans-Serif" font-size="11.00" fill="#000000">&lt; 2</text>
<polygon fill="#ffffff" stroke="transparent" points="538,-201.7 538,-220.7 621,-220.7 621,-201.7 538,-201.7"/>
<polygon fill="none" stroke="#000000" points="538,-201.7 538,-220.7 621,-220.7 621,-201.7 538,-201.7"/>
<text text-anchor="start" x="564.2089" y="-207.8" font-family="Helvetica,sans-Serif" font-size="11.00" fill="#000000">1,005 rows</text>
<polygon fill="#ffffff" stroke="transparent" points="621,-201.7 621,-220.7 657,-220.7 657,-201.7 621,-201.7"/>
<polygon fill="none" stroke="#000000" points="621,-201.7 621,-220.7 657,-220.7 657,-201.7 621,-201.7"/>
<text text-anchor="start" x="647.8862" y="-207.8" font-family="Helvetica,sans-Serif" font-size="11.00" fill="#000000"> &#160;</text>
</a>
</g>
</g>
<!-- app_compliance_policy_rules&#45;&gt;app_compliance_policy -->
<g id="edge5" class="edge">
<title>app_compliance_policy_rules:w&#45;&gt;app_compliance_policy:e</title>
<path fill="none" stroke="#000000" d="M455.584,-229.9898C414.8481,-231.7854 397.0765,-242.3591 363,-273.7 333.959,-300.4097 361.9562,-352.7 322.5,-352.7"/>
<polygon fill="#000000" stroke="#000000" points="462.0016,-229.8609 470.0724,-233.2993 466.0008,-229.7804 470,-229.7 470,-229.7 470,-229.7 466.0008,-229.7804 469.9276,-226.1007 462.0016,-229.8609 462.0016,-229.8609"/>
<ellipse fill="none" stroke="#000000" cx="458.8023" cy="-229.9252" rx="3.2" ry="3.2"/>
</g>
<!-- app_compliance_policy_security_standards -->
<g id="node7" class="node">
<title>app_compliance_policy_security_standards</title>
<g id="a_node7"><a xlink:href="../../tables/app_compliance_policy_security_standards.html" xlink:title="app_compliance_policy_security_standards" target="_top">
<polygon fill="#ffffff" stroke="transparent" points="435.5,-120.2 435.5,-181.2 690.5,-181.2 690.5,-120.2 435.5,-120.2"/>
<polygon fill="#f5f5f5" stroke="transparent" points="436,-157.7 436,-180.7 691,-180.7 691,-157.7 436,-157.7"/>
<polygon fill="none" stroke="#000000" points="436,-157.7 436,-180.7 691,-180.7 691,-157.7 436,-157.7"/>
<text text-anchor="start" x="440.6416" y="-166.8" font-family="Helvetica,sans-Serif" font-weight="bold" font-size="11.00" fill="#000000">app_compliance_policy_security_standards</text>
<text text-anchor="start" x="656.5219" y="-165.8" font-family="Helvetica,sans-Serif" font-size="11.00" fill="#000000">[table]</text>
<polygon fill="none" stroke="#000000" points="436,-138.7 436,-157.7 691,-157.7 691,-138.7 436,-138.7"/>
<text text-anchor="start" x="439" y="-144.8" font-family="Helvetica,sans-Serif" font-size="11.00" fill="#000000">...</text>
<polygon fill="#ffffff" stroke="transparent" points="436,-119.7 436,-138.7 549,-138.7 549,-119.7 436,-119.7"/>
<polygon fill="none" stroke="#000000" points="436,-119.7 436,-138.7 549,-138.7 549,-119.7 436,-119.7"/>
<text text-anchor="start" x="439" y="-125.8" font-family="Helvetica,sans-Serif" font-size="11.00" fill="#000000">&lt; 2</text>
<polygon fill="#ffffff" stroke="transparent" points="549,-119.7 549,-138.7 633,-138.7 633,-119.7 549,-119.7"/>
<polygon fill="none" stroke="#000000" points="549,-119.7 549,-138.7 633,-138.7 633,-119.7 549,-119.7"/>
<text text-anchor="start" x="597.6105" y="-125.8" font-family="Helvetica,sans-Serif" font-size="11.00" fill="#000000">0 rows</text>
<polygon fill="#ffffff" stroke="transparent" points="633,-119.7 633,-138.7 691,-138.7 691,-119.7 633,-119.7"/>
<polygon fill="none" stroke="#000000" points="633,-119.7 633,-138.7 691,-138.7 691,-119.7 633,-119.7"/>
<text text-anchor="start" x="681.8862" y="-125.8" font-family="Helvetica,sans-Serif" font-size="11.00" fill="#000000"> &#160;</text>
</a>
</g>
</g>
<!-- app_compliance_policy_security_standards&#45;&gt;app_compliance_policy -->
<g id="edge6" class="edge">
<title>app_compliance_policy_security_standards:w&#45;&gt;app_compliance_policy:e</title>
<path fill="none" stroke="#000000" d="M421.4218,-148.5135C394.3843,-151.8466 382.3738,-165.5373 363,-191.7 319.0899,-250.9968 396.2848,-352.7 322.5,-352.7"/>
<polygon fill="#000000" stroke="#000000" points="428.0124,-148.1458 436.2006,-151.2944 432.0062,-147.9229 436,-147.7 436,-147.7 436,-147.7 432.0062,-147.9229 435.7994,-144.1056 428.0124,-148.1458 428.0124,-148.1458"/>
<ellipse fill="none" stroke="#000000" cx="424.8174" cy="-148.3241" rx="3.2" ry="3.2"/>
</g>
<!-- notifications_messages -->
<g id="node8" class="node">
<title>notifications_messages</title>
<g id="a_node8"><a xlink:href="../../tables/notifications_messages.html" xlink:title="notifications_messages" target="_top">
<polygon fill="#ffffff" stroke="transparent" points="484.5,-560.2 484.5,-621.2 641.5,-621.2 641.5,-560.2 484.5,-560.2"/>
<polygon fill="#f5f5f5" stroke="transparent" points="485,-597.7 485,-620.7 642,-620.7 642,-597.7 485,-597.7"/>
<polygon fill="none" stroke="#000000" points="485,-597.7 485,-620.7 642,-620.7 642,-597.7 485,-597.7"/>
<text text-anchor="start" x="489.8479" y="-606.8" font-family="Helvetica,sans-Serif" font-weight="bold" font-size="11.00" fill="#000000">notifications_messages</text>
<text text-anchor="start" x="607.5219" y="-605.8" font-family="Helvetica,sans-Serif" font-size="11.00" fill="#000000">[table]</text>
<polygon fill="none" stroke="#000000" points="485,-578.7 485,-597.7 642,-597.7 642,-578.7 485,-578.7"/>
<text text-anchor="start" x="488" y="-584.8" font-family="Helvetica,sans-Serif" font-size="11.00" fill="#000000">...</text>
<polygon fill="#ffffff" stroke="transparent" points="485,-559.7 485,-578.7 544,-578.7 544,-559.7 485,-559.7"/>
<polygon fill="none" stroke="#000000" points="485,-559.7 485,-578.7 544,-578.7 544,-559.7 485,-559.7"/>
<text text-anchor="start" x="488" y="-565.8" font-family="Helvetica,sans-Serif" font-size="11.00" fill="#000000">&lt; 9</text>
<polygon fill="#ffffff" stroke="transparent" points="544,-559.7 544,-578.7 601,-578.7 601,-559.7 544,-559.7"/>
<polygon fill="none" stroke="#000000" points="544,-559.7 544,-578.7 601,-578.7 601,-559.7 544,-559.7"/>
<text text-anchor="start" x="565.6105" y="-565.8" font-family="Helvetica,sans-Serif" font-size="11.00" fill="#000000">0 rows</text>
<polygon fill="#ffffff" stroke="transparent" points="601,-559.7 601,-578.7 642,-578.7 642,-559.7 601,-559.7"/>
<polygon fill="none" stroke="#000000" points="601,-559.7 601,-578.7 642,-578.7 642,-559.7 601,-559.7"/>
<text text-anchor="start" x="623.4053" y="-565.8" font-family="Helvetica,sans-Serif" font-size="11.00" fill="#000000">4 &gt;</text>
</a>
</g>
</g>
<!-- notifications_messages&#45;&gt;app_compliance_policy -->
<g id="edge7" class="edge">
<title>notifications_messages:w&#45;&gt;app_compliance_policy:e</title>
<path fill="none" stroke="#000000" d="M470.3826,-587.7628C423.2515,-588.0637 397.6929,-588.0168 363,-549.7 303.0053,-483.4383 411.8867,-352.7 322.5,-352.7"/>
<polygon fill="#000000" stroke="#000000" points="477.0001,-587.7344 485.0155,-591.3 481,-587.7172 485,-587.7 485,-587.7 485,-587.7 481,-587.7172 484.9845,-584.1 477.0001,-587.7344 477.0001,-587.7344"/>
<ellipse fill="none" stroke="#000000" cx="473.8001" cy="-587.7482" rx="3.2" ry="3.2"/>
</g>
<!-- notifications_messages&#45;&gt;organizations -->
<g id="edge8" class="edge">
<title>notifications_messages:w&#45;&gt;organizations:e</title>
<path fill="none" stroke="#000000" d="M470.5115,-587.3168C303.2026,-578.3145 292.3607,-413.7 116,-413.7"/>
<polygon fill="#000000" stroke="#000000" points="477.0028,-587.4884 484.9048,-591.2987 481.0014,-587.5942 485,-587.7 485,-587.7 485,-587.7 481.0014,-587.5942 485.0952,-584.1013 477.0028,-587.4884 477.0028,-587.4884"/>
<ellipse fill="none" stroke="#000000" cx="473.8039" cy="-587.4038" rx="3.2" ry="3.2"/>
</g>
<!-- notifications_user_app_compliance_policy -->
<g id="node9" class="node">
<title>notifications_user_app_compliance_policy</title>
<g id="a_node9"><a xlink:href="../../tables/notifications_user_app_compliance_policy.html" xlink:title="notifications_user_app_compliance_policy" target="_top">
<polygon fill="#ffffff" stroke="transparent" points="439,-38.2 439,-99.2 687,-99.2 687,-38.2 439,-38.2"/>
<polygon fill="#f5f5f5" stroke="transparent" points="439,-75.7 439,-98.7 687,-98.7 687,-75.7 439,-75.7"/>
<polygon fill="none" stroke="#000000" points="439,-75.7 439,-98.7 687,-98.7 687,-75.7 439,-75.7"/>
<text text-anchor="start" x="443.5032" y="-84.8" font-family="Helvetica,sans-Serif" font-weight="bold" font-size="11.00" fill="#000000">notifications_user_app_compliance_policy</text>
<text text-anchor="start" x="652.5219" y="-83.8" font-family="Helvetica,sans-Serif" font-size="11.00" fill="#000000">[table]</text>
<polygon fill="none" stroke="#000000" points="439,-56.7 439,-75.7 687,-75.7 687,-56.7 439,-56.7"/>
<text text-anchor="start" x="442" y="-62.8" font-family="Helvetica,sans-Serif" font-size="11.00" fill="#000000">...</text>
<polygon fill="#ffffff" stroke="transparent" points="439,-37.7 439,-56.7 548,-56.7 548,-37.7 439,-37.7"/>
<polygon fill="none" stroke="#000000" points="439,-37.7 439,-56.7 548,-56.7 548,-37.7 439,-37.7"/>
<text text-anchor="start" x="442" y="-43.8" font-family="Helvetica,sans-Serif" font-size="11.00" fill="#000000">&lt; 2</text>
<polygon fill="#ffffff" stroke="transparent" points="548,-37.7 548,-56.7 630,-56.7 630,-37.7 548,-37.7"/>
<polygon fill="none" stroke="#000000" points="548,-37.7 548,-56.7 630,-56.7 630,-37.7 548,-37.7"/>
<text text-anchor="start" x="594.6105" y="-43.8" font-family="Helvetica,sans-Serif" font-size="11.00" fill="#000000">0 rows</text>
<polygon fill="#ffffff" stroke="transparent" points="630,-37.7 630,-56.7 687,-56.7 687,-37.7 630,-37.7"/>
<polygon fill="none" stroke="#000000" points="630,-37.7 630,-56.7 687,-56.7 687,-37.7 630,-37.7"/>
<text text-anchor="start" x="677.8862" y="-43.8" font-family="Helvetica,sans-Serif" font-size="11.00" fill="#000000"> &#160;</text>
</a>
</g>
</g>
<!-- notifications_user_app_compliance_policy&#45;&gt;app_compliance_policy -->
<g id="edge9" class="edge">
<title>notifications_user_app_compliance_policy:w&#45;&gt;app_compliance_policy:e</title>
<path fill="none" stroke="#000000" d="M424.2718,-66.389C395.7964,-69.3339 382.1798,-81.9976 363,-109.7 331.8373,-154.7099 377.2449,-352.7 322.5,-352.7"/>
<polygon fill="#000000" stroke="#000000" points="431.0087,-66.0739 439.1683,-69.2961 435.0044,-65.8869 439,-65.7 439,-65.7 439,-65.7 435.0044,-65.8869 438.8317,-62.1039 431.0087,-66.0739 431.0087,-66.0739"/>
<ellipse fill="none" stroke="#000000" cx="427.8122" cy="-66.2235" rx="3.2" ry="3.2"/>
</g>
</g>
</svg>
