<?xml version="1.0" encoding="UTF-8" standalone="no"?>
<!DOCTYPE svg PUBLIC "-//W3C//DTD SVG 1.1//EN"
 "http://www.w3.org/Graphics/SVG/1.1/DTD/svg11.dtd">
<!-- Generated by graphviz version 2.40.1 (20161225.0304)
 -->
<!-- Title: oneDegreeRelationshipsDiagram Pages: 1 -->
<svg width="508pt" height="303pt"
 viewBox="0.00 0.00 508.00 303.20" xmlns="http://www.w3.org/2000/svg" xmlns:xlink="http://www.w3.org/1999/xlink">
<g id="graph0" class="graph" transform="scale(1 1) rotate(0) translate(4 299.2)">
<title>oneDegreeRelationshipsDiagram</title>
<polygon fill="#ffffff" stroke="transparent" points="-4,4 -4,-299.2 504,-299.2 504,4 -4,4"/>
<text text-anchor="middle" x="72.4936" y="-7.3" font-family="Helvetica,sans-Serif" font-size="11.00" fill="#000000">Generated by SchemaSpy</text>
<!-- app_compliance_policy_rules -->
<g id="node1" class="node">
<title>app_compliance_policy_rules</title>
<g id="a_node1"><a xlink:href="../../tables/app_compliance_policy_rules.html" xlink:title="app_compliance_policy_rules" target="_top">
<polygon fill="#ffffff" stroke="transparent" points="214,-139.7 214,-229.7 492,-229.7 492,-139.7 214,-139.7"/>
<polygon fill="#f5f5f5" stroke="transparent" points="216,-204.7 216,-227.7 490,-227.7 490,-204.7 216,-204.7"/>
<polygon fill="none" stroke="#000000" points="216,-204.7 216,-227.7 490,-227.7 490,-204.7 216,-204.7"/>
<text text-anchor="start" x="221" y="-213.8" font-family="Helvetica,sans-Serif" font-weight="bold" font-size="11.00" fill="#000000">app_compliance_policy_rules</text>
<text text-anchor="start" x="455.0437" y="-212.8" font-family="Helvetica,sans-Serif" font-size="11.00" fill="#000000">[table]</text>
<polygon fill="none" stroke="#000000" points="216,-182.7 216,-204.7 407,-204.7 407,-182.7 216,-182.7"/>
<image xlink:href="../../images/primaryKeys.png" width="11px" height="12px" preserveAspectRatio="xMinYMin meet" x="221" y="-199.7"/>
<text text-anchor="start" x="236" y="-189.8" font-family="Helvetica,sans-Serif" font-size="11.00" fill="#000000">app_compliance_policy_id</text>
<polygon fill="none" stroke="#000000" points="407,-182.7 407,-204.7 490,-204.7 490,-182.7 407,-182.7"/>
<text text-anchor="start" x="409.6783" y="-190.4" font-family="Helvetica,sans-Serif" font-size="11.00" fill="#000000">int unsigned[10]</text>
<polygon fill="none" stroke="#000000" points="216,-160.7 216,-182.7 407,-182.7 407,-160.7 216,-160.7"/>
<image xlink:href="../../images/primaryKeys.png" width="11px" height="12px" preserveAspectRatio="xMinYMin meet" x="221" y="-177.7"/>
<text text-anchor="start" x="236" y="-167.8" font-family="Helvetica,sans-Serif" font-size="11.00" fill="#000000">rules_id</text>
<polygon fill="none" stroke="#000000" points="407,-160.7 407,-182.7 490,-182.7 490,-160.7 407,-160.7"/>
<text text-anchor="start" x="410" y="-168.4" font-family="Helvetica,sans-Serif" font-size="11.00" fill="#000000">varchar[255]</text>
<polygon fill="#ffffff" stroke="transparent" points="216,-141.7 216,-160.7 292,-160.7 292,-141.7 216,-141.7"/>
<polygon fill="none" stroke="#000000" points="216,-141.7 216,-160.7 292,-160.7 292,-141.7 216,-141.7"/>
<text text-anchor="start" x="219" y="-147.8" font-family="Helvetica,sans-Serif" font-size="11.00" fill="#000000">&lt; 2</text>
<polygon fill="#ffffff" stroke="transparent" points="292,-141.7 292,-160.7 407,-160.7 407,-141.7 292,-141.7"/>
<polygon fill="none" stroke="#000000" points="292,-141.7 292,-160.7 407,-160.7 407,-141.7 292,-141.7"/>
<text text-anchor="start" x="350.2089" y="-147.8" font-family="Helvetica,sans-Serif" font-size="11.00" fill="#000000">1,005 rows</text>
<polygon fill="#ffffff" stroke="transparent" points="407,-141.7 407,-160.7 490,-160.7 490,-141.7 407,-141.7"/>
<polygon fill="none" stroke="#000000" points="407,-141.7 407,-160.7 490,-160.7 490,-141.7 407,-141.7"/>
<text text-anchor="start" x="471.4053" y="-147.8" font-family="Helvetica,sans-Serif" font-size="11.00" fill="#000000">0 &gt;</text>
<polygon fill="none" stroke="#000000" stroke-width="2" points="215,-140.7 215,-228.7 491,-228.7 491,-140.7 215,-140.7"/>
</a>
</g>
</g>
<!-- app_compliance_policy -->
<g id="node2" class="node">
<title>app_compliance_policy</title>
<g id="a_node2"><a xlink:href="../../tables/app_compliance_policy.html" xlink:title="app_compliance_policy" target="_top">
<polygon fill="#ffffff" stroke="transparent" points="8,-164.2 8,-291.2 165,-291.2 165,-164.2 8,-164.2"/>
<polygon fill="#f5f5f5" stroke="transparent" points="8.5,-267.7 8.5,-290.7 165.5,-290.7 165.5,-267.7 8.5,-267.7"/>
<polygon fill="none" stroke="#000000" points="8.5,-267.7 8.5,-290.7 165.5,-290.7 165.5,-267.7 8.5,-267.7"/>
<text text-anchor="start" x="13.3479" y="-276.8" font-family="Helvetica,sans-Serif" font-weight="bold" font-size="11.00" fill="#000000">app_compliance_policy</text>
<text text-anchor="start" x="131.0219" y="-275.8" font-family="Helvetica,sans-Serif" font-size="11.00" fill="#000000">[table]</text>
<polygon fill="none" stroke="#000000" points="8.5,-245.7 8.5,-267.7 165.5,-267.7 165.5,-245.7 8.5,-245.7"/>
<image xlink:href="../../images/primaryKeys.png" width="11px" height="12px" preserveAspectRatio="xMinYMin meet" x="13.5" y="-262.7"/>
<text text-anchor="start" x="29.5" y="-252.8" font-family="Helvetica,sans-Serif" font-size="11.00" fill="#000000">id</text>
<polygon fill="#ffffff" stroke="transparent" points="8.5,-223.7 8.5,-245.7 165.5,-245.7 165.5,-223.7 8.5,-223.7"/>
<polygon fill="none" stroke="#000000" points="8.5,-223.7 8.5,-245.7 165.5,-245.7 165.5,-223.7 8.5,-223.7"/>
<text text-anchor="start" x="29.5" y="-230.8" font-family="Helvetica,sans-Serif" font-size="11.00" fill="#000000">name</text>
<polygon fill="#ffffff" stroke="transparent" points="8.5,-201.7 8.5,-223.7 165.5,-223.7 165.5,-201.7 8.5,-201.7"/>
<polygon fill="none" stroke="#000000" points="8.5,-201.7 8.5,-223.7 165.5,-223.7 165.5,-201.7 8.5,-201.7"/>
<image xlink:href="../../images/foreignKeys.png" width="11px" height="12px" preserveAspectRatio="xMinYMin meet" x="13.5" y="-218.7"/>
<text text-anchor="start" x="29.5" y="-208.8" font-family="Helvetica,sans-Serif" font-size="11.00" fill="#000000">organizations_id</text>
<polygon fill="none" stroke="#000000" points="8.5,-182.7 8.5,-201.7 165.5,-201.7 165.5,-182.7 8.5,-182.7"/>
<text text-anchor="start" x="11.5" y="-188.8" font-family="Helvetica,sans-Serif" font-size="11.00" fill="#000000">...</text>
<polygon fill="#ffffff" stroke="transparent" points="8.5,-163.7 8.5,-182.7 64.5,-182.7 64.5,-163.7 8.5,-163.7"/>
<polygon fill="none" stroke="#000000" points="8.5,-163.7 8.5,-182.7 64.5,-182.7 64.5,-163.7 8.5,-163.7"/>
<text text-anchor="start" x="11.5" y="-169.8" font-family="Helvetica,sans-Serif" font-size="11.00" fill="#000000">&lt; 1</text>
<polygon fill="#ffffff" stroke="transparent" points="64.5,-163.7 64.5,-182.7 126.5,-182.7 126.5,-163.7 64.5,-163.7"/>
<polygon fill="none" stroke="#000000" points="64.5,-163.7 64.5,-182.7 126.5,-182.7 126.5,-163.7 64.5,-163.7"/>
<text text-anchor="start" x="84.9956" y="-169.8" font-family="Helvetica,sans-Serif" font-size="11.00" fill="#000000">21 rows</text>
<polygon fill="#ffffff" stroke="transparent" points="126.5,-163.7 126.5,-182.7 165.5,-182.7 165.5,-163.7 126.5,-163.7"/>
<polygon fill="none" stroke="#000000" points="126.5,-163.7 126.5,-182.7 165.5,-182.7 165.5,-163.7 126.5,-163.7"/>
<text text-anchor="start" x="146.9053" y="-169.8" font-family="Helvetica,sans-Serif" font-size="11.00" fill="#000000">7 &gt;</text>
</a>
</g>
</g>
<!-- app_compliance_policy_rules&#45;&gt;app_compliance_policy -->
<g id="edge1" class="edge">
<title>app_compliance_policy_rules:w&#45;&gt;app_compliance_policy:e</title>
<path fill="none" stroke="#000000" d="M201.9816,-198.6435C185.738,-213.4952 195.2175,-256.7 165.5,-256.7"/>
<polygon fill="#000000" stroke="#000000" points="208.4554,-196.3606 217.1973,-197.0951 212.2277,-195.0303 216,-193.7 216,-193.7 216,-193.7 212.2277,-195.0303 214.8027,-190.3049 208.4554,-196.3606 208.4554,-196.3606"/>
<ellipse fill="none" stroke="#000000" cx="205.4375" cy="-197.4248" rx="3.2" ry="3.2"/>
</g>
<!-- rules -->
<g id="node3" class="node">
<title>rules</title>
<g id="a_node3"><a xlink:href="../../tables/rules.html" xlink:title="rules" target="_top">
<polygon fill="#ffffff" stroke="transparent" points="23,-38.2 23,-143.2 150,-143.2 150,-38.2 23,-38.2"/>
<polygon fill="#f5f5f5" stroke="transparent" points="23.5,-119.7 23.5,-142.7 150.5,-142.7 150.5,-119.7 23.5,-119.7"/>
<polygon fill="none" stroke="#000000" points="23.5,-119.7 23.5,-142.7 150.5,-142.7 150.5,-119.7 23.5,-119.7"/>
<text text-anchor="start" x="28.5" y="-128.8" font-family="Helvetica,sans-Serif" font-weight="bold" font-size="11.00" fill="#000000">rules</text>
<text text-anchor="start" x="115.5437" y="-127.8" font-family="Helvetica,sans-Serif" font-size="11.00" fill="#000000">[table]</text>
<polygon fill="none" stroke="#000000" points="23.5,-97.7 23.5,-119.7 150.5,-119.7 150.5,-97.7 23.5,-97.7"/>
<image xlink:href="../../images/primaryKeys.png" width="11px" height="12px" preserveAspectRatio="xMinYMin meet" x="28.5" y="-114.7"/>
<text text-anchor="start" x="43.5" y="-104.8" font-family="Helvetica,sans-Serif" font-size="11.00" fill="#000000">name</text>
<polygon fill="#ffffff" stroke="transparent" points="23.5,-75.7 23.5,-97.7 150.5,-97.7 150.5,-75.7 23.5,-75.7"/>
<polygon fill="none" stroke="#000000" points="23.5,-75.7 23.5,-97.7 150.5,-97.7 150.5,-75.7 23.5,-75.7"/>
<text text-anchor="start" x="43.5" y="-82.8" font-family="Helvetica,sans-Serif" font-size="11.00" fill="#000000">title</text>
<polygon fill="none" stroke="#000000" points="23.5,-56.7 23.5,-75.7 150.5,-75.7 150.5,-56.7 23.5,-56.7"/>
<text text-anchor="start" x="26.5" y="-62.8" font-family="Helvetica,sans-Serif" font-size="11.00" fill="#000000">...</text>
<polygon fill="#ffffff" stroke="transparent" points="23.5,-37.7 23.5,-56.7 57.5,-56.7 57.5,-37.7 23.5,-37.7"/>
<polygon fill="none" stroke="#000000" points="23.5,-37.7 23.5,-56.7 57.5,-56.7 57.5,-37.7 23.5,-37.7"/>
<text text-anchor="start" x="26.5" y="-43.8" font-family="Helvetica,sans-Serif" font-size="11.00" fill="#000000"> &#160;</text>
<polygon fill="#ffffff" stroke="transparent" points="57.5,-37.7 57.5,-56.7 112.5,-56.7 112.5,-37.7 57.5,-37.7"/>
<polygon fill="none" stroke="#000000" points="57.5,-37.7 57.5,-56.7 112.5,-56.7 112.5,-37.7 57.5,-37.7"/>
<text text-anchor="start" x="70.9956" y="-43.8" font-family="Helvetica,sans-Serif" font-size="11.00" fill="#000000">82 rows</text>
<polygon fill="#ffffff" stroke="transparent" points="112.5,-37.7 112.5,-56.7 150.5,-56.7 150.5,-37.7 112.5,-37.7"/>
<polygon fill="none" stroke="#000000" points="112.5,-37.7 112.5,-56.7 150.5,-56.7 150.5,-37.7 112.5,-37.7"/>
<text text-anchor="start" x="125.7904" y="-43.8" font-family="Helvetica,sans-Serif" font-size="11.00" fill="#000000">16 &gt;</text>
</a>
</g>
</g>
<!-- app_compliance_policy_rules&#45;&gt;rules -->
<g id="edge2" class="edge">
<title>app_compliance_policy_rules:w&#45;&gt;rules:e</title>
<path fill="none" stroke="#000000" d="M201.9532,-168.3128C178.806,-155.2271 185.2113,-108.7 150.5,-108.7"/>
<polygon fill="#000000" stroke="#000000" points="208.2229,-169.8246 215.1561,-175.1997 212.1115,-170.7623 216,-171.7 216,-171.7 216,-171.7 212.1115,-170.7623 216.8439,-168.2003 208.2229,-169.8246 208.2229,-169.8246"/>
<ellipse fill="none" stroke="#000000" cx="205.1121" cy="-169.0745" rx="3.2" ry="3.2"/>
</g>
</g>
</svg>
