<?xml version="1.0" encoding="UTF-8" standalone="no"?>
<!DOCTYPE svg PUBLIC "-//W3C//DTD SVG 1.1//EN"
 "http://www.w3.org/Graphics/SVG/1.1/DTD/svg11.dtd">
<!-- Generated by graphviz version 2.40.1 (20161225.0304)
 -->
<!-- Title: oneDegreeRelationshipsDiagram Pages: 1 -->
<svg width="515pt" height="347pt"
 viewBox="0.00 0.00 515.00 347.20" xmlns="http://www.w3.org/2000/svg" xmlns:xlink="http://www.w3.org/1999/xlink">
<g id="graph0" class="graph" transform="scale(1 1) rotate(0) translate(4 343.2)">
<title>oneDegreeRelationshipsDiagram</title>
<polygon fill="#ffffff" stroke="transparent" points="-4,4 -4,-343.2 511,-343.2 511,4 -4,4"/>
<text text-anchor="middle" x="72.4936" y="-7.3" font-family="Helvetica,sans-Serif" font-size="11.00" fill="#000000">Generated by SchemaSpy</text>
<!-- artifacts_node_vulnerabilities_map -->
<g id="node1" class="node">
<title>artifacts_node_vulnerabilities_map</title>
<g id="a_node1"><a xlink:href="../../tables/artifacts_node_vulnerabilities_map.html" xlink:title="artifacts_node_vulnerabilities_map" target="_top">
<polygon fill="#ffffff" stroke="transparent" points="212,-150.7 212,-262.7 499,-262.7 499,-150.7 212,-150.7"/>
<polygon fill="#f5f5f5" stroke="transparent" points="214.5,-237.7 214.5,-260.7 497.5,-260.7 497.5,-237.7 214.5,-237.7"/>
<polygon fill="none" stroke="#000000" points="214.5,-237.7 214.5,-260.7 497.5,-260.7 497.5,-237.7 214.5,-237.7"/>
<text text-anchor="start" x="219.5" y="-246.8" font-family="Helvetica,sans-Serif" font-weight="bold" font-size="11.00" fill="#000000">artifacts_node_vulnerabilities_map</text>
<text text-anchor="start" x="462.5437" y="-245.8" font-family="Helvetica,sans-Serif" font-size="11.00" fill="#000000">[table]</text>
<polygon fill="none" stroke="#000000" points="214.5,-215.7 214.5,-237.7 435.5,-237.7 435.5,-215.7 214.5,-215.7"/>
<image xlink:href="../../images/primaryKeys.png" width="11px" height="12px" preserveAspectRatio="xMinYMin meet" x="219.5" y="-232.7"/>
<text text-anchor="start" x="234.5" y="-222.8" font-family="Helvetica,sans-Serif" font-size="11.00" fill="#000000">artifacts_id</text>
<polygon fill="none" stroke="#000000" points="435.5,-215.7 435.5,-237.7 497.5,-237.7 497.5,-215.7 435.5,-215.7"/>
<text text-anchor="start" x="438.5" y="-223.4" font-family="Helvetica,sans-Serif" font-size="11.00" fill="#000000">int[10]</text>
<polygon fill="none" stroke="#000000" points="214.5,-193.7 214.5,-215.7 435.5,-215.7 435.5,-193.7 214.5,-193.7"/>
<image xlink:href="../../images/primaryKeys.png" width="11px" height="12px" preserveAspectRatio="xMinYMin meet" x="219.5" y="-210.7"/>
<text text-anchor="start" x="234.5" y="-200.8" font-family="Helvetica,sans-Serif" font-size="11.00" fill="#000000">vulnerabilities_id</text>
<polygon fill="none" stroke="#000000" points="435.5,-193.7 435.5,-215.7 497.5,-215.7 497.5,-193.7 435.5,-193.7"/>
<text text-anchor="start" x="438.5" y="-201.4" font-family="Helvetica,sans-Serif" font-size="11.00" fill="#000000">int[10]</text>
<polygon fill="none" stroke="#000000" points="214.5,-171.7 214.5,-193.7 435.5,-193.7 435.5,-171.7 214.5,-171.7"/>
<image xlink:href="../../images/foreignKeys.png" width="11px" height="12px" preserveAspectRatio="xMinYMin meet" x="219.5" y="-188.7"/>
<text text-anchor="start" x="234.5" y="-178.8" font-family="Helvetica,sans-Serif" font-size="11.00" fill="#000000">vulnerability_id</text>
<polygon fill="none" stroke="#000000" points="435.5,-171.7 435.5,-193.7 497.5,-193.7 497.5,-171.7 435.5,-171.7"/>
<text text-anchor="start" x="438.378" y="-179.4" font-family="Helvetica,sans-Serif" font-size="11.00" fill="#000000">unknown[0]</text>
<polygon fill="#ffffff" stroke="transparent" points="214.5,-152.7 214.5,-171.7 316.5,-171.7 316.5,-152.7 214.5,-152.7"/>
<polygon fill="none" stroke="#000000" points="214.5,-152.7 214.5,-171.7 316.5,-171.7 316.5,-152.7 214.5,-152.7"/>
<text text-anchor="start" x="217.5" y="-158.8" font-family="Helvetica,sans-Serif" font-size="11.00" fill="#000000">&lt; 2</text>
<polygon fill="#ffffff" stroke="transparent" points="316.5,-152.7 316.5,-171.7 435.5,-171.7 435.5,-152.7 316.5,-152.7"/>
<polygon fill="none" stroke="#000000" points="316.5,-152.7 316.5,-171.7 435.5,-171.7 435.5,-152.7 316.5,-152.7"/>
<text text-anchor="start" x="400.1105" y="-158.8" font-family="Helvetica,sans-Serif" font-size="11.00" fill="#000000">0 rows</text>
<polygon fill="#ffffff" stroke="transparent" points="435.5,-152.7 435.5,-171.7 497.5,-171.7 497.5,-152.7 435.5,-152.7"/>
<polygon fill="none" stroke="#000000" points="435.5,-152.7 435.5,-171.7 497.5,-171.7 497.5,-152.7 435.5,-152.7"/>
<text text-anchor="start" x="478.9053" y="-158.8" font-family="Helvetica,sans-Serif" font-size="11.00" fill="#000000">0 &gt;</text>
<polygon fill="none" stroke="#000000" stroke-width="2" points="213,-151.7 213,-261.7 498,-261.7 498,-151.7 213,-151.7"/>
</a>
</g>
</g>
<!-- artifacts_node -->
<g id="node2" class="node">
<title>artifacts_node</title>
<g id="a_node2"><a xlink:href="../../tables/artifacts_node.html" xlink:title="artifacts_node" target="_top">
<polygon fill="#ffffff" stroke="transparent" points="20,-164.2 20,-335.2 151,-335.2 151,-164.2 20,-164.2"/>
<polygon fill="#f5f5f5" stroke="transparent" points="20.5,-311.7 20.5,-334.7 151.5,-334.7 151.5,-311.7 20.5,-311.7"/>
<polygon fill="none" stroke="#000000" points="20.5,-311.7 20.5,-334.7 151.5,-334.7 151.5,-311.7 20.5,-311.7"/>
<text text-anchor="start" x="25.5" y="-320.8" font-family="Helvetica,sans-Serif" font-weight="bold" font-size="11.00" fill="#000000">artifacts_node</text>
<text text-anchor="start" x="116.5437" y="-319.8" font-family="Helvetica,sans-Serif" font-size="11.00" fill="#000000">[table]</text>
<polygon fill="none" stroke="#000000" points="20.5,-289.7 20.5,-311.7 151.5,-311.7 151.5,-289.7 20.5,-289.7"/>
<image xlink:href="../../images/primaryKeys.png" width="11px" height="12px" preserveAspectRatio="xMinYMin meet" x="25.5" y="-306.7"/>
<text text-anchor="start" x="40.5" y="-296.8" font-family="Helvetica,sans-Serif" font-size="11.00" fill="#000000">id</text>
<polygon fill="#ffffff" stroke="transparent" points="20.5,-267.7 20.5,-289.7 151.5,-289.7 151.5,-267.7 20.5,-267.7"/>
<polygon fill="none" stroke="#000000" points="20.5,-267.7 20.5,-289.7 151.5,-289.7 151.5,-267.7 20.5,-267.7"/>
<text text-anchor="start" x="40.5" y="-274.8" font-family="Helvetica,sans-Serif" font-size="11.00" fill="#000000">version</text>
<polygon fill="#ffffff" stroke="transparent" points="20.5,-245.7 20.5,-267.7 151.5,-267.7 151.5,-245.7 20.5,-245.7"/>
<polygon fill="none" stroke="#000000" points="20.5,-245.7 20.5,-267.7 151.5,-267.7 151.5,-245.7 20.5,-245.7"/>
<text text-anchor="start" x="40.5" y="-252.8" font-family="Helvetica,sans-Serif" font-size="11.00" fill="#000000">hash</text>
<polygon fill="#ffffff" stroke="transparent" points="20.5,-223.7 20.5,-245.7 151.5,-245.7 151.5,-223.7 20.5,-223.7"/>
<polygon fill="none" stroke="#000000" points="20.5,-223.7 20.5,-245.7 151.5,-245.7 151.5,-223.7 20.5,-223.7"/>
<text text-anchor="start" x="40.5" y="-230.8" font-family="Helvetica,sans-Serif" font-size="11.00" fill="#000000">group_name</text>
<polygon fill="#ffffff" stroke="transparent" points="20.5,-201.7 20.5,-223.7 151.5,-223.7 151.5,-201.7 20.5,-201.7"/>
<polygon fill="none" stroke="#000000" points="20.5,-201.7 20.5,-223.7 151.5,-223.7 151.5,-201.7 20.5,-201.7"/>
<text text-anchor="start" x="40.5" y="-208.8" font-family="Helvetica,sans-Serif" font-size="11.00" fill="#000000">artifact_name</text>
<polygon fill="none" stroke="#000000" points="20.5,-182.7 20.5,-201.7 151.5,-201.7 151.5,-182.7 20.5,-182.7"/>
<text text-anchor="start" x="23.5" y="-188.8" font-family="Helvetica,sans-Serif" font-size="11.00" fill="#000000">...</text>
<polygon fill="#ffffff" stroke="transparent" points="20.5,-163.7 20.5,-182.7 62.5,-182.7 62.5,-163.7 20.5,-163.7"/>
<polygon fill="none" stroke="#000000" points="20.5,-163.7 20.5,-182.7 62.5,-182.7 62.5,-163.7 20.5,-163.7"/>
<text text-anchor="start" x="23.5" y="-169.8" font-family="Helvetica,sans-Serif" font-size="11.00" fill="#000000"> &#160;</text>
<polygon fill="#ffffff" stroke="transparent" points="62.5,-163.7 62.5,-182.7 115.5,-182.7 115.5,-163.7 62.5,-163.7"/>
<polygon fill="none" stroke="#000000" points="62.5,-163.7 62.5,-182.7 115.5,-182.7 115.5,-163.7 62.5,-163.7"/>
<text text-anchor="start" x="80.1105" y="-169.8" font-family="Helvetica,sans-Serif" font-size="11.00" fill="#000000">0 rows</text>
<polygon fill="#ffffff" stroke="transparent" points="115.5,-163.7 115.5,-182.7 151.5,-182.7 151.5,-163.7 115.5,-163.7"/>
<polygon fill="none" stroke="#000000" points="115.5,-163.7 115.5,-182.7 151.5,-182.7 151.5,-163.7 115.5,-163.7"/>
<text text-anchor="start" x="132.9053" y="-169.8" font-family="Helvetica,sans-Serif" font-size="11.00" fill="#000000">1 &gt;</text>
</a>
</g>
</g>
<!-- artifacts_node_vulnerabilities_map&#45;&gt;artifacts_node -->
<g id="edge1" class="edge">
<title>artifacts_node_vulnerabilities_map:w&#45;&gt;artifacts_node:e</title>
<path fill="none" stroke="#000000" d="M200.5014,-230.2692C176.3442,-245.051 188.9569,-300.7 151.5,-300.7"/>
<polygon fill="#000000" stroke="#000000" points="206.748,-228.6765 215.3894,-230.1884 210.624,-227.6883 214.5,-226.7 214.5,-226.7 214.5,-226.7 210.624,-227.6883 213.6106,-223.2116 206.748,-228.6765 206.748,-228.6765"/>
<ellipse fill="none" stroke="#000000" cx="203.6472" cy="-229.4672" rx="3.2" ry="3.2"/>
</g>
<!-- artifacts_vulnerabilities -->
<g id="node3" class="node">
<title>artifacts_vulnerabilities</title>
<g id="a_node3"><a xlink:href="../../tables/artifacts_vulnerabilities.html" xlink:title="artifacts_vulnerabilities" target="_top">
<polygon fill="#ffffff" stroke="transparent" points="8,-38.2 8,-143.2 163,-143.2 163,-38.2 8,-38.2"/>
<polygon fill="#f5f5f5" stroke="transparent" points="8.5,-119.7 8.5,-142.7 163.5,-142.7 163.5,-119.7 8.5,-119.7"/>
<polygon fill="none" stroke="#000000" points="8.5,-119.7 8.5,-142.7 163.5,-142.7 163.5,-119.7 8.5,-119.7"/>
<text text-anchor="start" x="13.5" y="-128.8" font-family="Helvetica,sans-Serif" font-weight="bold" font-size="11.00" fill="#000000">artifacts_vulnerabilities</text>
<text text-anchor="start" x="129.0219" y="-127.8" font-family="Helvetica,sans-Serif" font-size="11.00" fill="#000000">[table]</text>
<polygon fill="none" stroke="#000000" points="8.5,-97.7 8.5,-119.7 163.5,-119.7 163.5,-97.7 8.5,-97.7"/>
<image xlink:href="../../images/primaryKeys.png" width="11px" height="12px" preserveAspectRatio="xMinYMin meet" x="13.5" y="-114.7"/>
<text text-anchor="start" x="28.5" y="-104.8" font-family="Helvetica,sans-Serif" font-size="11.00" fill="#000000">id</text>
<polygon fill="#ffffff" stroke="transparent" points="8.5,-75.7 8.5,-97.7 163.5,-97.7 163.5,-75.7 8.5,-75.7"/>
<polygon fill="none" stroke="#000000" points="8.5,-75.7 8.5,-97.7 163.5,-97.7 163.5,-75.7 8.5,-75.7"/>
<text text-anchor="start" x="28.5" y="-82.8" font-family="Helvetica,sans-Serif" font-size="11.00" fill="#000000">name</text>
<polygon fill="none" stroke="#000000" points="8.5,-56.7 8.5,-75.7 163.5,-75.7 163.5,-56.7 8.5,-56.7"/>
<text text-anchor="start" x="11.5" y="-62.8" font-family="Helvetica,sans-Serif" font-size="11.00" fill="#000000">...</text>
<polygon fill="#ffffff" stroke="transparent" points="8.5,-37.7 8.5,-56.7 62.5,-56.7 62.5,-37.7 8.5,-37.7"/>
<polygon fill="none" stroke="#000000" points="8.5,-37.7 8.5,-56.7 62.5,-56.7 62.5,-37.7 8.5,-37.7"/>
<text text-anchor="start" x="11.5" y="-43.8" font-family="Helvetica,sans-Serif" font-size="11.00" fill="#000000"> &#160;</text>
<polygon fill="#ffffff" stroke="transparent" points="62.5,-37.7 62.5,-56.7 121.5,-56.7 121.5,-37.7 62.5,-37.7"/>
<polygon fill="none" stroke="#000000" points="62.5,-37.7 62.5,-56.7 121.5,-56.7 121.5,-37.7 62.5,-37.7"/>
<text text-anchor="start" x="86.1105" y="-43.8" font-family="Helvetica,sans-Serif" font-size="11.00" fill="#000000">0 rows</text>
<polygon fill="#ffffff" stroke="transparent" points="121.5,-37.7 121.5,-56.7 163.5,-56.7 163.5,-37.7 121.5,-37.7"/>
<polygon fill="none" stroke="#000000" points="121.5,-37.7 121.5,-56.7 163.5,-56.7 163.5,-37.7 121.5,-37.7"/>
<text text-anchor="start" x="144.9053" y="-43.8" font-family="Helvetica,sans-Serif" font-size="11.00" fill="#000000">6 &gt;</text>
</a>
</g>
</g>
<!-- artifacts_node_vulnerabilities_map&#45;&gt;artifacts_vulnerabilities -->
<g id="edge2" class="edge">
<title>artifacts_node_vulnerabilities_map:w&#45;&gt;artifacts_vulnerabilities:e</title>
<path fill="none" stroke="#000000" d="M200.5503,-178.071C181.7607,-161.8706 197.3581,-108.7 163.5,-108.7"/>
<polygon fill="#000000" stroke="#000000" points="206.9071,-180.1804 213.3662,-186.1168 210.7036,-181.4402 214.5,-182.7 214.5,-182.7 214.5,-182.7 210.7036,-181.4402 215.6338,-179.2832 206.9071,-180.1804 206.9071,-180.1804"/>
<ellipse fill="none" stroke="#000000" cx="203.87" cy="-179.1725" rx="3.2" ry="3.2"/>
</g>
</g>
</svg>
