<?xml version="1.0" encoding="UTF-8" standalone="no"?>
<!DOCTYPE svg PUBLIC "-//W3C//DTD SVG 1.1//EN"
 "http://www.w3.org/Graphics/SVG/1.1/DTD/svg11.dtd">
<!-- Generated by graphviz version 2.40.1 (20161225.0304)
 -->
<!-- Title: oneDegreeRelationshipsDiagram Pages: 1 -->
<svg width="527pt" height="223pt"
 viewBox="0.00 0.00 527.00 222.70" xmlns="http://www.w3.org/2000/svg" xmlns:xlink="http://www.w3.org/1999/xlink">
<g id="graph0" class="graph" transform="scale(1 1) rotate(0) translate(4 218.7)">
<title>oneDegreeRelationshipsDiagram</title>
<polygon fill="#ffffff" stroke="transparent" points="-4,4 -4,-218.7 523,-218.7 523,4 -4,4"/>
<text text-anchor="middle" x="72.4936" y="-7.3" font-family="Helvetica,sans-Serif" font-size="11.00" fill="#000000">Generated by SchemaSpy</text>
<!-- artifacts_vulnerabilities_references -->
<g id="node1" class="node">
<title>artifacts_vulnerabilities_references</title>
<g id="a_node1"><a xlink:href="../../tables/artifacts_vulnerabilities_references.html" xlink:title="artifacts_vulnerabilities_references" target="_top">
<polygon fill="#ffffff" stroke="transparent" points="212,-76.7 212,-210.7 511,-210.7 511,-76.7 212,-76.7"/>
<polygon fill="#f5f5f5" stroke="transparent" points="214.5,-185.7 214.5,-208.7 509.5,-208.7 509.5,-185.7 214.5,-185.7"/>
<polygon fill="none" stroke="#000000" points="214.5,-185.7 214.5,-208.7 509.5,-208.7 509.5,-185.7 214.5,-185.7"/>
<text text-anchor="start" x="219.5" y="-194.8" font-family="Helvetica,sans-Serif" font-weight="bold" font-size="11.00" fill="#000000">artifacts_vulnerabilities_references</text>
<text text-anchor="start" x="474.5437" y="-193.8" font-family="Helvetica,sans-Serif" font-size="11.00" fill="#000000">[table]</text>
<polygon fill="none" stroke="#000000" points="214.5,-163.7 214.5,-185.7 436.5,-185.7 436.5,-163.7 214.5,-163.7"/>
<image xlink:href="../../images/primaryKeys.png" width="11px" height="12px" preserveAspectRatio="xMinYMin meet" x="219.5" y="-180.7"/>
<text text-anchor="start" x="234.5" y="-170.8" font-family="Helvetica,sans-Serif" font-size="11.00" fill="#000000">id</text>
<polygon fill="none" stroke="#000000" points="436.5,-163.7 436.5,-185.7 509.5,-185.7 509.5,-163.7 436.5,-163.7"/>
<text text-anchor="start" x="439.5" y="-171.4" font-family="Helvetica,sans-Serif" font-size="11.00" fill="#000000">bigint[19]</text>
<polygon fill="none" stroke="#000000" points="214.5,-141.7 214.5,-163.7 436.5,-163.7 436.5,-141.7 214.5,-141.7"/>
<text text-anchor="start" x="234.5" y="-148.8" font-family="Helvetica,sans-Serif" font-size="11.00" fill="#000000">href</text>
<polygon fill="none" stroke="#000000" points="436.5,-141.7 436.5,-163.7 509.5,-163.7 509.5,-141.7 436.5,-141.7"/>
<text text-anchor="start" x="439.3791" y="-149.4" font-family="Helvetica,sans-Serif" font-size="11.00" fill="#000000">varchar[4000]</text>
<polygon fill="none" stroke="#000000" points="214.5,-119.7 214.5,-141.7 436.5,-141.7 436.5,-119.7 214.5,-119.7"/>
<text text-anchor="start" x="234.5" y="-126.8" font-family="Helvetica,sans-Serif" font-size="11.00" fill="#000000">name</text>
<polygon fill="none" stroke="#000000" points="436.5,-119.7 436.5,-141.7 509.5,-141.7 509.5,-119.7 436.5,-119.7"/>
<text text-anchor="start" x="439.5" y="-127.4" font-family="Helvetica,sans-Serif" font-size="11.00" fill="#000000">varchar[255]</text>
<polygon fill="#ffffff" stroke="transparent" points="214.5,-97.7 214.5,-119.7 436.5,-119.7 436.5,-97.7 214.5,-97.7"/>
<polygon fill="none" stroke="#000000" points="214.5,-97.7 214.5,-119.7 436.5,-119.7 436.5,-97.7 214.5,-97.7"/>
<image xlink:href="../../images/foreignKeys.png" width="11px" height="12px" preserveAspectRatio="xMinYMin meet" x="219.5" y="-114.7"/>
<text text-anchor="start" x="234.5" y="-104.8" font-family="Helvetica,sans-Serif" font-size="11.00" fill="#000000">artifacts_vulnerabilities_id</text>
<polygon fill="none" stroke="#000000" points="436.5,-97.7 436.5,-119.7 509.5,-119.7 509.5,-97.7 436.5,-97.7"/>
<text text-anchor="start" x="439.5" y="-105.4" font-family="Helvetica,sans-Serif" font-size="11.00" fill="#000000">bigint[19]</text>
<polygon fill="#ffffff" stroke="transparent" points="214.5,-78.7 214.5,-97.7 316.5,-97.7 316.5,-78.7 214.5,-78.7"/>
<polygon fill="none" stroke="#000000" points="214.5,-78.7 214.5,-97.7 316.5,-97.7 316.5,-78.7 214.5,-78.7"/>
<text text-anchor="start" x="217.5" y="-84.8" font-family="Helvetica,sans-Serif" font-size="11.00" fill="#000000">&lt; 1</text>
<polygon fill="#ffffff" stroke="transparent" points="316.5,-78.7 316.5,-97.7 436.5,-97.7 436.5,-78.7 316.5,-78.7"/>
<polygon fill="none" stroke="#000000" points="316.5,-78.7 316.5,-97.7 436.5,-97.7 436.5,-78.7 316.5,-78.7"/>
<text text-anchor="start" x="401.1105" y="-84.8" font-family="Helvetica,sans-Serif" font-size="11.00" fill="#000000">0 rows</text>
<polygon fill="#ffffff" stroke="transparent" points="436.5,-78.7 436.5,-97.7 509.5,-97.7 509.5,-78.7 436.5,-78.7"/>
<polygon fill="none" stroke="#000000" points="436.5,-78.7 436.5,-97.7 509.5,-97.7 509.5,-78.7 436.5,-78.7"/>
<text text-anchor="start" x="490.9053" y="-84.8" font-family="Helvetica,sans-Serif" font-size="11.00" fill="#000000">0 &gt;</text>
<polygon fill="none" stroke="#000000" stroke-width="2" points="213,-77.7 213,-209.7 510,-209.7 510,-77.7 213,-77.7"/>
</a>
</g>
</g>
<!-- artifacts_vulnerabilities -->
<g id="node2" class="node">
<title>artifacts_vulnerabilities</title>
<g id="a_node2"><a xlink:href="../../tables/artifacts_vulnerabilities.html" xlink:title="artifacts_vulnerabilities" target="_top">
<polygon fill="#ffffff" stroke="transparent" points="8,-38.2 8,-143.2 163,-143.2 163,-38.2 8,-38.2"/>
<polygon fill="#f5f5f5" stroke="transparent" points="8.5,-119.7 8.5,-142.7 163.5,-142.7 163.5,-119.7 8.5,-119.7"/>
<polygon fill="none" stroke="#000000" points="8.5,-119.7 8.5,-142.7 163.5,-142.7 163.5,-119.7 8.5,-119.7"/>
<text text-anchor="start" x="13.5" y="-128.8" font-family="Helvetica,sans-Serif" font-weight="bold" font-size="11.00" fill="#000000">artifacts_vulnerabilities</text>
<text text-anchor="start" x="129.0219" y="-127.8" font-family="Helvetica,sans-Serif" font-size="11.00" fill="#000000">[table]</text>
<polygon fill="none" stroke="#000000" points="8.5,-97.7 8.5,-119.7 163.5,-119.7 163.5,-97.7 8.5,-97.7"/>
<image xlink:href="../../images/primaryKeys.png" width="11px" height="12px" preserveAspectRatio="xMinYMin meet" x="13.5" y="-114.7"/>
<text text-anchor="start" x="28.5" y="-104.8" font-family="Helvetica,sans-Serif" font-size="11.00" fill="#000000">id</text>
<polygon fill="#ffffff" stroke="transparent" points="8.5,-75.7 8.5,-97.7 163.5,-97.7 163.5,-75.7 8.5,-75.7"/>
<polygon fill="none" stroke="#000000" points="8.5,-75.7 8.5,-97.7 163.5,-97.7 163.5,-75.7 8.5,-75.7"/>
<text text-anchor="start" x="28.5" y="-82.8" font-family="Helvetica,sans-Serif" font-size="11.00" fill="#000000">name</text>
<polygon fill="none" stroke="#000000" points="8.5,-56.7 8.5,-75.7 163.5,-75.7 163.5,-56.7 8.5,-56.7"/>
<text text-anchor="start" x="11.5" y="-62.8" font-family="Helvetica,sans-Serif" font-size="11.00" fill="#000000">...</text>
<polygon fill="#ffffff" stroke="transparent" points="8.5,-37.7 8.5,-56.7 59.5,-56.7 59.5,-37.7 8.5,-37.7"/>
<polygon fill="none" stroke="#000000" points="8.5,-37.7 8.5,-56.7 59.5,-56.7 59.5,-37.7 8.5,-37.7"/>
<text text-anchor="start" x="11.5" y="-43.8" font-family="Helvetica,sans-Serif" font-size="11.00" fill="#000000"> &#160;</text>
<polygon fill="#ffffff" stroke="transparent" points="59.5,-37.7 59.5,-56.7 116.5,-56.7 116.5,-37.7 59.5,-37.7"/>
<polygon fill="none" stroke="#000000" points="59.5,-37.7 59.5,-56.7 116.5,-56.7 116.5,-37.7 59.5,-37.7"/>
<text text-anchor="start" x="81.1105" y="-43.8" font-family="Helvetica,sans-Serif" font-size="11.00" fill="#000000">0 rows</text>
<polygon fill="#ffffff" stroke="transparent" points="116.5,-37.7 116.5,-56.7 163.5,-56.7 163.5,-37.7 116.5,-37.7"/>
<polygon fill="none" stroke="#000000" points="116.5,-37.7 116.5,-56.7 163.5,-56.7 163.5,-37.7 116.5,-37.7"/>
<text text-anchor="start" x="138.7904" y="-43.8" font-family="Helvetica,sans-Serif" font-size="11.00" fill="#000000">14 &gt;</text>
</a>
</g>
</g>
<!-- artifacts_vulnerabilities_references&#45;&gt;artifacts_vulnerabilities -->
<g id="edge1" class="edge">
<title>artifacts_vulnerabilities_references:w&#45;&gt;artifacts_vulnerabilities:e</title>
<path fill="none" stroke="#000000" d="M199.776,-108.7C187.7815,-108.7 180.3229,-108.7 163.5,-108.7"/>
<polygon fill="#000000" stroke="#000000" points="206.5,-108.7001 214.5,-112.3 210.5,-108.7 214.5,-108.7 214.5,-108.7 214.5,-108.7 210.5,-108.7 214.5,-105.1 206.5,-108.7001 206.5,-108.7001"/>
<ellipse fill="none" stroke="#000000" cx="203.3" cy="-108.7001" rx="3.2" ry="3.2"/>
</g>
</g>
</svg>
