<?xml version="1.0" encoding="UTF-8" standalone="no"?>
<!DOCTYPE svg PUBLIC "-//W3C//DTD SVG 1.1//EN"
 "http://www.w3.org/Graphics/SVG/1.1/DTD/svg11.dtd">
<!-- Generated by graphviz version 2.40.1 (20161225.0304)
 -->
<!-- Title: oneDegreeRelationshipsDiagram Pages: 1 -->
<svg width="541pt" height="803pt"
 viewBox="0.00 0.00 541.00 803.20" xmlns="http://www.w3.org/2000/svg" xmlns:xlink="http://www.w3.org/1999/xlink">
<g id="graph0" class="graph" transform="scale(1 1) rotate(0) translate(4 799.2)">
<title>oneDegreeRelationshipsDiagram</title>
<polygon fill="#ffffff" stroke="transparent" points="-4,4 -4,-799.2 537,-799.2 537,4 -4,4"/>
<text text-anchor="middle" x="72.4936" y="-7.3" font-family="Helvetica,sans-Serif" font-size="11.00" fill="#000000">Generated by SchemaSpy</text>
<!-- artifacts_dot_net_vulnerabilities_map -->
<g id="node1" class="node">
<title>artifacts_dot_net_vulnerabilities_map</title>
<g id="a_node1"><a xlink:href="../../tables/artifacts_dot_net_vulnerabilities_map.html" xlink:title="artifacts_dot_net_vulnerabilities_map" target="_top">
<polygon fill="#ffffff" stroke="transparent" points="289,-683.2 289,-791.2 525,-791.2 525,-683.2 289,-683.2"/>
<polygon fill="#f5f5f5" stroke="transparent" points="289,-768.2 289,-791.2 525,-791.2 525,-768.2 289,-768.2"/>
<polygon fill="none" stroke="#000000" points="289,-768.2 289,-791.2 525,-791.2 525,-768.2 289,-768.2"/>
<text text-anchor="start" x="294" y="-777.3" font-family="Helvetica,sans-Serif" font-weight="bold" font-size="11.00" fill="#000000">artifacts_dot_net_vulnerabilities_map</text>
<text text-anchor="start" x="490.0437" y="-776.3" font-family="Helvetica,sans-Serif" font-size="11.00" fill="#000000">[table]</text>
<polygon fill="none" stroke="#000000" points="289,-746.2 289,-768.2 525,-768.2 525,-746.2 289,-746.2"/>
<image xlink:href="../../images/primaryKeys.png" width="11px" height="12px" preserveAspectRatio="xMinYMin meet" x="294" y="-763.2"/>
<text text-anchor="start" x="309" y="-753.3" font-family="Helvetica,sans-Serif" font-size="11.00" fill="#000000">artifacts_id</text>
<polygon fill="none" stroke="#000000" points="289,-724.2 289,-746.2 525,-746.2 525,-724.2 289,-724.2"/>
<image xlink:href="../../images/primaryKeys.png" width="11px" height="12px" preserveAspectRatio="xMinYMin meet" x="294" y="-741.2"/>
<text text-anchor="start" x="309" y="-731.3" font-family="Helvetica,sans-Serif" font-size="11.00" fill="#000000">vulnerabilities_id</text>
<polygon fill="none" stroke="#000000" points="289,-702.2 289,-724.2 525,-724.2 525,-702.2 289,-702.2"/>
<image xlink:href="../../images/foreignKeys.png" width="11px" height="12px" preserveAspectRatio="xMinYMin meet" x="294" y="-719.2"/>
<text text-anchor="start" x="309" y="-709.3" font-family="Helvetica,sans-Serif" font-size="11.00" fill="#000000">vulnerability_id</text>
<polygon fill="#ffffff" stroke="transparent" points="289,-683.2 289,-702.2 392,-702.2 392,-683.2 289,-683.2"/>
<polygon fill="none" stroke="#000000" points="289,-683.2 289,-702.2 392,-702.2 392,-683.2 289,-683.2"/>
<text text-anchor="start" x="292" y="-689.3" font-family="Helvetica,sans-Serif" font-size="11.00" fill="#000000">&lt; 2</text>
<polygon fill="#ffffff" stroke="transparent" points="392,-683.2 392,-702.2 471,-702.2 471,-683.2 392,-683.2"/>
<polygon fill="none" stroke="#000000" points="392,-683.2 392,-702.2 471,-702.2 471,-683.2 392,-683.2"/>
<text text-anchor="start" x="435.6105" y="-689.3" font-family="Helvetica,sans-Serif" font-size="11.00" fill="#000000">0 rows</text>
<polygon fill="#ffffff" stroke="transparent" points="471,-683.2 471,-702.2 525,-702.2 525,-683.2 471,-683.2"/>
<polygon fill="none" stroke="#000000" points="471,-683.2 471,-702.2 525,-702.2 525,-683.2 471,-683.2"/>
<text text-anchor="start" x="515.8862" y="-689.3" font-family="Helvetica,sans-Serif" font-size="11.00" fill="#000000"> &#160;</text>
</a>
</g>
</g>
<!-- artifacts_vulnerabilities -->
<g id="node2" class="node">
<title>artifacts_vulnerabilities</title>
<g id="a_node2"><a xlink:href="../../tables/artifacts_vulnerabilities.html" xlink:title="artifacts_vulnerabilities" target="_top">
<polygon fill="#ffffff" stroke="transparent" points="8,-116.2 8,-426.2 240,-426.2 240,-116.2 8,-116.2"/>
<polygon fill="#f5f5f5" stroke="transparent" points="10,-401.2 10,-424.2 238,-424.2 238,-401.2 10,-401.2"/>
<polygon fill="none" stroke="#000000" points="10,-401.2 10,-424.2 238,-424.2 238,-401.2 10,-401.2"/>
<text text-anchor="start" x="15" y="-410.3" font-family="Helvetica,sans-Serif" font-weight="bold" font-size="11.00" fill="#000000">artifacts_vulnerabilities</text>
<text text-anchor="start" x="203.0437" y="-409.3" font-family="Helvetica,sans-Serif" font-size="11.00" fill="#000000">[table]</text>
<polygon fill="none" stroke="#000000" points="10,-379.2 10,-401.2 165,-401.2 165,-379.2 10,-379.2"/>
<image xlink:href="../../images/primaryKeys.png" width="11px" height="12px" preserveAspectRatio="xMinYMin meet" x="15" y="-396.2"/>
<text text-anchor="start" x="30" y="-386.3" font-family="Helvetica,sans-Serif" font-size="11.00" fill="#000000">id</text>
<polygon fill="none" stroke="#000000" points="165,-379.2 165,-401.2 238,-401.2 238,-379.2 165,-379.2"/>
<text text-anchor="start" x="168" y="-386.9" font-family="Helvetica,sans-Serif" font-size="11.00" fill="#000000">int[10]</text>
<polygon fill="none" stroke="#000000" points="10,-357.2 10,-379.2 165,-379.2 165,-357.2 10,-357.2"/>
<text text-anchor="start" x="30" y="-364.3" font-family="Helvetica,sans-Serif" font-size="11.00" fill="#000000">availability_impact</text>
<polygon fill="none" stroke="#000000" points="165,-357.2 165,-379.2 238,-379.2 238,-357.2 165,-357.2"/>
<text text-anchor="start" x="168" y="-364.9" font-family="Helvetica,sans-Serif" font-size="11.00" fill="#000000">varchar[255]</text>
<polygon fill="#ffffff" stroke="transparent" points="10,-335.2 10,-357.2 165,-357.2 165,-335.2 10,-335.2"/>
<polygon fill="none" stroke="#000000" points="10,-335.2 10,-357.2 165,-357.2 165,-335.2 10,-335.2"/>
<text text-anchor="start" x="30" y="-342.3" font-family="Helvetica,sans-Serif" font-size="11.00" fill="#000000">name</text>
<polygon fill="none" stroke="#000000" points="165,-335.2 165,-357.2 238,-357.2 238,-335.2 165,-335.2"/>
<text text-anchor="start" x="168" y="-342.9" font-family="Helvetica,sans-Serif" font-size="11.00" fill="#000000">varchar[255]</text>
<polygon fill="none" stroke="#000000" points="10,-313.2 10,-335.2 165,-335.2 165,-313.2 10,-313.2"/>
<text text-anchor="start" x="30" y="-320.3" font-family="Helvetica,sans-Serif" font-size="11.00" fill="#000000">description</text>
<polygon fill="none" stroke="#000000" points="165,-313.2 165,-335.2 238,-335.2 238,-313.2 165,-313.2"/>
<text text-anchor="start" x="167.8791" y="-320.9" font-family="Helvetica,sans-Serif" font-size="11.00" fill="#000000">varchar[4000]</text>
<polygon fill="none" stroke="#000000" points="10,-291.2 10,-313.2 165,-313.2 165,-291.2 10,-291.2"/>
<text text-anchor="start" x="30" y="-298.3" font-family="Helvetica,sans-Serif" font-size="11.00" fill="#000000">status</text>
<polygon fill="none" stroke="#000000" points="165,-291.2 165,-313.2 238,-313.2 238,-291.2 165,-291.2"/>
<text text-anchor="start" x="168" y="-298.9" font-family="Helvetica,sans-Serif" font-size="11.00" fill="#000000">varchar[255]</text>
<polygon fill="none" stroke="#000000" points="10,-269.2 10,-291.2 165,-291.2 165,-269.2 10,-269.2"/>
<text text-anchor="start" x="30" y="-276.3" font-family="Helvetica,sans-Serif" font-size="11.00" fill="#000000">access_vector</text>
<polygon fill="none" stroke="#000000" points="165,-269.2 165,-291.2 238,-291.2 238,-269.2 165,-269.2"/>
<text text-anchor="start" x="168" y="-276.9" font-family="Helvetica,sans-Serif" font-size="11.00" fill="#000000">varchar[255]</text>
<polygon fill="none" stroke="#000000" points="10,-247.2 10,-269.2 165,-269.2 165,-247.2 10,-247.2"/>
<text text-anchor="start" x="30" y="-254.3" font-family="Helvetica,sans-Serif" font-size="11.00" fill="#000000">access_complexity</text>
<polygon fill="none" stroke="#000000" points="165,-247.2 165,-269.2 238,-269.2 238,-247.2 165,-247.2"/>
<text text-anchor="start" x="168" y="-254.9" font-family="Helvetica,sans-Serif" font-size="11.00" fill="#000000">varchar[255]</text>
<polygon fill="none" stroke="#000000" points="10,-225.2 10,-247.2 165,-247.2 165,-225.2 10,-225.2"/>
<text text-anchor="start" x="30" y="-232.3" font-family="Helvetica,sans-Serif" font-size="11.00" fill="#000000">authentication</text>
<polygon fill="none" stroke="#000000" points="165,-225.2 165,-247.2 238,-247.2 238,-225.2 165,-225.2"/>
<text text-anchor="start" x="168" y="-232.9" font-family="Helvetica,sans-Serif" font-size="11.00" fill="#000000">varchar[255]</text>
<polygon fill="none" stroke="#000000" points="10,-203.2 10,-225.2 165,-225.2 165,-203.2 10,-203.2"/>
<text text-anchor="start" x="30" y="-210.3" font-family="Helvetica,sans-Serif" font-size="11.00" fill="#000000">confidentiality_impact</text>
<polygon fill="none" stroke="#000000" points="165,-203.2 165,-225.2 238,-225.2 238,-203.2 165,-203.2"/>
<text text-anchor="start" x="168" y="-210.9" font-family="Helvetica,sans-Serif" font-size="11.00" fill="#000000">varchar[255]</text>
<polygon fill="none" stroke="#000000" points="10,-181.2 10,-203.2 165,-203.2 165,-181.2 10,-181.2"/>
<text text-anchor="start" x="30" y="-188.3" font-family="Helvetica,sans-Serif" font-size="11.00" fill="#000000">integrity_impact</text>
<polygon fill="none" stroke="#000000" points="165,-181.2 165,-203.2 238,-203.2 238,-181.2 165,-181.2"/>
<text text-anchor="start" x="168" y="-188.9" font-family="Helvetica,sans-Serif" font-size="11.00" fill="#000000">varchar[255]</text>
<polygon fill="none" stroke="#000000" points="10,-159.2 10,-181.2 165,-181.2 165,-159.2 10,-159.2"/>
<text text-anchor="start" x="30" y="-166.3" font-family="Helvetica,sans-Serif" font-size="11.00" fill="#000000">score</text>
<polygon fill="none" stroke="#000000" points="165,-159.2 165,-181.2 238,-181.2 238,-159.2 165,-159.2"/>
<text text-anchor="start" x="168" y="-166.9" font-family="Helvetica,sans-Serif" font-size="11.00" fill="#000000">decimal[10,2]</text>
<polygon fill="none" stroke="#000000" points="10,-137.2 10,-159.2 165,-159.2 165,-137.2 10,-137.2"/>
<text text-anchor="start" x="30" y="-144.3" font-family="Helvetica,sans-Serif" font-size="11.00" fill="#000000">cwe</text>
<polygon fill="none" stroke="#000000" points="165,-137.2 165,-159.2 238,-159.2 238,-137.2 165,-137.2"/>
<text text-anchor="start" x="167.8791" y="-144.9" font-family="Helvetica,sans-Serif" font-size="11.00" fill="#000000">varchar[4000]</text>
<polygon fill="#ffffff" stroke="transparent" points="10,-118.2 10,-137.2 79,-137.2 79,-118.2 10,-118.2"/>
<polygon fill="none" stroke="#000000" points="10,-118.2 10,-137.2 79,-137.2 79,-118.2 10,-118.2"/>
<text text-anchor="start" x="13" y="-124.3" font-family="Helvetica,sans-Serif" font-size="11.00" fill="#000000">&lt; 0</text>
<polygon fill="#ffffff" stroke="transparent" points="79,-118.2 79,-137.2 165,-137.2 165,-118.2 79,-118.2"/>
<polygon fill="none" stroke="#000000" points="79,-118.2 79,-137.2 165,-137.2 165,-118.2 79,-118.2"/>
<text text-anchor="start" x="129.6105" y="-124.3" font-family="Helvetica,sans-Serif" font-size="11.00" fill="#000000">0 rows</text>
<polygon fill="#ffffff" stroke="transparent" points="165,-118.2 165,-137.2 238,-137.2 238,-118.2 165,-118.2"/>
<polygon fill="none" stroke="#000000" points="165,-118.2 165,-137.2 238,-137.2 238,-118.2 165,-118.2"/>
<text text-anchor="start" x="219.4053" y="-124.3" font-family="Helvetica,sans-Serif" font-size="11.00" fill="#000000">6 &gt;</text>
<polygon fill="none" stroke="#000000" stroke-width="2" points="9,-117.2 9,-425.2 239,-425.2 239,-117.2 9,-117.2"/>
</a>
</g>
</g>
<!-- artifacts_dot_net_vulnerabilities_map&#45;&gt;artifacts_vulnerabilities -->
<g id="edge1" class="edge">
<title>artifacts_dot_net_vulnerabilities_map:w&#45;&gt;artifacts_vulnerabilities:e</title>
<path fill="none" stroke="#000000" d="M275.4434,-708.1264C229.4158,-667.0339 305.2738,-390.2 238,-390.2"/>
<polygon fill="#000000" stroke="#000000" points="281.5075,-710.3959 287.7382,-716.5716 285.2538,-711.7979 289,-713.2 289,-713.2 289,-713.2 285.2538,-711.7979 290.2618,-709.8284 281.5075,-710.3959 281.5075,-710.3959"/>
<ellipse fill="none" stroke="#000000" cx="278.5105" cy="-709.2743" rx="3.2" ry="3.2"/>
</g>
<!-- artifacts_java_vulnerabilities_map -->
<g id="node3" class="node">
<title>artifacts_java_vulnerabilities_map</title>
<g id="a_node3"><a xlink:href="../../tables/artifacts_java_vulnerabilities_map.html" xlink:title="artifacts_java_vulnerabilities_map" target="_top">
<polygon fill="#ffffff" stroke="transparent" points="299,-554.2 299,-662.2 515,-662.2 515,-554.2 299,-554.2"/>
<polygon fill="#f5f5f5" stroke="transparent" points="299,-639.2 299,-662.2 515,-662.2 515,-639.2 299,-639.2"/>
<polygon fill="none" stroke="#000000" points="299,-639.2 299,-662.2 515,-662.2 515,-639.2 299,-639.2"/>
<text text-anchor="start" x="304" y="-648.3" font-family="Helvetica,sans-Serif" font-weight="bold" font-size="11.00" fill="#000000">artifacts_java_vulnerabilities_map</text>
<text text-anchor="start" x="480.0437" y="-647.3" font-family="Helvetica,sans-Serif" font-size="11.00" fill="#000000">[table]</text>
<polygon fill="none" stroke="#000000" points="299,-617.2 299,-639.2 515,-639.2 515,-617.2 299,-617.2"/>
<image xlink:href="../../images/primaryKeys.png" width="11px" height="12px" preserveAspectRatio="xMinYMin meet" x="304" y="-634.2"/>
<text text-anchor="start" x="319" y="-624.3" font-family="Helvetica,sans-Serif" font-size="11.00" fill="#000000">artifacts_id</text>
<polygon fill="none" stroke="#000000" points="299,-595.2 299,-617.2 515,-617.2 515,-595.2 299,-595.2"/>
<image xlink:href="../../images/primaryKeys.png" width="11px" height="12px" preserveAspectRatio="xMinYMin meet" x="304" y="-612.2"/>
<text text-anchor="start" x="319" y="-602.3" font-family="Helvetica,sans-Serif" font-size="11.00" fill="#000000">vulnerabilities_id</text>
<polygon fill="none" stroke="#000000" points="299,-573.2 299,-595.2 515,-595.2 515,-573.2 299,-573.2"/>
<image xlink:href="../../images/foreignKeys.png" width="11px" height="12px" preserveAspectRatio="xMinYMin meet" x="304" y="-590.2"/>
<text text-anchor="start" x="319" y="-580.3" font-family="Helvetica,sans-Serif" font-size="11.00" fill="#000000">vulnerability_id</text>
<polygon fill="#ffffff" stroke="transparent" points="299,-554.2 299,-573.2 392,-573.2 392,-554.2 299,-554.2"/>
<polygon fill="none" stroke="#000000" points="299,-554.2 299,-573.2 392,-573.2 392,-554.2 299,-554.2"/>
<text text-anchor="start" x="302" y="-560.3" font-family="Helvetica,sans-Serif" font-size="11.00" fill="#000000">&lt; 2</text>
<polygon fill="#ffffff" stroke="transparent" points="392,-554.2 392,-573.2 466,-573.2 466,-554.2 392,-554.2"/>
<polygon fill="none" stroke="#000000" points="392,-554.2 392,-573.2 466,-573.2 466,-554.2 392,-554.2"/>
<text text-anchor="start" x="430.6105" y="-560.3" font-family="Helvetica,sans-Serif" font-size="11.00" fill="#000000">0 rows</text>
<polygon fill="#ffffff" stroke="transparent" points="466,-554.2 466,-573.2 515,-573.2 515,-554.2 466,-554.2"/>
<polygon fill="none" stroke="#000000" points="466,-554.2 466,-573.2 515,-573.2 515,-554.2 466,-554.2"/>
<text text-anchor="start" x="505.8862" y="-560.3" font-family="Helvetica,sans-Serif" font-size="11.00" fill="#000000"> &#160;</text>
</a>
</g>
</g>
<!-- artifacts_java_vulnerabilities_map&#45;&gt;artifacts_vulnerabilities -->
<g id="edge2" class="edge">
<title>artifacts_java_vulnerabilities_map:w&#45;&gt;artifacts_vulnerabilities:e</title>
<path fill="none" stroke="#000000" d="M284.4131,-582.0213C222.766,-560.7078 322.7351,-390.2 238,-390.2"/>
<polygon fill="#000000" stroke="#000000" points="291.0878,-583.0182 298.4682,-587.7605 295.0439,-583.6091 299,-584.2 299,-584.2 299,-584.2 295.0439,-583.6091 299.5318,-580.6395 291.0878,-583.0182 291.0878,-583.0182"/>
<ellipse fill="none" stroke="#000000" cx="287.9229" cy="-582.5454" rx="3.2" ry="3.2"/>
</g>
<!-- artifacts_node_vulnerabilities_map -->
<g id="node4" class="node">
<title>artifacts_node_vulnerabilities_map</title>
<g id="a_node4"><a xlink:href="../../tables/artifacts_node_vulnerabilities_map.html" xlink:title="artifacts_node_vulnerabilities_map" target="_top">
<polygon fill="#ffffff" stroke="transparent" points="296.5,-425.2 296.5,-533.2 517.5,-533.2 517.5,-425.2 296.5,-425.2"/>
<polygon fill="#f5f5f5" stroke="transparent" points="297,-510.2 297,-533.2 518,-533.2 518,-510.2 297,-510.2"/>
<polygon fill="none" stroke="#000000" points="297,-510.2 297,-533.2 518,-533.2 518,-510.2 297,-510.2"/>
<text text-anchor="start" x="302" y="-519.3" font-family="Helvetica,sans-Serif" font-weight="bold" font-size="11.00" fill="#000000">artifacts_node_vulnerabilities_map</text>
<text text-anchor="start" x="483.0437" y="-518.3" font-family="Helvetica,sans-Serif" font-size="11.00" fill="#000000">[table]</text>
<polygon fill="none" stroke="#000000" points="297,-488.2 297,-510.2 518,-510.2 518,-488.2 297,-488.2"/>
<image xlink:href="../../images/primaryKeys.png" width="11px" height="12px" preserveAspectRatio="xMinYMin meet" x="302" y="-505.2"/>
<text text-anchor="start" x="317" y="-495.3" font-family="Helvetica,sans-Serif" font-size="11.00" fill="#000000">artifacts_id</text>
<polygon fill="none" stroke="#000000" points="297,-466.2 297,-488.2 518,-488.2 518,-466.2 297,-466.2"/>
<image xlink:href="../../images/primaryKeys.png" width="11px" height="12px" preserveAspectRatio="xMinYMin meet" x="302" y="-483.2"/>
<text text-anchor="start" x="317" y="-473.3" font-family="Helvetica,sans-Serif" font-size="11.00" fill="#000000">vulnerabilities_id</text>
<polygon fill="none" stroke="#000000" points="297,-444.2 297,-466.2 518,-466.2 518,-444.2 297,-444.2"/>
<image xlink:href="../../images/foreignKeys.png" width="11px" height="12px" preserveAspectRatio="xMinYMin meet" x="302" y="-461.2"/>
<text text-anchor="start" x="317" y="-451.3" font-family="Helvetica,sans-Serif" font-size="11.00" fill="#000000">vulnerability_id</text>
<polygon fill="#ffffff" stroke="transparent" points="297,-425.2 297,-444.2 393,-444.2 393,-425.2 297,-425.2"/>
<polygon fill="none" stroke="#000000" points="297,-425.2 297,-444.2 393,-444.2 393,-425.2 297,-425.2"/>
<text text-anchor="start" x="300" y="-431.3" font-family="Helvetica,sans-Serif" font-size="11.00" fill="#000000">&lt; 2</text>
<polygon fill="#ffffff" stroke="transparent" points="393,-425.2 393,-444.2 468,-444.2 468,-425.2 393,-425.2"/>
<polygon fill="none" stroke="#000000" points="393,-425.2 393,-444.2 468,-444.2 468,-425.2 393,-425.2"/>
<text text-anchor="start" x="432.6105" y="-431.3" font-family="Helvetica,sans-Serif" font-size="11.00" fill="#000000">0 rows</text>
<polygon fill="#ffffff" stroke="transparent" points="468,-425.2 468,-444.2 518,-444.2 518,-425.2 468,-425.2"/>
<polygon fill="none" stroke="#000000" points="468,-425.2 468,-444.2 518,-444.2 518,-425.2 468,-425.2"/>
<text text-anchor="start" x="508.8862" y="-431.3" font-family="Helvetica,sans-Serif" font-size="11.00" fill="#000000"> &#160;</text>
</a>
</g>
</g>
<!-- artifacts_node_vulnerabilities_map&#45;&gt;artifacts_vulnerabilities -->
<g id="edge3" class="edge">
<title>artifacts_node_vulnerabilities_map:w&#45;&gt;artifacts_vulnerabilities:e</title>
<path fill="none" stroke="#000000" d="M283.0833,-451.3286C262.3556,-437.3353 271.2237,-390.2 238,-390.2"/>
<polygon fill="#000000" stroke="#000000" points="289.2927,-453.0559 296.0352,-458.6683 293.1463,-454.128 297,-455.2 297,-455.2 297,-455.2 293.1463,-454.128 297.9648,-451.7317 289.2927,-453.0559 289.2927,-453.0559"/>
<ellipse fill="none" stroke="#000000" cx="286.2097" cy="-452.1983" rx="3.2" ry="3.2"/>
</g>
<!-- artifacts_proxy_vulnerabilities_map -->
<g id="node5" class="node">
<title>artifacts_proxy_vulnerabilities_map</title>
<g id="a_node5"><a xlink:href="../../tables/artifacts_proxy_vulnerabilities_map.html" xlink:title="artifacts_proxy_vulnerabilities_map" target="_top">
<polygon fill="#ffffff" stroke="transparent" points="294.5,-296.2 294.5,-404.2 519.5,-404.2 519.5,-296.2 294.5,-296.2"/>
<polygon fill="#f5f5f5" stroke="transparent" points="295,-381.2 295,-404.2 520,-404.2 520,-381.2 295,-381.2"/>
<polygon fill="none" stroke="#000000" points="295,-381.2 295,-404.2 520,-404.2 520,-381.2 295,-381.2"/>
<text text-anchor="start" x="300" y="-390.3" font-family="Helvetica,sans-Serif" font-weight="bold" font-size="11.00" fill="#000000">artifacts_proxy_vulnerabilities_map</text>
<text text-anchor="start" x="485.0437" y="-389.3" font-family="Helvetica,sans-Serif" font-size="11.00" fill="#000000">[table]</text>
<polygon fill="none" stroke="#000000" points="295,-359.2 295,-381.2 520,-381.2 520,-359.2 295,-359.2"/>
<image xlink:href="../../images/primaryKeys.png" width="11px" height="12px" preserveAspectRatio="xMinYMin meet" x="300" y="-376.2"/>
<text text-anchor="start" x="315" y="-366.3" font-family="Helvetica,sans-Serif" font-size="11.00" fill="#000000">artifacts_id</text>
<polygon fill="none" stroke="#000000" points="295,-337.2 295,-359.2 520,-359.2 520,-337.2 295,-337.2"/>
<image xlink:href="../../images/primaryKeys.png" width="11px" height="12px" preserveAspectRatio="xMinYMin meet" x="300" y="-354.2"/>
<text text-anchor="start" x="315" y="-344.3" font-family="Helvetica,sans-Serif" font-size="11.00" fill="#000000">vulnerabilities_id</text>
<polygon fill="none" stroke="#000000" points="295,-315.2 295,-337.2 520,-337.2 520,-315.2 295,-315.2"/>
<image xlink:href="../../images/foreignKeys.png" width="11px" height="12px" preserveAspectRatio="xMinYMin meet" x="300" y="-332.2"/>
<text text-anchor="start" x="315" y="-322.3" font-family="Helvetica,sans-Serif" font-size="11.00" fill="#000000">vulnerability_id</text>
<polygon fill="#ffffff" stroke="transparent" points="295,-296.2 295,-315.2 393,-315.2 393,-296.2 295,-296.2"/>
<polygon fill="none" stroke="#000000" points="295,-296.2 295,-315.2 393,-315.2 393,-296.2 295,-296.2"/>
<text text-anchor="start" x="298" y="-302.3" font-family="Helvetica,sans-Serif" font-size="11.00" fill="#000000">&lt; 2</text>
<polygon fill="#ffffff" stroke="transparent" points="393,-296.2 393,-315.2 469,-315.2 469,-296.2 393,-296.2"/>
<polygon fill="none" stroke="#000000" points="393,-296.2 393,-315.2 469,-315.2 469,-296.2 393,-296.2"/>
<text text-anchor="start" x="433.6105" y="-302.3" font-family="Helvetica,sans-Serif" font-size="11.00" fill="#000000">0 rows</text>
<polygon fill="#ffffff" stroke="transparent" points="469,-296.2 469,-315.2 520,-315.2 520,-296.2 469,-296.2"/>
<polygon fill="none" stroke="#000000" points="469,-296.2 469,-315.2 520,-315.2 520,-296.2 469,-296.2"/>
<text text-anchor="start" x="510.8862" y="-302.3" font-family="Helvetica,sans-Serif" font-size="11.00" fill="#000000"> &#160;</text>
</a>
</g>
</g>
<!-- artifacts_proxy_vulnerabilities_map&#45;&gt;artifacts_vulnerabilities -->
<g id="edge4" class="edge">
<title>artifacts_proxy_vulnerabilities_map:w&#45;&gt;artifacts_vulnerabilities:e</title>
<path fill="none" stroke="#000000" d="M280.9029,-330.3992C261.5055,-344.6375 270.1386,-390.2 238,-390.2"/>
<polygon fill="#000000" stroke="#000000" points="287.3329,-328.4839 296.0278,-329.6502 291.1665,-327.3419 295,-326.2 295,-326.2 295,-326.2 291.1665,-327.3419 293.9722,-322.7498 287.3329,-328.4839 287.3329,-328.4839"/>
<ellipse fill="none" stroke="#000000" cx="284.2661" cy="-329.3974" rx="3.2" ry="3.2"/>
</g>
<!-- artifacts_python_vulnerabilities_map -->
<g id="node6" class="node">
<title>artifacts_python_vulnerabilities_map</title>
<g id="a_node6"><a xlink:href="../../tables/artifacts_python_vulnerabilities_map.html" xlink:title="artifacts_python_vulnerabilities_map" target="_top">
<polygon fill="#ffffff" stroke="transparent" points="290.5,-167.2 290.5,-275.2 523.5,-275.2 523.5,-167.2 290.5,-167.2"/>
<polygon fill="#f5f5f5" stroke="transparent" points="291,-252.2 291,-275.2 524,-275.2 524,-252.2 291,-252.2"/>
<polygon fill="none" stroke="#000000" points="291,-252.2 291,-275.2 524,-275.2 524,-252.2 291,-252.2"/>
<text text-anchor="start" x="296" y="-261.3" font-family="Helvetica,sans-Serif" font-weight="bold" font-size="11.00" fill="#000000">artifacts_python_vulnerabilities_map</text>
<text text-anchor="start" x="489.0437" y="-260.3" font-family="Helvetica,sans-Serif" font-size="11.00" fill="#000000">[table]</text>
<polygon fill="none" stroke="#000000" points="291,-230.2 291,-252.2 524,-252.2 524,-230.2 291,-230.2"/>
<image xlink:href="../../images/primaryKeys.png" width="11px" height="12px" preserveAspectRatio="xMinYMin meet" x="296" y="-247.2"/>
<text text-anchor="start" x="311" y="-237.3" font-family="Helvetica,sans-Serif" font-size="11.00" fill="#000000">artifacts_id</text>
<polygon fill="none" stroke="#000000" points="291,-208.2 291,-230.2 524,-230.2 524,-208.2 291,-208.2"/>
<image xlink:href="../../images/primaryKeys.png" width="11px" height="12px" preserveAspectRatio="xMinYMin meet" x="296" y="-225.2"/>
<text text-anchor="start" x="311" y="-215.3" font-family="Helvetica,sans-Serif" font-size="11.00" fill="#000000">vulnerabilities_id</text>
<polygon fill="none" stroke="#000000" points="291,-186.2 291,-208.2 524,-208.2 524,-186.2 291,-186.2"/>
<image xlink:href="../../images/foreignKeys.png" width="11px" height="12px" preserveAspectRatio="xMinYMin meet" x="296" y="-203.2"/>
<text text-anchor="start" x="311" y="-193.3" font-family="Helvetica,sans-Serif" font-size="11.00" fill="#000000">vulnerability_id</text>
<polygon fill="#ffffff" stroke="transparent" points="291,-167.2 291,-186.2 393,-186.2 393,-167.2 291,-167.2"/>
<polygon fill="none" stroke="#000000" points="291,-167.2 291,-186.2 393,-186.2 393,-167.2 291,-167.2"/>
<text text-anchor="start" x="294" y="-173.3" font-family="Helvetica,sans-Serif" font-size="11.00" fill="#000000">&lt; 2</text>
<polygon fill="#ffffff" stroke="transparent" points="393,-167.2 393,-186.2 471,-186.2 471,-167.2 393,-167.2"/>
<polygon fill="none" stroke="#000000" points="393,-167.2 393,-186.2 471,-186.2 471,-167.2 393,-167.2"/>
<text text-anchor="start" x="435.6105" y="-173.3" font-family="Helvetica,sans-Serif" font-size="11.00" fill="#000000">0 rows</text>
<polygon fill="#ffffff" stroke="transparent" points="471,-167.2 471,-186.2 524,-186.2 524,-167.2 471,-167.2"/>
<polygon fill="none" stroke="#000000" points="471,-167.2 471,-186.2 524,-186.2 524,-167.2 471,-167.2"/>
<text text-anchor="start" x="514.8862" y="-173.3" font-family="Helvetica,sans-Serif" font-size="11.00" fill="#000000"> &#160;</text>
</a>
</g>
</g>
<!-- artifacts_python_vulnerabilities_map&#45;&gt;artifacts_vulnerabilities -->
<g id="edge5" class="edge">
<title>artifacts_python_vulnerabilities_map:w&#45;&gt;artifacts_vulnerabilities:e</title>
<path fill="none" stroke="#000000" d="M276.723,-199.3675C216.8246,-220.5711 321.3937,-390.2 238,-390.2"/>
<polygon fill="#000000" stroke="#000000" points="283.0906,-198.4008 291.5404,-200.7592 287.0453,-197.8004 291,-197.2 291,-197.2 291,-197.2 287.0453,-197.8004 290.4596,-193.6408 283.0906,-198.4008 283.0906,-198.4008"/>
<ellipse fill="none" stroke="#000000" cx="279.9269" cy="-198.8811" rx="3.2" ry="3.2"/>
</g>
<!-- artifacts_ruby_vulnerabilities_map -->
<g id="node7" class="node">
<title>artifacts_ruby_vulnerabilities_map</title>
<g id="a_node7"><a xlink:href="../../tables/artifacts_ruby_vulnerabilities_map.html" xlink:title="artifacts_ruby_vulnerabilities_map" target="_top">
<polygon fill="#ffffff" stroke="transparent" points="297.5,-38.2 297.5,-146.2 516.5,-146.2 516.5,-38.2 297.5,-38.2"/>
<polygon fill="#f5f5f5" stroke="transparent" points="298,-123.2 298,-146.2 517,-146.2 517,-123.2 298,-123.2"/>
<polygon fill="none" stroke="#000000" points="298,-123.2 298,-146.2 517,-146.2 517,-123.2 298,-123.2"/>
<text text-anchor="start" x="303" y="-132.3" font-family="Helvetica,sans-Serif" font-weight="bold" font-size="11.00" fill="#000000">artifacts_ruby_vulnerabilities_map</text>
<text text-anchor="start" x="482.0437" y="-131.3" font-family="Helvetica,sans-Serif" font-size="11.00" fill="#000000">[table]</text>
<polygon fill="none" stroke="#000000" points="298,-101.2 298,-123.2 517,-123.2 517,-101.2 298,-101.2"/>
<image xlink:href="../../images/primaryKeys.png" width="11px" height="12px" preserveAspectRatio="xMinYMin meet" x="303" y="-118.2"/>
<text text-anchor="start" x="318" y="-108.3" font-family="Helvetica,sans-Serif" font-size="11.00" fill="#000000">artifacts_id</text>
<polygon fill="none" stroke="#000000" points="298,-79.2 298,-101.2 517,-101.2 517,-79.2 298,-79.2"/>
<image xlink:href="../../images/primaryKeys.png" width="11px" height="12px" preserveAspectRatio="xMinYMin meet" x="303" y="-96.2"/>
<text text-anchor="start" x="318" y="-86.3" font-family="Helvetica,sans-Serif" font-size="11.00" fill="#000000">vulnerabilities_id</text>
<polygon fill="none" stroke="#000000" points="298,-57.2 298,-79.2 517,-79.2 517,-57.2 298,-57.2"/>
<image xlink:href="../../images/foreignKeys.png" width="11px" height="12px" preserveAspectRatio="xMinYMin meet" x="303" y="-74.2"/>
<text text-anchor="start" x="318" y="-64.3" font-family="Helvetica,sans-Serif" font-size="11.00" fill="#000000">vulnerability_id</text>
<polygon fill="#ffffff" stroke="transparent" points="298,-38.2 298,-57.2 393,-57.2 393,-38.2 298,-38.2"/>
<polygon fill="none" stroke="#000000" points="298,-38.2 298,-57.2 393,-57.2 393,-38.2 298,-38.2"/>
<text text-anchor="start" x="301" y="-44.3" font-family="Helvetica,sans-Serif" font-size="11.00" fill="#000000">&lt; 2</text>
<polygon fill="#ffffff" stroke="transparent" points="393,-38.2 393,-57.2 468,-57.2 468,-38.2 393,-38.2"/>
<polygon fill="none" stroke="#000000" points="393,-38.2 393,-57.2 468,-57.2 468,-38.2 393,-38.2"/>
<text text-anchor="start" x="432.6105" y="-44.3" font-family="Helvetica,sans-Serif" font-size="11.00" fill="#000000">0 rows</text>
<polygon fill="#ffffff" stroke="transparent" points="468,-38.2 468,-57.2 517,-57.2 517,-38.2 468,-38.2"/>
<polygon fill="none" stroke="#000000" points="468,-38.2 468,-57.2 517,-57.2 517,-38.2 468,-38.2"/>
<text text-anchor="start" x="507.8862" y="-44.3" font-family="Helvetica,sans-Serif" font-size="11.00" fill="#000000"> &#160;</text>
</a>
</g>
</g>
<!-- artifacts_ruby_vulnerabilities_map&#45;&gt;artifacts_vulnerabilities -->
<g id="edge6" class="edge">
<title>artifacts_ruby_vulnerabilities_map:w&#45;&gt;artifacts_vulnerabilities:e</title>
<path fill="none" stroke="#000000" d="M284.281,-73.2579C237.0429,-114.2232 305.385,-390.2 238,-390.2"/>
<polygon fill="#000000" stroke="#000000" points="290.4939,-70.9673 299.2453,-71.5778 294.2469,-69.5837 298,-68.2 298,-68.2 298,-68.2 294.2469,-69.5837 296.7547,-64.8222 290.4939,-70.9673 290.4939,-70.9673"/>
<ellipse fill="none" stroke="#000000" cx="287.4914" cy="-72.0743" rx="3.2" ry="3.2"/>
</g>
</g>
</svg>
