<?xml version="1.0" encoding="UTF-8" standalone="no"?>
<!DOCTYPE svg PUBLIC "-//W3C//DTD SVG 1.1//EN"
 "http://www.w3.org/Graphics/SVG/1.1/DTD/svg11.dtd">
<!-- Generated by graphviz version 2.40.1 (20161225.0304)
 -->
<!-- Title: oneDegreeRelationshipsDiagram Pages: 1 -->
<svg width="450pt" height="223pt"
 viewBox="0.00 0.00 450.00 222.70" xmlns="http://www.w3.org/2000/svg" xmlns:xlink="http://www.w3.org/1999/xlink">
<g id="graph0" class="graph" transform="scale(1 1) rotate(0) translate(4 218.7)">
<title>oneDegreeRelationshipsDiagram</title>
<polygon fill="#ffffff" stroke="transparent" points="-4,4 -4,-218.7 446,-218.7 446,4 -4,4"/>
<text text-anchor="middle" x="72.4936" y="-7.3" font-family="Helvetica,sans-Serif" font-size="11.00" fill="#000000">Generated by SchemaSpy</text>
<!-- artifacts_go_vulnerabilities_map -->
<g id="node1" class="node">
<title>artifacts_go_vulnerabilities_map</title>
<g id="a_node1"><a xlink:href="../../tables/artifacts_go_vulnerabilities_map.html" xlink:title="artifacts_go_vulnerabilities_map" target="_top">
<polygon fill="#ffffff" stroke="transparent" points="188,-120.7 188,-210.7 434,-210.7 434,-120.7 188,-120.7"/>
<polygon fill="#f5f5f5" stroke="transparent" points="190,-185.7 190,-208.7 432,-208.7 432,-185.7 190,-185.7"/>
<polygon fill="none" stroke="#000000" points="190,-185.7 190,-208.7 432,-208.7 432,-185.7 190,-185.7"/>
<text text-anchor="start" x="195" y="-194.8" font-family="Helvetica,sans-Serif" font-weight="bold" font-size="11.00" fill="#000000">artifacts_go_vulnerabilities_map</text>
<text text-anchor="start" x="397.0437" y="-193.8" font-family="Helvetica,sans-Serif" font-size="11.00" fill="#000000">[table]</text>
<polygon fill="none" stroke="#000000" points="190,-163.7 190,-185.7 397,-185.7 397,-163.7 190,-163.7"/>
<image xlink:href="../../images/primaryKeys.png" width="11px" height="12px" preserveAspectRatio="xMinYMin meet" x="195" y="-180.7"/>
<text text-anchor="start" x="210" y="-170.8" font-family="Helvetica,sans-Serif" font-size="11.00" fill="#000000">artifacts_id</text>
<polygon fill="none" stroke="#000000" points="397,-163.7 397,-185.7 432,-185.7 432,-163.7 397,-163.7"/>
<text text-anchor="start" x="399.5219" y="-171.4" font-family="Helvetica,sans-Serif" font-size="11.00" fill="#000000">int[10]</text>
<polygon fill="none" stroke="#000000" points="190,-141.7 190,-163.7 397,-163.7 397,-141.7 190,-141.7"/>
<image xlink:href="../../images/primaryKeys.png" width="11px" height="12px" preserveAspectRatio="xMinYMin meet" x="195" y="-158.7"/>
<text text-anchor="start" x="210" y="-148.8" font-family="Helvetica,sans-Serif" font-size="11.00" fill="#000000">vulnerabilities_id</text>
<polygon fill="none" stroke="#000000" points="397,-141.7 397,-163.7 432,-163.7 432,-141.7 397,-141.7"/>
<text text-anchor="start" x="399.5219" y="-149.4" font-family="Helvetica,sans-Serif" font-size="11.00" fill="#000000">int[10]</text>
<polygon fill="#ffffff" stroke="transparent" points="190,-122.7 190,-141.7 285,-141.7 285,-122.7 190,-122.7"/>
<polygon fill="none" stroke="#000000" points="190,-122.7 190,-141.7 285,-141.7 285,-122.7 190,-122.7"/>
<text text-anchor="start" x="193" y="-128.8" font-family="Helvetica,sans-Serif" font-size="11.00" fill="#000000">&lt; 1</text>
<polygon fill="#ffffff" stroke="transparent" points="285,-122.7 285,-141.7 397,-141.7 397,-122.7 285,-122.7"/>
<polygon fill="none" stroke="#000000" points="285,-122.7 285,-141.7 397,-141.7 397,-122.7 285,-122.7"/>
<text text-anchor="start" x="361.6105" y="-128.8" font-family="Helvetica,sans-Serif" font-size="11.00" fill="#000000">0 rows</text>
<polygon fill="#ffffff" stroke="transparent" points="397,-122.7 397,-141.7 432,-141.7 432,-122.7 397,-122.7"/>
<polygon fill="none" stroke="#000000" points="397,-122.7 397,-141.7 432,-141.7 432,-122.7 397,-122.7"/>
<text text-anchor="start" x="413.4053" y="-128.8" font-family="Helvetica,sans-Serif" font-size="11.00" fill="#000000">0 &gt;</text>
<polygon fill="none" stroke="#000000" stroke-width="2" points="189,-121.7 189,-209.7 433,-209.7 433,-121.7 189,-121.7"/>
</a>
</g>
</g>
<!-- artifacts_go -->
<g id="node2" class="node">
<title>artifacts_go</title>
<g id="a_node2"><a xlink:href="../../tables/artifacts_go.html" xlink:title="artifacts_go" target="_top">
<polygon fill="#ffffff" stroke="transparent" points="8,-38.2 8,-209.2 139,-209.2 139,-38.2 8,-38.2"/>
<polygon fill="#f5f5f5" stroke="transparent" points="8.5,-185.7 8.5,-208.7 139.5,-208.7 139.5,-185.7 8.5,-185.7"/>
<polygon fill="none" stroke="#000000" points="8.5,-185.7 8.5,-208.7 139.5,-208.7 139.5,-185.7 8.5,-185.7"/>
<text text-anchor="start" x="13.5" y="-194.8" font-family="Helvetica,sans-Serif" font-weight="bold" font-size="11.00" fill="#000000">artifacts_go</text>
<text text-anchor="start" x="104.5437" y="-193.8" font-family="Helvetica,sans-Serif" font-size="11.00" fill="#000000">[table]</text>
<polygon fill="none" stroke="#000000" points="8.5,-163.7 8.5,-185.7 139.5,-185.7 139.5,-163.7 8.5,-163.7"/>
<image xlink:href="../../images/primaryKeys.png" width="11px" height="12px" preserveAspectRatio="xMinYMin meet" x="13.5" y="-180.7"/>
<text text-anchor="start" x="28.5" y="-170.8" font-family="Helvetica,sans-Serif" font-size="11.00" fill="#000000">id</text>
<polygon fill="#ffffff" stroke="transparent" points="8.5,-141.7 8.5,-163.7 139.5,-163.7 139.5,-141.7 8.5,-141.7"/>
<polygon fill="none" stroke="#000000" points="8.5,-141.7 8.5,-163.7 139.5,-163.7 139.5,-141.7 8.5,-141.7"/>
<text text-anchor="start" x="28.5" y="-148.8" font-family="Helvetica,sans-Serif" font-size="11.00" fill="#000000">version</text>
<polygon fill="#ffffff" stroke="transparent" points="8.5,-119.7 8.5,-141.7 139.5,-141.7 139.5,-119.7 8.5,-119.7"/>
<polygon fill="none" stroke="#000000" points="8.5,-119.7 8.5,-141.7 139.5,-141.7 139.5,-119.7 8.5,-119.7"/>
<text text-anchor="start" x="28.5" y="-126.8" font-family="Helvetica,sans-Serif" font-size="11.00" fill="#000000">hash</text>
<polygon fill="#ffffff" stroke="transparent" points="8.5,-97.7 8.5,-119.7 139.5,-119.7 139.5,-97.7 8.5,-97.7"/>
<polygon fill="none" stroke="#000000" points="8.5,-97.7 8.5,-119.7 139.5,-119.7 139.5,-97.7 8.5,-97.7"/>
<text text-anchor="start" x="28.5" y="-104.8" font-family="Helvetica,sans-Serif" font-size="11.00" fill="#000000">group_name</text>
<polygon fill="#ffffff" stroke="transparent" points="8.5,-75.7 8.5,-97.7 139.5,-97.7 139.5,-75.7 8.5,-75.7"/>
<polygon fill="none" stroke="#000000" points="8.5,-75.7 8.5,-97.7 139.5,-97.7 139.5,-75.7 8.5,-75.7"/>
<text text-anchor="start" x="28.5" y="-82.8" font-family="Helvetica,sans-Serif" font-size="11.00" fill="#000000">artifact_name</text>
<polygon fill="none" stroke="#000000" points="8.5,-56.7 8.5,-75.7 139.5,-75.7 139.5,-56.7 8.5,-56.7"/>
<text text-anchor="start" x="11.5" y="-62.8" font-family="Helvetica,sans-Serif" font-size="11.00" fill="#000000">...</text>
<polygon fill="#ffffff" stroke="transparent" points="8.5,-37.7 8.5,-56.7 50.5,-56.7 50.5,-37.7 8.5,-37.7"/>
<polygon fill="none" stroke="#000000" points="8.5,-37.7 8.5,-56.7 50.5,-56.7 50.5,-37.7 8.5,-37.7"/>
<text text-anchor="start" x="11.5" y="-43.8" font-family="Helvetica,sans-Serif" font-size="11.00" fill="#000000"> &#160;</text>
<polygon fill="#ffffff" stroke="transparent" points="50.5,-37.7 50.5,-56.7 103.5,-56.7 103.5,-37.7 50.5,-37.7"/>
<polygon fill="none" stroke="#000000" points="50.5,-37.7 50.5,-56.7 103.5,-56.7 103.5,-37.7 50.5,-37.7"/>
<text text-anchor="start" x="68.1105" y="-43.8" font-family="Helvetica,sans-Serif" font-size="11.00" fill="#000000">0 rows</text>
<polygon fill="#ffffff" stroke="transparent" points="103.5,-37.7 103.5,-56.7 139.5,-56.7 139.5,-37.7 103.5,-37.7"/>
<polygon fill="none" stroke="#000000" points="103.5,-37.7 103.5,-56.7 139.5,-56.7 139.5,-37.7 103.5,-37.7"/>
<text text-anchor="start" x="120.9053" y="-43.8" font-family="Helvetica,sans-Serif" font-size="11.00" fill="#000000">1 &gt;</text>
</a>
</g>
</g>
<!-- artifacts_go_vulnerabilities_map&#45;&gt;artifacts_go -->
<g id="edge1" class="edge">
<title>artifacts_go_vulnerabilities_map:w&#45;&gt;artifacts_go:e</title>
<path fill="none" stroke="#000000" d="M175.4203,-174.7C163.5435,-174.7 156.158,-174.7 139.5,-174.7"/>
<polygon fill="#000000" stroke="#000000" points="182,-174.7001 190,-178.3 186,-174.7 190,-174.7 190,-174.7 190,-174.7 186,-174.7 190,-171.1 182,-174.7001 182,-174.7001"/>
<ellipse fill="none" stroke="#000000" cx="178.8" cy="-174.7001" rx="3.2" ry="3.2"/>
</g>
</g>
</svg>
