<?xml version="1.0" encoding="UTF-8" standalone="no"?>
<!DOCTYPE svg PUBLIC "-//W3C//DTD SVG 1.1//EN"
 "http://www.w3.org/Graphics/SVG/1.1/DTD/svg11.dtd">
<!-- Generated by graphviz version 2.40.1 (20161225.0304)
 -->
<!-- Title: twoDegreesRelationshipsDiagram Pages: 1 -->
<svg width="527pt" height="633pt"
 viewBox="0.00 0.00 527.00 633.20" xmlns="http://www.w3.org/2000/svg" xmlns:xlink="http://www.w3.org/1999/xlink">
<g id="graph0" class="graph" transform="scale(1 1) rotate(0) translate(4 629.2)">
<title>twoDegreesRelationshipsDiagram</title>
<polygon fill="#ffffff" stroke="transparent" points="-4,4 -4,-629.2 523,-629.2 523,4 -4,4"/>
<text text-anchor="middle" x="72.4936" y="-7.3" font-family="Helvetica,sans-Serif" font-size="11.00" fill="#000000">Generated by SchemaSpy</text>
<!-- artifacts_dot_net_vulnerabilities_map -->
<g id="node1" class="node">
<title>artifacts_dot_net_vulnerabilities_map</title>
<g id="a_node1"><a xlink:href="../../tables/artifacts_dot_net_vulnerabilities_map.html" xlink:title="artifacts_dot_net_vulnerabilities_map" target="_top">
<polygon fill="#ffffff" stroke="transparent" points="249.5,-314.2 249.5,-375.2 473.5,-375.2 473.5,-314.2 249.5,-314.2"/>
<polygon fill="#f5f5f5" stroke="transparent" points="249.5,-351.7 249.5,-374.7 473.5,-374.7 473.5,-351.7 249.5,-351.7"/>
<polygon fill="none" stroke="#000000" points="249.5,-351.7 249.5,-374.7 473.5,-374.7 473.5,-351.7 249.5,-351.7"/>
<text text-anchor="start" x="254.2297" y="-360.8" font-family="Helvetica,sans-Serif" font-weight="bold" font-size="11.00" fill="#000000">artifacts_dot_net_vulnerabilities_map</text>
<text text-anchor="start" x="439.0219" y="-359.8" font-family="Helvetica,sans-Serif" font-size="11.00" fill="#000000">[table]</text>
<polygon fill="none" stroke="#000000" points="249.5,-332.7 249.5,-351.7 473.5,-351.7 473.5,-332.7 249.5,-332.7"/>
<text text-anchor="start" x="252.5" y="-338.8" font-family="Helvetica,sans-Serif" font-size="11.00" fill="#000000">...</text>
<polygon fill="#ffffff" stroke="transparent" points="249.5,-313.7 249.5,-332.7 346.5,-332.7 346.5,-313.7 249.5,-313.7"/>
<polygon fill="none" stroke="#000000" points="249.5,-313.7 249.5,-332.7 346.5,-332.7 346.5,-313.7 249.5,-313.7"/>
<text text-anchor="start" x="252.5" y="-319.8" font-family="Helvetica,sans-Serif" font-size="11.00" fill="#000000">&lt; 2</text>
<polygon fill="#ffffff" stroke="transparent" points="346.5,-313.7 346.5,-332.7 422.5,-332.7 422.5,-313.7 346.5,-313.7"/>
<polygon fill="none" stroke="#000000" points="346.5,-313.7 346.5,-332.7 422.5,-332.7 422.5,-313.7 346.5,-313.7"/>
<text text-anchor="start" x="387.1105" y="-319.8" font-family="Helvetica,sans-Serif" font-size="11.00" fill="#000000">0 rows</text>
<polygon fill="#ffffff" stroke="transparent" points="422.5,-313.7 422.5,-332.7 473.5,-332.7 473.5,-313.7 422.5,-313.7"/>
<polygon fill="none" stroke="#000000" points="422.5,-313.7 422.5,-332.7 473.5,-332.7 473.5,-313.7 422.5,-313.7"/>
<text text-anchor="start" x="464.3862" y="-319.8" font-family="Helvetica,sans-Serif" font-size="11.00" fill="#000000"> &#160;</text>
</a>
</g>
</g>
<!-- artifacts_vulnerabilities -->
<g id="node2" class="node">
<title>artifacts_vulnerabilities</title>
<g id="a_node2"><a xlink:href="../../tables/artifacts_vulnerabilities.html" xlink:title="artifacts_vulnerabilities" target="_top">
<polygon fill="#ffffff" stroke="transparent" points="8,-312.2 8,-417.2 163,-417.2 163,-312.2 8,-312.2"/>
<polygon fill="#f5f5f5" stroke="transparent" points="8.5,-393.7 8.5,-416.7 163.5,-416.7 163.5,-393.7 8.5,-393.7"/>
<polygon fill="none" stroke="#000000" points="8.5,-393.7 8.5,-416.7 163.5,-416.7 163.5,-393.7 8.5,-393.7"/>
<text text-anchor="start" x="13.5" y="-402.8" font-family="Helvetica,sans-Serif" font-weight="bold" font-size="11.00" fill="#000000">artifacts_vulnerabilities</text>
<text text-anchor="start" x="129.0219" y="-401.8" font-family="Helvetica,sans-Serif" font-size="11.00" fill="#000000">[table]</text>
<polygon fill="none" stroke="#000000" points="8.5,-371.7 8.5,-393.7 163.5,-393.7 163.5,-371.7 8.5,-371.7"/>
<image xlink:href="../../images/primaryKeys.png" width="11px" height="12px" preserveAspectRatio="xMinYMin meet" x="13.5" y="-388.7"/>
<text text-anchor="start" x="28.5" y="-378.8" font-family="Helvetica,sans-Serif" font-size="11.00" fill="#000000">id</text>
<polygon fill="#ffffff" stroke="transparent" points="8.5,-349.7 8.5,-371.7 163.5,-371.7 163.5,-349.7 8.5,-349.7"/>
<polygon fill="none" stroke="#000000" points="8.5,-349.7 8.5,-371.7 163.5,-371.7 163.5,-349.7 8.5,-349.7"/>
<text text-anchor="start" x="28.5" y="-356.8" font-family="Helvetica,sans-Serif" font-size="11.00" fill="#000000">name</text>
<polygon fill="none" stroke="#000000" points="8.5,-330.7 8.5,-349.7 163.5,-349.7 163.5,-330.7 8.5,-330.7"/>
<text text-anchor="start" x="11.5" y="-336.8" font-family="Helvetica,sans-Serif" font-size="11.00" fill="#000000">...</text>
<polygon fill="#ffffff" stroke="transparent" points="8.5,-311.7 8.5,-330.7 62.5,-330.7 62.5,-311.7 8.5,-311.7"/>
<polygon fill="none" stroke="#000000" points="8.5,-311.7 8.5,-330.7 62.5,-330.7 62.5,-311.7 8.5,-311.7"/>
<text text-anchor="start" x="11.5" y="-317.8" font-family="Helvetica,sans-Serif" font-size="11.00" fill="#000000"> &#160;</text>
<polygon fill="#ffffff" stroke="transparent" points="62.5,-311.7 62.5,-330.7 121.5,-330.7 121.5,-311.7 62.5,-311.7"/>
<polygon fill="none" stroke="#000000" points="62.5,-311.7 62.5,-330.7 121.5,-330.7 121.5,-311.7 62.5,-311.7"/>
<text text-anchor="start" x="86.1105" y="-317.8" font-family="Helvetica,sans-Serif" font-size="11.00" fill="#000000">0 rows</text>
<polygon fill="#ffffff" stroke="transparent" points="121.5,-311.7 121.5,-330.7 163.5,-330.7 163.5,-311.7 121.5,-311.7"/>
<polygon fill="none" stroke="#000000" points="121.5,-311.7 121.5,-330.7 163.5,-330.7 163.5,-311.7 121.5,-311.7"/>
<text text-anchor="start" x="144.9053" y="-317.8" font-family="Helvetica,sans-Serif" font-size="11.00" fill="#000000">6 &gt;</text>
</a>
</g>
</g>
<!-- artifacts_dot_net_vulnerabilities_map&#45;&gt;artifacts_vulnerabilities -->
<g id="edge1" class="edge">
<title>artifacts_dot_net_vulnerabilities_map:w&#45;&gt;artifacts_vulnerabilities:e</title>
<path fill="none" stroke="#000000" d="M234.9945,-343.5682C206.1361,-351.589 200.3853,-382.7 163.5,-382.7"/>
<polygon fill="#000000" stroke="#000000" points="241.5655,-342.722 249.9599,-345.2705 245.5328,-342.211 249.5,-341.7 249.5,-341.7 249.5,-341.7 245.5328,-342.211 249.0401,-338.1295 241.5655,-342.722 241.5655,-342.722"/>
<ellipse fill="none" stroke="#000000" cx="238.3918" cy="-343.1307" rx="3.2" ry="3.2"/>
</g>
<!-- artifacts_java_vulnerabilities_map -->
<g id="node3" class="node">
<title>artifacts_java_vulnerabilities_map</title>
<g id="a_node3"><a xlink:href="../../tables/artifacts_java_vulnerabilities_map.html" xlink:title="artifacts_java_vulnerabilities_map" target="_top">
<polygon fill="#ffffff" stroke="transparent" points="257.5,-232.2 257.5,-293.2 465.5,-293.2 465.5,-232.2 257.5,-232.2"/>
<polygon fill="#f5f5f5" stroke="transparent" points="257.5,-269.7 257.5,-292.7 465.5,-292.7 465.5,-269.7 257.5,-269.7"/>
<polygon fill="none" stroke="#000000" points="257.5,-269.7 257.5,-292.7 465.5,-292.7 465.5,-269.7 257.5,-269.7"/>
<text text-anchor="start" x="262.4885" y="-278.8" font-family="Helvetica,sans-Serif" font-weight="bold" font-size="11.00" fill="#000000">artifacts_java_vulnerabilities_map</text>
<text text-anchor="start" x="431.0219" y="-277.8" font-family="Helvetica,sans-Serif" font-size="11.00" fill="#000000">[table]</text>
<polygon fill="none" stroke="#000000" points="257.5,-250.7 257.5,-269.7 465.5,-269.7 465.5,-250.7 257.5,-250.7"/>
<text text-anchor="start" x="260.5" y="-256.8" font-family="Helvetica,sans-Serif" font-size="11.00" fill="#000000">...</text>
<polygon fill="#ffffff" stroke="transparent" points="257.5,-231.7 257.5,-250.7 346.5,-250.7 346.5,-231.7 257.5,-231.7"/>
<polygon fill="none" stroke="#000000" points="257.5,-231.7 257.5,-250.7 346.5,-250.7 346.5,-231.7 257.5,-231.7"/>
<text text-anchor="start" x="260.5" y="-237.8" font-family="Helvetica,sans-Serif" font-size="11.00" fill="#000000">&lt; 2</text>
<polygon fill="#ffffff" stroke="transparent" points="346.5,-231.7 346.5,-250.7 418.5,-250.7 418.5,-231.7 346.5,-231.7"/>
<polygon fill="none" stroke="#000000" points="346.5,-231.7 346.5,-250.7 418.5,-250.7 418.5,-231.7 346.5,-231.7"/>
<text text-anchor="start" x="383.1105" y="-237.8" font-family="Helvetica,sans-Serif" font-size="11.00" fill="#000000">0 rows</text>
<polygon fill="#ffffff" stroke="transparent" points="418.5,-231.7 418.5,-250.7 465.5,-250.7 465.5,-231.7 418.5,-231.7"/>
<polygon fill="none" stroke="#000000" points="418.5,-231.7 418.5,-250.7 465.5,-250.7 465.5,-231.7 418.5,-231.7"/>
<text text-anchor="start" x="456.3862" y="-237.8" font-family="Helvetica,sans-Serif" font-size="11.00" fill="#000000"> &#160;</text>
</a>
</g>
</g>
<!-- artifacts_java_vulnerabilities_map&#45;&gt;artifacts_vulnerabilities -->
<g id="edge2" class="edge">
<title>artifacts_java_vulnerabilities_map:w&#45;&gt;artifacts_vulnerabilities:e</title>
<path fill="none" stroke="#000000" d="M243.0448,-261.6255C224.9287,-267.1861 219.7675,-284.1267 204,-303.7 179.2478,-334.4265 202.9562,-382.7 163.5,-382.7"/>
<polygon fill="#000000" stroke="#000000" points="249.57,-260.7563 257.9753,-263.2685 253.535,-260.2282 257.5,-259.7 257.5,-259.7 257.5,-259.7 253.535,-260.2282 257.0247,-256.1315 249.57,-260.7563 249.57,-260.7563"/>
<ellipse fill="none" stroke="#000000" cx="246.3981" cy="-261.1789" rx="3.2" ry="3.2"/>
</g>
<!-- artifacts_node_vulnerabilities_map -->
<g id="node4" class="node">
<title>artifacts_node_vulnerabilities_map</title>
<g id="a_node4"><a xlink:href="../../tables/artifacts_node_vulnerabilities_map.html" xlink:title="artifacts_node_vulnerabilities_map" target="_top">
<polygon fill="#ffffff" stroke="transparent" points="255.5,-560.2 255.5,-621.2 467.5,-621.2 467.5,-560.2 255.5,-560.2"/>
<polygon fill="#f5f5f5" stroke="transparent" points="255.5,-597.7 255.5,-620.7 467.5,-620.7 467.5,-597.7 255.5,-597.7"/>
<polygon fill="none" stroke="#000000" points="255.5,-597.7 255.5,-620.7 467.5,-620.7 467.5,-597.7 255.5,-597.7"/>
<text text-anchor="start" x="260.344" y="-606.8" font-family="Helvetica,sans-Serif" font-weight="bold" font-size="11.00" fill="#000000">artifacts_node_vulnerabilities_map</text>
<text text-anchor="start" x="433.0219" y="-605.8" font-family="Helvetica,sans-Serif" font-size="11.00" fill="#000000">[table]</text>
<polygon fill="none" stroke="#000000" points="255.5,-578.7 255.5,-597.7 467.5,-597.7 467.5,-578.7 255.5,-578.7"/>
<text text-anchor="start" x="258.5" y="-584.8" font-family="Helvetica,sans-Serif" font-size="11.00" fill="#000000">...</text>
<polygon fill="#ffffff" stroke="transparent" points="255.5,-559.7 255.5,-578.7 346.5,-578.7 346.5,-559.7 255.5,-559.7"/>
<polygon fill="none" stroke="#000000" points="255.5,-559.7 255.5,-578.7 346.5,-578.7 346.5,-559.7 255.5,-559.7"/>
<text text-anchor="start" x="258.5" y="-565.8" font-family="Helvetica,sans-Serif" font-size="11.00" fill="#000000">&lt; 2</text>
<polygon fill="#ffffff" stroke="transparent" points="346.5,-559.7 346.5,-578.7 419.5,-578.7 419.5,-559.7 346.5,-559.7"/>
<polygon fill="none" stroke="#000000" points="346.5,-559.7 346.5,-578.7 419.5,-578.7 419.5,-559.7 346.5,-559.7"/>
<text text-anchor="start" x="384.1105" y="-565.8" font-family="Helvetica,sans-Serif" font-size="11.00" fill="#000000">0 rows</text>
<polygon fill="#ffffff" stroke="transparent" points="419.5,-559.7 419.5,-578.7 467.5,-578.7 467.5,-559.7 419.5,-559.7"/>
<polygon fill="none" stroke="#000000" points="419.5,-559.7 419.5,-578.7 467.5,-578.7 467.5,-559.7 419.5,-559.7"/>
<text text-anchor="start" x="458.3862" y="-565.8" font-family="Helvetica,sans-Serif" font-size="11.00" fill="#000000"> &#160;</text>
</a>
</g>
</g>
<!-- artifacts_node_vulnerabilities_map&#45;&gt;artifacts_vulnerabilities -->
<g id="edge3" class="edge">
<title>artifacts_node_vulnerabilities_map:w&#45;&gt;artifacts_vulnerabilities:e</title>
<path fill="none" stroke="#000000" d="M241.0311,-586.0992C223.8771,-581.7528 216.6685,-568.7642 204,-549.7 161.7301,-486.0903 239.8737,-382.7 163.5,-382.7"/>
<polygon fill="#000000" stroke="#000000" points="247.5485,-586.8202 255.1041,-591.2782 251.5243,-587.2601 255.5,-587.7 255.5,-587.7 255.5,-587.7 251.5243,-587.2601 255.8959,-584.1218 247.5485,-586.8202 247.5485,-586.8202"/>
<ellipse fill="none" stroke="#000000" cx="244.3679" cy="-586.4683" rx="3.2" ry="3.2"/>
</g>
<!-- artifacts_proxy_vulnerabilities_map -->
<g id="node5" class="node">
<title>artifacts_proxy_vulnerabilities_map</title>
<g id="a_node5"><a xlink:href="../../tables/artifacts_proxy_vulnerabilities_map.html" xlink:title="artifacts_proxy_vulnerabilities_map" target="_top">
<polygon fill="#ffffff" stroke="transparent" points="254.5,-478.2 254.5,-539.2 468.5,-539.2 468.5,-478.2 254.5,-478.2"/>
<polygon fill="#f5f5f5" stroke="transparent" points="254.5,-515.7 254.5,-538.7 468.5,-538.7 468.5,-515.7 254.5,-515.7"/>
<polygon fill="none" stroke="#000000" points="254.5,-515.7 254.5,-538.7 468.5,-538.7 468.5,-515.7 254.5,-515.7"/>
<text text-anchor="start" x="259.128" y="-524.8" font-family="Helvetica,sans-Serif" font-weight="bold" font-size="11.00" fill="#000000">artifacts_proxy_vulnerabilities_map</text>
<text text-anchor="start" x="434.0219" y="-523.8" font-family="Helvetica,sans-Serif" font-size="11.00" fill="#000000">[table]</text>
<polygon fill="none" stroke="#000000" points="254.5,-496.7 254.5,-515.7 468.5,-515.7 468.5,-496.7 254.5,-496.7"/>
<text text-anchor="start" x="257.5" y="-502.8" font-family="Helvetica,sans-Serif" font-size="11.00" fill="#000000">...</text>
<polygon fill="#ffffff" stroke="transparent" points="254.5,-477.7 254.5,-496.7 346.5,-496.7 346.5,-477.7 254.5,-477.7"/>
<polygon fill="none" stroke="#000000" points="254.5,-477.7 254.5,-496.7 346.5,-496.7 346.5,-477.7 254.5,-477.7"/>
<text text-anchor="start" x="257.5" y="-483.8" font-family="Helvetica,sans-Serif" font-size="11.00" fill="#000000">&lt; 2</text>
<polygon fill="#ffffff" stroke="transparent" points="346.5,-477.7 346.5,-496.7 420.5,-496.7 420.5,-477.7 346.5,-477.7"/>
<polygon fill="none" stroke="#000000" points="346.5,-477.7 346.5,-496.7 420.5,-496.7 420.5,-477.7 346.5,-477.7"/>
<text text-anchor="start" x="385.1105" y="-483.8" font-family="Helvetica,sans-Serif" font-size="11.00" fill="#000000">0 rows</text>
<polygon fill="#ffffff" stroke="transparent" points="420.5,-477.7 420.5,-496.7 468.5,-496.7 468.5,-477.7 420.5,-477.7"/>
<polygon fill="none" stroke="#000000" points="420.5,-477.7 420.5,-496.7 468.5,-496.7 468.5,-477.7 420.5,-477.7"/>
<text text-anchor="start" x="459.3862" y="-483.8" font-family="Helvetica,sans-Serif" font-size="11.00" fill="#000000"> &#160;</text>
</a>
</g>
</g>
<!-- artifacts_proxy_vulnerabilities_map&#45;&gt;artifacts_vulnerabilities -->
<g id="edge4" class="edge">
<title>artifacts_proxy_vulnerabilities_map:w&#45;&gt;artifacts_vulnerabilities:e</title>
<path fill="none" stroke="#000000" d="M239.9796,-503.7786C223.9856,-498.8713 218.1645,-485.0315 204,-467.7 177.5188,-435.2978 205.3469,-382.7 163.5,-382.7"/>
<polygon fill="#000000" stroke="#000000" points="246.5691,-504.6505 254.0277,-509.2689 250.5346,-505.1753 254.5,-505.7 254.5,-505.7 254.5,-505.7 250.5346,-505.1753 254.9723,-502.1311 246.5691,-504.6505 246.5691,-504.6505"/>
<ellipse fill="none" stroke="#000000" cx="243.3968" cy="-504.2307" rx="3.2" ry="3.2"/>
</g>
<!-- artifacts_python_vulnerabilities_map -->
<g id="node6" class="node">
<title>artifacts_python_vulnerabilities_map</title>
<g id="a_node6"><a xlink:href="../../tables/artifacts_python_vulnerabilities_map.html" xlink:title="artifacts_python_vulnerabilities_map" target="_top">
<polygon fill="#ffffff" stroke="transparent" points="212,-98.7 212,-210.7 511,-210.7 511,-98.7 212,-98.7"/>
<polygon fill="#f5f5f5" stroke="transparent" points="214.5,-185.7 214.5,-208.7 509.5,-208.7 509.5,-185.7 214.5,-185.7"/>
<polygon fill="none" stroke="#000000" points="214.5,-185.7 214.5,-208.7 509.5,-208.7 509.5,-185.7 214.5,-185.7"/>
<text text-anchor="start" x="219.5" y="-194.8" font-family="Helvetica,sans-Serif" font-weight="bold" font-size="11.00" fill="#000000">artifacts_python_vulnerabilities_map</text>
<text text-anchor="start" x="474.5437" y="-193.8" font-family="Helvetica,sans-Serif" font-size="11.00" fill="#000000">[table]</text>
<polygon fill="none" stroke="#000000" points="214.5,-163.7 214.5,-185.7 447.5,-185.7 447.5,-163.7 214.5,-163.7"/>
<image xlink:href="../../images/primaryKeys.png" width="11px" height="12px" preserveAspectRatio="xMinYMin meet" x="219.5" y="-180.7"/>
<text text-anchor="start" x="234.5" y="-170.8" font-family="Helvetica,sans-Serif" font-size="11.00" fill="#000000">artifacts_id</text>
<polygon fill="none" stroke="#000000" points="447.5,-163.7 447.5,-185.7 509.5,-185.7 509.5,-163.7 447.5,-163.7"/>
<text text-anchor="start" x="450.5" y="-171.4" font-family="Helvetica,sans-Serif" font-size="11.00" fill="#000000">int[10]</text>
<polygon fill="none" stroke="#000000" points="214.5,-141.7 214.5,-163.7 447.5,-163.7 447.5,-141.7 214.5,-141.7"/>
<image xlink:href="../../images/primaryKeys.png" width="11px" height="12px" preserveAspectRatio="xMinYMin meet" x="219.5" y="-158.7"/>
<text text-anchor="start" x="234.5" y="-148.8" font-family="Helvetica,sans-Serif" font-size="11.00" fill="#000000">vulnerabilities_id</text>
<polygon fill="none" stroke="#000000" points="447.5,-141.7 447.5,-163.7 509.5,-163.7 509.5,-141.7 447.5,-141.7"/>
<text text-anchor="start" x="450.5" y="-149.4" font-family="Helvetica,sans-Serif" font-size="11.00" fill="#000000">int[10]</text>
<polygon fill="none" stroke="#000000" points="214.5,-119.7 214.5,-141.7 447.5,-141.7 447.5,-119.7 214.5,-119.7"/>
<image xlink:href="../../images/foreignKeys.png" width="11px" height="12px" preserveAspectRatio="xMinYMin meet" x="219.5" y="-136.7"/>
<text text-anchor="start" x="234.5" y="-126.8" font-family="Helvetica,sans-Serif" font-size="11.00" fill="#000000">vulnerability_id</text>
<polygon fill="none" stroke="#000000" points="447.5,-119.7 447.5,-141.7 509.5,-141.7 509.5,-119.7 447.5,-119.7"/>
<text text-anchor="start" x="450.378" y="-127.4" font-family="Helvetica,sans-Serif" font-size="11.00" fill="#000000">unknown[0]</text>
<polygon fill="#ffffff" stroke="transparent" points="214.5,-100.7 214.5,-119.7 322.5,-119.7 322.5,-100.7 214.5,-100.7"/>
<polygon fill="none" stroke="#000000" points="214.5,-100.7 214.5,-119.7 322.5,-119.7 322.5,-100.7 214.5,-100.7"/>
<text text-anchor="start" x="217.5" y="-106.8" font-family="Helvetica,sans-Serif" font-size="11.00" fill="#000000">&lt; 2</text>
<polygon fill="#ffffff" stroke="transparent" points="322.5,-100.7 322.5,-119.7 447.5,-119.7 447.5,-100.7 322.5,-100.7"/>
<polygon fill="none" stroke="#000000" points="322.5,-100.7 322.5,-119.7 447.5,-119.7 447.5,-100.7 322.5,-100.7"/>
<text text-anchor="start" x="412.1105" y="-106.8" font-family="Helvetica,sans-Serif" font-size="11.00" fill="#000000">0 rows</text>
<polygon fill="#ffffff" stroke="transparent" points="447.5,-100.7 447.5,-119.7 509.5,-119.7 509.5,-100.7 447.5,-100.7"/>
<polygon fill="none" stroke="#000000" points="447.5,-100.7 447.5,-119.7 509.5,-119.7 509.5,-100.7 447.5,-100.7"/>
<text text-anchor="start" x="490.9053" y="-106.8" font-family="Helvetica,sans-Serif" font-size="11.00" fill="#000000">0 &gt;</text>
<polygon fill="none" stroke="#000000" stroke-width="2" points="213,-99.7 213,-209.7 510,-209.7 510,-99.7 213,-99.7"/>
</a>
</g>
</g>
<!-- artifacts_python_vulnerabilities_map&#45;&gt;artifacts_vulnerabilities -->
<g id="edge6" class="edge">
<title>artifacts_python_vulnerabilities_map:w&#45;&gt;artifacts_vulnerabilities:e</title>
<path fill="none" stroke="#000000" d="M200.0365,-132.3758C116.5524,-154.2402 272.3026,-382.7 163.5,-382.7"/>
<polygon fill="#000000" stroke="#000000" points="206.5532,-131.6208 214.9144,-134.2761 210.5266,-131.1604 214.5,-130.7 214.5,-130.7 214.5,-130.7 210.5266,-131.1604 214.0856,-127.1239 206.5532,-131.6208 206.5532,-131.6208"/>
<ellipse fill="none" stroke="#000000" cx="203.3744" cy="-131.9892" rx="3.2" ry="3.2"/>
</g>
<!-- artifacts_python -->
<g id="node7" class="node">
<title>artifacts_python</title>
<g id="a_node7"><a xlink:href="../../tables/artifacts_python.html" xlink:title="artifacts_python" target="_top">
<polygon fill="#ffffff" stroke="transparent" points="20,-38.2 20,-209.2 151,-209.2 151,-38.2 20,-38.2"/>
<polygon fill="#f5f5f5" stroke="transparent" points="20.5,-185.7 20.5,-208.7 151.5,-208.7 151.5,-185.7 20.5,-185.7"/>
<polygon fill="none" stroke="#000000" points="20.5,-185.7 20.5,-208.7 151.5,-208.7 151.5,-185.7 20.5,-185.7"/>
<text text-anchor="start" x="25.5" y="-194.8" font-family="Helvetica,sans-Serif" font-weight="bold" font-size="11.00" fill="#000000">artifacts_python</text>
<text text-anchor="start" x="116.5437" y="-193.8" font-family="Helvetica,sans-Serif" font-size="11.00" fill="#000000">[table]</text>
<polygon fill="none" stroke="#000000" points="20.5,-163.7 20.5,-185.7 151.5,-185.7 151.5,-163.7 20.5,-163.7"/>
<image xlink:href="../../images/primaryKeys.png" width="11px" height="12px" preserveAspectRatio="xMinYMin meet" x="25.5" y="-180.7"/>
<text text-anchor="start" x="40.5" y="-170.8" font-family="Helvetica,sans-Serif" font-size="11.00" fill="#000000">id</text>
<polygon fill="#ffffff" stroke="transparent" points="20.5,-141.7 20.5,-163.7 151.5,-163.7 151.5,-141.7 20.5,-141.7"/>
<polygon fill="none" stroke="#000000" points="20.5,-141.7 20.5,-163.7 151.5,-163.7 151.5,-141.7 20.5,-141.7"/>
<text text-anchor="start" x="40.5" y="-148.8" font-family="Helvetica,sans-Serif" font-size="11.00" fill="#000000">version</text>
<polygon fill="#ffffff" stroke="transparent" points="20.5,-119.7 20.5,-141.7 151.5,-141.7 151.5,-119.7 20.5,-119.7"/>
<polygon fill="none" stroke="#000000" points="20.5,-119.7 20.5,-141.7 151.5,-141.7 151.5,-119.7 20.5,-119.7"/>
<text text-anchor="start" x="40.5" y="-126.8" font-family="Helvetica,sans-Serif" font-size="11.00" fill="#000000">hash</text>
<polygon fill="#ffffff" stroke="transparent" points="20.5,-97.7 20.5,-119.7 151.5,-119.7 151.5,-97.7 20.5,-97.7"/>
<polygon fill="none" stroke="#000000" points="20.5,-97.7 20.5,-119.7 151.5,-119.7 151.5,-97.7 20.5,-97.7"/>
<text text-anchor="start" x="40.5" y="-104.8" font-family="Helvetica,sans-Serif" font-size="11.00" fill="#000000">group_name</text>
<polygon fill="#ffffff" stroke="transparent" points="20.5,-75.7 20.5,-97.7 151.5,-97.7 151.5,-75.7 20.5,-75.7"/>
<polygon fill="none" stroke="#000000" points="20.5,-75.7 20.5,-97.7 151.5,-97.7 151.5,-75.7 20.5,-75.7"/>
<text text-anchor="start" x="40.5" y="-82.8" font-family="Helvetica,sans-Serif" font-size="11.00" fill="#000000">artifact_name</text>
<polygon fill="none" stroke="#000000" points="20.5,-56.7 20.5,-75.7 151.5,-75.7 151.5,-56.7 20.5,-56.7"/>
<text text-anchor="start" x="23.5" y="-62.8" font-family="Helvetica,sans-Serif" font-size="11.00" fill="#000000">...</text>
<polygon fill="#ffffff" stroke="transparent" points="20.5,-37.7 20.5,-56.7 62.5,-56.7 62.5,-37.7 20.5,-37.7"/>
<polygon fill="none" stroke="#000000" points="20.5,-37.7 20.5,-56.7 62.5,-56.7 62.5,-37.7 20.5,-37.7"/>
<text text-anchor="start" x="23.5" y="-43.8" font-family="Helvetica,sans-Serif" font-size="11.00" fill="#000000"> &#160;</text>
<polygon fill="#ffffff" stroke="transparent" points="62.5,-37.7 62.5,-56.7 115.5,-56.7 115.5,-37.7 62.5,-37.7"/>
<polygon fill="none" stroke="#000000" points="62.5,-37.7 62.5,-56.7 115.5,-56.7 115.5,-37.7 62.5,-37.7"/>
<text text-anchor="start" x="80.1105" y="-43.8" font-family="Helvetica,sans-Serif" font-size="11.00" fill="#000000">0 rows</text>
<polygon fill="#ffffff" stroke="transparent" points="115.5,-37.7 115.5,-56.7 151.5,-56.7 151.5,-37.7 115.5,-37.7"/>
<polygon fill="none" stroke="#000000" points="115.5,-37.7 115.5,-56.7 151.5,-56.7 151.5,-37.7 115.5,-37.7"/>
<text text-anchor="start" x="132.9053" y="-43.8" font-family="Helvetica,sans-Serif" font-size="11.00" fill="#000000">1 &gt;</text>
</a>
</g>
</g>
<!-- artifacts_python_vulnerabilities_map&#45;&gt;artifacts_python -->
<g id="edge5" class="edge">
<title>artifacts_python_vulnerabilities_map:w&#45;&gt;artifacts_python:e</title>
<path fill="none" stroke="#000000" d="M199.6849,-174.7C182.7898,-174.7 173.8125,-174.7 151.5,-174.7"/>
<polygon fill="#000000" stroke="#000000" points="206.5,-174.7001 214.5,-178.3 210.5,-174.7 214.5,-174.7 214.5,-174.7 214.5,-174.7 210.5,-174.7 214.5,-171.1 206.5,-174.7001 206.5,-174.7001"/>
<ellipse fill="none" stroke="#000000" cx="203.3" cy="-174.7001" rx="3.2" ry="3.2"/>
</g>
<!-- artifacts_ruby_vulnerabilities_map -->
<g id="node8" class="node">
<title>artifacts_ruby_vulnerabilities_map</title>
<g id="a_node8"><a xlink:href="../../tables/artifacts_ruby_vulnerabilities_map.html" xlink:title="artifacts_ruby_vulnerabilities_map" target="_top">
<polygon fill="#ffffff" stroke="transparent" points="257,-396.2 257,-457.2 466,-457.2 466,-396.2 257,-396.2"/>
<polygon fill="#f5f5f5" stroke="transparent" points="257.5,-433.7 257.5,-456.7 466.5,-456.7 466.5,-433.7 257.5,-433.7"/>
<polygon fill="none" stroke="#000000" points="257.5,-433.7 257.5,-456.7 466.5,-456.7 466.5,-433.7 257.5,-433.7"/>
<text text-anchor="start" x="262.378" y="-442.8" font-family="Helvetica,sans-Serif" font-weight="bold" font-size="11.00" fill="#000000">artifacts_ruby_vulnerabilities_map</text>
<text text-anchor="start" x="432.0219" y="-441.8" font-family="Helvetica,sans-Serif" font-size="11.00" fill="#000000">[table]</text>
<polygon fill="none" stroke="#000000" points="257.5,-414.7 257.5,-433.7 466.5,-433.7 466.5,-414.7 257.5,-414.7"/>
<text text-anchor="start" x="260.5" y="-420.8" font-family="Helvetica,sans-Serif" font-size="11.00" fill="#000000">...</text>
<polygon fill="#ffffff" stroke="transparent" points="257.5,-395.7 257.5,-414.7 347.5,-414.7 347.5,-395.7 257.5,-395.7"/>
<polygon fill="none" stroke="#000000" points="257.5,-395.7 257.5,-414.7 347.5,-414.7 347.5,-395.7 257.5,-395.7"/>
<text text-anchor="start" x="260.5" y="-401.8" font-family="Helvetica,sans-Serif" font-size="11.00" fill="#000000">&lt; 2</text>
<polygon fill="#ffffff" stroke="transparent" points="347.5,-395.7 347.5,-414.7 419.5,-414.7 419.5,-395.7 347.5,-395.7"/>
<polygon fill="none" stroke="#000000" points="347.5,-395.7 347.5,-414.7 419.5,-414.7 419.5,-395.7 347.5,-395.7"/>
<text text-anchor="start" x="384.1105" y="-401.8" font-family="Helvetica,sans-Serif" font-size="11.00" fill="#000000">0 rows</text>
<polygon fill="#ffffff" stroke="transparent" points="419.5,-395.7 419.5,-414.7 466.5,-414.7 466.5,-395.7 419.5,-395.7"/>
<polygon fill="none" stroke="#000000" points="419.5,-395.7 419.5,-414.7 466.5,-414.7 466.5,-395.7 419.5,-395.7"/>
<text text-anchor="start" x="457.3862" y="-401.8" font-family="Helvetica,sans-Serif" font-size="11.00" fill="#000000"> &#160;</text>
</a>
</g>
</g>
<!-- artifacts_ruby_vulnerabilities_map&#45;&gt;artifacts_vulnerabilities -->
<g id="edge7" class="edge">
<title>artifacts_ruby_vulnerabilities_map:w&#45;&gt;artifacts_vulnerabilities:e</title>
<path fill="none" stroke="#000000" d="M243.0993,-422.1428C210.6681,-414.6537 203.7376,-382.7 163.5,-382.7"/>
<polygon fill="#000000" stroke="#000000" points="249.5464,-422.8399 257.113,-427.2791 253.5232,-423.27 257.5,-423.7 257.5,-423.7 257.5,-423.7 253.5232,-423.27 257.887,-420.1209 249.5464,-422.8399 249.5464,-422.8399"/>
<ellipse fill="none" stroke="#000000" cx="246.3649" cy="-422.4959" rx="3.2" ry="3.2"/>
</g>
</g>
</svg>
