<?xml version="1.0" encoding="UTF-8" standalone="no"?>
<!DOCTYPE svg PUBLIC "-//W3C//DTD SVG 1.1//EN"
 "http://www.w3.org/Graphics/SVG/1.1/DTD/svg11.dtd">
<!-- Generated by graphviz version 2.40.1 (20161225.0304)
 -->
<!-- Title: oneDegreeRelationshipsDiagram Pages: 1 -->
<svg width="508pt" height="316pt"
 viewBox="0.00 0.00 508.00 316.20" xmlns="http://www.w3.org/2000/svg" xmlns:xlink="http://www.w3.org/1999/xlink">
<g id="graph0" class="graph" transform="scale(1 1) rotate(0) translate(4 312.2)">
<title>oneDegreeRelationshipsDiagram</title>
<polygon fill="#ffffff" stroke="transparent" points="-4,4 -4,-312.2 504,-312.2 504,4 -4,4"/>
<text text-anchor="middle" x="72.4936" y="-7.3" font-family="Helvetica,sans-Serif" font-size="11.00" fill="#000000">Generated by SchemaSpy</text>
<!-- artifacts_proxy_vulnerabilities_map -->
<g id="node1" class="node">
<title>artifacts_proxy_vulnerabilities_map</title>
<g id="a_node1"><a xlink:href="../../tables/artifacts_proxy_vulnerabilities_map.html" xlink:title="artifacts_proxy_vulnerabilities_map" target="_top">
<polygon fill="#ffffff" stroke="transparent" points="267,-194.2 267,-302.2 492,-302.2 492,-194.2 267,-194.2"/>
<polygon fill="#f5f5f5" stroke="transparent" points="267.5,-279.2 267.5,-302.2 492.5,-302.2 492.5,-279.2 267.5,-279.2"/>
<polygon fill="none" stroke="#000000" points="267.5,-279.2 267.5,-302.2 492.5,-302.2 492.5,-279.2 267.5,-279.2"/>
<text text-anchor="start" x="272.5" y="-288.3" font-family="Helvetica,sans-Serif" font-weight="bold" font-size="11.00" fill="#000000">artifacts_proxy_vulnerabilities_map</text>
<text text-anchor="start" x="457.5437" y="-287.3" font-family="Helvetica,sans-Serif" font-size="11.00" fill="#000000">[table]</text>
<polygon fill="none" stroke="#000000" points="267.5,-257.2 267.5,-279.2 492.5,-279.2 492.5,-257.2 267.5,-257.2"/>
<image xlink:href="../../images/primaryKeys.png" width="11px" height="12px" preserveAspectRatio="xMinYMin meet" x="272.5" y="-274.2"/>
<text text-anchor="start" x="287.5" y="-264.3" font-family="Helvetica,sans-Serif" font-size="11.00" fill="#000000">artifacts_id</text>
<polygon fill="none" stroke="#000000" points="267.5,-235.2 267.5,-257.2 492.5,-257.2 492.5,-235.2 267.5,-235.2"/>
<image xlink:href="../../images/primaryKeys.png" width="11px" height="12px" preserveAspectRatio="xMinYMin meet" x="272.5" y="-252.2"/>
<text text-anchor="start" x="287.5" y="-242.3" font-family="Helvetica,sans-Serif" font-size="11.00" fill="#000000">vulnerabilities_id</text>
<polygon fill="none" stroke="#000000" points="267.5,-213.2 267.5,-235.2 492.5,-235.2 492.5,-213.2 267.5,-213.2"/>
<image xlink:href="../../images/foreignKeys.png" width="11px" height="12px" preserveAspectRatio="xMinYMin meet" x="272.5" y="-230.2"/>
<text text-anchor="start" x="287.5" y="-220.3" font-family="Helvetica,sans-Serif" font-size="11.00" fill="#000000">vulnerability_id</text>
<polygon fill="#ffffff" stroke="transparent" points="267.5,-194.2 267.5,-213.2 365.5,-213.2 365.5,-194.2 267.5,-194.2"/>
<polygon fill="none" stroke="#000000" points="267.5,-194.2 267.5,-213.2 365.5,-213.2 365.5,-194.2 267.5,-194.2"/>
<text text-anchor="start" x="270.5" y="-200.3" font-family="Helvetica,sans-Serif" font-size="11.00" fill="#000000">&lt; 2</text>
<polygon fill="#ffffff" stroke="transparent" points="365.5,-194.2 365.5,-213.2 441.5,-213.2 441.5,-194.2 365.5,-194.2"/>
<polygon fill="none" stroke="#000000" points="365.5,-194.2 365.5,-213.2 441.5,-213.2 441.5,-194.2 365.5,-194.2"/>
<text text-anchor="start" x="406.1105" y="-200.3" font-family="Helvetica,sans-Serif" font-size="11.00" fill="#000000">0 rows</text>
<polygon fill="#ffffff" stroke="transparent" points="441.5,-194.2 441.5,-213.2 492.5,-213.2 492.5,-194.2 441.5,-194.2"/>
<polygon fill="none" stroke="#000000" points="441.5,-194.2 441.5,-213.2 492.5,-213.2 492.5,-194.2 441.5,-194.2"/>
<text text-anchor="start" x="483.3862" y="-200.3" font-family="Helvetica,sans-Serif" font-size="11.00" fill="#000000"> &#160;</text>
</a>
</g>
</g>
<!-- artifacts_proxy -->
<g id="node2" class="node">
<title>artifacts_proxy</title>
<g id="a_node2"><a xlink:href="../../tables/artifacts_proxy.html" xlink:title="artifacts_proxy" target="_top">
<polygon fill="#ffffff" stroke="transparent" points="8,-38.2 8,-304.2 218,-304.2 218,-38.2 8,-38.2"/>
<polygon fill="#f5f5f5" stroke="transparent" points="10,-279.2 10,-302.2 216,-302.2 216,-279.2 10,-279.2"/>
<polygon fill="none" stroke="#000000" points="10,-279.2 10,-302.2 216,-302.2 216,-279.2 10,-279.2"/>
<text text-anchor="start" x="15" y="-288.3" font-family="Helvetica,sans-Serif" font-weight="bold" font-size="11.00" fill="#000000">artifacts_proxy</text>
<text text-anchor="start" x="181.0437" y="-287.3" font-family="Helvetica,sans-Serif" font-size="11.00" fill="#000000">[table]</text>
<polygon fill="none" stroke="#000000" points="10,-257.2 10,-279.2 141,-279.2 141,-257.2 10,-257.2"/>
<image xlink:href="../../images/primaryKeys.png" width="11px" height="12px" preserveAspectRatio="xMinYMin meet" x="15" y="-274.2"/>
<text text-anchor="start" x="30" y="-264.3" font-family="Helvetica,sans-Serif" font-size="11.00" fill="#000000">id</text>
<polygon fill="none" stroke="#000000" points="141,-257.2 141,-279.2 216,-279.2 216,-257.2 141,-257.2"/>
<text text-anchor="start" x="144" y="-264.9" font-family="Helvetica,sans-Serif" font-size="11.00" fill="#000000">int[10]</text>
<polygon fill="#ffffff" stroke="transparent" points="10,-235.2 10,-257.2 141,-257.2 141,-235.2 10,-235.2"/>
<polygon fill="none" stroke="#000000" points="10,-235.2 10,-257.2 141,-257.2 141,-235.2 10,-235.2"/>
<text text-anchor="start" x="30" y="-242.3" font-family="Helvetica,sans-Serif" font-size="11.00" fill="#000000">version</text>
<polygon fill="none" stroke="#000000" points="141,-235.2 141,-257.2 216,-257.2 216,-235.2 141,-235.2"/>
<text text-anchor="start" x="144" y="-242.9" font-family="Helvetica,sans-Serif" font-size="11.00" fill="#000000">varchar[255]</text>
<polygon fill="#ffffff" stroke="transparent" points="10,-213.2 10,-235.2 141,-235.2 141,-213.2 10,-213.2"/>
<polygon fill="none" stroke="#000000" points="10,-213.2 10,-235.2 141,-235.2 141,-213.2 10,-213.2"/>
<text text-anchor="start" x="30" y="-220.3" font-family="Helvetica,sans-Serif" font-size="11.00" fill="#000000">hash</text>
<polygon fill="none" stroke="#000000" points="141,-213.2 141,-235.2 216,-235.2 216,-213.2 141,-213.2"/>
<text text-anchor="start" x="144" y="-220.9" font-family="Helvetica,sans-Serif" font-size="11.00" fill="#000000">varchar[255]</text>
<polygon fill="#ffffff" stroke="transparent" points="10,-191.2 10,-213.2 141,-213.2 141,-191.2 10,-191.2"/>
<polygon fill="none" stroke="#000000" points="10,-191.2 10,-213.2 141,-213.2 141,-191.2 10,-191.2"/>
<text text-anchor="start" x="30" y="-198.3" font-family="Helvetica,sans-Serif" font-size="11.00" fill="#000000">group_name</text>
<polygon fill="none" stroke="#000000" points="141,-191.2 141,-213.2 216,-213.2 216,-191.2 141,-191.2"/>
<text text-anchor="start" x="144" y="-198.9" font-family="Helvetica,sans-Serif" font-size="11.00" fill="#000000">varchar[255]</text>
<polygon fill="#ffffff" stroke="transparent" points="10,-169.2 10,-191.2 141,-191.2 141,-169.2 10,-169.2"/>
<polygon fill="none" stroke="#000000" points="10,-169.2 10,-191.2 141,-191.2 141,-169.2 10,-169.2"/>
<text text-anchor="start" x="30" y="-176.3" font-family="Helvetica,sans-Serif" font-size="11.00" fill="#000000">artifact_name</text>
<polygon fill="none" stroke="#000000" points="141,-169.2 141,-191.2 216,-191.2 216,-169.2 141,-169.2"/>
<text text-anchor="start" x="144" y="-176.9" font-family="Helvetica,sans-Serif" font-size="11.00" fill="#000000">varchar[255]</text>
<polygon fill="none" stroke="#000000" points="10,-147.2 10,-169.2 141,-169.2 141,-147.2 10,-147.2"/>
<text text-anchor="start" x="30" y="-154.3" font-family="Helvetica,sans-Serif" font-size="11.00" fill="#000000">release_date</text>
<polygon fill="none" stroke="#000000" points="141,-147.2 141,-169.2 216,-169.2 216,-147.2 141,-147.2"/>
<text text-anchor="start" x="144" y="-154.9" font-family="Helvetica,sans-Serif" font-size="11.00" fill="#000000">bigint[19]</text>
<polygon fill="none" stroke="#000000" points="10,-125.2 10,-147.2 141,-147.2 141,-125.2 10,-125.2"/>
<text text-anchor="start" x="30" y="-132.3" font-family="Helvetica,sans-Serif" font-size="11.00" fill="#000000">latest_release_date</text>
<polygon fill="none" stroke="#000000" points="141,-125.2 141,-147.2 216,-147.2 216,-125.2 141,-125.2"/>
<text text-anchor="start" x="144" y="-132.9" font-family="Helvetica,sans-Serif" font-size="11.00" fill="#000000">bigint[19]</text>
<polygon fill="none" stroke="#000000" points="10,-103.2 10,-125.2 141,-125.2 141,-103.2 10,-103.2"/>
<text text-anchor="start" x="30" y="-110.3" font-family="Helvetica,sans-Serif" font-size="11.00" fill="#000000">latest_version</text>
<polygon fill="none" stroke="#000000" points="141,-103.2 141,-125.2 216,-125.2 216,-103.2 141,-103.2"/>
<text text-anchor="start" x="144" y="-110.9" font-family="Helvetica,sans-Serif" font-size="11.00" fill="#000000">varchar[255]</text>
<polygon fill="none" stroke="#000000" points="10,-81.2 10,-103.2 141,-103.2 141,-81.2 10,-81.2"/>
<text text-anchor="start" x="30" y="-88.3" font-family="Helvetica,sans-Serif" font-size="11.00" fill="#000000">versions_behind</text>
<polygon fill="none" stroke="#000000" points="141,-81.2 141,-103.2 216,-103.2 216,-81.2 141,-81.2"/>
<text text-anchor="start" x="144" y="-88.9" font-family="Helvetica,sans-Serif" font-size="11.00" fill="#000000">int[10]</text>
<polygon fill="none" stroke="#000000" points="10,-59.2 10,-81.2 141,-81.2 141,-59.2 10,-59.2"/>
<text text-anchor="start" x="30" y="-66.3" font-family="Helvetica,sans-Serif" font-size="11.00" fill="#000000">date_profiled</text>
<polygon fill="none" stroke="#000000" points="141,-59.2 141,-81.2 216,-81.2 216,-59.2 141,-59.2"/>
<text text-anchor="start" x="143.9666" y="-66.9" font-family="Helvetica,sans-Serif" font-size="11.00" fill="#000000">timestamp[19]</text>
<polygon fill="#ffffff" stroke="transparent" points="10,-40.2 10,-59.2 67,-59.2 67,-40.2 10,-40.2"/>
<polygon fill="none" stroke="#000000" points="10,-40.2 10,-59.2 67,-59.2 67,-40.2 10,-40.2"/>
<text text-anchor="start" x="13" y="-46.3" font-family="Helvetica,sans-Serif" font-size="11.00" fill="#000000">&lt; 0</text>
<polygon fill="#ffffff" stroke="transparent" points="67,-40.2 67,-59.2 141,-59.2 141,-40.2 67,-40.2"/>
<polygon fill="none" stroke="#000000" points="67,-40.2 67,-59.2 141,-59.2 141,-40.2 67,-40.2"/>
<text text-anchor="start" x="105.6105" y="-46.3" font-family="Helvetica,sans-Serif" font-size="11.00" fill="#000000">0 rows</text>
<polygon fill="#ffffff" stroke="transparent" points="141,-40.2 141,-59.2 216,-59.2 216,-40.2 141,-40.2"/>
<polygon fill="none" stroke="#000000" points="141,-40.2 141,-59.2 216,-59.2 216,-40.2 141,-40.2"/>
<text text-anchor="start" x="197.4053" y="-46.3" font-family="Helvetica,sans-Serif" font-size="11.00" fill="#000000">1 &gt;</text>
<polygon fill="none" stroke="#000000" stroke-width="2" points="9,-39.2 9,-303.2 217,-303.2 217,-39.2 9,-39.2"/>
</a>
</g>
</g>
<!-- artifacts_proxy_vulnerabilities_map&#45;&gt;artifacts_proxy -->
<g id="edge1" class="edge">
<title>artifacts_proxy_vulnerabilities_map:w&#45;&gt;artifacts_proxy:e</title>
<path fill="none" stroke="#000000" d="M253.0156,-268.2C240.6771,-268.2 233.1667,-268.2 216,-268.2"/>
<polygon fill="#000000" stroke="#000000" points="259.5,-268.2001 267.5,-271.8 263.5,-268.2 267.5,-268.2 267.5,-268.2 267.5,-268.2 263.5,-268.2 267.5,-264.6 259.5,-268.2001 259.5,-268.2001"/>
<ellipse fill="none" stroke="#000000" cx="256.3" cy="-268.2001" rx="3.2" ry="3.2"/>
</g>
</g>
</svg>
