<?xml version="1.0" encoding="UTF-8" standalone="no"?>
<!DOCTYPE svg PUBLIC "-//W3C//DTD SVG 1.1//EN"
 "http://www.w3.org/Graphics/SVG/1.1/DTD/svg11.dtd">
<!-- Generated by graphviz version 2.40.1 (20161225.0304)
 -->
<!-- Title: oneDegreeRelationshipsDiagram Pages: 1 -->
<svg width="680pt" height="316pt"
 viewBox="0.00 0.00 680.00 316.20" xmlns="http://www.w3.org/2000/svg" xmlns:xlink="http://www.w3.org/1999/xlink">
<g id="graph0" class="graph" transform="scale(1 1) rotate(0) translate(4 312.2)">
<title>oneDegreeRelationshipsDiagram</title>
<polygon fill="#ffffff" stroke="transparent" points="-4,4 -4,-312.2 676,-312.2 676,4 -4,4"/>
<text text-anchor="middle" x="72.4936" y="-7.3" font-family="Helvetica,sans-Serif" font-size="11.00" fill="#000000">Generated by SchemaSpy</text>
<!-- artifacts_dot_net -->
<g id="node1" class="node">
<title>artifacts_dot_net</title>
<g id="a_node1"><a xlink:href="../../tables/artifacts_dot_net.html" xlink:title="artifacts_dot_net" target="_top">
<polygon fill="#ffffff" stroke="transparent" points="169,-38.2 169,-304.2 379,-304.2 379,-38.2 169,-38.2"/>
<polygon fill="#f5f5f5" stroke="transparent" points="171,-279.2 171,-302.2 377,-302.2 377,-279.2 171,-279.2"/>
<polygon fill="none" stroke="#000000" points="171,-279.2 171,-302.2 377,-302.2 377,-279.2 171,-279.2"/>
<text text-anchor="start" x="176" y="-288.3" font-family="Helvetica,sans-Serif" font-weight="bold" font-size="11.00" fill="#000000">artifacts_dot_net</text>
<text text-anchor="start" x="342.0437" y="-287.3" font-family="Helvetica,sans-Serif" font-size="11.00" fill="#000000">[table]</text>
<polygon fill="none" stroke="#000000" points="171,-257.2 171,-279.2 302,-279.2 302,-257.2 171,-257.2"/>
<image xlink:href="../../images/primaryKeys.png" width="11px" height="12px" preserveAspectRatio="xMinYMin meet" x="176" y="-274.2"/>
<text text-anchor="start" x="191" y="-264.3" font-family="Helvetica,sans-Serif" font-size="11.00" fill="#000000">id</text>
<polygon fill="none" stroke="#000000" points="302,-257.2 302,-279.2 377,-279.2 377,-257.2 302,-257.2"/>
<text text-anchor="start" x="305" y="-264.9" font-family="Helvetica,sans-Serif" font-size="11.00" fill="#000000">int[10]</text>
<polygon fill="#ffffff" stroke="transparent" points="171,-235.2 171,-257.2 302,-257.2 302,-235.2 171,-235.2"/>
<polygon fill="none" stroke="#000000" points="171,-235.2 171,-257.2 302,-257.2 302,-235.2 171,-235.2"/>
<text text-anchor="start" x="191" y="-242.3" font-family="Helvetica,sans-Serif" font-size="11.00" fill="#000000">version</text>
<polygon fill="none" stroke="#000000" points="302,-235.2 302,-257.2 377,-257.2 377,-235.2 302,-235.2"/>
<text text-anchor="start" x="305" y="-242.9" font-family="Helvetica,sans-Serif" font-size="11.00" fill="#000000">varchar[255]</text>
<polygon fill="#ffffff" stroke="transparent" points="171,-213.2 171,-235.2 302,-235.2 302,-213.2 171,-213.2"/>
<polygon fill="none" stroke="#000000" points="171,-213.2 171,-235.2 302,-235.2 302,-213.2 171,-213.2"/>
<image xlink:href="../../images/foreignKeys.png" width="11px" height="12px" preserveAspectRatio="xMinYMin meet" x="176" y="-230.2"/>
<text text-anchor="start" x="191" y="-220.3" font-family="Helvetica,sans-Serif" font-size="11.00" fill="#000000">hash</text>
<polygon fill="none" stroke="#000000" points="302,-213.2 302,-235.2 377,-235.2 377,-213.2 302,-213.2"/>
<text text-anchor="start" x="305" y="-220.9" font-family="Helvetica,sans-Serif" font-size="11.00" fill="#000000">varchar[255]</text>
<polygon fill="#ffffff" stroke="transparent" points="171,-191.2 171,-213.2 302,-213.2 302,-191.2 171,-191.2"/>
<polygon fill="none" stroke="#000000" points="171,-191.2 171,-213.2 302,-213.2 302,-191.2 171,-191.2"/>
<text text-anchor="start" x="191" y="-198.3" font-family="Helvetica,sans-Serif" font-size="11.00" fill="#000000">group_name</text>
<polygon fill="none" stroke="#000000" points="302,-191.2 302,-213.2 377,-213.2 377,-191.2 302,-191.2"/>
<text text-anchor="start" x="305" y="-198.9" font-family="Helvetica,sans-Serif" font-size="11.00" fill="#000000">varchar[255]</text>
<polygon fill="#ffffff" stroke="transparent" points="171,-169.2 171,-191.2 302,-191.2 302,-169.2 171,-169.2"/>
<polygon fill="none" stroke="#000000" points="171,-169.2 171,-191.2 302,-191.2 302,-169.2 171,-169.2"/>
<text text-anchor="start" x="191" y="-176.3" font-family="Helvetica,sans-Serif" font-size="11.00" fill="#000000">artifact_name</text>
<polygon fill="none" stroke="#000000" points="302,-169.2 302,-191.2 377,-191.2 377,-169.2 302,-169.2"/>
<text text-anchor="start" x="305" y="-176.9" font-family="Helvetica,sans-Serif" font-size="11.00" fill="#000000">varchar[255]</text>
<polygon fill="none" stroke="#000000" points="171,-147.2 171,-169.2 302,-169.2 302,-147.2 171,-147.2"/>
<text text-anchor="start" x="191" y="-154.3" font-family="Helvetica,sans-Serif" font-size="11.00" fill="#000000">release_date</text>
<polygon fill="none" stroke="#000000" points="302,-147.2 302,-169.2 377,-169.2 377,-147.2 302,-147.2"/>
<text text-anchor="start" x="305" y="-154.9" font-family="Helvetica,sans-Serif" font-size="11.00" fill="#000000">bigint[19]</text>
<polygon fill="none" stroke="#000000" points="171,-125.2 171,-147.2 302,-147.2 302,-125.2 171,-125.2"/>
<text text-anchor="start" x="191" y="-132.3" font-family="Helvetica,sans-Serif" font-size="11.00" fill="#000000">latest_release_date</text>
<polygon fill="none" stroke="#000000" points="302,-125.2 302,-147.2 377,-147.2 377,-125.2 302,-125.2"/>
<text text-anchor="start" x="305" y="-132.9" font-family="Helvetica,sans-Serif" font-size="11.00" fill="#000000">bigint[19]</text>
<polygon fill="none" stroke="#000000" points="171,-103.2 171,-125.2 302,-125.2 302,-103.2 171,-103.2"/>
<text text-anchor="start" x="191" y="-110.3" font-family="Helvetica,sans-Serif" font-size="11.00" fill="#000000">latest_version</text>
<polygon fill="none" stroke="#000000" points="302,-103.2 302,-125.2 377,-125.2 377,-103.2 302,-103.2"/>
<text text-anchor="start" x="305" y="-110.9" font-family="Helvetica,sans-Serif" font-size="11.00" fill="#000000">varchar[255]</text>
<polygon fill="none" stroke="#000000" points="171,-81.2 171,-103.2 302,-103.2 302,-81.2 171,-81.2"/>
<text text-anchor="start" x="191" y="-88.3" font-family="Helvetica,sans-Serif" font-size="11.00" fill="#000000">versions_behind</text>
<polygon fill="none" stroke="#000000" points="302,-81.2 302,-103.2 377,-103.2 377,-81.2 302,-81.2"/>
<text text-anchor="start" x="305" y="-88.9" font-family="Helvetica,sans-Serif" font-size="11.00" fill="#000000">int[10]</text>
<polygon fill="none" stroke="#000000" points="171,-59.2 171,-81.2 302,-81.2 302,-59.2 171,-59.2"/>
<text text-anchor="start" x="191" y="-66.3" font-family="Helvetica,sans-Serif" font-size="11.00" fill="#000000">date_profiled</text>
<polygon fill="none" stroke="#000000" points="302,-59.2 302,-81.2 377,-81.2 377,-59.2 302,-59.2"/>
<text text-anchor="start" x="304.9666" y="-66.9" font-family="Helvetica,sans-Serif" font-size="11.00" fill="#000000">timestamp[19]</text>
<polygon fill="#ffffff" stroke="transparent" points="171,-40.2 171,-59.2 228,-59.2 228,-40.2 171,-40.2"/>
<polygon fill="none" stroke="#000000" points="171,-40.2 171,-59.2 228,-59.2 228,-40.2 171,-40.2"/>
<text text-anchor="start" x="174" y="-46.3" font-family="Helvetica,sans-Serif" font-size="11.00" fill="#000000">&lt; 1</text>
<polygon fill="#ffffff" stroke="transparent" points="228,-40.2 228,-59.2 302,-59.2 302,-40.2 228,-40.2"/>
<polygon fill="none" stroke="#000000" points="228,-40.2 228,-59.2 302,-59.2 302,-40.2 228,-40.2"/>
<text text-anchor="start" x="266.6105" y="-46.3" font-family="Helvetica,sans-Serif" font-size="11.00" fill="#000000">0 rows</text>
<polygon fill="#ffffff" stroke="transparent" points="302,-40.2 302,-59.2 377,-59.2 377,-40.2 302,-40.2"/>
<polygon fill="none" stroke="#000000" points="302,-40.2 302,-59.2 377,-59.2 377,-40.2 302,-40.2"/>
<text text-anchor="start" x="358.4053" y="-46.3" font-family="Helvetica,sans-Serif" font-size="11.00" fill="#000000">1 &gt;</text>
<polygon fill="none" stroke="#000000" stroke-width="2" points="170,-39.2 170,-303.2 378,-303.2 378,-39.2 170,-39.2"/>
</a>
</g>
</g>
<!-- library -->
<g id="node2" class="node">
<title>library</title>
<g id="a_node2"><a xlink:href="../../tables/library.html" xlink:title="library" target="_top">
<polygon fill="#ffffff" stroke="transparent" points="8,-172.2 8,-280.2 120,-280.2 120,-172.2 8,-172.2"/>
<polygon fill="#f5f5f5" stroke="transparent" points="8,-257.2 8,-280.2 120,-280.2 120,-257.2 8,-257.2"/>
<polygon fill="none" stroke="#000000" points="8,-257.2 8,-280.2 120,-280.2 120,-257.2 8,-257.2"/>
<text text-anchor="start" x="13" y="-266.3" font-family="Helvetica,sans-Serif" font-weight="bold" font-size="11.00" fill="#000000">library</text>
<text text-anchor="start" x="85.0437" y="-265.3" font-family="Helvetica,sans-Serif" font-size="11.00" fill="#000000">[table]</text>
<polygon fill="none" stroke="#000000" points="8,-235.2 8,-257.2 120,-257.2 120,-235.2 8,-235.2"/>
<image xlink:href="../../images/primaryKeys.png" width="11px" height="12px" preserveAspectRatio="xMinYMin meet" x="13" y="-252.2"/>
<text text-anchor="start" x="28" y="-242.3" font-family="Helvetica,sans-Serif" font-size="11.00" fill="#000000">id</text>
<polygon fill="none" stroke="#000000" points="8,-213.2 8,-235.2 120,-235.2 120,-213.2 8,-213.2"/>
<image xlink:href="../../images/primaryKeys.png" width="11px" height="12px" preserveAspectRatio="xMinYMin meet" x="13" y="-230.2"/>
<text text-anchor="start" x="28" y="-220.3" font-family="Helvetica,sans-Serif" font-size="11.00" fill="#000000">hash</text>
<polygon fill="none" stroke="#000000" points="8,-191.2 8,-213.2 120,-213.2 120,-191.2 8,-191.2"/>
<image xlink:href="../../images/primaryKeys.png" width="11px" height="12px" preserveAspectRatio="xMinYMin meet" x="13" y="-208.2"/>
<text text-anchor="start" x="28" y="-198.3" font-family="Helvetica,sans-Serif" font-size="11.00" fill="#000000">agent_language</text>
<polygon fill="#ffffff" stroke="transparent" points="8,-172.2 8,-191.2 40,-191.2 40,-172.2 8,-172.2"/>
<polygon fill="none" stroke="#000000" points="8,-172.2 8,-191.2 40,-191.2 40,-172.2 8,-172.2"/>
<text text-anchor="start" x="11" y="-178.3" font-family="Helvetica,sans-Serif" font-size="11.00" fill="#000000"> &#160;</text>
<polygon fill="#ffffff" stroke="transparent" points="40,-172.2 40,-191.2 88,-191.2 88,-172.2 40,-172.2"/>
<polygon fill="none" stroke="#000000" points="40,-172.2 40,-191.2 88,-191.2 88,-172.2 40,-172.2"/>
<text text-anchor="start" x="52.6105" y="-178.3" font-family="Helvetica,sans-Serif" font-size="11.00" fill="#000000">0 rows</text>
<polygon fill="#ffffff" stroke="transparent" points="88,-172.2 88,-191.2 120,-191.2 120,-172.2 88,-172.2"/>
<polygon fill="none" stroke="#000000" points="88,-172.2 88,-191.2 120,-191.2 120,-172.2 88,-172.2"/>
<text text-anchor="start" x="101.4053" y="-178.3" font-family="Helvetica,sans-Serif" font-size="11.00" fill="#000000">4 &gt;</text>
</a>
</g>
</g>
<!-- artifacts_dot_net&#45;&gt;library -->
<g id="edge1" class="edge">
<title>artifacts_dot_net:w&#45;&gt;library:e</title>
<path fill="none" stroke="#000000" d="M160.2307,-224.2C145.748,-224.2 138.5938,-224.2 120,-224.2"/>
<polygon fill="#000000" stroke="#000000" points="170.2,-220.2 170.2,-228.2 168.6,-228.2 168.6,-220.2 170.2,-220.2"/>
<polyline fill="none" stroke="#000000" points="171,-224.2 167,-224.2 "/>
<ellipse fill="none" stroke="#000000" cx="163.8" cy="-224.2001" rx="3.2" ry="3.2"/>
</g>
<!-- artifacts_dot_net_vulnerabilities_map -->
<g id="node3" class="node">
<title>artifacts_dot_net_vulnerabilities_map</title>
<g id="a_node3"><a xlink:href="../../tables/artifacts_dot_net_vulnerabilities_map.html" xlink:title="artifacts_dot_net_vulnerabilities_map" target="_top">
<polygon fill="#ffffff" stroke="transparent" points="428,-194.2 428,-302.2 664,-302.2 664,-194.2 428,-194.2"/>
<polygon fill="#f5f5f5" stroke="transparent" points="428,-279.2 428,-302.2 664,-302.2 664,-279.2 428,-279.2"/>
<polygon fill="none" stroke="#000000" points="428,-279.2 428,-302.2 664,-302.2 664,-279.2 428,-279.2"/>
<text text-anchor="start" x="433" y="-288.3" font-family="Helvetica,sans-Serif" font-weight="bold" font-size="11.00" fill="#000000">artifacts_dot_net_vulnerabilities_map</text>
<text text-anchor="start" x="629.0437" y="-287.3" font-family="Helvetica,sans-Serif" font-size="11.00" fill="#000000">[table]</text>
<polygon fill="none" stroke="#000000" points="428,-257.2 428,-279.2 664,-279.2 664,-257.2 428,-257.2"/>
<image xlink:href="../../images/primaryKeys.png" width="11px" height="12px" preserveAspectRatio="xMinYMin meet" x="433" y="-274.2"/>
<text text-anchor="start" x="448" y="-264.3" font-family="Helvetica,sans-Serif" font-size="11.00" fill="#000000">artifacts_id</text>
<polygon fill="none" stroke="#000000" points="428,-235.2 428,-257.2 664,-257.2 664,-235.2 428,-235.2"/>
<image xlink:href="../../images/primaryKeys.png" width="11px" height="12px" preserveAspectRatio="xMinYMin meet" x="433" y="-252.2"/>
<text text-anchor="start" x="448" y="-242.3" font-family="Helvetica,sans-Serif" font-size="11.00" fill="#000000">vulnerabilities_id</text>
<polygon fill="none" stroke="#000000" points="428,-213.2 428,-235.2 664,-235.2 664,-213.2 428,-213.2"/>
<image xlink:href="../../images/foreignKeys.png" width="11px" height="12px" preserveAspectRatio="xMinYMin meet" x="433" y="-230.2"/>
<text text-anchor="start" x="448" y="-220.3" font-family="Helvetica,sans-Serif" font-size="11.00" fill="#000000">vulnerability_id</text>
<polygon fill="#ffffff" stroke="transparent" points="428,-194.2 428,-213.2 531,-213.2 531,-194.2 428,-194.2"/>
<polygon fill="none" stroke="#000000" points="428,-194.2 428,-213.2 531,-213.2 531,-194.2 428,-194.2"/>
<text text-anchor="start" x="431" y="-200.3" font-family="Helvetica,sans-Serif" font-size="11.00" fill="#000000">&lt; 2</text>
<polygon fill="#ffffff" stroke="transparent" points="531,-194.2 531,-213.2 610,-213.2 610,-194.2 531,-194.2"/>
<polygon fill="none" stroke="#000000" points="531,-194.2 531,-213.2 610,-213.2 610,-194.2 531,-194.2"/>
<text text-anchor="start" x="574.6105" y="-200.3" font-family="Helvetica,sans-Serif" font-size="11.00" fill="#000000">0 rows</text>
<polygon fill="#ffffff" stroke="transparent" points="610,-194.2 610,-213.2 664,-213.2 664,-194.2 610,-194.2"/>
<polygon fill="none" stroke="#000000" points="610,-194.2 610,-213.2 664,-213.2 664,-194.2 610,-194.2"/>
<text text-anchor="start" x="654.8862" y="-200.3" font-family="Helvetica,sans-Serif" font-size="11.00" fill="#000000"> &#160;</text>
</a>
</g>
</g>
<!-- artifacts_dot_net_vulnerabilities_map&#45;&gt;artifacts_dot_net -->
<g id="edge2" class="edge">
<title>artifacts_dot_net_vulnerabilities_map:w&#45;&gt;artifacts_dot_net:e</title>
<path fill="none" stroke="#000000" d="M413.276,-268.2C401.2815,-268.2 393.8229,-268.2 377,-268.2"/>
<polygon fill="#000000" stroke="#000000" points="420,-268.2001 428,-271.8 424,-268.2 428,-268.2 428,-268.2 428,-268.2 424,-268.2 428,-264.6 420,-268.2001 420,-268.2001"/>
<ellipse fill="none" stroke="#000000" cx="416.8" cy="-268.2001" rx="3.2" ry="3.2"/>
</g>
</g>
</svg>
