<?xml version="1.0" encoding="UTF-8" standalone="no"?>
<!DOCTYPE svg PUBLIC "-//W3C//DTD SVG 1.1//EN"
 "http://www.w3.org/Graphics/SVG/1.1/DTD/svg11.dtd">
<!-- Generated by graphviz version 2.40.1 (20161225.0304)
 -->
<!-- Title: twoDegreesRelationshipsDiagram Pages: 1 -->
<svg width="651pt" height="573pt"
 viewBox="0.00 0.00 651.00 572.70" xmlns="http://www.w3.org/2000/svg" xmlns:xlink="http://www.w3.org/1999/xlink">
<g id="graph0" class="graph" transform="scale(1 1) rotate(0) translate(4 568.7)">
<title>twoDegreesRelationshipsDiagram</title>
<polygon fill="#ffffff" stroke="transparent" points="-4,4 -4,-568.7 647,-568.7 647,4 -4,4"/>
<text text-anchor="middle" x="72.4936" y="-7.3" font-family="Helvetica,sans-Serif" font-size="11.00" fill="#000000">Generated by SchemaSpy</text>
<!-- artifacts_dot_net -->
<g id="node1" class="node">
<title>artifacts_dot_net</title>
<g id="a_node1"><a xlink:href="../../tables/artifacts_dot_net.html" xlink:title="artifacts_dot_net" target="_top">
<polygon fill="#ffffff" stroke="transparent" points="141,-388.2 141,-559.2 272,-559.2 272,-388.2 141,-388.2"/>
<polygon fill="#f5f5f5" stroke="transparent" points="141.5,-535.7 141.5,-558.7 272.5,-558.7 272.5,-535.7 141.5,-535.7"/>
<polygon fill="none" stroke="#000000" points="141.5,-535.7 141.5,-558.7 272.5,-558.7 272.5,-535.7 141.5,-535.7"/>
<text text-anchor="start" x="146.5" y="-544.8" font-family="Helvetica,sans-Serif" font-weight="bold" font-size="11.00" fill="#000000">artifacts_dot_net</text>
<text text-anchor="start" x="237.5437" y="-543.8" font-family="Helvetica,sans-Serif" font-size="11.00" fill="#000000">[table]</text>
<polygon fill="none" stroke="#000000" points="141.5,-513.7 141.5,-535.7 272.5,-535.7 272.5,-513.7 141.5,-513.7"/>
<image xlink:href="../../images/primaryKeys.png" width="11px" height="12px" preserveAspectRatio="xMinYMin meet" x="146.5" y="-530.7"/>
<text text-anchor="start" x="161.5" y="-520.8" font-family="Helvetica,sans-Serif" font-size="11.00" fill="#000000">id</text>
<polygon fill="#ffffff" stroke="transparent" points="141.5,-491.7 141.5,-513.7 272.5,-513.7 272.5,-491.7 141.5,-491.7"/>
<polygon fill="none" stroke="#000000" points="141.5,-491.7 141.5,-513.7 272.5,-513.7 272.5,-491.7 141.5,-491.7"/>
<text text-anchor="start" x="161.5" y="-498.8" font-family="Helvetica,sans-Serif" font-size="11.00" fill="#000000">version</text>
<polygon fill="#ffffff" stroke="transparent" points="141.5,-469.7 141.5,-491.7 272.5,-491.7 272.5,-469.7 141.5,-469.7"/>
<polygon fill="none" stroke="#000000" points="141.5,-469.7 141.5,-491.7 272.5,-491.7 272.5,-469.7 141.5,-469.7"/>
<image xlink:href="../../images/foreignKeys.png" width="11px" height="12px" preserveAspectRatio="xMinYMin meet" x="146.5" y="-486.7"/>
<text text-anchor="start" x="161.5" y="-476.8" font-family="Helvetica,sans-Serif" font-size="11.00" fill="#000000">hash</text>
<polygon fill="#ffffff" stroke="transparent" points="141.5,-447.7 141.5,-469.7 272.5,-469.7 272.5,-447.7 141.5,-447.7"/>
<polygon fill="none" stroke="#000000" points="141.5,-447.7 141.5,-469.7 272.5,-469.7 272.5,-447.7 141.5,-447.7"/>
<text text-anchor="start" x="161.5" y="-454.8" font-family="Helvetica,sans-Serif" font-size="11.00" fill="#000000">group_name</text>
<polygon fill="#ffffff" stroke="transparent" points="141.5,-425.7 141.5,-447.7 272.5,-447.7 272.5,-425.7 141.5,-425.7"/>
<polygon fill="none" stroke="#000000" points="141.5,-425.7 141.5,-447.7 272.5,-447.7 272.5,-425.7 141.5,-425.7"/>
<text text-anchor="start" x="161.5" y="-432.8" font-family="Helvetica,sans-Serif" font-size="11.00" fill="#000000">artifact_name</text>
<polygon fill="none" stroke="#000000" points="141.5,-406.7 141.5,-425.7 272.5,-425.7 272.5,-406.7 141.5,-406.7"/>
<text text-anchor="start" x="144.5" y="-412.8" font-family="Helvetica,sans-Serif" font-size="11.00" fill="#000000">...</text>
<polygon fill="#ffffff" stroke="transparent" points="141.5,-387.7 141.5,-406.7 187.5,-406.7 187.5,-387.7 141.5,-387.7"/>
<polygon fill="none" stroke="#000000" points="141.5,-387.7 141.5,-406.7 187.5,-406.7 187.5,-387.7 141.5,-387.7"/>
<text text-anchor="start" x="144.5" y="-393.8" font-family="Helvetica,sans-Serif" font-size="11.00" fill="#000000">&lt; 1</text>
<polygon fill="#ffffff" stroke="transparent" points="187.5,-387.7 187.5,-406.7 238.5,-406.7 238.5,-387.7 187.5,-387.7"/>
<polygon fill="none" stroke="#000000" points="187.5,-387.7 187.5,-406.7 238.5,-406.7 238.5,-387.7 187.5,-387.7"/>
<text text-anchor="start" x="203.1105" y="-393.8" font-family="Helvetica,sans-Serif" font-size="11.00" fill="#000000">0 rows</text>
<polygon fill="#ffffff" stroke="transparent" points="238.5,-387.7 238.5,-406.7 272.5,-406.7 272.5,-387.7 238.5,-387.7"/>
<polygon fill="none" stroke="#000000" points="238.5,-387.7 238.5,-406.7 272.5,-406.7 272.5,-387.7 238.5,-387.7"/>
<text text-anchor="start" x="253.9053" y="-393.8" font-family="Helvetica,sans-Serif" font-size="11.00" fill="#000000">1 &gt;</text>
</a>
</g>
</g>
<!-- library -->
<g id="node2" class="node">
<title>library</title>
<g id="a_node2"><a xlink:href="../../tables/library.html" xlink:title="library" target="_top">
<polygon fill="#ffffff" stroke="transparent" points="8,-453.2 8,-514.2 80,-514.2 80,-453.2 8,-453.2"/>
<polygon fill="#f5f5f5" stroke="transparent" points="8,-490.7 8,-513.7 80,-513.7 80,-490.7 8,-490.7"/>
<polygon fill="none" stroke="#000000" points="8,-490.7 8,-513.7 80,-513.7 80,-490.7 8,-490.7"/>
<text text-anchor="start" x="12.5323" y="-499.8" font-family="Helvetica,sans-Serif" font-weight="bold" font-size="11.00" fill="#000000">library</text>
<text text-anchor="start" x="45.5219" y="-498.8" font-family="Helvetica,sans-Serif" font-size="11.00" fill="#000000">[table]</text>
<polygon fill="none" stroke="#000000" points="8,-471.7 8,-490.7 80,-490.7 80,-471.7 8,-471.7"/>
<text text-anchor="start" x="11" y="-477.8" font-family="Helvetica,sans-Serif" font-size="11.00" fill="#000000">...</text>
<polygon fill="#ffffff" stroke="transparent" points="8,-452.7 8,-471.7 20,-471.7 20,-452.7 8,-452.7"/>
<polygon fill="none" stroke="#000000" points="8,-452.7 8,-471.7 20,-471.7 20,-452.7 8,-452.7"/>
<text text-anchor="start" x="10.9431" y="-458.8" font-family="Helvetica,sans-Serif" font-size="11.00" fill="#000000"> &#160;</text>
<polygon fill="#ffffff" stroke="transparent" points="20,-452.7 20,-471.7 58,-471.7 58,-452.7 20,-452.7"/>
<polygon fill="none" stroke="#000000" points="20,-452.7 20,-471.7 58,-471.7 58,-452.7 20,-452.7"/>
<text text-anchor="start" x="22.8053" y="-458.8" font-family="Helvetica,sans-Serif" font-size="11.00" fill="#000000">0 rows</text>
<polygon fill="#ffffff" stroke="transparent" points="58,-452.7 58,-471.7 80,-471.7 80,-452.7 58,-452.7"/>
<polygon fill="none" stroke="#000000" points="58,-452.7 58,-471.7 80,-471.7 80,-452.7 58,-452.7"/>
<text text-anchor="start" x="61.4053" y="-458.8" font-family="Helvetica,sans-Serif" font-size="11.00" fill="#000000">4 &gt;</text>
</a>
</g>
</g>
<!-- artifacts_dot_net&#45;&gt;library -->
<g id="edge1" class="edge">
<title>artifacts_dot_net:w&#45;&gt;library:e</title>
<path fill="none" stroke="#000000" d="M131.0709,-480.7C111.8394,-480.7 103.4896,-480.7 80,-480.7"/>
<polygon fill="#000000" stroke="#000000" points="140.7,-476.7 140.7,-484.7 139.1,-484.7 139.1,-476.7 140.7,-476.7"/>
<polyline fill="none" stroke="#000000" points="141.5,-480.7 137.5,-480.7 "/>
<ellipse fill="none" stroke="#000000" cx="134.3" cy="-480.7001" rx="3.2" ry="3.2"/>
</g>
<!-- artifacts_dot_net_vulnerabilities_map -->
<g id="node3" class="node">
<title>artifacts_dot_net_vulnerabilities_map</title>
<g id="a_node3"><a xlink:href="../../tables/artifacts_dot_net_vulnerabilities_map.html" xlink:title="artifacts_dot_net_vulnerabilities_map" target="_top">
<polygon fill="#ffffff" stroke="transparent" points="333,-448.7 333,-560.7 635,-560.7 635,-448.7 333,-448.7"/>
<polygon fill="#f5f5f5" stroke="transparent" points="335,-535.7 335,-558.7 633,-558.7 633,-535.7 335,-535.7"/>
<polygon fill="none" stroke="#000000" points="335,-535.7 335,-558.7 633,-558.7 633,-535.7 335,-535.7"/>
<text text-anchor="start" x="340" y="-544.8" font-family="Helvetica,sans-Serif" font-weight="bold" font-size="11.00" fill="#000000">artifacts_dot_net_vulnerabilities_map</text>
<text text-anchor="start" x="598.0437" y="-543.8" font-family="Helvetica,sans-Serif" font-size="11.00" fill="#000000">[table]</text>
<polygon fill="none" stroke="#000000" points="335,-513.7 335,-535.7 571,-535.7 571,-513.7 335,-513.7"/>
<image xlink:href="../../images/primaryKeys.png" width="11px" height="12px" preserveAspectRatio="xMinYMin meet" x="340" y="-530.7"/>
<text text-anchor="start" x="355" y="-520.8" font-family="Helvetica,sans-Serif" font-size="11.00" fill="#000000">artifacts_id</text>
<polygon fill="none" stroke="#000000" points="571,-513.7 571,-535.7 633,-535.7 633,-513.7 571,-513.7"/>
<text text-anchor="start" x="574" y="-521.4" font-family="Helvetica,sans-Serif" font-size="11.00" fill="#000000">int[10]</text>
<polygon fill="none" stroke="#000000" points="335,-491.7 335,-513.7 571,-513.7 571,-491.7 335,-491.7"/>
<image xlink:href="../../images/primaryKeys.png" width="11px" height="12px" preserveAspectRatio="xMinYMin meet" x="340" y="-508.7"/>
<text text-anchor="start" x="355" y="-498.8" font-family="Helvetica,sans-Serif" font-size="11.00" fill="#000000">vulnerabilities_id</text>
<polygon fill="none" stroke="#000000" points="571,-491.7 571,-513.7 633,-513.7 633,-491.7 571,-491.7"/>
<text text-anchor="start" x="574" y="-499.4" font-family="Helvetica,sans-Serif" font-size="11.00" fill="#000000">int[10]</text>
<polygon fill="none" stroke="#000000" points="335,-469.7 335,-491.7 571,-491.7 571,-469.7 335,-469.7"/>
<image xlink:href="../../images/foreignKeys.png" width="11px" height="12px" preserveAspectRatio="xMinYMin meet" x="340" y="-486.7"/>
<text text-anchor="start" x="355" y="-476.8" font-family="Helvetica,sans-Serif" font-size="11.00" fill="#000000">vulnerability_id</text>
<polygon fill="none" stroke="#000000" points="571,-469.7 571,-491.7 633,-491.7 633,-469.7 571,-469.7"/>
<text text-anchor="start" x="573.878" y="-477.4" font-family="Helvetica,sans-Serif" font-size="11.00" fill="#000000">unknown[0]</text>
<polygon fill="#ffffff" stroke="transparent" points="335,-450.7 335,-469.7 444,-469.7 444,-450.7 335,-450.7"/>
<polygon fill="none" stroke="#000000" points="335,-450.7 335,-469.7 444,-469.7 444,-450.7 335,-450.7"/>
<text text-anchor="start" x="338" y="-456.8" font-family="Helvetica,sans-Serif" font-size="11.00" fill="#000000">&lt; 2</text>
<polygon fill="#ffffff" stroke="transparent" points="444,-450.7 444,-469.7 571,-469.7 571,-450.7 444,-450.7"/>
<polygon fill="none" stroke="#000000" points="444,-450.7 444,-469.7 571,-469.7 571,-450.7 444,-450.7"/>
<text text-anchor="start" x="535.6105" y="-456.8" font-family="Helvetica,sans-Serif" font-size="11.00" fill="#000000">0 rows</text>
<polygon fill="#ffffff" stroke="transparent" points="571,-450.7 571,-469.7 633,-469.7 633,-450.7 571,-450.7"/>
<polygon fill="none" stroke="#000000" points="571,-450.7 571,-469.7 633,-469.7 633,-450.7 571,-450.7"/>
<text text-anchor="start" x="614.4053" y="-456.8" font-family="Helvetica,sans-Serif" font-size="11.00" fill="#000000">0 &gt;</text>
<polygon fill="none" stroke="#000000" stroke-width="2" points="334,-449.7 334,-559.7 634,-559.7 634,-449.7 334,-449.7"/>
</a>
</g>
</g>
<!-- artifacts_dot_net_vulnerabilities_map&#45;&gt;artifacts_dot_net -->
<g id="edge2" class="edge">
<title>artifacts_dot_net_vulnerabilities_map:w&#45;&gt;artifacts_dot_net:e</title>
<path fill="none" stroke="#000000" d="M320.3024,-524.7C303.5415,-524.7 294.6354,-524.7 272.5,-524.7"/>
<polygon fill="#000000" stroke="#000000" points="327,-524.7001 335,-528.3 331,-524.7 335,-524.7 335,-524.7 335,-524.7 331,-524.7 335,-521.1 327,-524.7001 327,-524.7001"/>
<ellipse fill="none" stroke="#000000" cx="323.8" cy="-524.7001" rx="3.2" ry="3.2"/>
</g>
<!-- artifacts_vulnerabilities -->
<g id="node4" class="node">
<title>artifacts_vulnerabilities</title>
<g id="a_node4"><a xlink:href="../../tables/artifacts_vulnerabilities.html" xlink:title="artifacts_vulnerabilities" target="_top">
<polygon fill="#ffffff" stroke="transparent" points="129,-200.2 129,-305.2 284,-305.2 284,-200.2 129,-200.2"/>
<polygon fill="#f5f5f5" stroke="transparent" points="129.5,-281.7 129.5,-304.7 284.5,-304.7 284.5,-281.7 129.5,-281.7"/>
<polygon fill="none" stroke="#000000" points="129.5,-281.7 129.5,-304.7 284.5,-304.7 284.5,-281.7 129.5,-281.7"/>
<text text-anchor="start" x="134.5" y="-290.8" font-family="Helvetica,sans-Serif" font-weight="bold" font-size="11.00" fill="#000000">artifacts_vulnerabilities</text>
<text text-anchor="start" x="250.0219" y="-289.8" font-family="Helvetica,sans-Serif" font-size="11.00" fill="#000000">[table]</text>
<polygon fill="none" stroke="#000000" points="129.5,-259.7 129.5,-281.7 284.5,-281.7 284.5,-259.7 129.5,-259.7"/>
<image xlink:href="../../images/primaryKeys.png" width="11px" height="12px" preserveAspectRatio="xMinYMin meet" x="134.5" y="-276.7"/>
<text text-anchor="start" x="149.5" y="-266.8" font-family="Helvetica,sans-Serif" font-size="11.00" fill="#000000">id</text>
<polygon fill="#ffffff" stroke="transparent" points="129.5,-237.7 129.5,-259.7 284.5,-259.7 284.5,-237.7 129.5,-237.7"/>
<polygon fill="none" stroke="#000000" points="129.5,-237.7 129.5,-259.7 284.5,-259.7 284.5,-237.7 129.5,-237.7"/>
<text text-anchor="start" x="149.5" y="-244.8" font-family="Helvetica,sans-Serif" font-size="11.00" fill="#000000">name</text>
<polygon fill="none" stroke="#000000" points="129.5,-218.7 129.5,-237.7 284.5,-237.7 284.5,-218.7 129.5,-218.7"/>
<text text-anchor="start" x="132.5" y="-224.8" font-family="Helvetica,sans-Serif" font-size="11.00" fill="#000000">...</text>
<polygon fill="#ffffff" stroke="transparent" points="129.5,-199.7 129.5,-218.7 183.5,-218.7 183.5,-199.7 129.5,-199.7"/>
<polygon fill="none" stroke="#000000" points="129.5,-199.7 129.5,-218.7 183.5,-218.7 183.5,-199.7 129.5,-199.7"/>
<text text-anchor="start" x="132.5" y="-205.8" font-family="Helvetica,sans-Serif" font-size="11.00" fill="#000000"> &#160;</text>
<polygon fill="#ffffff" stroke="transparent" points="183.5,-199.7 183.5,-218.7 242.5,-218.7 242.5,-199.7 183.5,-199.7"/>
<polygon fill="none" stroke="#000000" points="183.5,-199.7 183.5,-218.7 242.5,-218.7 242.5,-199.7 183.5,-199.7"/>
<text text-anchor="start" x="207.1105" y="-205.8" font-family="Helvetica,sans-Serif" font-size="11.00" fill="#000000">0 rows</text>
<polygon fill="#ffffff" stroke="transparent" points="242.5,-199.7 242.5,-218.7 284.5,-218.7 284.5,-199.7 242.5,-199.7"/>
<polygon fill="none" stroke="#000000" points="242.5,-199.7 242.5,-218.7 284.5,-218.7 284.5,-199.7 242.5,-199.7"/>
<text text-anchor="start" x="265.9053" y="-205.8" font-family="Helvetica,sans-Serif" font-size="11.00" fill="#000000">6 &gt;</text>
</a>
</g>
</g>
<!-- artifacts_dot_net_vulnerabilities_map&#45;&gt;artifacts_vulnerabilities -->
<g id="edge3" class="edge">
<title>artifacts_dot_net_vulnerabilities_map:w&#45;&gt;artifacts_vulnerabilities:e</title>
<path fill="none" stroke="#000000" d="M320.4765,-478.6216C254.7712,-456.8116 374.8694,-270.7 284.5,-270.7"/>
<polygon fill="#000000" stroke="#000000" points="327.0807,-479.5666 334.49,-484.2637 331.0403,-480.1333 335,-480.7 335,-480.7 335,-480.7 331.0403,-480.1333 335.51,-477.1363 327.0807,-479.5666 327.0807,-479.5666"/>
<ellipse fill="none" stroke="#000000" cx="323.913" cy="-479.1133" rx="3.2" ry="3.2"/>
</g>
<!-- artifacts_java_vulnerabilities_map -->
<g id="node5" class="node">
<title>artifacts_java_vulnerabilities_map</title>
<g id="a_node5"><a xlink:href="../../tables/artifacts_java_vulnerabilities_map.html" xlink:title="artifacts_java_vulnerabilities_map" target="_top">
<polygon fill="#ffffff" stroke="transparent" points="380,-366.2 380,-427.2 588,-427.2 588,-366.2 380,-366.2"/>
<polygon fill="#f5f5f5" stroke="transparent" points="380,-403.7 380,-426.7 588,-426.7 588,-403.7 380,-403.7"/>
<polygon fill="none" stroke="#000000" points="380,-403.7 380,-426.7 588,-426.7 588,-403.7 380,-403.7"/>
<text text-anchor="start" x="384.9885" y="-412.8" font-family="Helvetica,sans-Serif" font-weight="bold" font-size="11.00" fill="#000000">artifacts_java_vulnerabilities_map</text>
<text text-anchor="start" x="553.5219" y="-411.8" font-family="Helvetica,sans-Serif" font-size="11.00" fill="#000000">[table]</text>
<polygon fill="none" stroke="#000000" points="380,-384.7 380,-403.7 588,-403.7 588,-384.7 380,-384.7"/>
<text text-anchor="start" x="383" y="-390.8" font-family="Helvetica,sans-Serif" font-size="11.00" fill="#000000">...</text>
<polygon fill="#ffffff" stroke="transparent" points="380,-365.7 380,-384.7 469,-384.7 469,-365.7 380,-365.7"/>
<polygon fill="none" stroke="#000000" points="380,-365.7 380,-384.7 469,-384.7 469,-365.7 380,-365.7"/>
<text text-anchor="start" x="383" y="-371.8" font-family="Helvetica,sans-Serif" font-size="11.00" fill="#000000">&lt; 2</text>
<polygon fill="#ffffff" stroke="transparent" points="469,-365.7 469,-384.7 541,-384.7 541,-365.7 469,-365.7"/>
<polygon fill="none" stroke="#000000" points="469,-365.7 469,-384.7 541,-384.7 541,-365.7 469,-365.7"/>
<text text-anchor="start" x="505.6105" y="-371.8" font-family="Helvetica,sans-Serif" font-size="11.00" fill="#000000">0 rows</text>
<polygon fill="#ffffff" stroke="transparent" points="541,-365.7 541,-384.7 588,-384.7 588,-365.7 541,-365.7"/>
<polygon fill="none" stroke="#000000" points="541,-365.7 541,-384.7 588,-384.7 588,-365.7 541,-365.7"/>
<text text-anchor="start" x="578.8862" y="-371.8" font-family="Helvetica,sans-Serif" font-size="11.00" fill="#000000"> &#160;</text>
</a>
</g>
</g>
<!-- artifacts_java_vulnerabilities_map&#45;&gt;artifacts_vulnerabilities -->
<g id="edge4" class="edge">
<title>artifacts_java_vulnerabilities_map:w&#45;&gt;artifacts_vulnerabilities:e</title>
<path fill="none" stroke="#000000" d="M365.5421,-392.1316C347.5638,-387.6781 340.6516,-374.0791 325,-355.7 297.8683,-323.8404 326.3469,-270.7 284.5,-270.7"/>
<polygon fill="#000000" stroke="#000000" points="372.0467,-392.8372 379.6117,-397.279 376.0233,-393.2686 380,-393.7 380,-393.7 380,-393.7 376.0233,-393.2686 380.3883,-390.121 372.0467,-392.8372 372.0467,-392.8372"/>
<ellipse fill="none" stroke="#000000" cx="368.8653" cy="-392.492" rx="3.2" ry="3.2"/>
</g>
<!-- artifacts_node_vulnerabilities_map -->
<g id="node6" class="node">
<title>artifacts_node_vulnerabilities_map</title>
<g id="a_node6"><a xlink:href="../../tables/artifacts_node_vulnerabilities_map.html" xlink:title="artifacts_node_vulnerabilities_map" target="_top">
<polygon fill="#ffffff" stroke="transparent" points="378,-284.2 378,-345.2 590,-345.2 590,-284.2 378,-284.2"/>
<polygon fill="#f5f5f5" stroke="transparent" points="378,-321.7 378,-344.7 590,-344.7 590,-321.7 378,-321.7"/>
<polygon fill="none" stroke="#000000" points="378,-321.7 378,-344.7 590,-344.7 590,-321.7 378,-321.7"/>
<text text-anchor="start" x="382.844" y="-330.8" font-family="Helvetica,sans-Serif" font-weight="bold" font-size="11.00" fill="#000000">artifacts_node_vulnerabilities_map</text>
<text text-anchor="start" x="555.5219" y="-329.8" font-family="Helvetica,sans-Serif" font-size="11.00" fill="#000000">[table]</text>
<polygon fill="none" stroke="#000000" points="378,-302.7 378,-321.7 590,-321.7 590,-302.7 378,-302.7"/>
<text text-anchor="start" x="381" y="-308.8" font-family="Helvetica,sans-Serif" font-size="11.00" fill="#000000">...</text>
<polygon fill="#ffffff" stroke="transparent" points="378,-283.7 378,-302.7 469,-302.7 469,-283.7 378,-283.7"/>
<polygon fill="none" stroke="#000000" points="378,-283.7 378,-302.7 469,-302.7 469,-283.7 378,-283.7"/>
<text text-anchor="start" x="381" y="-289.8" font-family="Helvetica,sans-Serif" font-size="11.00" fill="#000000">&lt; 2</text>
<polygon fill="#ffffff" stroke="transparent" points="469,-283.7 469,-302.7 542,-302.7 542,-283.7 469,-283.7"/>
<polygon fill="none" stroke="#000000" points="469,-283.7 469,-302.7 542,-302.7 542,-283.7 469,-283.7"/>
<text text-anchor="start" x="506.6105" y="-289.8" font-family="Helvetica,sans-Serif" font-size="11.00" fill="#000000">0 rows</text>
<polygon fill="#ffffff" stroke="transparent" points="542,-283.7 542,-302.7 590,-302.7 590,-283.7 542,-283.7"/>
<polygon fill="none" stroke="#000000" points="542,-283.7 542,-302.7 590,-302.7 590,-283.7 542,-283.7"/>
<text text-anchor="start" x="580.8862" y="-289.8" font-family="Helvetica,sans-Serif" font-size="11.00" fill="#000000"> &#160;</text>
</a>
</g>
</g>
<!-- artifacts_node_vulnerabilities_map&#45;&gt;artifacts_vulnerabilities -->
<g id="edge5" class="edge">
<title>artifacts_node_vulnerabilities_map:w&#45;&gt;artifacts_vulnerabilities:e</title>
<path fill="none" stroke="#000000" d="M363.6667,-310.1428C331.395,-302.6537 324.5578,-270.7 284.5,-270.7"/>
<polygon fill="#000000" stroke="#000000" points="370.0468,-310.8359 377.6112,-315.2789 374.0234,-311.268 378,-311.7 378,-311.7 378,-311.7 374.0234,-311.268 378.3888,-308.1211 370.0468,-310.8359 370.0468,-310.8359"/>
<ellipse fill="none" stroke="#000000" cx="366.8655" cy="-310.4903" rx="3.2" ry="3.2"/>
</g>
<!-- artifacts_proxy_vulnerabilities_map -->
<g id="node7" class="node">
<title>artifacts_proxy_vulnerabilities_map</title>
<g id="a_node7"><a xlink:href="../../tables/artifacts_proxy_vulnerabilities_map.html" xlink:title="artifacts_proxy_vulnerabilities_map" target="_top">
<polygon fill="#ffffff" stroke="transparent" points="377,-202.2 377,-263.2 591,-263.2 591,-202.2 377,-202.2"/>
<polygon fill="#f5f5f5" stroke="transparent" points="377,-239.7 377,-262.7 591,-262.7 591,-239.7 377,-239.7"/>
<polygon fill="none" stroke="#000000" points="377,-239.7 377,-262.7 591,-262.7 591,-239.7 377,-239.7"/>
<text text-anchor="start" x="381.628" y="-248.8" font-family="Helvetica,sans-Serif" font-weight="bold" font-size="11.00" fill="#000000">artifacts_proxy_vulnerabilities_map</text>
<text text-anchor="start" x="556.5219" y="-247.8" font-family="Helvetica,sans-Serif" font-size="11.00" fill="#000000">[table]</text>
<polygon fill="none" stroke="#000000" points="377,-220.7 377,-239.7 591,-239.7 591,-220.7 377,-220.7"/>
<text text-anchor="start" x="380" y="-226.8" font-family="Helvetica,sans-Serif" font-size="11.00" fill="#000000">...</text>
<polygon fill="#ffffff" stroke="transparent" points="377,-201.7 377,-220.7 469,-220.7 469,-201.7 377,-201.7"/>
<polygon fill="none" stroke="#000000" points="377,-201.7 377,-220.7 469,-220.7 469,-201.7 377,-201.7"/>
<text text-anchor="start" x="380" y="-207.8" font-family="Helvetica,sans-Serif" font-size="11.00" fill="#000000">&lt; 2</text>
<polygon fill="#ffffff" stroke="transparent" points="469,-201.7 469,-220.7 543,-220.7 543,-201.7 469,-201.7"/>
<polygon fill="none" stroke="#000000" points="469,-201.7 469,-220.7 543,-220.7 543,-201.7 469,-201.7"/>
<text text-anchor="start" x="507.6105" y="-207.8" font-family="Helvetica,sans-Serif" font-size="11.00" fill="#000000">0 rows</text>
<polygon fill="#ffffff" stroke="transparent" points="543,-201.7 543,-220.7 591,-220.7 591,-201.7 543,-201.7"/>
<polygon fill="none" stroke="#000000" points="543,-201.7 543,-220.7 591,-220.7 591,-201.7 543,-201.7"/>
<text text-anchor="start" x="581.8862" y="-207.8" font-family="Helvetica,sans-Serif" font-size="11.00" fill="#000000"> &#160;</text>
</a>
</g>
</g>
<!-- artifacts_proxy_vulnerabilities_map&#45;&gt;artifacts_vulnerabilities -->
<g id="edge6" class="edge">
<title>artifacts_proxy_vulnerabilities_map:w&#45;&gt;artifacts_vulnerabilities:e</title>
<path fill="none" stroke="#000000" d="M362.3786,-231.358C330.7889,-239.0285 324.0232,-270.7 284.5,-270.7"/>
<polygon fill="#000000" stroke="#000000" points="369.0509,-230.6015 377.4057,-233.2771 373.0255,-230.1507 377,-229.7 377,-229.7 377,-229.7 373.0255,-230.1507 376.5943,-226.1229 369.0509,-230.6015 369.0509,-230.6015"/>
<ellipse fill="none" stroke="#000000" cx="365.8713" cy="-230.962" rx="3.2" ry="3.2"/>
</g>
<!-- artifacts_python_vulnerabilities_map -->
<g id="node8" class="node">
<title>artifacts_python_vulnerabilities_map</title>
<g id="a_node8"><a xlink:href="../../tables/artifacts_python_vulnerabilities_map.html" xlink:title="artifacts_python_vulnerabilities_map" target="_top">
<polygon fill="#ffffff" stroke="transparent" points="374,-120.2 374,-181.2 594,-181.2 594,-120.2 374,-120.2"/>
<polygon fill="#f5f5f5" stroke="transparent" points="374,-157.7 374,-180.7 594,-180.7 594,-157.7 374,-157.7"/>
<polygon fill="none" stroke="#000000" points="374,-157.7 374,-180.7 594,-180.7 594,-157.7 374,-157.7"/>
<text text-anchor="start" x="378.5656" y="-166.8" font-family="Helvetica,sans-Serif" font-weight="bold" font-size="11.00" fill="#000000">artifacts_python_vulnerabilities_map</text>
<text text-anchor="start" x="559.5219" y="-165.8" font-family="Helvetica,sans-Serif" font-size="11.00" fill="#000000">[table]</text>
<polygon fill="none" stroke="#000000" points="374,-138.7 374,-157.7 594,-157.7 594,-138.7 374,-138.7"/>
<text text-anchor="start" x="377" y="-144.8" font-family="Helvetica,sans-Serif" font-size="11.00" fill="#000000">...</text>
<polygon fill="#ffffff" stroke="transparent" points="374,-119.7 374,-138.7 469,-138.7 469,-119.7 374,-119.7"/>
<polygon fill="none" stroke="#000000" points="374,-119.7 374,-138.7 469,-138.7 469,-119.7 374,-119.7"/>
<text text-anchor="start" x="377" y="-125.8" font-family="Helvetica,sans-Serif" font-size="11.00" fill="#000000">&lt; 2</text>
<polygon fill="#ffffff" stroke="transparent" points="469,-119.7 469,-138.7 544,-138.7 544,-119.7 469,-119.7"/>
<polygon fill="none" stroke="#000000" points="469,-119.7 469,-138.7 544,-138.7 544,-119.7 469,-119.7"/>
<text text-anchor="start" x="508.6105" y="-125.8" font-family="Helvetica,sans-Serif" font-size="11.00" fill="#000000">0 rows</text>
<polygon fill="#ffffff" stroke="transparent" points="544,-119.7 544,-138.7 594,-138.7 594,-119.7 544,-119.7"/>
<polygon fill="none" stroke="#000000" points="544,-119.7 544,-138.7 594,-138.7 594,-119.7 544,-119.7"/>
<text text-anchor="start" x="584.8862" y="-125.8" font-family="Helvetica,sans-Serif" font-size="11.00" fill="#000000"> &#160;</text>
</a>
</g>
</g>
<!-- artifacts_python_vulnerabilities_map&#45;&gt;artifacts_vulnerabilities -->
<g id="edge7" class="edge">
<title>artifacts_python_vulnerabilities_map:w&#45;&gt;artifacts_vulnerabilities:e</title>
<path fill="none" stroke="#000000" d="M359.6625,-149.9445C343.3908,-155.9207 339.3737,-173.042 325,-191.7 300.9206,-222.9566 323.9562,-270.7 284.5,-270.7"/>
<polygon fill="#000000" stroke="#000000" points="366.0963,-148.9374 374.5568,-151.2567 370.0481,-148.3187 374,-147.7 374,-147.7 374,-147.7 370.0481,-148.3187 373.4432,-144.1433 366.0963,-148.9374 366.0963,-148.9374"/>
<ellipse fill="none" stroke="#000000" cx="362.9348" cy="-149.4323" rx="3.2" ry="3.2"/>
</g>
<!-- artifacts_ruby_vulnerabilities_map -->
<g id="node9" class="node">
<title>artifacts_ruby_vulnerabilities_map</title>
<g id="a_node9"><a xlink:href="../../tables/artifacts_ruby_vulnerabilities_map.html" xlink:title="artifacts_ruby_vulnerabilities_map" target="_top">
<polygon fill="#ffffff" stroke="transparent" points="379.5,-38.2 379.5,-99.2 588.5,-99.2 588.5,-38.2 379.5,-38.2"/>
<polygon fill="#f5f5f5" stroke="transparent" points="380,-75.7 380,-98.7 589,-98.7 589,-75.7 380,-75.7"/>
<polygon fill="none" stroke="#000000" points="380,-75.7 380,-98.7 589,-98.7 589,-75.7 380,-75.7"/>
<text text-anchor="start" x="384.878" y="-84.8" font-family="Helvetica,sans-Serif" font-weight="bold" font-size="11.00" fill="#000000">artifacts_ruby_vulnerabilities_map</text>
<text text-anchor="start" x="554.5219" y="-83.8" font-family="Helvetica,sans-Serif" font-size="11.00" fill="#000000">[table]</text>
<polygon fill="none" stroke="#000000" points="380,-56.7 380,-75.7 589,-75.7 589,-56.7 380,-56.7"/>
<text text-anchor="start" x="383" y="-62.8" font-family="Helvetica,sans-Serif" font-size="11.00" fill="#000000">...</text>
<polygon fill="#ffffff" stroke="transparent" points="380,-37.7 380,-56.7 470,-56.7 470,-37.7 380,-37.7"/>
<polygon fill="none" stroke="#000000" points="380,-37.7 380,-56.7 470,-56.7 470,-37.7 380,-37.7"/>
<text text-anchor="start" x="383" y="-43.8" font-family="Helvetica,sans-Serif" font-size="11.00" fill="#000000">&lt; 2</text>
<polygon fill="#ffffff" stroke="transparent" points="470,-37.7 470,-56.7 542,-56.7 542,-37.7 470,-37.7"/>
<polygon fill="none" stroke="#000000" points="470,-37.7 470,-56.7 542,-56.7 542,-37.7 470,-37.7"/>
<text text-anchor="start" x="506.6105" y="-43.8" font-family="Helvetica,sans-Serif" font-size="11.00" fill="#000000">0 rows</text>
<polygon fill="#ffffff" stroke="transparent" points="542,-37.7 542,-56.7 589,-56.7 589,-37.7 542,-37.7"/>
<polygon fill="none" stroke="#000000" points="542,-37.7 542,-56.7 589,-56.7 589,-37.7 542,-37.7"/>
<text text-anchor="start" x="579.8862" y="-43.8" font-family="Helvetica,sans-Serif" font-size="11.00" fill="#000000"> &#160;</text>
</a>
</g>
</g>
<!-- artifacts_ruby_vulnerabilities_map&#45;&gt;artifacts_vulnerabilities -->
<g id="edge8" class="edge">
<title>artifacts_ruby_vulnerabilities_map:w&#45;&gt;artifacts_vulnerabilities:e</title>
<path fill="none" stroke="#000000" d="M365.5778,-67.2887C346.0019,-72.1786 338.9504,-87.9951 325,-109.7 285.1059,-171.7698 358.2848,-270.7 284.5,-270.7"/>
<polygon fill="#000000" stroke="#000000" points="372.0481,-66.576 380.3942,-69.2784 376.0241,-66.138 380,-65.7 380,-65.7 380,-65.7 376.0241,-66.138 379.6058,-62.1216 372.0481,-66.576 372.0481,-66.576"/>
<ellipse fill="none" stroke="#000000" cx="368.8673" cy="-66.9264" rx="3.2" ry="3.2"/>
</g>
</g>
</svg>
