<?xml version="1.0" encoding="UTF-8" standalone="no"?>
<!DOCTYPE svg PUBLIC "-//W3C//DTD SVG 1.1//EN"
 "http://www.w3.org/Graphics/SVG/1.1/DTD/svg11.dtd">
<!-- Generated by graphviz version 2.40.1 (20161225.0304)
 -->
<!-- Title: oneDegreeRelationshipsDiagram Pages: 1 -->
<svg width="510pt" height="347pt"
 viewBox="0.00 0.00 510.00 347.20" xmlns="http://www.w3.org/2000/svg" xmlns:xlink="http://www.w3.org/1999/xlink">
<g id="graph0" class="graph" transform="scale(1 1) rotate(0) translate(4 343.2)">
<title>oneDegreeRelationshipsDiagram</title>
<polygon fill="#ffffff" stroke="transparent" points="-4,4 -4,-343.2 506,-343.2 506,4 -4,4"/>
<text text-anchor="middle" x="72.4936" y="-7.3" font-family="Helvetica,sans-Serif" font-size="11.00" fill="#000000">Generated by SchemaSpy</text>
<!-- artifacts_java_vulnerabilities_map -->
<g id="node1" class="node">
<title>artifacts_java_vulnerabilities_map</title>
<g id="a_node1"><a xlink:href="../../tables/artifacts_java_vulnerabilities_map.html" xlink:title="artifacts_java_vulnerabilities_map" target="_top">
<polygon fill="#ffffff" stroke="transparent" points="212,-150.7 212,-262.7 494,-262.7 494,-150.7 212,-150.7"/>
<polygon fill="#f5f5f5" stroke="transparent" points="214,-237.7 214,-260.7 492,-260.7 492,-237.7 214,-237.7"/>
<polygon fill="none" stroke="#000000" points="214,-237.7 214,-260.7 492,-260.7 492,-237.7 214,-237.7"/>
<text text-anchor="start" x="219" y="-246.8" font-family="Helvetica,sans-Serif" font-weight="bold" font-size="11.00" fill="#000000">artifacts_java_vulnerabilities_map</text>
<text text-anchor="start" x="457.0437" y="-245.8" font-family="Helvetica,sans-Serif" font-size="11.00" fill="#000000">[table]</text>
<polygon fill="none" stroke="#000000" points="214,-215.7 214,-237.7 430,-237.7 430,-215.7 214,-215.7"/>
<image xlink:href="../../images/primaryKeys.png" width="11px" height="12px" preserveAspectRatio="xMinYMin meet" x="219" y="-232.7"/>
<text text-anchor="start" x="234" y="-222.8" font-family="Helvetica,sans-Serif" font-size="11.00" fill="#000000">artifacts_id</text>
<polygon fill="none" stroke="#000000" points="430,-215.7 430,-237.7 492,-237.7 492,-215.7 430,-215.7"/>
<text text-anchor="start" x="433" y="-223.4" font-family="Helvetica,sans-Serif" font-size="11.00" fill="#000000">int[10]</text>
<polygon fill="none" stroke="#000000" points="214,-193.7 214,-215.7 430,-215.7 430,-193.7 214,-193.7"/>
<image xlink:href="../../images/primaryKeys.png" width="11px" height="12px" preserveAspectRatio="xMinYMin meet" x="219" y="-210.7"/>
<text text-anchor="start" x="234" y="-200.8" font-family="Helvetica,sans-Serif" font-size="11.00" fill="#000000">vulnerabilities_id</text>
<polygon fill="none" stroke="#000000" points="430,-193.7 430,-215.7 492,-215.7 492,-193.7 430,-193.7"/>
<text text-anchor="start" x="433" y="-201.4" font-family="Helvetica,sans-Serif" font-size="11.00" fill="#000000">int[10]</text>
<polygon fill="none" stroke="#000000" points="214,-171.7 214,-193.7 430,-193.7 430,-171.7 214,-171.7"/>
<image xlink:href="../../images/foreignKeys.png" width="11px" height="12px" preserveAspectRatio="xMinYMin meet" x="219" y="-188.7"/>
<text text-anchor="start" x="234" y="-178.8" font-family="Helvetica,sans-Serif" font-size="11.00" fill="#000000">vulnerability_id</text>
<polygon fill="none" stroke="#000000" points="430,-171.7 430,-193.7 492,-193.7 492,-171.7 430,-171.7"/>
<text text-anchor="start" x="432.878" y="-179.4" font-family="Helvetica,sans-Serif" font-size="11.00" fill="#000000">unknown[0]</text>
<polygon fill="#ffffff" stroke="transparent" points="214,-152.7 214,-171.7 313,-171.7 313,-152.7 214,-152.7"/>
<polygon fill="none" stroke="#000000" points="214,-152.7 214,-171.7 313,-171.7 313,-152.7 214,-152.7"/>
<text text-anchor="start" x="217" y="-158.8" font-family="Helvetica,sans-Serif" font-size="11.00" fill="#000000">&lt; 2</text>
<polygon fill="#ffffff" stroke="transparent" points="313,-152.7 313,-171.7 430,-171.7 430,-152.7 313,-152.7"/>
<polygon fill="none" stroke="#000000" points="313,-152.7 313,-171.7 430,-171.7 430,-152.7 313,-152.7"/>
<text text-anchor="start" x="394.6105" y="-158.8" font-family="Helvetica,sans-Serif" font-size="11.00" fill="#000000">0 rows</text>
<polygon fill="#ffffff" stroke="transparent" points="430,-152.7 430,-171.7 492,-171.7 492,-152.7 430,-152.7"/>
<polygon fill="none" stroke="#000000" points="430,-152.7 430,-171.7 492,-171.7 492,-152.7 430,-152.7"/>
<text text-anchor="start" x="473.4053" y="-158.8" font-family="Helvetica,sans-Serif" font-size="11.00" fill="#000000">0 &gt;</text>
<polygon fill="none" stroke="#000000" stroke-width="2" points="213,-151.7 213,-261.7 493,-261.7 493,-151.7 213,-151.7"/>
</a>
</g>
</g>
<!-- artifacts_java -->
<g id="node2" class="node">
<title>artifacts_java</title>
<g id="a_node2"><a xlink:href="../../tables/artifacts_java.html" xlink:title="artifacts_java" target="_top">
<polygon fill="#ffffff" stroke="transparent" points="20,-164.2 20,-335.2 151,-335.2 151,-164.2 20,-164.2"/>
<polygon fill="#f5f5f5" stroke="transparent" points="20.5,-311.7 20.5,-334.7 151.5,-334.7 151.5,-311.7 20.5,-311.7"/>
<polygon fill="none" stroke="#000000" points="20.5,-311.7 20.5,-334.7 151.5,-334.7 151.5,-311.7 20.5,-311.7"/>
<text text-anchor="start" x="25.5" y="-320.8" font-family="Helvetica,sans-Serif" font-weight="bold" font-size="11.00" fill="#000000">artifacts_java</text>
<text text-anchor="start" x="116.5437" y="-319.8" font-family="Helvetica,sans-Serif" font-size="11.00" fill="#000000">[table]</text>
<polygon fill="none" stroke="#000000" points="20.5,-289.7 20.5,-311.7 151.5,-311.7 151.5,-289.7 20.5,-289.7"/>
<image xlink:href="../../images/primaryKeys.png" width="11px" height="12px" preserveAspectRatio="xMinYMin meet" x="25.5" y="-306.7"/>
<text text-anchor="start" x="40.5" y="-296.8" font-family="Helvetica,sans-Serif" font-size="11.00" fill="#000000">id</text>
<polygon fill="#ffffff" stroke="transparent" points="20.5,-267.7 20.5,-289.7 151.5,-289.7 151.5,-267.7 20.5,-267.7"/>
<polygon fill="none" stroke="#000000" points="20.5,-267.7 20.5,-289.7 151.5,-289.7 151.5,-267.7 20.5,-267.7"/>
<text text-anchor="start" x="40.5" y="-274.8" font-family="Helvetica,sans-Serif" font-size="11.00" fill="#000000">version</text>
<polygon fill="#ffffff" stroke="transparent" points="20.5,-245.7 20.5,-267.7 151.5,-267.7 151.5,-245.7 20.5,-245.7"/>
<polygon fill="none" stroke="#000000" points="20.5,-245.7 20.5,-267.7 151.5,-267.7 151.5,-245.7 20.5,-245.7"/>
<text text-anchor="start" x="40.5" y="-252.8" font-family="Helvetica,sans-Serif" font-size="11.00" fill="#000000">hash</text>
<polygon fill="#ffffff" stroke="transparent" points="20.5,-223.7 20.5,-245.7 151.5,-245.7 151.5,-223.7 20.5,-223.7"/>
<polygon fill="none" stroke="#000000" points="20.5,-223.7 20.5,-245.7 151.5,-245.7 151.5,-223.7 20.5,-223.7"/>
<text text-anchor="start" x="40.5" y="-230.8" font-family="Helvetica,sans-Serif" font-size="11.00" fill="#000000">group_name</text>
<polygon fill="#ffffff" stroke="transparent" points="20.5,-201.7 20.5,-223.7 151.5,-223.7 151.5,-201.7 20.5,-201.7"/>
<polygon fill="none" stroke="#000000" points="20.5,-201.7 20.5,-223.7 151.5,-223.7 151.5,-201.7 20.5,-201.7"/>
<text text-anchor="start" x="40.5" y="-208.8" font-family="Helvetica,sans-Serif" font-size="11.00" fill="#000000">artifact_name</text>
<polygon fill="none" stroke="#000000" points="20.5,-182.7 20.5,-201.7 151.5,-201.7 151.5,-182.7 20.5,-182.7"/>
<text text-anchor="start" x="23.5" y="-188.8" font-family="Helvetica,sans-Serif" font-size="11.00" fill="#000000">...</text>
<polygon fill="#ffffff" stroke="transparent" points="20.5,-163.7 20.5,-182.7 62.5,-182.7 62.5,-163.7 20.5,-163.7"/>
<polygon fill="none" stroke="#000000" points="20.5,-163.7 20.5,-182.7 62.5,-182.7 62.5,-163.7 20.5,-163.7"/>
<text text-anchor="start" x="23.5" y="-169.8" font-family="Helvetica,sans-Serif" font-size="11.00" fill="#000000"> &#160;</text>
<polygon fill="#ffffff" stroke="transparent" points="62.5,-163.7 62.5,-182.7 115.5,-182.7 115.5,-163.7 62.5,-163.7"/>
<polygon fill="none" stroke="#000000" points="62.5,-163.7 62.5,-182.7 115.5,-182.7 115.5,-163.7 62.5,-163.7"/>
<text text-anchor="start" x="80.1105" y="-169.8" font-family="Helvetica,sans-Serif" font-size="11.00" fill="#000000">0 rows</text>
<polygon fill="#ffffff" stroke="transparent" points="115.5,-163.7 115.5,-182.7 151.5,-182.7 151.5,-163.7 115.5,-163.7"/>
<polygon fill="none" stroke="#000000" points="115.5,-163.7 115.5,-182.7 151.5,-182.7 151.5,-163.7 115.5,-163.7"/>
<text text-anchor="start" x="132.9053" y="-169.8" font-family="Helvetica,sans-Serif" font-size="11.00" fill="#000000">1 &gt;</text>
</a>
</g>
</g>
<!-- artifacts_java_vulnerabilities_map&#45;&gt;artifacts_java -->
<g id="edge1" class="edge">
<title>artifacts_java_vulnerabilities_map:w&#45;&gt;artifacts_java:e</title>
<path fill="none" stroke="#000000" d="M199.7396,-230.4714C176.1574,-245.5512 188.6641,-300.7 151.5,-300.7"/>
<polygon fill="#000000" stroke="#000000" points="206.2659,-228.7455 214.9205,-230.1803 210.133,-227.7227 214,-226.7 214,-226.7 214,-226.7 210.133,-227.7227 213.0795,-223.2197 206.2659,-228.7455 206.2659,-228.7455"/>
<ellipse fill="none" stroke="#000000" cx="203.1723" cy="-229.5636" rx="3.2" ry="3.2"/>
</g>
<!-- artifacts_vulnerabilities -->
<g id="node3" class="node">
<title>artifacts_vulnerabilities</title>
<g id="a_node3"><a xlink:href="../../tables/artifacts_vulnerabilities.html" xlink:title="artifacts_vulnerabilities" target="_top">
<polygon fill="#ffffff" stroke="transparent" points="8,-38.2 8,-143.2 163,-143.2 163,-38.2 8,-38.2"/>
<polygon fill="#f5f5f5" stroke="transparent" points="8.5,-119.7 8.5,-142.7 163.5,-142.7 163.5,-119.7 8.5,-119.7"/>
<polygon fill="none" stroke="#000000" points="8.5,-119.7 8.5,-142.7 163.5,-142.7 163.5,-119.7 8.5,-119.7"/>
<text text-anchor="start" x="13.5" y="-128.8" font-family="Helvetica,sans-Serif" font-weight="bold" font-size="11.00" fill="#000000">artifacts_vulnerabilities</text>
<text text-anchor="start" x="129.0219" y="-127.8" font-family="Helvetica,sans-Serif" font-size="11.00" fill="#000000">[table]</text>
<polygon fill="none" stroke="#000000" points="8.5,-97.7 8.5,-119.7 163.5,-119.7 163.5,-97.7 8.5,-97.7"/>
<image xlink:href="../../images/primaryKeys.png" width="11px" height="12px" preserveAspectRatio="xMinYMin meet" x="13.5" y="-114.7"/>
<text text-anchor="start" x="28.5" y="-104.8" font-family="Helvetica,sans-Serif" font-size="11.00" fill="#000000">id</text>
<polygon fill="#ffffff" stroke="transparent" points="8.5,-75.7 8.5,-97.7 163.5,-97.7 163.5,-75.7 8.5,-75.7"/>
<polygon fill="none" stroke="#000000" points="8.5,-75.7 8.5,-97.7 163.5,-97.7 163.5,-75.7 8.5,-75.7"/>
<text text-anchor="start" x="28.5" y="-82.8" font-family="Helvetica,sans-Serif" font-size="11.00" fill="#000000">name</text>
<polygon fill="none" stroke="#000000" points="8.5,-56.7 8.5,-75.7 163.5,-75.7 163.5,-56.7 8.5,-56.7"/>
<text text-anchor="start" x="11.5" y="-62.8" font-family="Helvetica,sans-Serif" font-size="11.00" fill="#000000">...</text>
<polygon fill="#ffffff" stroke="transparent" points="8.5,-37.7 8.5,-56.7 62.5,-56.7 62.5,-37.7 8.5,-37.7"/>
<polygon fill="none" stroke="#000000" points="8.5,-37.7 8.5,-56.7 62.5,-56.7 62.5,-37.7 8.5,-37.7"/>
<text text-anchor="start" x="11.5" y="-43.8" font-family="Helvetica,sans-Serif" font-size="11.00" fill="#000000"> &#160;</text>
<polygon fill="#ffffff" stroke="transparent" points="62.5,-37.7 62.5,-56.7 121.5,-56.7 121.5,-37.7 62.5,-37.7"/>
<polygon fill="none" stroke="#000000" points="62.5,-37.7 62.5,-56.7 121.5,-56.7 121.5,-37.7 62.5,-37.7"/>
<text text-anchor="start" x="86.1105" y="-43.8" font-family="Helvetica,sans-Serif" font-size="11.00" fill="#000000">0 rows</text>
<polygon fill="#ffffff" stroke="transparent" points="121.5,-37.7 121.5,-56.7 163.5,-56.7 163.5,-37.7 121.5,-37.7"/>
<polygon fill="none" stroke="#000000" points="121.5,-37.7 121.5,-56.7 163.5,-56.7 163.5,-37.7 121.5,-37.7"/>
<text text-anchor="start" x="144.9053" y="-43.8" font-family="Helvetica,sans-Serif" font-size="11.00" fill="#000000">6 &gt;</text>
</a>
</g>
</g>
<!-- artifacts_java_vulnerabilities_map&#45;&gt;artifacts_vulnerabilities -->
<g id="edge2" class="edge">
<title>artifacts_java_vulnerabilities_map:w&#45;&gt;artifacts_vulnerabilities:e</title>
<path fill="none" stroke="#000000" d="M200.1154,-178.071C181.4593,-161.8706 197.2515,-108.7 163.5,-108.7"/>
<polygon fill="#000000" stroke="#000000" points="206.4107,-180.1697 212.8614,-186.1152 210.2053,-181.4349 214,-182.7 214,-182.7 214,-182.7 210.2053,-181.4349 215.1386,-179.2848 206.4107,-180.1697 206.4107,-180.1697"/>
<ellipse fill="none" stroke="#000000" cx="203.3749" cy="-179.1576" rx="3.2" ry="3.2"/>
</g>
</g>
</svg>
