<?xml version="1.0" encoding="UTF-8" standalone="no"?>
<!DOCTYPE svg PUBLIC "-//W3C//DTD SVG 1.1//EN"
 "http://www.w3.org/Graphics/SVG/1.1/DTD/svg11.dtd">
<!-- Generated by graphviz version 2.40.1 (20161225.0304)
 -->
<!-- Title: twoDegreesRelationshipsDiagram Pages: 1 -->
<svg width="1039pt" height="1608pt"
 viewBox="0.00 0.00 1039.00 1608.20" xmlns="http://www.w3.org/2000/svg" xmlns:xlink="http://www.w3.org/1999/xlink">
<g id="graph0" class="graph" transform="scale(1 1) rotate(0) translate(4 1604.2)">
<title>twoDegreesRelationshipsDiagram</title>
<polygon fill="#ffffff" stroke="transparent" points="-4,4 -4,-1604.2 1035,-1604.2 1035,4 -4,4"/>
<text text-anchor="middle" x="72.4936" y="-7.3" font-family="Helvetica,sans-Serif" font-size="11.00" fill="#000000">Generated by SchemaSpy</text>
<!-- app_assess_rules_env_configs -->
<g id="node1" class="node">
<title>app_assess_rules_env_configs</title>
<g id="a_node1"><a xlink:href="../../tables/app_assess_rules_env_configs.html" xlink:title="app_assess_rules_env_configs" target="_top">
<polygon fill="#ffffff" stroke="transparent" points="201,-38.2 201,-99.2 397,-99.2 397,-38.2 201,-38.2"/>
<polygon fill="#f5f5f5" stroke="transparent" points="201,-75.7 201,-98.7 397,-98.7 397,-75.7 201,-75.7"/>
<polygon fill="none" stroke="#000000" points="201,-75.7 201,-98.7 397,-98.7 397,-75.7 201,-75.7"/>
<text text-anchor="start" x="205.7805" y="-84.8" font-family="Helvetica,sans-Serif" font-weight="bold" font-size="11.00" fill="#000000">app_assess_rules_env_configs</text>
<text text-anchor="start" x="362.5219" y="-83.8" font-family="Helvetica,sans-Serif" font-size="11.00" fill="#000000">[table]</text>
<polygon fill="none" stroke="#000000" points="201,-56.7 201,-75.7 397,-75.7 397,-56.7 201,-56.7"/>
<text text-anchor="start" x="204" y="-62.8" font-family="Helvetica,sans-Serif" font-size="11.00" fill="#000000">...</text>
<polygon fill="#ffffff" stroke="transparent" points="201,-37.7 201,-56.7 284,-56.7 284,-37.7 201,-37.7"/>
<polygon fill="none" stroke="#000000" points="201,-37.7 201,-56.7 284,-56.7 284,-37.7 201,-37.7"/>
<text text-anchor="start" x="204" y="-43.8" font-family="Helvetica,sans-Serif" font-size="11.00" fill="#000000">&lt; 2</text>
<polygon fill="#ffffff" stroke="transparent" points="284,-37.7 284,-56.7 353,-56.7 353,-37.7 284,-37.7"/>
<polygon fill="none" stroke="#000000" points="284,-37.7 284,-56.7 353,-56.7 353,-37.7 284,-37.7"/>
<text text-anchor="start" x="317.6105" y="-43.8" font-family="Helvetica,sans-Serif" font-size="11.00" fill="#000000">0 rows</text>
<polygon fill="#ffffff" stroke="transparent" points="353,-37.7 353,-56.7 397,-56.7 397,-37.7 353,-37.7"/>
<polygon fill="none" stroke="#000000" points="353,-37.7 353,-56.7 397,-56.7 397,-37.7 353,-37.7"/>
<text text-anchor="start" x="387.8862" y="-43.8" font-family="Helvetica,sans-Serif" font-size="11.00" fill="#000000"> &#160;</text>
</a>
</g>
</g>
<!-- rules -->
<g id="node2" class="node">
<title>rules</title>
<g id="a_node2"><a xlink:href="../../tables/rules.html" xlink:title="rules" target="_top">
<polygon fill="#ffffff" stroke="transparent" points="8,-556.2 8,-661.2 135,-661.2 135,-556.2 8,-556.2"/>
<polygon fill="#f5f5f5" stroke="transparent" points="8.5,-637.7 8.5,-660.7 135.5,-660.7 135.5,-637.7 8.5,-637.7"/>
<polygon fill="none" stroke="#000000" points="8.5,-637.7 8.5,-660.7 135.5,-660.7 135.5,-637.7 8.5,-637.7"/>
<text text-anchor="start" x="13.5" y="-646.8" font-family="Helvetica,sans-Serif" font-weight="bold" font-size="11.00" fill="#000000">rules</text>
<text text-anchor="start" x="100.5437" y="-645.8" font-family="Helvetica,sans-Serif" font-size="11.00" fill="#000000">[table]</text>
<polygon fill="none" stroke="#000000" points="8.5,-615.7 8.5,-637.7 135.5,-637.7 135.5,-615.7 8.5,-615.7"/>
<image xlink:href="../../images/primaryKeys.png" width="11px" height="12px" preserveAspectRatio="xMinYMin meet" x="13.5" y="-632.7"/>
<text text-anchor="start" x="28.5" y="-622.8" font-family="Helvetica,sans-Serif" font-size="11.00" fill="#000000">name</text>
<polygon fill="#ffffff" stroke="transparent" points="8.5,-593.7 8.5,-615.7 135.5,-615.7 135.5,-593.7 8.5,-593.7"/>
<polygon fill="none" stroke="#000000" points="8.5,-593.7 8.5,-615.7 135.5,-615.7 135.5,-593.7 8.5,-593.7"/>
<text text-anchor="start" x="28.5" y="-600.8" font-family="Helvetica,sans-Serif" font-size="11.00" fill="#000000">title</text>
<polygon fill="none" stroke="#000000" points="8.5,-574.7 8.5,-593.7 135.5,-593.7 135.5,-574.7 8.5,-574.7"/>
<text text-anchor="start" x="11.5" y="-580.8" font-family="Helvetica,sans-Serif" font-size="11.00" fill="#000000">...</text>
<polygon fill="#ffffff" stroke="transparent" points="8.5,-555.7 8.5,-574.7 42.5,-574.7 42.5,-555.7 8.5,-555.7"/>
<polygon fill="none" stroke="#000000" points="8.5,-555.7 8.5,-574.7 42.5,-574.7 42.5,-555.7 8.5,-555.7"/>
<text text-anchor="start" x="11.5" y="-561.8" font-family="Helvetica,sans-Serif" font-size="11.00" fill="#000000"> &#160;</text>
<polygon fill="#ffffff" stroke="transparent" points="42.5,-555.7 42.5,-574.7 97.5,-574.7 97.5,-555.7 42.5,-555.7"/>
<polygon fill="none" stroke="#000000" points="42.5,-555.7 42.5,-574.7 97.5,-574.7 97.5,-555.7 42.5,-555.7"/>
<text text-anchor="start" x="55.9956" y="-561.8" font-family="Helvetica,sans-Serif" font-size="11.00" fill="#000000">82 rows</text>
<polygon fill="#ffffff" stroke="transparent" points="97.5,-555.7 97.5,-574.7 135.5,-574.7 135.5,-555.7 97.5,-555.7"/>
<polygon fill="none" stroke="#000000" points="97.5,-555.7 97.5,-574.7 135.5,-574.7 135.5,-555.7 97.5,-555.7"/>
<text text-anchor="start" x="110.7904" y="-561.8" font-family="Helvetica,sans-Serif" font-size="11.00" fill="#000000">16 &gt;</text>
</a>
</g>
</g>
<!-- app_assess_rules_env_configs&#45;&gt;rules -->
<g id="edge1" class="edge">
<title>app_assess_rules_env_configs:w&#45;&gt;rules:e</title>
<path fill="none" stroke="#000000" d="M187.2574,-70.7718C179.977,-78.6226 180.6862,-94.4119 176,-109.7 159.1132,-164.7904 193.1204,-626.7 135.5,-626.7"/>
<polygon fill="#000000" stroke="#000000" points="193.4948,-68.4699 202.2464,-69.0773 197.2474,-67.0849 201,-65.7 201,-65.7 201,-65.7 197.2474,-67.0849 199.7536,-62.3227 193.4948,-68.4699 193.4948,-68.4699"/>
<ellipse fill="none" stroke="#000000" cx="190.4927" cy="-69.5778" rx="3.2" ry="3.2"/>
</g>
<!-- app_compliance_policy_rules -->
<g id="node3" class="node">
<title>app_compliance_policy_rules</title>
<g id="a_node3"><a xlink:href="../../tables/app_compliance_policy_rules.html" xlink:title="app_compliance_policy_rules" target="_top">
<polygon fill="#ffffff" stroke="transparent" points="205.5,-914.2 205.5,-975.2 392.5,-975.2 392.5,-914.2 205.5,-914.2"/>
<polygon fill="#f5f5f5" stroke="transparent" points="206,-951.7 206,-974.7 393,-974.7 393,-951.7 206,-951.7"/>
<polygon fill="none" stroke="#000000" points="206,-951.7 206,-974.7 393,-974.7 393,-951.7 206,-951.7"/>
<text text-anchor="start" x="210.8741" y="-960.8" font-family="Helvetica,sans-Serif" font-weight="bold" font-size="11.00" fill="#000000">app_compliance_policy_rules</text>
<text text-anchor="start" x="358.5219" y="-959.8" font-family="Helvetica,sans-Serif" font-size="11.00" fill="#000000">[table]</text>
<polygon fill="none" stroke="#000000" points="206,-932.7 206,-951.7 393,-951.7 393,-932.7 206,-932.7"/>
<text text-anchor="start" x="209" y="-938.8" font-family="Helvetica,sans-Serif" font-size="11.00" fill="#000000">...</text>
<polygon fill="#ffffff" stroke="transparent" points="206,-913.7 206,-932.7 274,-932.7 274,-913.7 206,-913.7"/>
<polygon fill="none" stroke="#000000" points="206,-913.7 206,-932.7 274,-932.7 274,-913.7 206,-913.7"/>
<text text-anchor="start" x="209" y="-919.8" font-family="Helvetica,sans-Serif" font-size="11.00" fill="#000000">&lt; 2</text>
<polygon fill="#ffffff" stroke="transparent" points="274,-913.7 274,-932.7 357,-932.7 357,-913.7 274,-913.7"/>
<polygon fill="none" stroke="#000000" points="274,-913.7 274,-932.7 357,-932.7 357,-913.7 274,-913.7"/>
<text text-anchor="start" x="300.2089" y="-919.8" font-family="Helvetica,sans-Serif" font-size="11.00" fill="#000000">1,005 rows</text>
<polygon fill="#ffffff" stroke="transparent" points="357,-913.7 357,-932.7 393,-932.7 393,-913.7 357,-913.7"/>
<polygon fill="none" stroke="#000000" points="357,-913.7 357,-932.7 393,-932.7 393,-913.7 357,-913.7"/>
<text text-anchor="start" x="383.8862" y="-919.8" font-family="Helvetica,sans-Serif" font-size="11.00" fill="#000000"> &#160;</text>
</a>
</g>
</g>
<!-- app_compliance_policy_rules&#45;&gt;rules -->
<g id="edge2" class="edge">
<title>app_compliance_policy_rules:w&#45;&gt;rules:e</title>
<path fill="none" stroke="#000000" d="M191.9636,-937.4631C183.1399,-930.3233 182.2403,-915.1547 176,-899.7 153.037,-842.8304 196.8306,-626.7 135.5,-626.7"/>
<polygon fill="#000000" stroke="#000000" points="198.3413,-939.3882 204.9597,-945.1464 202.1706,-940.5441 206,-941.7 206,-941.7 206,-941.7 202.1706,-940.5441 207.0403,-938.2536 198.3413,-939.3882 198.3413,-939.3882"/>
<ellipse fill="none" stroke="#000000" cx="195.2778" cy="-938.4634" rx="3.2" ry="3.2"/>
</g>
<!-- bugtracker_application -->
<g id="node4" class="node">
<title>bugtracker_application</title>
<g id="a_node4"><a xlink:href="../../tables/bugtracker_application.html" xlink:title="bugtracker_application" target="_top">
<polygon fill="#ffffff" stroke="transparent" points="487.5,-1221.2 487.5,-1392.2 657.5,-1392.2 657.5,-1221.2 487.5,-1221.2"/>
<polygon fill="#f5f5f5" stroke="transparent" points="487.5,-1368.7 487.5,-1391.7 657.5,-1391.7 657.5,-1368.7 487.5,-1368.7"/>
<polygon fill="none" stroke="#000000" points="487.5,-1368.7 487.5,-1391.7 657.5,-1391.7 657.5,-1368.7 487.5,-1368.7"/>
<text text-anchor="start" x="492.5" y="-1377.8" font-family="Helvetica,sans-Serif" font-weight="bold" font-size="11.00" fill="#000000">bugtracker_application</text>
<text text-anchor="start" x="622.5437" y="-1376.8" font-family="Helvetica,sans-Serif" font-size="11.00" fill="#000000">[table]</text>
<polygon fill="none" stroke="#000000" points="487.5,-1346.7 487.5,-1368.7 657.5,-1368.7 657.5,-1346.7 487.5,-1346.7"/>
<image xlink:href="../../images/primaryKeys.png" width="11px" height="12px" preserveAspectRatio="xMinYMin meet" x="492.5" y="-1363.7"/>
<text text-anchor="start" x="507.5" y="-1353.8" font-family="Helvetica,sans-Serif" font-size="11.00" fill="#000000">bugtracker_application_id</text>
<polygon fill="#ffffff" stroke="transparent" points="487.5,-1324.7 487.5,-1346.7 657.5,-1346.7 657.5,-1324.7 487.5,-1324.7"/>
<polygon fill="none" stroke="#000000" points="487.5,-1324.7 487.5,-1346.7 657.5,-1346.7 657.5,-1324.7 487.5,-1324.7"/>
<image xlink:href="../../images/foreignKeys.png" width="11px" height="12px" preserveAspectRatio="xMinYMin meet" x="492.5" y="-1341.7"/>
<text text-anchor="start" x="507.5" y="-1331.8" font-family="Helvetica,sans-Serif" font-size="11.00" fill="#000000">bugtracker_fk</text>
<polygon fill="#ffffff" stroke="transparent" points="487.5,-1302.7 487.5,-1324.7 657.5,-1324.7 657.5,-1302.7 487.5,-1302.7"/>
<polygon fill="none" stroke="#000000" points="487.5,-1302.7 487.5,-1324.7 657.5,-1324.7 657.5,-1302.7 487.5,-1302.7"/>
<image xlink:href="../../images/foreignKeys.png" width="11px" height="12px" preserveAspectRatio="xMinYMin meet" x="492.5" y="-1319.7"/>
<text text-anchor="start" x="507.5" y="-1309.8" font-family="Helvetica,sans-Serif" font-size="11.00" fill="#000000">organizations_id</text>
<polygon fill="#ffffff" stroke="transparent" points="487.5,-1280.7 487.5,-1302.7 657.5,-1302.7 657.5,-1280.7 487.5,-1280.7"/>
<polygon fill="none" stroke="#000000" points="487.5,-1280.7 487.5,-1302.7 657.5,-1302.7 657.5,-1280.7 487.5,-1280.7"/>
<text text-anchor="start" x="507.5" y="-1287.8" font-family="Helvetica,sans-Serif" font-size="11.00" fill="#000000">uuid</text>
<polygon fill="#ffffff" stroke="transparent" points="487.5,-1258.7 487.5,-1280.7 657.5,-1280.7 657.5,-1258.7 487.5,-1258.7"/>
<polygon fill="none" stroke="#000000" points="487.5,-1258.7 487.5,-1280.7 657.5,-1280.7 657.5,-1258.7 487.5,-1258.7"/>
<image xlink:href="../../images/foreignKeys.png" width="11px" height="12px" preserveAspectRatio="xMinYMin meet" x="492.5" y="-1275.7"/>
<text text-anchor="start" x="507.5" y="-1265.8" font-family="Helvetica,sans-Serif" font-size="11.00" fill="#000000">bugtracker_credentials_id</text>
<polygon fill="none" stroke="#000000" points="487.5,-1239.7 487.5,-1258.7 657.5,-1258.7 657.5,-1239.7 487.5,-1239.7"/>
<text text-anchor="start" x="490.5" y="-1245.8" font-family="Helvetica,sans-Serif" font-size="11.00" fill="#000000">...</text>
<polygon fill="#ffffff" stroke="transparent" points="487.5,-1220.7 487.5,-1239.7 553.5,-1239.7 553.5,-1220.7 487.5,-1220.7"/>
<polygon fill="none" stroke="#000000" points="487.5,-1220.7 487.5,-1239.7 553.5,-1239.7 553.5,-1220.7 487.5,-1220.7"/>
<text text-anchor="start" x="490.5" y="-1226.8" font-family="Helvetica,sans-Serif" font-size="11.00" fill="#000000">&lt; 3</text>
<polygon fill="#ffffff" stroke="transparent" points="553.5,-1220.7 553.5,-1239.7 613.5,-1239.7 613.5,-1220.7 553.5,-1220.7"/>
<polygon fill="none" stroke="#000000" points="553.5,-1220.7 553.5,-1239.7 613.5,-1239.7 613.5,-1220.7 553.5,-1220.7"/>
<text text-anchor="start" x="578.1105" y="-1226.8" font-family="Helvetica,sans-Serif" font-size="11.00" fill="#000000">0 rows</text>
<polygon fill="#ffffff" stroke="transparent" points="613.5,-1220.7 613.5,-1239.7 657.5,-1239.7 657.5,-1220.7 613.5,-1220.7"/>
<polygon fill="none" stroke="#000000" points="613.5,-1220.7 613.5,-1239.7 657.5,-1239.7 657.5,-1220.7 613.5,-1220.7"/>
<text text-anchor="start" x="638.9053" y="-1226.8" font-family="Helvetica,sans-Serif" font-size="11.00" fill="#000000">8 &gt;</text>
</a>
</g>
</g>
<!-- bugtracker_credentials -->
<g id="node5" class="node">
<title>bugtracker_credentials</title>
<g id="a_node5"><a xlink:href="../../tables/bugtracker_credentials.html" xlink:title="bugtracker_credentials" target="_top">
<polygon fill="#ffffff" stroke="transparent" points="222,-1242.2 222,-1303.2 376,-1303.2 376,-1242.2 222,-1242.2"/>
<polygon fill="#f5f5f5" stroke="transparent" points="222,-1279.7 222,-1302.7 376,-1302.7 376,-1279.7 222,-1279.7"/>
<polygon fill="none" stroke="#000000" points="222,-1279.7 222,-1302.7 376,-1302.7 376,-1279.7 222,-1279.7"/>
<text text-anchor="start" x="226.8774" y="-1288.8" font-family="Helvetica,sans-Serif" font-weight="bold" font-size="11.00" fill="#000000">bugtracker_credentials</text>
<text text-anchor="start" x="341.5219" y="-1287.8" font-family="Helvetica,sans-Serif" font-size="11.00" fill="#000000">[table]</text>
<polygon fill="none" stroke="#000000" points="222,-1260.7 222,-1279.7 376,-1279.7 376,-1260.7 222,-1260.7"/>
<text text-anchor="start" x="225" y="-1266.8" font-family="Helvetica,sans-Serif" font-size="11.00" fill="#000000">...</text>
<polygon fill="#ffffff" stroke="transparent" points="222,-1241.7 222,-1260.7 280,-1260.7 280,-1241.7 222,-1241.7"/>
<polygon fill="none" stroke="#000000" points="222,-1241.7 222,-1260.7 280,-1260.7 280,-1241.7 222,-1241.7"/>
<text text-anchor="start" x="225" y="-1247.8" font-family="Helvetica,sans-Serif" font-size="11.00" fill="#000000">&lt; 2</text>
<polygon fill="#ffffff" stroke="transparent" points="280,-1241.7 280,-1260.7 336,-1260.7 336,-1241.7 280,-1241.7"/>
<polygon fill="none" stroke="#000000" points="280,-1241.7 280,-1260.7 336,-1260.7 336,-1241.7 280,-1241.7"/>
<text text-anchor="start" x="300.6105" y="-1247.8" font-family="Helvetica,sans-Serif" font-size="11.00" fill="#000000">0 rows</text>
<polygon fill="#ffffff" stroke="transparent" points="336,-1241.7 336,-1260.7 376,-1260.7 376,-1241.7 336,-1241.7"/>
<polygon fill="none" stroke="#000000" points="336,-1241.7 336,-1260.7 376,-1260.7 376,-1241.7 336,-1241.7"/>
<text text-anchor="start" x="357.4053" y="-1247.8" font-family="Helvetica,sans-Serif" font-size="11.00" fill="#000000">1 &gt;</text>
</a>
</g>
</g>
<!-- bugtracker_application&#45;&gt;bugtracker_credentials -->
<g id="edge3" class="edge">
<title>bugtracker_application:w&#45;&gt;bugtracker_credentials:e</title>
<path fill="none" stroke="#000000" d="M472.9734,-1269.7C434.9177,-1269.7 420.329,-1269.7 376,-1269.7"/>
<polygon fill="#000000" stroke="#000000" points="479.5,-1269.7001 487.5,-1273.3 483.5,-1269.7 487.5,-1269.7 487.5,-1269.7 487.5,-1269.7 483.5,-1269.7 487.5,-1266.1 479.5,-1269.7001 479.5,-1269.7001"/>
<ellipse fill="none" stroke="#000000" cx="476.3" cy="-1269.7001" rx="3.2" ry="3.2"/>
</g>
<!-- bugtracker -->
<g id="node6" class="node">
<title>bugtracker</title>
<g id="a_node6"><a xlink:href="../../tables/bugtracker.html" xlink:title="bugtracker" target="_top">
<polygon fill="#ffffff" stroke="transparent" points="24.5,-1284.2 24.5,-1345.2 118.5,-1345.2 118.5,-1284.2 24.5,-1284.2"/>
<polygon fill="#f5f5f5" stroke="transparent" points="24.5,-1321.7 24.5,-1344.7 118.5,-1344.7 118.5,-1321.7 24.5,-1321.7"/>
<polygon fill="none" stroke="#000000" points="24.5,-1321.7 24.5,-1344.7 118.5,-1344.7 118.5,-1321.7 24.5,-1321.7"/>
<text text-anchor="start" x="29.0224" y="-1330.8" font-family="Helvetica,sans-Serif" font-weight="bold" font-size="11.00" fill="#000000">bugtracker</text>
<text text-anchor="start" x="84.0219" y="-1329.8" font-family="Helvetica,sans-Serif" font-size="11.00" fill="#000000">[table]</text>
<polygon fill="none" stroke="#000000" points="24.5,-1302.7 24.5,-1321.7 118.5,-1321.7 118.5,-1302.7 24.5,-1302.7"/>
<text text-anchor="start" x="27.5" y="-1308.8" font-family="Helvetica,sans-Serif" font-size="11.00" fill="#000000">...</text>
<polygon fill="#ffffff" stroke="transparent" points="24.5,-1283.7 24.5,-1302.7 47.5,-1302.7 47.5,-1283.7 24.5,-1283.7"/>
<polygon fill="none" stroke="#000000" points="24.5,-1283.7 24.5,-1302.7 47.5,-1302.7 47.5,-1283.7 24.5,-1283.7"/>
<text text-anchor="start" x="27.5" y="-1289.8" font-family="Helvetica,sans-Serif" font-size="11.00" fill="#000000"> &#160;</text>
<polygon fill="#ffffff" stroke="transparent" points="47.5,-1283.7 47.5,-1302.7 91.5,-1302.7 91.5,-1283.7 47.5,-1283.7"/>
<polygon fill="none" stroke="#000000" points="47.5,-1283.7 47.5,-1302.7 91.5,-1302.7 91.5,-1283.7 47.5,-1283.7"/>
<text text-anchor="start" x="56.1105" y="-1289.8" font-family="Helvetica,sans-Serif" font-size="11.00" fill="#000000">6 rows</text>
<polygon fill="#ffffff" stroke="transparent" points="91.5,-1283.7 91.5,-1302.7 118.5,-1302.7 118.5,-1283.7 91.5,-1283.7"/>
<polygon fill="none" stroke="#000000" points="91.5,-1283.7 91.5,-1302.7 118.5,-1302.7 118.5,-1283.7 91.5,-1283.7"/>
<text text-anchor="start" x="99.9053" y="-1289.8" font-family="Helvetica,sans-Serif" font-size="11.00" fill="#000000">2 &gt;</text>
</a>
</g>
</g>
<!-- bugtracker_application&#45;&gt;bugtracker -->
<g id="edge4" class="edge">
<title>bugtracker_application:w&#45;&gt;bugtracker:e</title>
<path fill="none" stroke="#000000" d="M472.8777,-1335.8178C346.1998,-1337.8742 306.448,-1365.8219 176,-1337.7 148.5832,-1331.7895 146.5467,-1311.7 118.5,-1311.7"/>
<polygon fill="#000000" stroke="#000000" points="479.5003,-1335.7645 487.529,-1339.2999 483.5001,-1335.7322 487.5,-1335.7 487.5,-1335.7 487.5,-1335.7 483.5001,-1335.7322 487.471,-1332.1001 479.5003,-1335.7645 479.5003,-1335.7645"/>
<ellipse fill="none" stroke="#000000" cx="476.3004" cy="-1335.7903" rx="3.2" ry="3.2"/>
</g>
<!-- organizations -->
<g id="node7" class="node">
<title>organizations</title>
<g id="a_node7"><a xlink:href="../../tables/organizations.html" xlink:title="organizations" target="_top">
<polygon fill="#ffffff" stroke="transparent" points="17.5,-1160.2 17.5,-1221.2 125.5,-1221.2 125.5,-1160.2 17.5,-1160.2"/>
<polygon fill="#f5f5f5" stroke="transparent" points="17.5,-1197.7 17.5,-1220.7 125.5,-1220.7 125.5,-1197.7 17.5,-1197.7"/>
<polygon fill="none" stroke="#000000" points="17.5,-1197.7 17.5,-1220.7 125.5,-1220.7 125.5,-1197.7 17.5,-1197.7"/>
<text text-anchor="start" x="22.2976" y="-1206.8" font-family="Helvetica,sans-Serif" font-weight="bold" font-size="11.00" fill="#000000">organizations</text>
<text text-anchor="start" x="91.0219" y="-1205.8" font-family="Helvetica,sans-Serif" font-size="11.00" fill="#000000">[table]</text>
<polygon fill="none" stroke="#000000" points="17.5,-1178.7 17.5,-1197.7 125.5,-1197.7 125.5,-1178.7 17.5,-1178.7"/>
<text text-anchor="start" x="20.5" y="-1184.8" font-family="Helvetica,sans-Serif" font-size="11.00" fill="#000000">...</text>
<polygon fill="#ffffff" stroke="transparent" points="17.5,-1159.7 17.5,-1178.7 49.5,-1178.7 49.5,-1159.7 17.5,-1159.7"/>
<polygon fill="none" stroke="#000000" points="17.5,-1159.7 17.5,-1178.7 49.5,-1178.7 49.5,-1159.7 17.5,-1159.7"/>
<text text-anchor="start" x="20.5" y="-1165.8" font-family="Helvetica,sans-Serif" font-size="11.00" fill="#000000">&lt; 4</text>
<polygon fill="#ffffff" stroke="transparent" points="49.5,-1159.7 49.5,-1178.7 92.5,-1178.7 92.5,-1159.7 49.5,-1159.7"/>
<polygon fill="none" stroke="#000000" points="49.5,-1159.7 49.5,-1178.7 92.5,-1178.7 92.5,-1159.7 49.5,-1159.7"/>
<text text-anchor="start" x="57.1105" y="-1165.8" font-family="Helvetica,sans-Serif" font-size="11.00" fill="#000000">3 rows</text>
<polygon fill="#ffffff" stroke="transparent" points="92.5,-1159.7 92.5,-1178.7 125.5,-1178.7 125.5,-1159.7 92.5,-1159.7"/>
<polygon fill="none" stroke="#000000" points="92.5,-1159.7 92.5,-1178.7 125.5,-1178.7 125.5,-1159.7 92.5,-1159.7"/>
<text text-anchor="start" x="100.7904" y="-1165.8" font-family="Helvetica,sans-Serif" font-size="11.00" fill="#000000">81 &gt;</text>
</a>
</g>
</g>
<!-- bugtracker_application&#45;&gt;organizations -->
<g id="edge5" class="edge">
<title>bugtracker_application:w&#45;&gt;organizations:e</title>
<path fill="none" stroke="#000000" d="M472.7382,-1314.1522C394.9675,-1318.3778 229.6386,-1349.9883 176,-1313.7 126.0308,-1279.8941 185.8304,-1187.7 125.5,-1187.7"/>
<polygon fill="#000000" stroke="#000000" points="479.5038,-1313.945 487.6103,-1317.2983 483.5019,-1313.8225 487.5,-1313.7 487.5,-1313.7 487.5,-1313.7 483.5019,-1313.8225 487.3897,-1310.1017 479.5038,-1313.945 479.5038,-1313.945"/>
<ellipse fill="none" stroke="#000000" cx="476.3053" cy="-1314.043" rx="3.2" ry="3.2"/>
</g>
<!-- bugtracker_credentials&#45;&gt;bugtracker -->
<g id="edge13" class="edge">
<title>bugtracker_credentials:w&#45;&gt;bugtracker:e</title>
<path fill="none" stroke="#000000" d="M207.2224,-1271.0974C170.8916,-1278.3851 162.7134,-1311.7 118.5,-1311.7"/>
<polygon fill="#000000" stroke="#000000" points="214.0355,-1270.4532 222.3389,-1273.284 218.0178,-1270.0766 222,-1269.7 222,-1269.7 222,-1269.7 218.0178,-1270.0766 221.6611,-1266.116 214.0355,-1270.4532 214.0355,-1270.4532"/>
<ellipse fill="none" stroke="#000000" cx="210.8497" cy="-1270.7545" rx="3.2" ry="3.2"/>
</g>
<!-- bugtracker_credentials&#45;&gt;organizations -->
<g id="edge14" class="edge">
<title>bugtracker_credentials:w&#45;&gt;organizations:e</title>
<path fill="none" stroke="#000000" d="M207.702,-1267.5906C168.1302,-1254.7557 176.3956,-1187.7 125.5,-1187.7"/>
<polygon fill="#000000" stroke="#000000" points="214.0857,-1268.5324 221.4746,-1273.2615 218.0428,-1269.1162 222,-1269.7 222,-1269.7 222,-1269.7 218.0428,-1269.1162 222.5254,-1266.1385 214.0857,-1268.5324 214.0857,-1268.5324"/>
<ellipse fill="none" stroke="#000000" cx="210.9199" cy="-1268.0653" rx="3.2" ry="3.2"/>
</g>
<!-- bugtracker_application_config -->
<g id="node8" class="node">
<title>bugtracker_application_config</title>
<g id="a_node8"><a xlink:href="../../tables/bugtracker_application_config.html" xlink:title="bugtracker_application_config" target="_top">
<polygon fill="#ffffff" stroke="transparent" points="782.5,-1535.2 782.5,-1596.2 971.5,-1596.2 971.5,-1535.2 782.5,-1535.2"/>
<polygon fill="#f5f5f5" stroke="transparent" points="783,-1572.7 783,-1595.7 972,-1595.7 972,-1572.7 783,-1572.7"/>
<polygon fill="none" stroke="#000000" points="783,-1572.7 783,-1595.7 972,-1595.7 972,-1572.7 783,-1572.7"/>
<text text-anchor="start" x="787.9518" y="-1581.8" font-family="Helvetica,sans-Serif" font-weight="bold" font-size="11.00" fill="#000000">bugtracker_application_config</text>
<text text-anchor="start" x="937.5219" y="-1580.8" font-family="Helvetica,sans-Serif" font-size="11.00" fill="#000000">[table]</text>
<polygon fill="none" stroke="#000000" points="783,-1553.7 783,-1572.7 972,-1572.7 972,-1553.7 783,-1553.7"/>
<text text-anchor="start" x="786" y="-1559.8" font-family="Helvetica,sans-Serif" font-size="11.00" fill="#000000">...</text>
<polygon fill="#ffffff" stroke="transparent" points="783,-1534.7 783,-1553.7 863,-1553.7 863,-1534.7 783,-1534.7"/>
<polygon fill="none" stroke="#000000" points="783,-1534.7 783,-1553.7 863,-1553.7 863,-1534.7 783,-1534.7"/>
<text text-anchor="start" x="786" y="-1540.8" font-family="Helvetica,sans-Serif" font-size="11.00" fill="#000000">&lt; 2</text>
<polygon fill="#ffffff" stroke="transparent" points="863,-1534.7 863,-1553.7 930,-1553.7 930,-1534.7 863,-1534.7"/>
<polygon fill="none" stroke="#000000" points="863,-1534.7 863,-1553.7 930,-1553.7 930,-1534.7 863,-1534.7"/>
<text text-anchor="start" x="894.6105" y="-1540.8" font-family="Helvetica,sans-Serif" font-size="11.00" fill="#000000">0 rows</text>
<polygon fill="#ffffff" stroke="transparent" points="930,-1534.7 930,-1553.7 972,-1553.7 972,-1534.7 930,-1534.7"/>
<polygon fill="none" stroke="#000000" points="930,-1534.7 930,-1553.7 972,-1553.7 972,-1534.7 930,-1534.7"/>
<text text-anchor="start" x="962.8862" y="-1540.8" font-family="Helvetica,sans-Serif" font-size="11.00" fill="#000000"> &#160;</text>
</a>
</g>
</g>
<!-- bugtracker_application_config&#45;&gt;bugtracker_application -->
<g id="edge6" class="edge">
<title>bugtracker_application_config:w&#45;&gt;bugtracker_application:e</title>
<path fill="none" stroke="#000000" d="M768.6048,-1561.5049C748.2201,-1557.6901 739.6389,-1544.8601 723,-1524.7 672.2507,-1463.211 737.227,-1357.7 657.5,-1357.7"/>
<polygon fill="#000000" stroke="#000000" points="775.0274,-1562.038 782.7021,-1566.2877 779.0137,-1562.369 783,-1562.7 783,-1562.7 783,-1562.7 779.0137,-1562.369 783.2979,-1559.1123 775.0274,-1562.038 775.0274,-1562.038"/>
<ellipse fill="none" stroke="#000000" cx="771.8384" cy="-1561.7733" rx="3.2" ry="3.2"/>
</g>
<!-- bugtracker_application_fields -->
<g id="node9" class="node">
<title>bugtracker_application_fields</title>
<g id="a_node9"><a xlink:href="../../tables/bugtracker_application_fields.html" xlink:title="bugtracker_application_fields" target="_top">
<polygon fill="#ffffff" stroke="transparent" points="784.5,-1453.2 784.5,-1514.2 969.5,-1514.2 969.5,-1453.2 784.5,-1453.2"/>
<polygon fill="#f5f5f5" stroke="transparent" points="785,-1490.7 785,-1513.7 970,-1513.7 970,-1490.7 785,-1490.7"/>
<polygon fill="none" stroke="#000000" points="785,-1490.7 785,-1513.7 970,-1513.7 970,-1490.7 785,-1490.7"/>
<text text-anchor="start" x="789.7888" y="-1499.8" font-family="Helvetica,sans-Serif" font-weight="bold" font-size="11.00" fill="#000000">bugtracker_application_fields</text>
<text text-anchor="start" x="935.5219" y="-1498.8" font-family="Helvetica,sans-Serif" font-size="11.00" fill="#000000">[table]</text>
<polygon fill="none" stroke="#000000" points="785,-1471.7 785,-1490.7 970,-1490.7 970,-1471.7 785,-1471.7"/>
<text text-anchor="start" x="788" y="-1477.8" font-family="Helvetica,sans-Serif" font-size="11.00" fill="#000000">...</text>
<polygon fill="#ffffff" stroke="transparent" points="785,-1452.7 785,-1471.7 863,-1471.7 863,-1452.7 785,-1452.7"/>
<polygon fill="none" stroke="#000000" points="785,-1452.7 785,-1471.7 863,-1471.7 863,-1452.7 785,-1452.7"/>
<text text-anchor="start" x="788" y="-1458.8" font-family="Helvetica,sans-Serif" font-size="11.00" fill="#000000">&lt; 1</text>
<polygon fill="#ffffff" stroke="transparent" points="863,-1452.7 863,-1471.7 929,-1471.7 929,-1452.7 863,-1452.7"/>
<polygon fill="none" stroke="#000000" points="863,-1452.7 863,-1471.7 929,-1471.7 929,-1452.7 863,-1452.7"/>
<text text-anchor="start" x="893.6105" y="-1458.8" font-family="Helvetica,sans-Serif" font-size="11.00" fill="#000000">0 rows</text>
<polygon fill="#ffffff" stroke="transparent" points="929,-1452.7 929,-1471.7 970,-1471.7 970,-1452.7 929,-1452.7"/>
<polygon fill="none" stroke="#000000" points="929,-1452.7 929,-1471.7 970,-1471.7 970,-1452.7 929,-1452.7"/>
<text text-anchor="start" x="960.8862" y="-1458.8" font-family="Helvetica,sans-Serif" font-size="11.00" fill="#000000"> &#160;</text>
</a>
</g>
</g>
<!-- bugtracker_application_fields&#45;&gt;bugtracker_application -->
<g id="edge7" class="edge">
<title>bugtracker_application_fields:w&#45;&gt;bugtracker_application:e</title>
<path fill="none" stroke="#000000" d="M770.4707,-1479.3036C750.1979,-1474.9095 742.9076,-1460.5893 723,-1442.7 687.5257,-1410.8222 705.1929,-1357.7 657.5,-1357.7"/>
<polygon fill="#000000" stroke="#000000" points="777.0367,-1479.9346 784.6556,-1484.2835 781.0183,-1480.3173 785,-1480.7 785,-1480.7 785,-1480.7 781.0183,-1480.3173 785.3444,-1477.1165 777.0367,-1479.9346 777.0367,-1479.9346"/>
<ellipse fill="none" stroke="#000000" cx="773.8514" cy="-1479.6284" rx="3.2" ry="3.2"/>
</g>
<!-- bugtracker_application_importance_config -->
<g id="node10" class="node">
<title>bugtracker_application_importance_config</title>
<g id="a_node10"><a xlink:href="../../tables/bugtracker_application_importance_config.html" xlink:title="bugtracker_application_importance_config" target="_top">
<polygon fill="#ffffff" stroke="transparent" points="752.5,-1371.2 752.5,-1432.2 1001.5,-1432.2 1001.5,-1371.2 752.5,-1371.2"/>
<polygon fill="#f5f5f5" stroke="transparent" points="753,-1408.7 753,-1431.7 1002,-1431.7 1002,-1408.7 753,-1408.7"/>
<polygon fill="none" stroke="#000000" points="753,-1408.7 753,-1431.7 1002,-1431.7 1002,-1408.7 753,-1408.7"/>
<text text-anchor="start" x="757.6963" y="-1417.8" font-family="Helvetica,sans-Serif" font-weight="bold" font-size="11.00" fill="#000000">bugtracker_application_importance_config</text>
<text text-anchor="start" x="967.5219" y="-1416.8" font-family="Helvetica,sans-Serif" font-size="11.00" fill="#000000">[table]</text>
<polygon fill="none" stroke="#000000" points="753,-1389.7 753,-1408.7 1002,-1408.7 1002,-1389.7 753,-1389.7"/>
<text text-anchor="start" x="756" y="-1395.8" font-family="Helvetica,sans-Serif" font-size="11.00" fill="#000000">...</text>
<polygon fill="#ffffff" stroke="transparent" points="753,-1370.7 753,-1389.7 863,-1389.7 863,-1370.7 753,-1370.7"/>
<polygon fill="none" stroke="#000000" points="753,-1370.7 753,-1389.7 863,-1389.7 863,-1370.7 753,-1370.7"/>
<text text-anchor="start" x="756" y="-1376.8" font-family="Helvetica,sans-Serif" font-size="11.00" fill="#000000">&lt; 1</text>
<polygon fill="#ffffff" stroke="transparent" points="863,-1370.7 863,-1389.7 945,-1389.7 945,-1370.7 863,-1370.7"/>
<polygon fill="none" stroke="#000000" points="863,-1370.7 863,-1389.7 945,-1389.7 945,-1370.7 863,-1370.7"/>
<text text-anchor="start" x="909.6105" y="-1376.8" font-family="Helvetica,sans-Serif" font-size="11.00" fill="#000000">0 rows</text>
<polygon fill="#ffffff" stroke="transparent" points="945,-1370.7 945,-1389.7 1002,-1389.7 1002,-1370.7 945,-1370.7"/>
<polygon fill="none" stroke="#000000" points="945,-1370.7 945,-1389.7 1002,-1389.7 1002,-1370.7 945,-1370.7"/>
<text text-anchor="start" x="992.8862" y="-1376.8" font-family="Helvetica,sans-Serif" font-size="11.00" fill="#000000"> &#160;</text>
</a>
</g>
</g>
<!-- bugtracker_application_importance_config&#45;&gt;bugtracker_application -->
<g id="edge8" class="edge">
<title>bugtracker_application_importance_config:w&#45;&gt;bugtracker_application:e</title>
<path fill="none" stroke="#000000" d="M738.397,-1397.1428C705.4869,-1389.6537 698.2777,-1357.7 657.5,-1357.7"/>
<polygon fill="#000000" stroke="#000000" points="745.0451,-1397.8517 752.6183,-1402.2797 749.0225,-1398.2758 753,-1398.7 753,-1398.7 753,-1398.7 749.0225,-1398.2758 753.3817,-1395.1203 745.0451,-1397.8517 745.0451,-1397.8517"/>
<ellipse fill="none" stroke="#000000" cx="741.8631" cy="-1397.5124" rx="3.2" ry="3.2"/>
</g>
<!-- bugtracker_application_trace_configs -->
<g id="node11" class="node">
<title>bugtracker_application_trace_configs</title>
<g id="a_node11"><a xlink:href="../../tables/bugtracker_application_trace_configs.html" xlink:title="bugtracker_application_trace_configs" target="_top">
<polygon fill="#ffffff" stroke="transparent" points="764.5,-1289.2 764.5,-1350.2 989.5,-1350.2 989.5,-1289.2 764.5,-1289.2"/>
<polygon fill="#f5f5f5" stroke="transparent" points="765,-1326.7 765,-1349.7 990,-1349.7 990,-1326.7 765,-1326.7"/>
<polygon fill="none" stroke="#000000" points="765,-1326.7 765,-1349.7 990,-1349.7 990,-1326.7 765,-1326.7"/>
<text text-anchor="start" x="769.92" y="-1335.8" font-family="Helvetica,sans-Serif" font-weight="bold" font-size="11.00" fill="#000000">bugtracker_application_trace_configs</text>
<text text-anchor="start" x="955.5219" y="-1334.8" font-family="Helvetica,sans-Serif" font-size="11.00" fill="#000000">[table]</text>
<polygon fill="none" stroke="#000000" points="765,-1307.7 765,-1326.7 990,-1326.7 990,-1307.7 765,-1307.7"/>
<text text-anchor="start" x="768" y="-1313.8" font-family="Helvetica,sans-Serif" font-size="11.00" fill="#000000">...</text>
<polygon fill="#ffffff" stroke="transparent" points="765,-1288.7 765,-1307.7 863,-1307.7 863,-1288.7 765,-1288.7"/>
<polygon fill="none" stroke="#000000" points="765,-1288.7 765,-1307.7 863,-1307.7 863,-1288.7 765,-1288.7"/>
<text text-anchor="start" x="768" y="-1294.8" font-family="Helvetica,sans-Serif" font-size="11.00" fill="#000000">&lt; 1</text>
<polygon fill="#ffffff" stroke="transparent" points="863,-1288.7 863,-1307.7 939,-1307.7 939,-1288.7 863,-1288.7"/>
<polygon fill="none" stroke="#000000" points="863,-1288.7 863,-1307.7 939,-1307.7 939,-1288.7 863,-1288.7"/>
<text text-anchor="start" x="903.6105" y="-1294.8" font-family="Helvetica,sans-Serif" font-size="11.00" fill="#000000">0 rows</text>
<polygon fill="#ffffff" stroke="transparent" points="939,-1288.7 939,-1307.7 990,-1307.7 990,-1288.7 939,-1288.7"/>
<polygon fill="none" stroke="#000000" points="939,-1288.7 939,-1307.7 990,-1307.7 990,-1288.7 939,-1288.7"/>
<text text-anchor="start" x="980.8862" y="-1294.8" font-family="Helvetica,sans-Serif" font-size="11.00" fill="#000000"> &#160;</text>
</a>
</g>
</g>
<!-- bugtracker_application_trace_configs&#45;&gt;bugtracker_application -->
<g id="edge9" class="edge">
<title>bugtracker_application_trace_configs:w&#45;&gt;bugtracker_application:e</title>
<path fill="none" stroke="#000000" d="M750.2448,-1317.972C712.2513,-1324.8924 703.2417,-1357.7 657.5,-1357.7"/>
<polygon fill="#000000" stroke="#000000" points="757.0296,-1317.3872 765.3092,-1320.2867 761.0148,-1317.0436 765,-1316.7 765,-1316.7 765,-1316.7 761.0148,-1317.0436 764.6908,-1313.1133 757.0296,-1317.3872 757.0296,-1317.3872"/>
<ellipse fill="none" stroke="#000000" cx="753.8414" cy="-1317.662" rx="3.2" ry="3.2"/>
</g>
<!-- bugtracker_autocreate_rule_config -->
<g id="node12" class="node">
<title>bugtracker_autocreate_rule_config</title>
<g id="a_node12"><a xlink:href="../../tables/bugtracker_autocreate_rule_config.html" xlink:title="bugtracker_autocreate_rule_config" target="_top">
<polygon fill="#ffffff" stroke="transparent" points="731,-924.7 731,-1036.7 1023,-1036.7 1023,-924.7 731,-924.7"/>
<polygon fill="#f5f5f5" stroke="transparent" points="733,-1011.7 733,-1034.7 1021,-1034.7 1021,-1011.7 733,-1011.7"/>
<polygon fill="none" stroke="#000000" points="733,-1011.7 733,-1034.7 1021,-1034.7 1021,-1011.7 733,-1011.7"/>
<text text-anchor="start" x="738" y="-1020.8" font-family="Helvetica,sans-Serif" font-weight="bold" font-size="11.00" fill="#000000">bugtracker_autocreate_rule_config</text>
<text text-anchor="start" x="986.0437" y="-1019.8" font-family="Helvetica,sans-Serif" font-size="11.00" fill="#000000">[table]</text>
<polygon fill="none" stroke="#000000" points="733,-989.7 733,-1011.7 954,-1011.7 954,-989.7 733,-989.7"/>
<image xlink:href="../../images/primaryKeys.png" width="11px" height="12px" preserveAspectRatio="xMinYMin meet" x="738" y="-1006.7"/>
<text text-anchor="start" x="753" y="-996.8" font-family="Helvetica,sans-Serif" font-size="11.00" fill="#000000">id</text>
<polygon fill="none" stroke="#000000" points="954,-989.7 954,-1011.7 1021,-1011.7 1021,-989.7 954,-989.7"/>
<text text-anchor="start" x="957" y="-997.4" font-family="Helvetica,sans-Serif" font-size="11.00" fill="#000000">bigint[19]</text>
<polygon fill="#ffffff" stroke="transparent" points="733,-967.7 733,-989.7 954,-989.7 954,-967.7 733,-967.7"/>
<polygon fill="none" stroke="#000000" points="733,-967.7 733,-989.7 954,-989.7 954,-967.7 733,-967.7"/>
<image xlink:href="../../images/foreignKeys.png" width="11px" height="12px" preserveAspectRatio="xMinYMin meet" x="738" y="-984.7"/>
<text text-anchor="start" x="753" y="-974.8" font-family="Helvetica,sans-Serif" font-size="11.00" fill="#000000">bugtracker_application_id</text>
<polygon fill="none" stroke="#000000" points="954,-967.7 954,-989.7 1021,-989.7 1021,-967.7 954,-967.7"/>
<text text-anchor="start" x="957" y="-975.4" font-family="Helvetica,sans-Serif" font-size="11.00" fill="#000000">bigint[19]</text>
<polygon fill="#ffffff" stroke="transparent" points="733,-945.7 733,-967.7 954,-967.7 954,-945.7 733,-945.7"/>
<polygon fill="none" stroke="#000000" points="733,-945.7 733,-967.7 954,-967.7 954,-945.7 733,-945.7"/>
<image xlink:href="../../images/foreignKeys.png" width="11px" height="12px" preserveAspectRatio="xMinYMin meet" x="738" y="-962.7"/>
<text text-anchor="start" x="753" y="-952.8" font-family="Helvetica,sans-Serif" font-size="11.00" fill="#000000">rules_id</text>
<polygon fill="none" stroke="#000000" points="954,-945.7 954,-967.7 1021,-967.7 1021,-945.7 954,-945.7"/>
<text text-anchor="start" x="956.9365" y="-953.4" font-family="Helvetica,sans-Serif" font-size="11.00" fill="#000000">varchar[255]</text>
<polygon fill="#ffffff" stroke="transparent" points="733,-926.7 733,-945.7 835,-945.7 835,-926.7 733,-926.7"/>
<polygon fill="none" stroke="#000000" points="733,-926.7 733,-945.7 835,-945.7 835,-926.7 733,-926.7"/>
<text text-anchor="start" x="736" y="-932.8" font-family="Helvetica,sans-Serif" font-size="11.00" fill="#000000">&lt; 2</text>
<polygon fill="#ffffff" stroke="transparent" points="835,-926.7 835,-945.7 954,-945.7 954,-926.7 835,-926.7"/>
<polygon fill="none" stroke="#000000" points="835,-926.7 835,-945.7 954,-945.7 954,-926.7 835,-926.7"/>
<text text-anchor="start" x="918.6105" y="-932.8" font-family="Helvetica,sans-Serif" font-size="11.00" fill="#000000">0 rows</text>
<polygon fill="#ffffff" stroke="transparent" points="954,-926.7 954,-945.7 1021,-945.7 1021,-926.7 954,-926.7"/>
<polygon fill="none" stroke="#000000" points="954,-926.7 954,-945.7 1021,-945.7 1021,-926.7 954,-926.7"/>
<text text-anchor="start" x="1002.4053" y="-932.8" font-family="Helvetica,sans-Serif" font-size="11.00" fill="#000000">0 &gt;</text>
<polygon fill="none" stroke="#000000" stroke-width="2" points="732,-925.7 732,-1035.7 1022,-1035.7 1022,-925.7 732,-925.7"/>
</a>
</g>
</g>
<!-- bugtracker_autocreate_rule_config&#45;&gt;rules -->
<g id="edge11" class="edge">
<title>bugtracker_autocreate_rule_config:w&#45;&gt;rules:e</title>
<path fill="none" stroke="#000000" d="M718.2148,-956.5718C590.3357,-954.3123 555.8062,-922.7016 422,-903.7 367.5269,-895.9644 215.8254,-913.6618 176,-875.7 135.4212,-837.02 191.5605,-626.7 135.5,-626.7"/>
<polygon fill="#000000" stroke="#000000" points="725.0003,-956.6306 732.9688,-960.2999 729.0002,-956.6653 733,-956.7 733,-956.7 733,-956.7 729.0002,-956.6653 733.0312,-953.1001 725.0003,-956.6306 725.0003,-956.6306"/>
<ellipse fill="none" stroke="#000000" cx="721.8004" cy="-956.6028" rx="3.2" ry="3.2"/>
</g>
<!-- bugtracker_autocreate_rule_config&#45;&gt;bugtracker_application -->
<g id="edge10" class="edge">
<title>bugtracker_autocreate_rule_config:w&#45;&gt;bugtracker_application:e</title>
<path fill="none" stroke="#000000" d="M718.5859,-979.721C577.0698,-1001.2999 824.0546,-1357.7 657.5,-1357.7"/>
<polygon fill="#000000" stroke="#000000" points="725.02,-979.2653 733.2544,-982.291 729.01,-978.9827 733,-978.7 733,-978.7 733,-978.7 729.01,-978.9827 732.7456,-975.109 725.02,-979.2653 725.02,-979.2653"/>
<ellipse fill="none" stroke="#000000" cx="721.828" cy="-979.4914" rx="3.2" ry="3.2"/>
</g>
<!-- bugtracker_autocreate_severity_config -->
<g id="node13" class="node">
<title>bugtracker_autocreate_severity_config</title>
<g id="a_node13"><a xlink:href="../../tables/bugtracker_autocreate_severity_config.html" xlink:title="bugtracker_autocreate_severity_config" target="_top">
<polygon fill="#ffffff" stroke="transparent" points="761,-1207.2 761,-1268.2 993,-1268.2 993,-1207.2 761,-1207.2"/>
<polygon fill="#f5f5f5" stroke="transparent" points="761,-1244.7 761,-1267.7 993,-1267.7 993,-1244.7 761,-1244.7"/>
<polygon fill="none" stroke="#000000" points="761,-1244.7 761,-1267.7 993,-1267.7 993,-1244.7 761,-1244.7"/>
<text text-anchor="start" x="765.7515" y="-1253.8" font-family="Helvetica,sans-Serif" font-weight="bold" font-size="11.00" fill="#000000">bugtracker_autocreate_severity_config</text>
<text text-anchor="start" x="958.5219" y="-1252.8" font-family="Helvetica,sans-Serif" font-size="11.00" fill="#000000">[table]</text>
<polygon fill="none" stroke="#000000" points="761,-1225.7 761,-1244.7 993,-1244.7 993,-1225.7 761,-1225.7"/>
<text text-anchor="start" x="764" y="-1231.8" font-family="Helvetica,sans-Serif" font-size="11.00" fill="#000000">...</text>
<polygon fill="#ffffff" stroke="transparent" points="761,-1206.7 761,-1225.7 862,-1225.7 862,-1206.7 761,-1206.7"/>
<polygon fill="none" stroke="#000000" points="761,-1206.7 761,-1225.7 862,-1225.7 862,-1206.7 761,-1206.7"/>
<text text-anchor="start" x="764" y="-1212.8" font-family="Helvetica,sans-Serif" font-size="11.00" fill="#000000">&lt; 1</text>
<polygon fill="#ffffff" stroke="transparent" points="862,-1206.7 862,-1225.7 940,-1225.7 940,-1206.7 862,-1206.7"/>
<polygon fill="none" stroke="#000000" points="862,-1206.7 862,-1225.7 940,-1225.7 940,-1206.7 862,-1206.7"/>
<text text-anchor="start" x="904.6105" y="-1212.8" font-family="Helvetica,sans-Serif" font-size="11.00" fill="#000000">0 rows</text>
<polygon fill="#ffffff" stroke="transparent" points="940,-1206.7 940,-1225.7 993,-1225.7 993,-1206.7 940,-1206.7"/>
<polygon fill="none" stroke="#000000" points="940,-1206.7 940,-1225.7 993,-1225.7 993,-1206.7 940,-1206.7"/>
<text text-anchor="start" x="983.8862" y="-1212.8" font-family="Helvetica,sans-Serif" font-size="11.00" fill="#000000"> &#160;</text>
</a>
</g>
</g>
<!-- bugtracker_autocreate_severity_config&#45;&gt;bugtracker_application -->
<g id="edge12" class="edge">
<title>bugtracker_autocreate_severity_config:w&#45;&gt;bugtracker_application:e</title>
<path fill="none" stroke="#000000" d="M746.5049,-1236.7323C694.9125,-1252.7246 723.5033,-1357.7 657.5,-1357.7"/>
<polygon fill="#000000" stroke="#000000" points="753.0775,-1235.8108 761.4999,-1238.2651 757.0387,-1235.2554 761,-1234.7 761,-1234.7 761,-1234.7 757.0387,-1235.2554 760.5001,-1231.1349 753.0775,-1235.8108 753.0775,-1235.8108"/>
<ellipse fill="none" stroke="#000000" cx="749.9085" cy="-1236.2551" rx="3.2" ry="3.2"/>
</g>
<!-- compliance_report_category_rules -->
<g id="node14" class="node">
<title>compliance_report_category_rules</title>
<g id="a_node14"><a xlink:href="../../tables/compliance_report_category_rules.html" xlink:title="compliance_report_category_rules" target="_top">
<polygon fill="#ffffff" stroke="transparent" points="193.5,-202.2 193.5,-263.2 404.5,-263.2 404.5,-202.2 193.5,-202.2"/>
<polygon fill="#f5f5f5" stroke="transparent" points="194,-239.7 194,-262.7 405,-262.7 405,-239.7 194,-239.7"/>
<polygon fill="none" stroke="#000000" points="194,-239.7 194,-262.7 405,-262.7 405,-239.7 194,-239.7"/>
<text text-anchor="start" x="198.6504" y="-248.8" font-family="Helvetica,sans-Serif" font-weight="bold" font-size="11.00" fill="#000000">compliance_report_category_rules</text>
<text text-anchor="start" x="370.5219" y="-247.8" font-family="Helvetica,sans-Serif" font-size="11.00" fill="#000000">[table]</text>
<polygon fill="none" stroke="#000000" points="194,-220.7 194,-239.7 405,-239.7 405,-220.7 194,-220.7"/>
<text text-anchor="start" x="197" y="-226.8" font-family="Helvetica,sans-Serif" font-size="11.00" fill="#000000">...</text>
<polygon fill="#ffffff" stroke="transparent" points="194,-201.7 194,-220.7 279,-220.7 279,-201.7 194,-201.7"/>
<polygon fill="none" stroke="#000000" points="194,-201.7 194,-220.7 279,-220.7 279,-201.7 194,-201.7"/>
<text text-anchor="start" x="197" y="-207.8" font-family="Helvetica,sans-Serif" font-size="11.00" fill="#000000">&lt; 2</text>
<polygon fill="#ffffff" stroke="transparent" points="279,-201.7 279,-220.7 361,-220.7 361,-201.7 279,-201.7"/>
<polygon fill="none" stroke="#000000" points="279,-201.7 279,-220.7 361,-220.7 361,-201.7 279,-201.7"/>
<text text-anchor="start" x="313.3807" y="-207.8" font-family="Helvetica,sans-Serif" font-size="11.00" fill="#000000">470 rows</text>
<polygon fill="#ffffff" stroke="transparent" points="361,-201.7 361,-220.7 405,-220.7 405,-201.7 361,-201.7"/>
<polygon fill="none" stroke="#000000" points="361,-201.7 361,-220.7 405,-220.7 405,-201.7 361,-201.7"/>
<text text-anchor="start" x="395.8862" y="-207.8" font-family="Helvetica,sans-Serif" font-size="11.00" fill="#000000"> &#160;</text>
</a>
</g>
</g>
<!-- compliance_report_category_rules&#45;&gt;rules -->
<g id="edge15" class="edge">
<title>compliance_report_category_rules:w&#45;&gt;rules:e</title>
<path fill="none" stroke="#000000" d="M180.0082,-233.8899C118.5719,-276.3188 219.2756,-626.7 135.5,-626.7"/>
<polygon fill="#000000" stroke="#000000" points="186.3362,-231.995 195.0327,-233.1487 190.1681,-230.8475 194,-229.7 194,-229.7 194,-229.7 190.1681,-230.8475 192.9673,-226.2513 186.3362,-231.995 186.3362,-231.995"/>
<ellipse fill="none" stroke="#000000" cx="183.2707" cy="-232.913" rx="3.2" ry="3.2"/>
</g>
<!-- disabled_rules -->
<g id="node15" class="node">
<title>disabled_rules</title>
<g id="a_node15"><a xlink:href="../../tables/disabled_rules.html" xlink:title="disabled_rules" target="_top">
<polygon fill="#ffffff" stroke="transparent" points="242.5,-120.2 242.5,-181.2 355.5,-181.2 355.5,-120.2 242.5,-120.2"/>
<polygon fill="#f5f5f5" stroke="transparent" points="243,-157.7 243,-180.7 356,-180.7 356,-157.7 243,-157.7"/>
<polygon fill="none" stroke="#000000" points="243,-157.7 243,-180.7 356,-180.7 356,-157.7 243,-157.7"/>
<text text-anchor="start" x="247.5481" y="-166.8" font-family="Helvetica,sans-Serif" font-weight="bold" font-size="11.00" fill="#000000">disabled_rules</text>
<text text-anchor="start" x="321.5219" y="-165.8" font-family="Helvetica,sans-Serif" font-size="11.00" fill="#000000">[table]</text>
<polygon fill="none" stroke="#000000" points="243,-138.7 243,-157.7 356,-157.7 356,-138.7 243,-138.7"/>
<text text-anchor="start" x="246" y="-144.8" font-family="Helvetica,sans-Serif" font-size="11.00" fill="#000000">...</text>
<polygon fill="#ffffff" stroke="transparent" points="243,-119.7 243,-138.7 285,-138.7 285,-119.7 243,-119.7"/>
<polygon fill="none" stroke="#000000" points="243,-119.7 243,-138.7 285,-138.7 285,-119.7 243,-119.7"/>
<text text-anchor="start" x="246" y="-125.8" font-family="Helvetica,sans-Serif" font-size="11.00" fill="#000000">&lt; 2</text>
<polygon fill="#ffffff" stroke="transparent" points="285,-119.7 285,-138.7 333,-138.7 333,-119.7 285,-119.7"/>
<polygon fill="none" stroke="#000000" points="285,-119.7 285,-138.7 333,-138.7 333,-119.7 285,-119.7"/>
<text text-anchor="start" x="297.6105" y="-125.8" font-family="Helvetica,sans-Serif" font-size="11.00" fill="#000000">0 rows</text>
<polygon fill="#ffffff" stroke="transparent" points="333,-119.7 333,-138.7 356,-138.7 356,-119.7 333,-119.7"/>
<polygon fill="none" stroke="#000000" points="333,-119.7 333,-138.7 356,-138.7 356,-119.7 333,-119.7"/>
<text text-anchor="start" x="346.8862" y="-125.8" font-family="Helvetica,sans-Serif" font-size="11.00" fill="#000000"> &#160;</text>
</a>
</g>
</g>
<!-- disabled_rules&#45;&gt;rules -->
<g id="edge16" class="edge">
<title>disabled_rules:w&#45;&gt;rules:e</title>
<path fill="none" stroke="#000000" d="M228.5386,-148.602C203.3922,-152.0742 191.6304,-165.6997 176,-191.7 150.9896,-233.3034 184.0424,-626.7 135.5,-626.7"/>
<polygon fill="#000000" stroke="#000000" points="235.0155,-148.1981 243.2241,-151.293 239.0078,-147.949 243,-147.7 243,-147.7 243,-147.7 239.0078,-147.949 242.7759,-144.107 235.0155,-148.1981 235.0155,-148.1981"/>
<ellipse fill="none" stroke="#000000" cx="231.8217" cy="-148.3973" rx="3.2" ry="3.2"/>
</g>
<!-- job_outcome_policy_rule -->
<g id="node16" class="node">
<title>job_outcome_policy_rule</title>
<g id="a_node16"><a xlink:href="../../tables/job_outcome_policy_rule.html" xlink:title="job_outcome_policy_rule" target="_top">
<polygon fill="#ffffff" stroke="transparent" points="217,-804.2 217,-865.2 381,-865.2 381,-804.2 217,-804.2"/>
<polygon fill="#f5f5f5" stroke="transparent" points="217,-841.7 217,-864.7 381,-864.7 381,-841.7 217,-841.7"/>
<polygon fill="none" stroke="#000000" points="217,-841.7 217,-864.7 381,-864.7 381,-841.7 217,-841.7"/>
<text text-anchor="start" x="221.681" y="-850.8" font-family="Helvetica,sans-Serif" font-weight="bold" font-size="11.00" fill="#000000">job_outcome_policy_rule</text>
<text text-anchor="start" x="346.5219" y="-849.8" font-family="Helvetica,sans-Serif" font-size="11.00" fill="#000000">[table]</text>
<polygon fill="none" stroke="#000000" points="217,-822.7 217,-841.7 381,-841.7 381,-822.7 217,-822.7"/>
<text text-anchor="start" x="220" y="-828.8" font-family="Helvetica,sans-Serif" font-size="11.00" fill="#000000">...</text>
<polygon fill="#ffffff" stroke="transparent" points="217,-803.7 217,-822.7 284,-822.7 284,-803.7 217,-803.7"/>
<polygon fill="none" stroke="#000000" points="217,-803.7 217,-822.7 284,-822.7 284,-803.7 217,-803.7"/>
<text text-anchor="start" x="220" y="-809.8" font-family="Helvetica,sans-Serif" font-size="11.00" fill="#000000">&lt; 2</text>
<polygon fill="#ffffff" stroke="transparent" points="284,-803.7 284,-822.7 345,-822.7 345,-803.7 284,-803.7"/>
<polygon fill="none" stroke="#000000" points="284,-803.7 284,-822.7 345,-822.7 345,-803.7 284,-803.7"/>
<text text-anchor="start" x="309.6105" y="-809.8" font-family="Helvetica,sans-Serif" font-size="11.00" fill="#000000">0 rows</text>
<polygon fill="#ffffff" stroke="transparent" points="345,-803.7 345,-822.7 381,-822.7 381,-803.7 345,-803.7"/>
<polygon fill="none" stroke="#000000" points="345,-803.7 345,-822.7 381,-822.7 381,-803.7 345,-803.7"/>
<text text-anchor="start" x="371.8862" y="-809.8" font-family="Helvetica,sans-Serif" font-size="11.00" fill="#000000"> &#160;</text>
</a>
</g>
</g>
<!-- job_outcome_policy_rule&#45;&gt;rules -->
<g id="edge17" class="edge">
<title>job_outcome_policy_rule:w&#45;&gt;rules:e</title>
<path fill="none" stroke="#000000" d="M202.6454,-829.1199C189.9822,-823.6653 185.6268,-810.1063 176,-793.7 137.3485,-727.8289 211.8737,-626.7 135.5,-626.7"/>
<polygon fill="#000000" stroke="#000000" points="209.1262,-830.2847 216.3631,-835.2432 213.0631,-830.9924 217,-831.7 217,-831.7 217,-831.7 213.0631,-830.9924 217.6369,-828.1568 209.1262,-830.2847 209.1262,-830.2847"/>
<ellipse fill="none" stroke="#000000" cx="205.9766" cy="-829.7186" rx="3.2" ry="3.2"/>
</g>
<!-- library_bugtracker_ticket -->
<g id="node17" class="node">
<title>library_bugtracker_ticket</title>
<g id="a_node17"><a xlink:href="../../tables/library_bugtracker_ticket.html" xlink:title="library_bugtracker_ticket" target="_top">
<polygon fill="#ffffff" stroke="transparent" points="796,-1125.2 796,-1186.2 958,-1186.2 958,-1125.2 796,-1125.2"/>
<polygon fill="#f5f5f5" stroke="transparent" points="796,-1162.7 796,-1185.7 958,-1185.7 958,-1162.7 796,-1162.7"/>
<polygon fill="none" stroke="#000000" points="796,-1162.7 796,-1185.7 958,-1185.7 958,-1162.7 796,-1162.7"/>
<text text-anchor="start" x="800.605" y="-1171.8" font-family="Helvetica,sans-Serif" font-weight="bold" font-size="11.00" fill="#000000">library_bugtracker_ticket</text>
<text text-anchor="start" x="923.5219" y="-1170.8" font-family="Helvetica,sans-Serif" font-size="11.00" fill="#000000">[table]</text>
<polygon fill="none" stroke="#000000" points="796,-1143.7 796,-1162.7 958,-1162.7 958,-1143.7 796,-1143.7"/>
<text text-anchor="start" x="799" y="-1149.8" font-family="Helvetica,sans-Serif" font-size="11.00" fill="#000000">...</text>
<polygon fill="#ffffff" stroke="transparent" points="796,-1124.7 796,-1143.7 862,-1143.7 862,-1124.7 796,-1124.7"/>
<polygon fill="none" stroke="#000000" points="796,-1124.7 796,-1143.7 862,-1143.7 862,-1124.7 796,-1124.7"/>
<text text-anchor="start" x="799" y="-1130.8" font-family="Helvetica,sans-Serif" font-size="11.00" fill="#000000">&lt; 2</text>
<polygon fill="#ffffff" stroke="transparent" points="862,-1124.7 862,-1143.7 923,-1143.7 923,-1124.7 862,-1124.7"/>
<polygon fill="none" stroke="#000000" points="862,-1124.7 862,-1143.7 923,-1143.7 923,-1124.7 862,-1124.7"/>
<text text-anchor="start" x="887.6105" y="-1130.8" font-family="Helvetica,sans-Serif" font-size="11.00" fill="#000000">0 rows</text>
<polygon fill="#ffffff" stroke="transparent" points="923,-1124.7 923,-1143.7 958,-1143.7 958,-1124.7 923,-1124.7"/>
<polygon fill="none" stroke="#000000" points="923,-1124.7 923,-1143.7 958,-1143.7 958,-1124.7 923,-1124.7"/>
<text text-anchor="start" x="948.8862" y="-1130.8" font-family="Helvetica,sans-Serif" font-size="11.00" fill="#000000"> &#160;</text>
</a>
</g>
</g>
<!-- library_bugtracker_ticket&#45;&gt;bugtracker_application -->
<g id="edge18" class="edge">
<title>library_bugtracker_ticket:w&#45;&gt;bugtracker_application:e</title>
<path fill="none" stroke="#000000" d="M781.5275,-1153.5977C754.8854,-1157.2456 744.1555,-1171.9559 723,-1196.7 672.7995,-1255.416 734.7506,-1357.7 657.5,-1357.7"/>
<polygon fill="#000000" stroke="#000000" points="788.0153,-1153.1953 796.2229,-1156.2931 792.0077,-1152.9476 796,-1152.7 796,-1152.7 796,-1152.7 792.0077,-1152.9476 795.7771,-1149.1069 788.0153,-1153.1953 788.0153,-1153.1953"/>
<ellipse fill="none" stroke="#000000" cx="784.8215" cy="-1153.3934" rx="3.2" ry="3.2"/>
</g>
<!-- org_rules -->
<g id="node18" class="node">
<title>org_rules</title>
<g id="a_node18"><a xlink:href="../../tables/org_rules.html" xlink:title="org_rules" target="_top">
<polygon fill="#ffffff" stroke="transparent" points="255,-1160.2 255,-1221.2 343,-1221.2 343,-1160.2 255,-1160.2"/>
<polygon fill="#f5f5f5" stroke="transparent" points="255,-1197.7 255,-1220.7 343,-1220.7 343,-1197.7 255,-1197.7"/>
<polygon fill="none" stroke="#000000" points="255,-1197.7 255,-1220.7 343,-1220.7 343,-1197.7 255,-1197.7"/>
<text text-anchor="start" x="259.5804" y="-1206.8" font-family="Helvetica,sans-Serif" font-weight="bold" font-size="11.00" fill="#000000">org_rules</text>
<text text-anchor="start" x="308.5219" y="-1205.8" font-family="Helvetica,sans-Serif" font-size="11.00" fill="#000000">[table]</text>
<polygon fill="none" stroke="#000000" points="255,-1178.7 255,-1197.7 343,-1197.7 343,-1178.7 255,-1178.7"/>
<text text-anchor="start" x="258" y="-1184.8" font-family="Helvetica,sans-Serif" font-size="11.00" fill="#000000">...</text>
<polygon fill="#ffffff" stroke="transparent" points="255,-1159.7 255,-1178.7 280,-1178.7 280,-1159.7 255,-1159.7"/>
<polygon fill="none" stroke="#000000" points="255,-1159.7 255,-1178.7 280,-1178.7 280,-1159.7 255,-1159.7"/>
<text text-anchor="start" x="258" y="-1165.8" font-family="Helvetica,sans-Serif" font-size="11.00" fill="#000000">&lt; 2</text>
<polygon fill="#ffffff" stroke="transparent" points="280,-1159.7 280,-1178.7 320,-1178.7 320,-1159.7 280,-1159.7"/>
<polygon fill="none" stroke="#000000" points="280,-1159.7 280,-1178.7 320,-1178.7 320,-1159.7 280,-1159.7"/>
<text text-anchor="start" x="284.6105" y="-1165.8" font-family="Helvetica,sans-Serif" font-size="11.00" fill="#000000">0 rows</text>
<polygon fill="#ffffff" stroke="transparent" points="320,-1159.7 320,-1178.7 343,-1178.7 343,-1159.7 320,-1159.7"/>
<polygon fill="none" stroke="#000000" points="320,-1159.7 320,-1178.7 343,-1178.7 343,-1159.7 320,-1159.7"/>
<text text-anchor="start" x="324.4053" y="-1165.8" font-family="Helvetica,sans-Serif" font-size="11.00" fill="#000000">1 &gt;</text>
</a>
</g>
</g>
<!-- org_rules&#45;&gt;rules -->
<g id="edge20" class="edge">
<title>org_rules:w&#45;&gt;rules:e</title>
<path fill="none" stroke="#000000" d="M240.5249,-1187.343C211.1758,-1185.6844 195.074,-1177.5883 176,-1149.7 143.0961,-1101.5909 193.7851,-626.7 135.5,-626.7"/>
<polygon fill="#000000" stroke="#000000" points="247.0024,-1187.5027 254.9112,-1191.2989 251.0012,-1187.6013 255,-1187.7 255,-1187.7 255,-1187.7 251.0012,-1187.6013 255.0888,-1184.1011 247.0024,-1187.5027 247.0024,-1187.5027"/>
<ellipse fill="none" stroke="#000000" cx="243.8034" cy="-1187.4238" rx="3.2" ry="3.2"/>
</g>
<!-- org_rules&#45;&gt;organizations -->
<g id="edge19" class="edge">
<title>org_rules:w&#45;&gt;organizations:e</title>
<path fill="none" stroke="#000000" d="M240.4697,-1187.7C194.5105,-1187.7 177.8845,-1187.7 125.5,-1187.7"/>
<polygon fill="#000000" stroke="#000000" points="247,-1187.7001 255,-1191.3 251,-1187.7 255,-1187.7 255,-1187.7 255,-1187.7 251,-1187.7 255,-1184.1 247,-1187.7001 247,-1187.7001"/>
<ellipse fill="none" stroke="#000000" cx="243.8" cy="-1187.7001" rx="3.2" ry="3.2"/>
</g>
<!-- org_rules_severities -->
<g id="node19" class="node">
<title>org_rules_severities</title>
<g id="a_node19"><a xlink:href="../../tables/org_rules_severities.html" xlink:title="org_rules_severities" target="_top">
<polygon fill="#ffffff" stroke="transparent" points="228.5,-1078.2 228.5,-1139.2 369.5,-1139.2 369.5,-1078.2 228.5,-1078.2"/>
<polygon fill="#f5f5f5" stroke="transparent" points="229,-1115.7 229,-1138.7 370,-1138.7 370,-1115.7 229,-1115.7"/>
<polygon fill="none" stroke="#000000" points="229,-1115.7 229,-1138.7 370,-1138.7 370,-1115.7 229,-1115.7"/>
<text text-anchor="start" x="233.8003" y="-1124.8" font-family="Helvetica,sans-Serif" font-weight="bold" font-size="11.00" fill="#000000">org_rules_severities</text>
<text text-anchor="start" x="335.5219" y="-1123.8" font-family="Helvetica,sans-Serif" font-size="11.00" fill="#000000">[table]</text>
<polygon fill="none" stroke="#000000" points="229,-1096.7 229,-1115.7 370,-1115.7 370,-1096.7 229,-1096.7"/>
<text text-anchor="start" x="232" y="-1102.8" font-family="Helvetica,sans-Serif" font-size="11.00" fill="#000000">...</text>
<polygon fill="#ffffff" stroke="transparent" points="229,-1077.7 229,-1096.7 279,-1096.7 279,-1077.7 229,-1077.7"/>
<polygon fill="none" stroke="#000000" points="229,-1077.7 229,-1096.7 279,-1096.7 279,-1077.7 229,-1077.7"/>
<text text-anchor="start" x="232" y="-1083.8" font-family="Helvetica,sans-Serif" font-size="11.00" fill="#000000">&lt; 2</text>
<polygon fill="#ffffff" stroke="transparent" points="279,-1077.7 279,-1096.7 343,-1096.7 343,-1077.7 279,-1077.7"/>
<polygon fill="none" stroke="#000000" points="279,-1077.7 279,-1096.7 343,-1096.7 343,-1077.7 279,-1077.7"/>
<text text-anchor="start" x="295.3807" y="-1083.8" font-family="Helvetica,sans-Serif" font-size="11.00" fill="#000000">246 rows</text>
<polygon fill="#ffffff" stroke="transparent" points="343,-1077.7 343,-1096.7 370,-1096.7 370,-1077.7 343,-1077.7"/>
<polygon fill="none" stroke="#000000" points="343,-1077.7 343,-1096.7 370,-1096.7 370,-1077.7 343,-1077.7"/>
<text text-anchor="start" x="360.8862" y="-1083.8" font-family="Helvetica,sans-Serif" font-size="11.00" fill="#000000"> &#160;</text>
</a>
</g>
</g>
<!-- org_rules_severities&#45;&gt;rules -->
<g id="edge22" class="edge">
<title>org_rules_severities:w&#45;&gt;rules:e</title>
<path fill="none" stroke="#000000" d="M214.5804,-1104.3484C196.2434,-1100.4491 187.705,-1088.135 176,-1067.7 151.5431,-1025.0021 184.7062,-626.7 135.5,-626.7"/>
<polygon fill="#000000" stroke="#000000" points="221.0349,-1104.9534 228.664,-1109.2843 225.0175,-1105.3267 229,-1105.7 229,-1105.7 229,-1105.7 225.0175,-1105.3267 229.336,-1102.1157 221.0349,-1104.9534 221.0349,-1104.9534"/>
<ellipse fill="none" stroke="#000000" cx="217.8489" cy="-1104.6547" rx="3.2" ry="3.2"/>
</g>
<!-- org_rules_severities&#45;&gt;organizations -->
<g id="edge21" class="edge">
<title>org_rules_severities:w&#45;&gt;organizations:e</title>
<path fill="none" stroke="#000000" d="M214.5602,-1107.6461C172.2485,-1120.0637 178.8,-1187.7 125.5,-1187.7"/>
<polygon fill="#000000" stroke="#000000" points="221.0717,-1106.7686 229.4809,-1109.2677 225.0358,-1106.2343 229,-1105.7 229,-1105.7 229,-1105.7 225.0358,-1106.2343 228.5191,-1102.1323 221.0717,-1106.7686 221.0717,-1106.7686"/>
<ellipse fill="none" stroke="#000000" cx="217.9004" cy="-1107.196" rx="3.2" ry="3.2"/>
</g>
<!-- organization_remediation_policy_rules -->
<g id="node20" class="node">
<title>organization_remediation_policy_rules</title>
<g id="a_node20"><a xlink:href="../../tables/organization_remediation_policy_rules.html" xlink:title="organization_remediation_policy_rules" target="_top">
<polygon fill="#ffffff" stroke="transparent" points="184,-722.2 184,-783.2 414,-783.2 414,-722.2 184,-722.2"/>
<polygon fill="#f5f5f5" stroke="transparent" points="184,-759.7 184,-782.7 414,-782.7 414,-759.7 184,-759.7"/>
<polygon fill="none" stroke="#000000" points="184,-759.7 184,-782.7 414,-782.7 414,-759.7 184,-759.7"/>
<text text-anchor="start" x="188.6772" y="-768.8" font-family="Helvetica,sans-Serif" font-weight="bold" font-size="11.00" fill="#000000">organization_remediation_policy_rules</text>
<text text-anchor="start" x="379.5219" y="-767.8" font-family="Helvetica,sans-Serif" font-size="11.00" fill="#000000">[table]</text>
<polygon fill="none" stroke="#000000" points="184,-740.7 184,-759.7 414,-759.7 414,-740.7 184,-740.7"/>
<text text-anchor="start" x="187" y="-746.8" font-family="Helvetica,sans-Serif" font-size="11.00" fill="#000000">...</text>
<polygon fill="#ffffff" stroke="transparent" points="184,-721.7 184,-740.7 284,-740.7 284,-721.7 184,-721.7"/>
<polygon fill="none" stroke="#000000" points="184,-721.7 184,-740.7 284,-740.7 284,-721.7 184,-721.7"/>
<text text-anchor="start" x="187" y="-727.8" font-family="Helvetica,sans-Serif" font-size="11.00" fill="#000000">&lt; 2</text>
<polygon fill="#ffffff" stroke="transparent" points="284,-721.7 284,-740.7 362,-740.7 362,-721.7 284,-721.7"/>
<polygon fill="none" stroke="#000000" points="284,-721.7 284,-740.7 362,-740.7 362,-721.7 284,-721.7"/>
<text text-anchor="start" x="326.6105" y="-727.8" font-family="Helvetica,sans-Serif" font-size="11.00" fill="#000000">0 rows</text>
<polygon fill="#ffffff" stroke="transparent" points="362,-721.7 362,-740.7 414,-740.7 414,-721.7 362,-721.7"/>
<polygon fill="none" stroke="#000000" points="362,-721.7 362,-740.7 414,-740.7 414,-721.7 362,-721.7"/>
<text text-anchor="start" x="404.8862" y="-727.8" font-family="Helvetica,sans-Serif" font-size="11.00" fill="#000000"> &#160;</text>
</a>
</g>
</g>
<!-- organization_remediation_policy_rules&#45;&gt;rules -->
<g id="edge23" class="edge">
<title>organization_remediation_policy_rules:w&#45;&gt;rules:e</title>
<path fill="none" stroke="#000000" d="M169.7823,-746.1515C137.9398,-725.9844 188.2949,-626.7 135.5,-626.7"/>
<polygon fill="#000000" stroke="#000000" points="176.2381,-747.7627 183.1282,-753.1929 180.119,-748.7314 184,-749.7 184,-749.7 184,-749.7 180.119,-748.7314 184.8718,-746.2071 176.2381,-747.7627 176.2381,-747.7627"/>
<ellipse fill="none" stroke="#000000" cx="173.1333" cy="-746.9878" rx="3.2" ry="3.2"/>
</g>
<!-- rule_references -->
<g id="node21" class="node">
<title>rule_references</title>
<g id="a_node21"><a xlink:href="../../tables/rule_references.html" xlink:title="rule_references" target="_top">
<polygon fill="#ffffff" stroke="transparent" points="239.5,-640.2 239.5,-701.2 358.5,-701.2 358.5,-640.2 239.5,-640.2"/>
<polygon fill="#f5f5f5" stroke="transparent" points="240,-677.7 240,-700.7 359,-700.7 359,-677.7 240,-677.7"/>
<polygon fill="none" stroke="#000000" points="240,-677.7 240,-700.7 359,-700.7 359,-677.7 240,-677.7"/>
<text text-anchor="start" x="244.7987" y="-686.8" font-family="Helvetica,sans-Serif" font-weight="bold" font-size="11.00" fill="#000000">rule_references</text>
<text text-anchor="start" x="324.5219" y="-685.8" font-family="Helvetica,sans-Serif" font-size="11.00" fill="#000000">[table]</text>
<polygon fill="none" stroke="#000000" points="240,-658.7 240,-677.7 359,-677.7 359,-658.7 240,-658.7"/>
<text text-anchor="start" x="243" y="-664.8" font-family="Helvetica,sans-Serif" font-size="11.00" fill="#000000">...</text>
<polygon fill="#ffffff" stroke="transparent" points="240,-639.7 240,-658.7 282,-658.7 282,-639.7 240,-639.7"/>
<polygon fill="none" stroke="#000000" points="240,-639.7 240,-658.7 282,-658.7 282,-639.7 240,-639.7"/>
<text text-anchor="start" x="243" y="-645.8" font-family="Helvetica,sans-Serif" font-size="11.00" fill="#000000">&lt; 1</text>
<polygon fill="#ffffff" stroke="transparent" points="282,-639.7 282,-658.7 336,-658.7 336,-639.7 282,-639.7"/>
<polygon fill="none" stroke="#000000" points="282,-639.7 282,-658.7 336,-658.7 336,-639.7 282,-639.7"/>
<text text-anchor="start" x="294.4956" y="-645.8" font-family="Helvetica,sans-Serif" font-size="11.00" fill="#000000">86 rows</text>
<polygon fill="#ffffff" stroke="transparent" points="336,-639.7 336,-658.7 359,-658.7 359,-639.7 336,-639.7"/>
<polygon fill="none" stroke="#000000" points="336,-639.7 336,-658.7 359,-658.7 359,-639.7 336,-639.7"/>
<text text-anchor="start" x="349.8862" y="-645.8" font-family="Helvetica,sans-Serif" font-size="11.00" fill="#000000"> &#160;</text>
</a>
</g>
</g>
<!-- rule_references&#45;&gt;rules -->
<g id="edge24" class="edge">
<title>rule_references:w&#45;&gt;rules:e</title>
<path fill="none" stroke="#000000" d="M225.6156,-666.428C188.6112,-659.5076 180.1293,-626.7 135.5,-626.7"/>
<polygon fill="#000000" stroke="#000000" points="232.0311,-666.9953 239.6829,-671.286 236.0155,-667.3476 240,-667.7 240,-667.7 240,-667.7 236.0155,-667.3476 240.3171,-664.114 232.0311,-666.9953 232.0311,-666.9953"/>
<ellipse fill="none" stroke="#000000" cx="228.8435" cy="-666.7134" rx="3.2" ry="3.2"/>
</g>
<!-- rules_environments -->
<g id="node22" class="node">
<title>rules_environments</title>
<g id="a_node22"><a xlink:href="../../tables/rules_environments.html" xlink:title="rules_environments" target="_top">
<polygon fill="#ffffff" stroke="transparent" points="230,-996.2 230,-1057.2 368,-1057.2 368,-996.2 230,-996.2"/>
<polygon fill="#f5f5f5" stroke="transparent" points="230,-1033.7 230,-1056.7 368,-1056.7 368,-1033.7 230,-1033.7"/>
<polygon fill="none" stroke="#000000" points="230,-1033.7 230,-1056.7 368,-1056.7 368,-1033.7 230,-1033.7"/>
<text text-anchor="start" x="234.5208" y="-1042.8" font-family="Helvetica,sans-Serif" font-weight="bold" font-size="11.00" fill="#000000">rules_environments</text>
<text text-anchor="start" x="333.5219" y="-1041.8" font-family="Helvetica,sans-Serif" font-size="11.00" fill="#000000">[table]</text>
<polygon fill="none" stroke="#000000" points="230,-1014.7 230,-1033.7 368,-1033.7 368,-1014.7 230,-1014.7"/>
<text text-anchor="start" x="233" y="-1020.8" font-family="Helvetica,sans-Serif" font-size="11.00" fill="#000000">...</text>
<polygon fill="#ffffff" stroke="transparent" points="230,-995.7 230,-1014.7 278,-1014.7 278,-995.7 230,-995.7"/>
<polygon fill="none" stroke="#000000" points="230,-995.7 230,-1014.7 278,-1014.7 278,-995.7 230,-995.7"/>
<text text-anchor="start" x="233" y="-1001.8" font-family="Helvetica,sans-Serif" font-size="11.00" fill="#000000">&lt; 2</text>
<polygon fill="#ffffff" stroke="transparent" points="278,-995.7 278,-1014.7 342,-1014.7 342,-995.7 278,-995.7"/>
<polygon fill="none" stroke="#000000" points="278,-995.7 278,-1014.7 342,-1014.7 342,-995.7 278,-995.7"/>
<text text-anchor="start" x="294.3807" y="-1001.8" font-family="Helvetica,sans-Serif" font-size="11.00" fill="#000000">738 rows</text>
<polygon fill="#ffffff" stroke="transparent" points="342,-995.7 342,-1014.7 368,-1014.7 368,-995.7 342,-995.7"/>
<polygon fill="none" stroke="#000000" points="342,-995.7 342,-1014.7 368,-1014.7 368,-995.7 342,-995.7"/>
<text text-anchor="start" x="358.8862" y="-1001.8" font-family="Helvetica,sans-Serif" font-size="11.00" fill="#000000"> &#160;</text>
</a>
</g>
</g>
<!-- rules_environments&#45;&gt;rules -->
<g id="edge26" class="edge">
<title>rules_environments:w&#45;&gt;rules:e</title>
<path fill="none" stroke="#000000" d="M215.4011,-1022.3566C196.8335,-1018.4783 188.156,-1006.2129 176,-985.7 135.0705,-916.6329 215.7838,-626.7 135.5,-626.7"/>
<polygon fill="#000000" stroke="#000000" points="222.0337,-1022.9669 229.6701,-1027.2849 226.0168,-1023.3335 230,-1023.7 230,-1023.7 230,-1023.7 226.0168,-1023.3335 230.3299,-1020.1151 222.0337,-1022.9669 222.0337,-1022.9669"/>
<ellipse fill="none" stroke="#000000" cx="218.8471" cy="-1022.6737" rx="3.2" ry="3.2"/>
</g>
<!-- rules_environments&#45;&gt;organizations -->
<g id="edge25" class="edge">
<title>rules_environments:w&#45;&gt;organizations:e</title>
<path fill="none" stroke="#000000" d="M215.6405,-1025.4823C196.9752,-1030.7863 191.2213,-1047.3716 176,-1067.7 141.3184,-1114.0183 183.3636,-1187.7 125.5,-1187.7"/>
<polygon fill="#000000" stroke="#000000" points="222.0609,-1024.6855 230.4435,-1027.2726 226.0305,-1024.1927 230,-1023.7 230,-1023.7 230,-1023.7 226.0305,-1024.1927 229.5565,-1020.1274 222.0609,-1024.6855 222.0609,-1024.6855"/>
<ellipse fill="none" stroke="#000000" cx="218.8853" cy="-1025.0797" rx="3.2" ry="3.2"/>
</g>
<!-- rules_exclusions_assessment_rules -->
<g id="node23" class="node">
<title>rules_exclusions_assessment_rules</title>
<g id="a_node23"><a xlink:href="../../tables/rules_exclusions_assessment_rules.html" xlink:title="rules_exclusions_assessment_rules" target="_top">
<polygon fill="#ffffff" stroke="transparent" points="189.5,-558.2 189.5,-619.2 408.5,-619.2 408.5,-558.2 189.5,-558.2"/>
<polygon fill="#f5f5f5" stroke="transparent" points="190,-595.7 190,-618.7 409,-618.7 409,-595.7 190,-595.7"/>
<polygon fill="none" stroke="#000000" points="190,-595.7 190,-618.7 409,-618.7 409,-595.7 190,-595.7"/>
<text text-anchor="start" x="194.9852" y="-604.8" font-family="Helvetica,sans-Serif" font-weight="bold" font-size="11.00" fill="#000000">rules_exclusions_assessment_rules</text>
<text text-anchor="start" x="374.5219" y="-603.8" font-family="Helvetica,sans-Serif" font-size="11.00" fill="#000000">[table]</text>
<polygon fill="none" stroke="#000000" points="190,-576.7 190,-595.7 409,-595.7 409,-576.7 190,-576.7"/>
<text text-anchor="start" x="193" y="-582.8" font-family="Helvetica,sans-Serif" font-size="11.00" fill="#000000">...</text>
<polygon fill="#ffffff" stroke="transparent" points="190,-557.7 190,-576.7 285,-576.7 285,-557.7 190,-557.7"/>
<polygon fill="none" stroke="#000000" points="190,-557.7 190,-576.7 285,-576.7 285,-557.7 190,-557.7"/>
<text text-anchor="start" x="193" y="-563.8" font-family="Helvetica,sans-Serif" font-size="11.00" fill="#000000">&lt; 2</text>
<polygon fill="#ffffff" stroke="transparent" points="285,-557.7 285,-576.7 360,-576.7 360,-557.7 285,-557.7"/>
<polygon fill="none" stroke="#000000" points="285,-557.7 285,-576.7 360,-576.7 360,-557.7 285,-557.7"/>
<text text-anchor="start" x="324.6105" y="-563.8" font-family="Helvetica,sans-Serif" font-size="11.00" fill="#000000">0 rows</text>
<polygon fill="#ffffff" stroke="transparent" points="360,-557.7 360,-576.7 409,-576.7 409,-557.7 360,-557.7"/>
<polygon fill="none" stroke="#000000" points="360,-557.7 360,-576.7 409,-576.7 409,-557.7 360,-557.7"/>
<text text-anchor="start" x="399.8862" y="-563.8" font-family="Helvetica,sans-Serif" font-size="11.00" fill="#000000"> &#160;</text>
</a>
</g>
</g>
<!-- rules_exclusions_assessment_rules&#45;&gt;rules -->
<g id="edge27" class="edge">
<title>rules_exclusions_assessment_rules:w&#45;&gt;rules:e</title>
<path fill="none" stroke="#000000" d="M175.8661,-589.7811C160.6905,-600.1516 159.891,-626.7 135.5,-626.7"/>
<polygon fill="#000000" stroke="#000000" points="182.314,-587.9194 190.9987,-589.1587 186.157,-586.8097 190,-585.7 190,-585.7 190,-585.7 186.157,-586.8097 189.0013,-582.2413 182.314,-587.9194 182.314,-587.9194"/>
<ellipse fill="none" stroke="#000000" cx="179.2396" cy="-588.8071" rx="3.2" ry="3.2"/>
</g>
<!-- rules_languages -->
<g id="node24" class="node">
<title>rules_languages</title>
<g id="a_node24"><a xlink:href="../../tables/rules_languages.html" xlink:title="rules_languages" target="_top">
<polygon fill="#ffffff" stroke="transparent" points="237.5,-476.2 237.5,-537.2 360.5,-537.2 360.5,-476.2 237.5,-476.2"/>
<polygon fill="#f5f5f5" stroke="transparent" points="238,-513.7 238,-536.7 361,-536.7 361,-513.7 238,-513.7"/>
<polygon fill="none" stroke="#000000" points="238,-513.7 238,-536.7 361,-536.7 361,-513.7 238,-513.7"/>
<text text-anchor="start" x="242.6537" y="-522.8" font-family="Helvetica,sans-Serif" font-weight="bold" font-size="11.00" fill="#000000">rules_languages</text>
<text text-anchor="start" x="326.5219" y="-521.8" font-family="Helvetica,sans-Serif" font-size="11.00" fill="#000000">[table]</text>
<polygon fill="none" stroke="#000000" points="238,-494.7 238,-513.7 361,-513.7 361,-494.7 238,-494.7"/>
<text text-anchor="start" x="241" y="-500.8" font-family="Helvetica,sans-Serif" font-size="11.00" fill="#000000">...</text>
<polygon fill="#ffffff" stroke="transparent" points="238,-475.7 238,-494.7 279,-494.7 279,-475.7 238,-475.7"/>
<polygon fill="none" stroke="#000000" points="238,-475.7 238,-494.7 279,-494.7 279,-475.7 238,-475.7"/>
<text text-anchor="start" x="241" y="-481.8" font-family="Helvetica,sans-Serif" font-size="11.00" fill="#000000">&lt; 1</text>
<polygon fill="#ffffff" stroke="transparent" points="279,-475.7 279,-494.7 339,-494.7 339,-475.7 279,-475.7"/>
<polygon fill="none" stroke="#000000" points="279,-475.7 279,-494.7 339,-494.7 339,-475.7 279,-475.7"/>
<text text-anchor="start" x="291.3807" y="-481.8" font-family="Helvetica,sans-Serif" font-size="11.00" fill="#000000">271 rows</text>
<polygon fill="#ffffff" stroke="transparent" points="339,-475.7 339,-494.7 361,-494.7 361,-475.7 339,-475.7"/>
<polygon fill="none" stroke="#000000" points="339,-475.7 339,-494.7 361,-494.7 361,-475.7 339,-475.7"/>
<text text-anchor="start" x="351.8862" y="-481.8" font-family="Helvetica,sans-Serif" font-size="11.00" fill="#000000"> &#160;</text>
</a>
</g>
</g>
<!-- rules_languages&#45;&gt;rules -->
<g id="edge28" class="edge">
<title>rules_languages:w&#45;&gt;rules:e</title>
<path fill="none" stroke="#000000" d="M223.4127,-505.1401C201.7803,-509.9467 194.49,-526.347 176,-547.7 150.1717,-577.5276 174.9562,-626.7 135.5,-626.7"/>
<polygon fill="#000000" stroke="#000000" points="230.0387,-504.486 238.3537,-507.2826 234.0194,-504.093 238,-503.7 238,-503.7 238,-503.7 234.0194,-504.093 237.6463,-500.1174 230.0387,-504.486 230.0387,-504.486"/>
<ellipse fill="none" stroke="#000000" cx="226.8542" cy="-504.8004" rx="3.2" ry="3.2"/>
</g>
<!-- security_controls_rules -->
<g id="node25" class="node">
<title>security_controls_rules</title>
<g id="a_node25"><a xlink:href="../../tables/security_controls_rules.html" xlink:title="security_controls_rules" target="_top">
<polygon fill="#ffffff" stroke="transparent" points="221.5,-394.2 221.5,-455.2 376.5,-455.2 376.5,-394.2 221.5,-394.2"/>
<polygon fill="#f5f5f5" stroke="transparent" points="222,-431.7 222,-454.7 377,-454.7 377,-431.7 222,-431.7"/>
<polygon fill="none" stroke="#000000" points="222,-431.7 222,-454.7 377,-454.7 377,-431.7 222,-431.7"/>
<text text-anchor="start" x="226.7719" y="-440.8" font-family="Helvetica,sans-Serif" font-weight="bold" font-size="11.00" fill="#000000">security_controls_rules</text>
<text text-anchor="start" x="342.5219" y="-439.8" font-family="Helvetica,sans-Serif" font-size="11.00" fill="#000000">[table]</text>
<polygon fill="none" stroke="#000000" points="222,-412.7 222,-431.7 377,-431.7 377,-412.7 222,-412.7"/>
<text text-anchor="start" x="225" y="-418.8" font-family="Helvetica,sans-Serif" font-size="11.00" fill="#000000">...</text>
<polygon fill="#ffffff" stroke="transparent" points="222,-393.7 222,-412.7 285,-412.7 285,-393.7 222,-393.7"/>
<polygon fill="none" stroke="#000000" points="222,-393.7 222,-412.7 285,-412.7 285,-393.7 222,-393.7"/>
<text text-anchor="start" x="225" y="-399.8" font-family="Helvetica,sans-Serif" font-size="11.00" fill="#000000">&lt; 2</text>
<polygon fill="#ffffff" stroke="transparent" points="285,-393.7 285,-412.7 344,-412.7 344,-393.7 285,-393.7"/>
<polygon fill="none" stroke="#000000" points="285,-393.7 285,-412.7 344,-412.7 344,-393.7 285,-393.7"/>
<text text-anchor="start" x="308.6105" y="-399.8" font-family="Helvetica,sans-Serif" font-size="11.00" fill="#000000">0 rows</text>
<polygon fill="#ffffff" stroke="transparent" points="344,-393.7 344,-412.7 377,-412.7 377,-393.7 344,-393.7"/>
<polygon fill="none" stroke="#000000" points="344,-393.7 344,-412.7 377,-412.7 377,-393.7 344,-393.7"/>
<text text-anchor="start" x="367.8862" y="-399.8" font-family="Helvetica,sans-Serif" font-size="11.00" fill="#000000"> &#160;</text>
</a>
</g>
</g>
<!-- security_controls_rules&#45;&gt;rules -->
<g id="edge29" class="edge">
<title>security_controls_rules:w&#45;&gt;rules:e</title>
<path fill="none" stroke="#000000" d="M207.5332,-423.9969C191.8518,-429.8436 187.3392,-446.2146 176,-465.7 138.8887,-529.4726 209.2848,-626.7 135.5,-626.7"/>
<polygon fill="#000000" stroke="#000000" points="214.099,-422.9545 222.5645,-425.2555 218.0495,-422.3272 222,-421.7 222,-421.7 222,-421.7 218.0495,-422.3272 221.4355,-418.1445 214.099,-422.9545 214.099,-422.9545"/>
<ellipse fill="none" stroke="#000000" cx="210.9385" cy="-423.4563" rx="3.2" ry="3.2"/>
</g>
<!-- vulnerability_bugtracker_ticket -->
<g id="node26" class="node">
<title>vulnerability_bugtracker_ticket</title>
<g id="a_node26"><a xlink:href="../../tables/vulnerability_bugtracker_ticket.html" xlink:title="vulnerability_bugtracker_ticket" target="_top">
<polygon fill="#ffffff" stroke="transparent" points="782,-627.2 782,-688.2 972,-688.2 972,-627.2 782,-627.2"/>
<polygon fill="#f5f5f5" stroke="transparent" points="782,-664.7 782,-687.7 972,-687.7 972,-664.7 782,-664.7"/>
<polygon fill="none" stroke="#000000" points="782,-664.7 782,-687.7 972,-687.7 972,-664.7 782,-664.7"/>
<text text-anchor="start" x="786.5443" y="-673.8" font-family="Helvetica,sans-Serif" font-weight="bold" font-size="11.00" fill="#000000">vulnerability_bugtracker_ticket</text>
<text text-anchor="start" x="937.5219" y="-672.8" font-family="Helvetica,sans-Serif" font-size="11.00" fill="#000000">[table]</text>
<polygon fill="none" stroke="#000000" points="782,-645.7 782,-664.7 972,-664.7 972,-645.7 782,-645.7"/>
<text text-anchor="start" x="785" y="-651.8" font-family="Helvetica,sans-Serif" font-size="11.00" fill="#000000">...</text>
<polygon fill="#ffffff" stroke="transparent" points="782,-626.7 782,-645.7 862,-645.7 862,-626.7 782,-626.7"/>
<polygon fill="none" stroke="#000000" points="782,-626.7 782,-645.7 862,-645.7 862,-626.7 782,-626.7"/>
<text text-anchor="start" x="785" y="-632.8" font-family="Helvetica,sans-Serif" font-size="11.00" fill="#000000">&lt; 3</text>
<polygon fill="#ffffff" stroke="transparent" points="862,-626.7 862,-645.7 930,-645.7 930,-626.7 862,-626.7"/>
<polygon fill="none" stroke="#000000" points="862,-626.7 862,-645.7 930,-645.7 930,-626.7 862,-626.7"/>
<text text-anchor="start" x="894.6105" y="-632.8" font-family="Helvetica,sans-Serif" font-size="11.00" fill="#000000">0 rows</text>
<polygon fill="#ffffff" stroke="transparent" points="930,-626.7 930,-645.7 972,-645.7 972,-626.7 930,-626.7"/>
<polygon fill="none" stroke="#000000" points="930,-626.7 930,-645.7 972,-645.7 972,-626.7 930,-626.7"/>
<text text-anchor="start" x="962.8862" y="-632.8" font-family="Helvetica,sans-Serif" font-size="11.00" fill="#000000"> &#160;</text>
</a>
</g>
</g>
<!-- vulnerability_bugtracker_ticket&#45;&gt;bugtracker_application -->
<g id="edge30" class="edge">
<title>vulnerability_bugtracker_ticket:w&#45;&gt;bugtracker_application:e</title>
<path fill="none" stroke="#000000" d="M767.51,-655.5171C670.4518,-667.2625 743.835,-803.3462 723,-914.7 704.6977,-1012.5172 757.0147,-1357.7 657.5,-1357.7"/>
<polygon fill="#000000" stroke="#000000" points="774.0127,-655.1504 782.2027,-658.2943 778.0063,-654.9252 782,-654.7 782,-654.7 782,-654.7 778.0063,-654.9252 781.7973,-651.1057 774.0127,-655.1504 774.0127,-655.1504"/>
<ellipse fill="none" stroke="#000000" cx="770.8178" cy="-655.3306" rx="3.2" ry="3.2"/>
</g>
<!-- vulnerability_data -->
<g id="node27" class="node">
<title>vulnerability_data</title>
<g id="a_node27"><a xlink:href="../../tables/vulnerability_data.html" xlink:title="vulnerability_data" target="_top">
<polygon fill="#ffffff" stroke="transparent" points="235,-312.2 235,-373.2 363,-373.2 363,-312.2 235,-312.2"/>
<polygon fill="#f5f5f5" stroke="transparent" points="235,-349.7 235,-372.7 363,-372.7 363,-349.7 235,-349.7"/>
<polygon fill="none" stroke="#000000" points="235,-349.7 235,-372.7 363,-372.7 363,-349.7 235,-349.7"/>
<text text-anchor="start" x="239.7133" y="-358.8" font-family="Helvetica,sans-Serif" font-weight="bold" font-size="11.00" fill="#000000">vulnerability_data</text>
<text text-anchor="start" x="328.5219" y="-357.8" font-family="Helvetica,sans-Serif" font-size="11.00" fill="#000000">[table]</text>
<polygon fill="none" stroke="#000000" points="235,-330.7 235,-349.7 363,-349.7 363,-330.7 235,-330.7"/>
<text text-anchor="start" x="238" y="-336.8" font-family="Helvetica,sans-Serif" font-size="11.00" fill="#000000">...</text>
<polygon fill="#ffffff" stroke="transparent" points="235,-311.7 235,-330.7 277,-330.7 277,-311.7 235,-311.7"/>
<polygon fill="none" stroke="#000000" points="235,-311.7 235,-330.7 277,-330.7 277,-311.7 235,-311.7"/>
<text text-anchor="start" x="238" y="-317.8" font-family="Helvetica,sans-Serif" font-size="11.00" fill="#000000">&lt; 2</text>
<polygon fill="#ffffff" stroke="transparent" points="277,-311.7 277,-330.7 325,-330.7 325,-311.7 277,-311.7"/>
<polygon fill="none" stroke="#000000" points="277,-311.7 277,-330.7 325,-330.7 325,-311.7 277,-311.7"/>
<text text-anchor="start" x="289.6105" y="-317.8" font-family="Helvetica,sans-Serif" font-size="11.00" fill="#000000">0 rows</text>
<polygon fill="#ffffff" stroke="transparent" points="325,-311.7 325,-330.7 363,-330.7 363,-311.7 325,-311.7"/>
<polygon fill="none" stroke="#000000" points="325,-311.7 325,-330.7 363,-330.7 363,-311.7 325,-311.7"/>
<text text-anchor="start" x="338.2904" y="-317.8" font-family="Helvetica,sans-Serif" font-size="11.00" fill="#000000">11 &gt;</text>
</a>
</g>
</g>
<!-- vulnerability_bugtracker_ticket&#45;&gt;vulnerability_data -->
<g id="edge31" class="edge">
<title>vulnerability_bugtracker_ticket:w&#45;&gt;vulnerability_data:e</title>
<path fill="none" stroke="#000000" d="M767.3659,-654.2701C550.9105,-641.3102 590.9725,-339.7 363,-339.7"/>
<polygon fill="#000000" stroke="#000000" points="774.0035,-654.465 781.8943,-658.2984 778.0017,-654.5825 782,-654.7 782,-654.7 782,-654.7 778.0017,-654.5825 782.1057,-651.1016 774.0035,-654.465 774.0035,-654.465"/>
<ellipse fill="none" stroke="#000000" cx="770.8048" cy="-654.371" rx="3.2" ry="3.2"/>
</g>
<!-- vulnerability_data&#45;&gt;rules -->
<g id="edge32" class="edge">
<title>vulnerability_data:w&#45;&gt;rules:e</title>
<path fill="none" stroke="#000000" d="M220.6558,-340.9792C199.0416,-345.2926 190.2362,-360.3536 176,-383.7 147.4986,-430.4404 190.2449,-626.7 135.5,-626.7"/>
<polygon fill="#000000" stroke="#000000" points="227.0316,-340.4106 235.3198,-343.2858 231.0158,-340.0553 235,-339.7 235,-339.7 235,-339.7 231.0158,-340.0553 234.6802,-336.1142 227.0316,-340.4106 227.0316,-340.4106"/>
<ellipse fill="none" stroke="#000000" cx="223.8443" cy="-340.6949" rx="3.2" ry="3.2"/>
</g>
<!-- vulnerability_rule_applications_hash -->
<g id="node28" class="node">
<title>vulnerability_rule_applications_hash</title>
<g id="a_node28"><a xlink:href="../../tables/vulnerability_rule_applications_hash.html" xlink:title="vulnerability_rule_applications_hash" target="_top">
<polygon fill="#ffffff" stroke="transparent" points="463,-286.2 463,-347.2 682,-347.2 682,-286.2 463,-286.2"/>
<polygon fill="#f5f5f5" stroke="transparent" points="463.5,-323.7 463.5,-346.7 682.5,-346.7 682.5,-323.7 463.5,-323.7"/>
<polygon fill="none" stroke="#000000" points="463.5,-323.7 463.5,-346.7 682.5,-346.7 682.5,-323.7 463.5,-323.7"/>
<text text-anchor="start" x="468.1761" y="-332.8" font-family="Helvetica,sans-Serif" font-weight="bold" font-size="11.00" fill="#000000">vulnerability_rule_applications_hash</text>
<text text-anchor="start" x="648.0219" y="-331.8" font-family="Helvetica,sans-Serif" font-size="11.00" fill="#000000">[table]</text>
<polygon fill="none" stroke="#000000" points="463.5,-304.7 463.5,-323.7 682.5,-323.7 682.5,-304.7 463.5,-304.7"/>
<text text-anchor="start" x="466.5" y="-310.8" font-family="Helvetica,sans-Serif" font-size="11.00" fill="#000000">...</text>
<polygon fill="#ffffff" stroke="transparent" points="463.5,-285.7 463.5,-304.7 558.5,-304.7 558.5,-285.7 463.5,-285.7"/>
<polygon fill="none" stroke="#000000" points="463.5,-285.7 463.5,-304.7 558.5,-304.7 558.5,-285.7 463.5,-285.7"/>
<text text-anchor="start" x="466.5" y="-291.8" font-family="Helvetica,sans-Serif" font-size="11.00" fill="#000000">&lt; 3</text>
<polygon fill="#ffffff" stroke="transparent" points="558.5,-285.7 558.5,-304.7 633.5,-304.7 633.5,-285.7 558.5,-285.7"/>
<polygon fill="none" stroke="#000000" points="558.5,-285.7 558.5,-304.7 633.5,-304.7 633.5,-285.7 558.5,-285.7"/>
<text text-anchor="start" x="598.1105" y="-291.8" font-family="Helvetica,sans-Serif" font-size="11.00" fill="#000000">0 rows</text>
<polygon fill="#ffffff" stroke="transparent" points="633.5,-285.7 633.5,-304.7 682.5,-304.7 682.5,-285.7 633.5,-285.7"/>
<polygon fill="none" stroke="#000000" points="633.5,-285.7 633.5,-304.7 682.5,-304.7 682.5,-285.7 633.5,-285.7"/>
<text text-anchor="start" x="673.3862" y="-291.8" font-family="Helvetica,sans-Serif" font-size="11.00" fill="#000000"> &#160;</text>
</a>
</g>
</g>
<!-- vulnerability_rule_applications_hash&#45;&gt;rules -->
<g id="edge33" class="edge">
<title>vulnerability_rule_applications_hash:w&#45;&gt;rules:e</title>
<path fill="none" stroke="#000000" d="M449.1959,-311.4593C440.7087,-308.5292 435.0695,-303.5516 422,-301.7 367.8738,-294.0316 216.9756,-265.5137 176,-301.7 121.4469,-349.8769 208.2808,-626.7 135.5,-626.7"/>
<polygon fill="#000000" stroke="#000000" points="455.5964,-312.4619 462.9428,-317.2566 459.5482,-313.0809 463.5,-313.7 463.5,-313.7 463.5,-313.7 459.5482,-313.0809 464.0572,-310.1434 455.5964,-312.4619 455.5964,-312.4619"/>
<ellipse fill="none" stroke="#000000" cx="452.4349" cy="-311.9666" rx="3.2" ry="3.2"/>
</g>
<!-- vulnerability_rule_applications_hash&#45;&gt;vulnerability_data -->
<g id="edge34" class="edge">
<title>vulnerability_rule_applications_hash:w&#45;&gt;vulnerability_data:e</title>
<path fill="none" stroke="#000000" d="M448.7198,-314.6875C414.9143,-319.4367 403.7305,-339.7 363,-339.7"/>
<polygon fill="#000000" stroke="#000000" points="455.5178,-314.2333 463.74,-317.292 459.5089,-313.9667 463.5,-313.7 463.5,-313.7 463.5,-313.7 459.5089,-313.9667 463.26,-310.108 455.5178,-314.2333 455.5178,-314.2333"/>
<ellipse fill="none" stroke="#000000" cx="452.3249" cy="-314.4467" rx="3.2" ry="3.2"/>
</g>
</g>
</svg>
