<?xml version="1.0" encoding="UTF-8" standalone="no"?>
<!DOCTYPE svg PUBLIC "-//W3C//DTD SVG 1.1//EN"
 "http://www.w3.org/Graphics/SVG/1.1/DTD/svg11.dtd">
<!-- Generated by graphviz version 2.40.1 (20161225.0304)
 -->
<!-- Title: oneDegreeRelationshipsDiagram Pages: 1 -->
<svg width="560pt" height="399pt"
 viewBox="0.00 0.00 560.00 398.70" xmlns="http://www.w3.org/2000/svg" xmlns:xlink="http://www.w3.org/1999/xlink">
<g id="graph0" class="graph" transform="scale(1 1) rotate(0) translate(4 394.7)">
<title>oneDegreeRelationshipsDiagram</title>
<polygon fill="#ffffff" stroke="transparent" points="-4,4 -4,-394.7 556,-394.7 556,4 -4,4"/>
<text text-anchor="middle" x="72.4936" y="-7.3" font-family="Helvetica,sans-Serif" font-size="11.00" fill="#000000">Generated by SchemaSpy</text>
<!-- engine_configs -->
<g id="node1" class="node">
<title>engine_configs</title>
<g id="a_node1"><a xlink:href="../../tables/engine_configs.html" xlink:title="engine_configs" target="_top">
<polygon fill="#ffffff" stroke="transparent" points="315,-98.7 315,-386.7 544,-386.7 544,-98.7 315,-98.7"/>
<polygon fill="#f5f5f5" stroke="transparent" points="317.5,-361.7 317.5,-384.7 542.5,-384.7 542.5,-361.7 317.5,-361.7"/>
<polygon fill="none" stroke="#000000" points="317.5,-361.7 317.5,-384.7 542.5,-384.7 542.5,-361.7 317.5,-361.7"/>
<text text-anchor="start" x="322.5" y="-370.8" font-family="Helvetica,sans-Serif" font-weight="bold" font-size="11.00" fill="#000000">engine_configs</text>
<text text-anchor="start" x="507.5437" y="-369.8" font-family="Helvetica,sans-Serif" font-size="11.00" fill="#000000">[table]</text>
<polygon fill="none" stroke="#000000" points="317.5,-339.7 317.5,-361.7 459.5,-361.7 459.5,-339.7 317.5,-339.7"/>
<image xlink:href="../../images/primaryKeys.png" width="11px" height="12px" preserveAspectRatio="xMinYMin meet" x="322.5" y="-356.7"/>
<text text-anchor="start" x="337.5" y="-346.8" font-family="Helvetica,sans-Serif" font-size="11.00" fill="#000000">id</text>
<polygon fill="none" stroke="#000000" points="459.5,-339.7 459.5,-361.7 542.5,-361.7 542.5,-339.7 459.5,-339.7"/>
<text text-anchor="start" x="462.5" y="-347.4" font-family="Helvetica,sans-Serif" font-size="11.00" fill="#000000">bigint[19]</text>
<polygon fill="none" stroke="#000000" points="317.5,-317.7 317.5,-339.7 459.5,-339.7 459.5,-317.7 317.5,-317.7"/>
<text text-anchor="start" x="337.5" y="-324.8" font-family="Helvetica,sans-Serif" font-size="11.00" fill="#000000">override_url</text>
<polygon fill="none" stroke="#000000" points="459.5,-317.7 459.5,-339.7 542.5,-339.7 542.5,-317.7 459.5,-317.7"/>
<text text-anchor="start" x="462.5" y="-325.4" font-family="Helvetica,sans-Serif" font-size="11.00" fill="#000000">bit[1]</text>
<polygon fill="#ffffff" stroke="transparent" points="317.5,-295.7 317.5,-317.7 459.5,-317.7 459.5,-295.7 317.5,-295.7"/>
<polygon fill="none" stroke="#000000" points="317.5,-295.7 317.5,-317.7 459.5,-317.7 459.5,-295.7 317.5,-295.7"/>
<text text-anchor="start" x="337.5" y="-302.8" font-family="Helvetica,sans-Serif" font-size="11.00" fill="#000000">profile_name</text>
<polygon fill="none" stroke="#000000" points="459.5,-295.7 459.5,-317.7 542.5,-317.7 542.5,-295.7 459.5,-295.7"/>
<text text-anchor="start" x="462.5" y="-303.4" font-family="Helvetica,sans-Serif" font-size="11.00" fill="#000000">varchar[255]</text>
<polygon fill="none" stroke="#000000" points="317.5,-273.7 317.5,-295.7 459.5,-295.7 459.5,-273.7 317.5,-273.7"/>
<text text-anchor="start" x="337.5" y="-280.8" font-family="Helvetica,sans-Serif" font-size="11.00" fill="#000000">proxy_authentication</text>
<polygon fill="none" stroke="#000000" points="459.5,-273.7 459.5,-295.7 542.5,-295.7 542.5,-273.7 459.5,-273.7"/>
<text text-anchor="start" x="462.5" y="-281.4" font-family="Helvetica,sans-Serif" font-size="11.00" fill="#000000">varchar[255]</text>
<polygon fill="none" stroke="#000000" points="317.5,-251.7 317.5,-273.7 459.5,-273.7 459.5,-251.7 317.5,-251.7"/>
<text text-anchor="start" x="337.5" y="-258.8" font-family="Helvetica,sans-Serif" font-size="11.00" fill="#000000">proxy_host</text>
<polygon fill="none" stroke="#000000" points="459.5,-251.7 459.5,-273.7 542.5,-273.7 542.5,-251.7 459.5,-251.7"/>
<text text-anchor="start" x="462.5" y="-259.4" font-family="Helvetica,sans-Serif" font-size="11.00" fill="#000000">varchar[255]</text>
<polygon fill="none" stroke="#000000" points="317.5,-229.7 317.5,-251.7 459.5,-251.7 459.5,-229.7 317.5,-229.7"/>
<text text-anchor="start" x="337.5" y="-236.8" font-family="Helvetica,sans-Serif" font-size="11.00" fill="#000000">proxy_password</text>
<polygon fill="none" stroke="#000000" points="459.5,-229.7 459.5,-251.7 542.5,-251.7 542.5,-229.7 459.5,-229.7"/>
<text text-anchor="start" x="462.5" y="-237.4" font-family="Helvetica,sans-Serif" font-size="11.00" fill="#000000">varchar[255]</text>
<polygon fill="none" stroke="#000000" points="317.5,-207.7 317.5,-229.7 459.5,-229.7 459.5,-207.7 317.5,-207.7"/>
<text text-anchor="start" x="337.5" y="-214.8" font-family="Helvetica,sans-Serif" font-size="11.00" fill="#000000">proxy_port</text>
<polygon fill="none" stroke="#000000" points="459.5,-207.7 459.5,-229.7 542.5,-229.7 542.5,-207.7 459.5,-207.7"/>
<text text-anchor="start" x="462.5" y="-215.4" font-family="Helvetica,sans-Serif" font-size="11.00" fill="#000000">int[10]</text>
<polygon fill="none" stroke="#000000" points="317.5,-185.7 317.5,-207.7 459.5,-207.7 459.5,-185.7 317.5,-185.7"/>
<text text-anchor="start" x="337.5" y="-192.8" font-family="Helvetica,sans-Serif" font-size="11.00" fill="#000000">proxy_user</text>
<polygon fill="none" stroke="#000000" points="459.5,-185.7 459.5,-207.7 542.5,-207.7 542.5,-185.7 459.5,-185.7"/>
<text text-anchor="start" x="462.5" y="-193.4" font-family="Helvetica,sans-Serif" font-size="11.00" fill="#000000">varchar[255]</text>
<polygon fill="none" stroke="#000000" points="317.5,-163.7 317.5,-185.7 459.5,-185.7 459.5,-163.7 317.5,-163.7"/>
<text text-anchor="start" x="337.5" y="-170.8" font-family="Helvetica,sans-Serif" font-size="11.00" fill="#000000">teamserver_url</text>
<polygon fill="none" stroke="#000000" points="459.5,-163.7 459.5,-185.7 542.5,-185.7 542.5,-163.7 459.5,-163.7"/>
<text text-anchor="start" x="462.5" y="-171.4" font-family="Helvetica,sans-Serif" font-size="11.00" fill="#000000">varchar[255]</text>
<polygon fill="none" stroke="#000000" points="317.5,-141.7 317.5,-163.7 459.5,-163.7 459.5,-141.7 317.5,-141.7"/>
<text text-anchor="start" x="337.5" y="-148.8" font-family="Helvetica,sans-Serif" font-size="11.00" fill="#000000">use_proxy</text>
<polygon fill="none" stroke="#000000" points="459.5,-141.7 459.5,-163.7 542.5,-163.7 542.5,-141.7 459.5,-141.7"/>
<text text-anchor="start" x="462.5" y="-149.4" font-family="Helvetica,sans-Serif" font-size="11.00" fill="#000000">bit[1]</text>
<polygon fill="#ffffff" stroke="transparent" points="317.5,-119.7 317.5,-141.7 459.5,-141.7 459.5,-119.7 317.5,-119.7"/>
<polygon fill="none" stroke="#000000" points="317.5,-119.7 317.5,-141.7 459.5,-141.7 459.5,-119.7 317.5,-119.7"/>
<image xlink:href="../../images/foreignKeys.png" width="11px" height="12px" preserveAspectRatio="xMinYMin meet" x="322.5" y="-136.7"/>
<text text-anchor="start" x="337.5" y="-126.8" font-family="Helvetica,sans-Serif" font-size="11.00" fill="#000000">organizations_id</text>
<polygon fill="none" stroke="#000000" points="459.5,-119.7 459.5,-141.7 542.5,-141.7 542.5,-119.7 459.5,-119.7"/>
<text text-anchor="start" x="462.1783" y="-127.4" font-family="Helvetica,sans-Serif" font-size="11.00" fill="#000000">int unsigned[10]</text>
<polygon fill="#ffffff" stroke="transparent" points="317.5,-100.7 317.5,-119.7 379.5,-119.7 379.5,-100.7 317.5,-100.7"/>
<polygon fill="none" stroke="#000000" points="317.5,-100.7 317.5,-119.7 379.5,-119.7 379.5,-100.7 317.5,-100.7"/>
<text text-anchor="start" x="320.5" y="-106.8" font-family="Helvetica,sans-Serif" font-size="11.00" fill="#000000">&lt; 1</text>
<polygon fill="#ffffff" stroke="transparent" points="379.5,-100.7 379.5,-119.7 459.5,-119.7 459.5,-100.7 379.5,-100.7"/>
<polygon fill="none" stroke="#000000" points="379.5,-100.7 379.5,-119.7 459.5,-119.7 459.5,-100.7 379.5,-100.7"/>
<text text-anchor="start" x="424.1105" y="-106.8" font-family="Helvetica,sans-Serif" font-size="11.00" fill="#000000">0 rows</text>
<polygon fill="#ffffff" stroke="transparent" points="459.5,-100.7 459.5,-119.7 542.5,-119.7 542.5,-100.7 459.5,-100.7"/>
<polygon fill="none" stroke="#000000" points="459.5,-100.7 459.5,-119.7 542.5,-119.7 542.5,-100.7 459.5,-100.7"/>
<text text-anchor="start" x="523.9053" y="-106.8" font-family="Helvetica,sans-Serif" font-size="11.00" fill="#000000">0 &gt;</text>
<polygon fill="none" stroke="#000000" stroke-width="2" points="316,-99.7 316,-385.7 543,-385.7 543,-99.7 316,-99.7"/>
</a>
</g>
</g>
<!-- organizations -->
<g id="node2" class="node">
<title>organizations</title>
<g id="a_node2"><a xlink:href="../../tables/organizations.html" xlink:title="organizations" target="_top">
<polygon fill="#ffffff" stroke="transparent" points="8,-38.2 8,-253.2 266,-253.2 266,-38.2 8,-38.2"/>
<polygon fill="#f5f5f5" stroke="transparent" points="8,-229.7 8,-252.7 266,-252.7 266,-229.7 8,-229.7"/>
<polygon fill="none" stroke="#000000" points="8,-229.7 8,-252.7 266,-252.7 266,-229.7 8,-229.7"/>
<text text-anchor="start" x="13" y="-238.8" font-family="Helvetica,sans-Serif" font-weight="bold" font-size="11.00" fill="#000000">organizations</text>
<text text-anchor="start" x="231.0437" y="-237.8" font-family="Helvetica,sans-Serif" font-size="11.00" fill="#000000">[table]</text>
<polygon fill="#ffffff" stroke="transparent" points="8,-207.7 8,-229.7 266,-229.7 266,-207.7 8,-207.7"/>
<polygon fill="none" stroke="#000000" points="8,-207.7 8,-229.7 266,-229.7 266,-207.7 8,-207.7"/>
<text text-anchor="start" x="28" y="-214.8" font-family="Helvetica,sans-Serif" font-size="11.00" fill="#000000">name</text>
<polygon fill="#ffffff" stroke="transparent" points="8,-185.7 8,-207.7 266,-207.7 266,-185.7 8,-185.7"/>
<polygon fill="none" stroke="#000000" points="8,-185.7 8,-207.7 266,-207.7 266,-185.7 8,-185.7"/>
<image xlink:href="../../images/foreignKeys.png" width="11px" height="12px" preserveAspectRatio="xMinYMin meet" x="13" y="-202.7"/>
<text text-anchor="start" x="28" y="-192.8" font-family="Helvetica,sans-Serif" font-size="11.00" fill="#000000">configKey_fk</text>
<polygon fill="#ffffff" stroke="transparent" points="8,-163.7 8,-185.7 266,-185.7 266,-163.7 8,-163.7"/>
<polygon fill="none" stroke="#000000" points="8,-163.7 8,-185.7 266,-185.7 266,-163.7 8,-163.7"/>
<image xlink:href="../../images/foreignKeys.png" width="11px" height="12px" preserveAspectRatio="xMinYMin meet" x="13" y="-180.7"/>
<text text-anchor="start" x="28" y="-170.8" font-family="Helvetica,sans-Serif" font-size="11.00" fill="#000000">passwordPolicy_fk</text>
<polygon fill="#ffffff" stroke="transparent" points="8,-141.7 8,-163.7 266,-163.7 266,-141.7 8,-141.7"/>
<polygon fill="none" stroke="#000000" points="8,-141.7 8,-163.7 266,-163.7 266,-141.7 8,-141.7"/>
<image xlink:href="../../images/foreignKeys.png" width="11px" height="12px" preserveAspectRatio="xMinYMin meet" x="13" y="-158.7"/>
<text text-anchor="start" x="28" y="-148.8" font-family="Helvetica,sans-Serif" font-size="11.00" fill="#000000">report_settings_fk</text>
<polygon fill="none" stroke="#000000" points="8,-119.7 8,-141.7 266,-141.7 266,-119.7 8,-119.7"/>
<image xlink:href="../../images/primaryKeys.png" width="11px" height="12px" preserveAspectRatio="xMinYMin meet" x="13" y="-136.7"/>
<text text-anchor="start" x="28" y="-126.8" font-family="Helvetica,sans-Serif" font-size="11.00" fill="#000000">id</text>
<polygon fill="#ffffff" stroke="transparent" points="8,-97.7 8,-119.7 266,-119.7 266,-97.7 8,-97.7"/>
<polygon fill="none" stroke="#000000" points="8,-97.7 8,-119.7 266,-119.7 266,-97.7 8,-97.7"/>
<text text-anchor="start" x="28" y="-104.8" font-family="Helvetica,sans-Serif" font-size="11.00" fill="#000000">uuid</text>
<polygon fill="#ffffff" stroke="transparent" points="8,-75.7 8,-97.7 266,-97.7 266,-75.7 8,-75.7"/>
<polygon fill="none" stroke="#000000" points="8,-75.7 8,-97.7 266,-97.7 266,-75.7 8,-75.7"/>
<image xlink:href="../../images/foreignKeys.png" width="11px" height="12px" preserveAspectRatio="xMinYMin meet" x="13" y="-92.7"/>
<text text-anchor="start" x="28" y="-82.8" font-family="Helvetica,sans-Serif" font-size="11.00" fill="#000000">saml_idp_config_fk</text>
<polygon fill="none" stroke="#000000" points="8,-56.7 8,-75.7 266,-75.7 266,-56.7 8,-56.7"/>
<text text-anchor="start" x="11" y="-62.8" font-family="Helvetica,sans-Serif" font-size="11.00" fill="#000000">...</text>
<polygon fill="#ffffff" stroke="transparent" points="8,-37.7 8,-56.7 115,-56.7 115,-37.7 8,-37.7"/>
<polygon fill="none" stroke="#000000" points="8,-37.7 8,-56.7 115,-56.7 115,-37.7 8,-37.7"/>
<text text-anchor="start" x="11" y="-43.8" font-family="Helvetica,sans-Serif" font-size="11.00" fill="#000000">&lt; 4</text>
<polygon fill="#ffffff" stroke="transparent" points="115,-37.7 115,-56.7 196,-56.7 196,-37.7 115,-37.7"/>
<polygon fill="none" stroke="#000000" points="115,-37.7 115,-56.7 196,-56.7 196,-37.7 115,-37.7"/>
<text text-anchor="start" x="160.6105" y="-43.8" font-family="Helvetica,sans-Serif" font-size="11.00" fill="#000000">3 rows</text>
<polygon fill="#ffffff" stroke="transparent" points="196,-37.7 196,-56.7 266,-56.7 266,-37.7 196,-37.7"/>
<polygon fill="none" stroke="#000000" points="196,-37.7 196,-56.7 266,-56.7 266,-37.7 196,-37.7"/>
<text text-anchor="start" x="241.2904" y="-43.8" font-family="Helvetica,sans-Serif" font-size="11.00" fill="#000000">81 &gt;</text>
</a>
</g>
</g>
<!-- engine_configs&#45;&gt;organizations -->
<g id="edge1" class="edge">
<title>engine_configs:w&#45;&gt;organizations:e</title>
<path fill="none" stroke="#000000" d="M303.0156,-130.7C290.6771,-130.7 283.1667,-130.7 266,-130.7"/>
<polygon fill="#000000" stroke="#000000" points="309.5,-130.7001 317.5,-134.3 313.5,-130.7 317.5,-130.7 317.5,-130.7 317.5,-130.7 313.5,-130.7 317.5,-127.1 309.5,-130.7001 309.5,-130.7001"/>
<ellipse fill="none" stroke="#000000" cx="306.3" cy="-130.7001" rx="3.2" ry="3.2"/>
</g>
</g>
</svg>
