<?xml version="1.0" encoding="UTF-8" standalone="no"?>
<!DOCTYPE svg PUBLIC "-//W3C//DTD SVG 1.1//EN"
 "http://www.w3.org/Graphics/SVG/1.1/DTD/svg11.dtd">
<!-- Generated by graphviz version 2.40.1 (20161225.0304)
 -->
<!-- Title: twoDegreesRelationshipsDiagram Pages: 1 -->
<svg width="718pt" height="1243pt"
 viewBox="0.00 0.00 718.00 1243.20" xmlns="http://www.w3.org/2000/svg" xmlns:xlink="http://www.w3.org/1999/xlink">
<g id="graph0" class="graph" transform="scale(1 1) rotate(0) translate(4 1239.2)">
<title>twoDegreesRelationshipsDiagram</title>
<polygon fill="#ffffff" stroke="transparent" points="-4,4 -4,-1239.2 714,-1239.2 714,4 -4,4"/>
<text text-anchor="middle" x="72.4936" y="-7.3" font-family="Helvetica,sans-Serif" font-size="11.00" fill="#000000">Generated by SchemaSpy</text>
<!-- applications -->
<g id="node1" class="node">
<title>applications</title>
<g id="a_node1"><a xlink:href="../../tables/applications.html" xlink:title="applications" target="_top">
<polygon fill="#ffffff" stroke="transparent" points="231,-1089.2 231,-1150.2 332,-1150.2 332,-1089.2 231,-1089.2"/>
<polygon fill="#f5f5f5" stroke="transparent" points="231.5,-1126.7 231.5,-1149.7 332.5,-1149.7 332.5,-1126.7 231.5,-1126.7"/>
<polygon fill="none" stroke="#000000" points="231.5,-1126.7 231.5,-1149.7 332.5,-1149.7 332.5,-1126.7 231.5,-1126.7"/>
<text text-anchor="start" x="236.4655" y="-1135.8" font-family="Helvetica,sans-Serif" font-weight="bold" font-size="11.00" fill="#000000">applications</text>
<text text-anchor="start" x="298.0219" y="-1134.8" font-family="Helvetica,sans-Serif" font-size="11.00" fill="#000000">[table]</text>
<polygon fill="none" stroke="#000000" points="231.5,-1107.7 231.5,-1126.7 332.5,-1126.7 332.5,-1107.7 231.5,-1107.7"/>
<text text-anchor="start" x="234.5" y="-1113.8" font-family="Helvetica,sans-Serif" font-size="11.00" fill="#000000">...</text>
<polygon fill="#ffffff" stroke="transparent" points="231.5,-1088.7 231.5,-1107.7 259.5,-1107.7 259.5,-1088.7 231.5,-1088.7"/>
<polygon fill="none" stroke="#000000" points="231.5,-1088.7 231.5,-1107.7 259.5,-1107.7 259.5,-1088.7 231.5,-1088.7"/>
<text text-anchor="start" x="234.5" y="-1094.8" font-family="Helvetica,sans-Serif" font-size="11.00" fill="#000000">&lt; 3</text>
<polygon fill="#ffffff" stroke="transparent" points="259.5,-1088.7 259.5,-1107.7 301.5,-1107.7 301.5,-1088.7 259.5,-1088.7"/>
<polygon fill="none" stroke="#000000" points="259.5,-1088.7 259.5,-1107.7 301.5,-1107.7 301.5,-1088.7 259.5,-1088.7"/>
<text text-anchor="start" x="266.1105" y="-1094.8" font-family="Helvetica,sans-Serif" font-size="11.00" fill="#000000">0 rows</text>
<polygon fill="#ffffff" stroke="transparent" points="301.5,-1088.7 301.5,-1107.7 332.5,-1107.7 332.5,-1088.7 301.5,-1088.7"/>
<polygon fill="none" stroke="#000000" points="301.5,-1088.7 301.5,-1107.7 332.5,-1107.7 332.5,-1088.7 301.5,-1088.7"/>
<text text-anchor="start" x="307.7904" y="-1094.8" font-family="Helvetica,sans-Serif" font-size="11.00" fill="#000000">57 &gt;</text>
</a>
</g>
</g>
<!-- organizations -->
<g id="node2" class="node">
<title>organizations</title>
<g id="a_node2"><a xlink:href="../../tables/organizations.html" xlink:title="organizations" target="_top">
<polygon fill="#ffffff" stroke="transparent" points="8,-1118.2 8,-1179.2 116,-1179.2 116,-1118.2 8,-1118.2"/>
<polygon fill="#f5f5f5" stroke="transparent" points="8,-1155.7 8,-1178.7 116,-1178.7 116,-1155.7 8,-1155.7"/>
<polygon fill="none" stroke="#000000" points="8,-1155.7 8,-1178.7 116,-1178.7 116,-1155.7 8,-1155.7"/>
<text text-anchor="start" x="12.7976" y="-1164.8" font-family="Helvetica,sans-Serif" font-weight="bold" font-size="11.00" fill="#000000">organizations</text>
<text text-anchor="start" x="81.5219" y="-1163.8" font-family="Helvetica,sans-Serif" font-size="11.00" fill="#000000">[table]</text>
<polygon fill="none" stroke="#000000" points="8,-1136.7 8,-1155.7 116,-1155.7 116,-1136.7 8,-1136.7"/>
<text text-anchor="start" x="11" y="-1142.8" font-family="Helvetica,sans-Serif" font-size="11.00" fill="#000000">...</text>
<polygon fill="#ffffff" stroke="transparent" points="8,-1117.7 8,-1136.7 40,-1136.7 40,-1117.7 8,-1117.7"/>
<polygon fill="none" stroke="#000000" points="8,-1117.7 8,-1136.7 40,-1136.7 40,-1117.7 8,-1117.7"/>
<text text-anchor="start" x="11" y="-1123.8" font-family="Helvetica,sans-Serif" font-size="11.00" fill="#000000">&lt; 4</text>
<polygon fill="#ffffff" stroke="transparent" points="40,-1117.7 40,-1136.7 83,-1136.7 83,-1117.7 40,-1117.7"/>
<polygon fill="none" stroke="#000000" points="40,-1117.7 40,-1136.7 83,-1136.7 83,-1117.7 40,-1117.7"/>
<text text-anchor="start" x="47.6105" y="-1123.8" font-family="Helvetica,sans-Serif" font-size="11.00" fill="#000000">3 rows</text>
<polygon fill="#ffffff" stroke="transparent" points="83,-1117.7 83,-1136.7 116,-1136.7 116,-1117.7 83,-1117.7"/>
<polygon fill="none" stroke="#000000" points="83,-1117.7 83,-1136.7 116,-1136.7 116,-1117.7 83,-1117.7"/>
<text text-anchor="start" x="91.2904" y="-1123.8" font-family="Helvetica,sans-Serif" font-size="11.00" fill="#000000">81 &gt;</text>
</a>
</g>
</g>
<!-- applications&#45;&gt;organizations -->
<g id="edge1" class="edge">
<title>applications:w&#45;&gt;organizations:e</title>
<path fill="none" stroke="#000000" d="M216.8867,-1117.5059C176.2221,-1122.1896 163.6547,-1145.7 116,-1145.7"/>
<polygon fill="#000000" stroke="#000000" points="223.5121,-1117.1406 231.6983,-1120.2945 227.5061,-1116.9203 231.5,-1116.7 231.5,-1116.7 231.5,-1116.7 227.5061,-1116.9203 231.3017,-1113.1055 223.5121,-1117.1406 223.5121,-1117.1406"/>
<ellipse fill="none" stroke="#000000" cx="220.317" cy="-1117.3168" rx="3.2" ry="3.2"/>
</g>
<!-- job_outcome_policy_application -->
<g id="node3" class="node">
<title>job_outcome_policy_application</title>
<g id="a_node3"><a xlink:href="../../tables/job_outcome_policy_application.html" xlink:title="job_outcome_policy_application" target="_top">
<polygon fill="#ffffff" stroke="transparent" points="462.5,-930.7 462.5,-1038.7 686.5,-1038.7 686.5,-930.7 462.5,-930.7"/>
<polygon fill="#f5f5f5" stroke="transparent" points="462.5,-1015.7 462.5,-1038.7 686.5,-1038.7 686.5,-1015.7 462.5,-1015.7"/>
<polygon fill="none" stroke="#000000" points="462.5,-1015.7 462.5,-1038.7 686.5,-1038.7 686.5,-1015.7 462.5,-1015.7"/>
<text text-anchor="start" x="467.5" y="-1024.8" font-family="Helvetica,sans-Serif" font-weight="bold" font-size="11.00" fill="#000000">job_outcome_policy_application</text>
<text text-anchor="start" x="651.5437" y="-1023.8" font-family="Helvetica,sans-Serif" font-size="11.00" fill="#000000">[table]</text>
<polygon fill="none" stroke="#000000" points="462.5,-993.7 462.5,-1015.7 686.5,-1015.7 686.5,-993.7 462.5,-993.7"/>
<image xlink:href="../../images/primaryKeys.png" width="11px" height="12px" preserveAspectRatio="xMinYMin meet" x="467.5" y="-1010.7"/>
<text text-anchor="start" x="482.5" y="-1000.8" font-family="Helvetica,sans-Serif" font-size="11.00" fill="#000000">job_outcome_policy_application_id</text>
<polygon fill="#ffffff" stroke="transparent" points="462.5,-971.7 462.5,-993.7 686.5,-993.7 686.5,-971.7 462.5,-971.7"/>
<polygon fill="none" stroke="#000000" points="462.5,-971.7 462.5,-993.7 686.5,-993.7 686.5,-971.7 462.5,-971.7"/>
<image xlink:href="../../images/foreignKeys.png" width="11px" height="12px" preserveAspectRatio="xMinYMin meet" x="467.5" y="-988.7"/>
<text text-anchor="start" x="482.5" y="-978.8" font-family="Helvetica,sans-Serif" font-size="11.00" fill="#000000">job_outcome_policy_id</text>
<polygon fill="#ffffff" stroke="transparent" points="462.5,-949.7 462.5,-971.7 686.5,-971.7 686.5,-949.7 462.5,-949.7"/>
<polygon fill="none" stroke="#000000" points="462.5,-949.7 462.5,-971.7 686.5,-971.7 686.5,-949.7 462.5,-949.7"/>
<image xlink:href="../../images/foreignKeys.png" width="11px" height="12px" preserveAspectRatio="xMinYMin meet" x="467.5" y="-966.7"/>
<text text-anchor="start" x="482.5" y="-956.8" font-family="Helvetica,sans-Serif" font-size="11.00" fill="#000000">applications_id</text>
<polygon fill="#ffffff" stroke="transparent" points="462.5,-930.7 462.5,-949.7 559.5,-949.7 559.5,-930.7 462.5,-930.7"/>
<polygon fill="none" stroke="#000000" points="462.5,-930.7 462.5,-949.7 559.5,-949.7 559.5,-930.7 462.5,-930.7"/>
<text text-anchor="start" x="465.5" y="-936.8" font-family="Helvetica,sans-Serif" font-size="11.00" fill="#000000">&lt; 2</text>
<polygon fill="#ffffff" stroke="transparent" points="559.5,-930.7 559.5,-949.7 635.5,-949.7 635.5,-930.7 559.5,-930.7"/>
<polygon fill="none" stroke="#000000" points="559.5,-930.7 559.5,-949.7 635.5,-949.7 635.5,-930.7 559.5,-930.7"/>
<text text-anchor="start" x="600.1105" y="-936.8" font-family="Helvetica,sans-Serif" font-size="11.00" fill="#000000">0 rows</text>
<polygon fill="#ffffff" stroke="transparent" points="635.5,-930.7 635.5,-949.7 686.5,-949.7 686.5,-930.7 635.5,-930.7"/>
<polygon fill="none" stroke="#000000" points="635.5,-930.7 635.5,-949.7 686.5,-949.7 686.5,-930.7 635.5,-930.7"/>
<text text-anchor="start" x="677.3862" y="-936.8" font-family="Helvetica,sans-Serif" font-size="11.00" fill="#000000"> &#160;</text>
</a>
</g>
</g>
<!-- job_outcome_policy_application&#45;&gt;applications -->
<g id="edge2" class="edge">
<title>job_outcome_policy_application:w&#45;&gt;applications:e</title>
<path fill="none" stroke="#000000" d="M448.0285,-962.244C377.6834,-978.4457 417.4636,-1116.7 332.5,-1116.7"/>
<polygon fill="#000000" stroke="#000000" points="454.5451,-961.5488 462.8819,-964.2797 458.5226,-961.1244 462.5,-960.7 462.5,-960.7 462.5,-960.7 458.5226,-961.1244 462.1181,-957.1203 454.5451,-961.5488 454.5451,-961.5488"/>
<ellipse fill="none" stroke="#000000" cx="451.3632" cy="-961.8883" rx="3.2" ry="3.2"/>
</g>
<!-- job_outcome_policy -->
<g id="node4" class="node">
<title>job_outcome_policy</title>
<g id="a_node4"><a xlink:href="../../tables/job_outcome_policy.html" xlink:title="job_outcome_policy" target="_top">
<polygon fill="#ffffff" stroke="transparent" points="165,-120.7 165,-760.7 398,-760.7 398,-120.7 165,-120.7"/>
<polygon fill="#f5f5f5" stroke="transparent" points="167.5,-735.7 167.5,-758.7 396.5,-758.7 396.5,-735.7 167.5,-735.7"/>
<polygon fill="none" stroke="#000000" points="167.5,-735.7 167.5,-758.7 396.5,-758.7 396.5,-735.7 167.5,-735.7"/>
<text text-anchor="start" x="172.5" y="-744.8" font-family="Helvetica,sans-Serif" font-weight="bold" font-size="11.00" fill="#000000">job_outcome_policy</text>
<text text-anchor="start" x="361.5437" y="-743.8" font-family="Helvetica,sans-Serif" font-size="11.00" fill="#000000">[table]</text>
<polygon fill="none" stroke="#000000" points="167.5,-713.7 167.5,-735.7 321.5,-735.7 321.5,-713.7 167.5,-713.7"/>
<image xlink:href="../../images/primaryKeys.png" width="11px" height="12px" preserveAspectRatio="xMinYMin meet" x="172.5" y="-730.7"/>
<text text-anchor="start" x="187.5" y="-720.8" font-family="Helvetica,sans-Serif" font-size="11.00" fill="#000000">job_outcome_policy_id</text>
<polygon fill="none" stroke="#000000" points="321.5,-713.7 321.5,-735.7 396.5,-735.7 396.5,-713.7 321.5,-713.7"/>
<text text-anchor="start" x="324.5" y="-721.4" font-family="Helvetica,sans-Serif" font-size="11.00" fill="#000000">bigint[19]</text>
<polygon fill="#ffffff" stroke="transparent" points="167.5,-691.7 167.5,-713.7 321.5,-713.7 321.5,-691.7 167.5,-691.7"/>
<polygon fill="none" stroke="#000000" points="167.5,-691.7 167.5,-713.7 321.5,-713.7 321.5,-691.7 167.5,-691.7"/>
<text text-anchor="start" x="187.5" y="-698.8" font-family="Helvetica,sans-Serif" font-size="11.00" fill="#000000">organizations_id</text>
<polygon fill="none" stroke="#000000" points="321.5,-691.7 321.5,-713.7 396.5,-713.7 396.5,-691.7 321.5,-691.7"/>
<text text-anchor="start" x="324.5" y="-699.4" font-family="Helvetica,sans-Serif" font-size="11.00" fill="#000000">bigint[19]</text>
<polygon fill="#ffffff" stroke="transparent" points="167.5,-669.7 167.5,-691.7 321.5,-691.7 321.5,-669.7 167.5,-669.7"/>
<polygon fill="none" stroke="#000000" points="167.5,-669.7 167.5,-691.7 321.5,-691.7 321.5,-669.7 167.5,-669.7"/>
<text text-anchor="start" x="187.5" y="-676.8" font-family="Helvetica,sans-Serif" font-size="11.00" fill="#000000">name</text>
<polygon fill="none" stroke="#000000" points="321.5,-669.7 321.5,-691.7 396.5,-691.7 396.5,-669.7 321.5,-669.7"/>
<text text-anchor="start" x="324.5" y="-677.4" font-family="Helvetica,sans-Serif" font-size="11.00" fill="#000000">varchar[255]</text>
<polygon fill="none" stroke="#000000" points="167.5,-647.7 167.5,-669.7 321.5,-669.7 321.5,-647.7 167.5,-647.7"/>
<text text-anchor="start" x="187.5" y="-654.8" font-family="Helvetica,sans-Serif" font-size="11.00" fill="#000000">created_at</text>
<polygon fill="none" stroke="#000000" points="321.5,-647.7 321.5,-669.7 396.5,-669.7 396.5,-647.7 321.5,-647.7"/>
<text text-anchor="start" x="324.4666" y="-655.4" font-family="Helvetica,sans-Serif" font-size="11.00" fill="#000000">timestamp[19]</text>
<polygon fill="none" stroke="#000000" points="167.5,-625.7 167.5,-647.7 321.5,-647.7 321.5,-625.7 167.5,-625.7"/>
<text text-anchor="start" x="187.5" y="-632.8" font-family="Helvetica,sans-Serif" font-size="11.00" fill="#000000">include_rules</text>
<polygon fill="none" stroke="#000000" points="321.5,-625.7 321.5,-647.7 396.5,-647.7 396.5,-625.7 321.5,-625.7"/>
<text text-anchor="start" x="324.5" y="-633.4" font-family="Helvetica,sans-Serif" font-size="11.00" fill="#000000">bit[0]</text>
<polygon fill="none" stroke="#000000" points="167.5,-603.7 167.5,-625.7 321.5,-625.7 321.5,-603.7 167.5,-603.7"/>
<text text-anchor="start" x="187.5" y="-610.8" font-family="Helvetica,sans-Serif" font-size="11.00" fill="#000000">outcome</text>
<polygon fill="none" stroke="#000000" points="321.5,-603.7 321.5,-625.7 396.5,-625.7 396.5,-603.7 321.5,-603.7"/>
<text text-anchor="start" x="324.5" y="-611.4" font-family="Helvetica,sans-Serif" font-size="11.00" fill="#000000">varchar[255]</text>
<polygon fill="#ffffff" stroke="transparent" points="167.5,-581.7 167.5,-603.7 321.5,-603.7 321.5,-581.7 167.5,-581.7"/>
<polygon fill="none" stroke="#000000" points="167.5,-581.7 167.5,-603.7 321.5,-603.7 321.5,-581.7 167.5,-581.7"/>
<text text-anchor="start" x="187.5" y="-588.8" font-family="Helvetica,sans-Serif" font-size="11.00" fill="#000000">enabled</text>
<polygon fill="none" stroke="#000000" points="321.5,-581.7 321.5,-603.7 396.5,-603.7 396.5,-581.7 321.5,-581.7"/>
<text text-anchor="start" x="324.5" y="-589.4" font-family="Helvetica,sans-Serif" font-size="11.00" fill="#000000">bit[0]</text>
<polygon fill="#ffffff" stroke="transparent" points="167.5,-559.7 167.5,-581.7 321.5,-581.7 321.5,-559.7 167.5,-559.7"/>
<polygon fill="none" stroke="#000000" points="167.5,-559.7 167.5,-581.7 321.5,-581.7 321.5,-559.7 167.5,-559.7"/>
<text text-anchor="start" x="187.5" y="-566.8" font-family="Helvetica,sans-Serif" font-size="11.00" fill="#000000">app_criterion</text>
<polygon fill="none" stroke="#000000" points="321.5,-559.7 321.5,-581.7 396.5,-581.7 396.5,-559.7 321.5,-559.7"/>
<text text-anchor="start" x="324.5" y="-567.4" font-family="Helvetica,sans-Serif" font-size="11.00" fill="#000000">varchar[255]</text>
<polygon fill="#ffffff" stroke="transparent" points="167.5,-537.7 167.5,-559.7 321.5,-559.7 321.5,-537.7 167.5,-537.7"/>
<polygon fill="none" stroke="#000000" points="167.5,-537.7 167.5,-559.7 321.5,-559.7 321.5,-537.7 167.5,-537.7"/>
<text text-anchor="start" x="187.5" y="-544.8" font-family="Helvetica,sans-Serif" font-size="11.00" fill="#000000">all_applications</text>
<polygon fill="none" stroke="#000000" points="321.5,-537.7 321.5,-559.7 396.5,-559.7 396.5,-537.7 321.5,-537.7"/>
<text text-anchor="start" x="324.5" y="-545.4" font-family="Helvetica,sans-Serif" font-size="11.00" fill="#000000">bit[0]</text>
<polygon fill="none" stroke="#000000" points="167.5,-515.7 167.5,-537.7 321.5,-537.7 321.5,-515.7 167.5,-515.7"/>
<text text-anchor="start" x="187.5" y="-522.8" font-family="Helvetica,sans-Serif" font-size="11.00" fill="#000000">reported</text>
<polygon fill="none" stroke="#000000" points="321.5,-515.7 321.5,-537.7 396.5,-537.7 396.5,-515.7 321.5,-515.7"/>
<text text-anchor="start" x="324.5" y="-523.4" font-family="Helvetica,sans-Serif" font-size="11.00" fill="#000000">bit[0]</text>
<polygon fill="none" stroke="#000000" points="167.5,-493.7 167.5,-515.7 321.5,-515.7 321.5,-493.7 167.5,-493.7"/>
<text text-anchor="start" x="187.5" y="-500.8" font-family="Helvetica,sans-Serif" font-size="11.00" fill="#000000">suspicious</text>
<polygon fill="none" stroke="#000000" points="321.5,-493.7 321.5,-515.7 396.5,-515.7 396.5,-493.7 321.5,-493.7"/>
<text text-anchor="start" x="324.5" y="-501.4" font-family="Helvetica,sans-Serif" font-size="11.00" fill="#000000">bit[0]</text>
<polygon fill="none" stroke="#000000" points="167.5,-471.7 167.5,-493.7 321.5,-493.7 321.5,-471.7 167.5,-471.7"/>
<text text-anchor="start" x="187.5" y="-478.8" font-family="Helvetica,sans-Serif" font-size="11.00" fill="#000000">confirmed</text>
<polygon fill="none" stroke="#000000" points="321.5,-471.7 321.5,-493.7 396.5,-493.7 396.5,-471.7 321.5,-471.7"/>
<text text-anchor="start" x="324.5" y="-479.4" font-family="Helvetica,sans-Serif" font-size="11.00" fill="#000000">bit[0]</text>
<polygon fill="none" stroke="#000000" points="167.5,-449.7 167.5,-471.7 321.5,-471.7 321.5,-449.7 167.5,-449.7"/>
<text text-anchor="start" x="187.5" y="-456.8" font-family="Helvetica,sans-Serif" font-size="11.00" fill="#000000">not_a_problem</text>
<polygon fill="none" stroke="#000000" points="321.5,-449.7 321.5,-471.7 396.5,-471.7 396.5,-449.7 321.5,-449.7"/>
<text text-anchor="start" x="324.5" y="-457.4" font-family="Helvetica,sans-Serif" font-size="11.00" fill="#000000">bit[0]</text>
<polygon fill="none" stroke="#000000" points="167.5,-427.7 167.5,-449.7 321.5,-449.7 321.5,-427.7 167.5,-427.7"/>
<text text-anchor="start" x="187.5" y="-434.8" font-family="Helvetica,sans-Serif" font-size="11.00" fill="#000000">fixed</text>
<polygon fill="none" stroke="#000000" points="321.5,-427.7 321.5,-449.7 396.5,-449.7 396.5,-427.7 321.5,-427.7"/>
<text text-anchor="start" x="324.5" y="-435.4" font-family="Helvetica,sans-Serif" font-size="11.00" fill="#000000">bit[0]</text>
<polygon fill="none" stroke="#000000" points="167.5,-405.7 167.5,-427.7 321.5,-427.7 321.5,-405.7 167.5,-405.7"/>
<text text-anchor="start" x="187.5" y="-412.8" font-family="Helvetica,sans-Serif" font-size="11.00" fill="#000000">remediated</text>
<polygon fill="none" stroke="#000000" points="321.5,-405.7 321.5,-427.7 396.5,-427.7 396.5,-405.7 321.5,-405.7"/>
<text text-anchor="start" x="324.5" y="-413.4" font-family="Helvetica,sans-Serif" font-size="11.00" fill="#000000">bit[0]</text>
<polygon fill="none" stroke="#000000" points="167.5,-383.7 167.5,-405.7 321.5,-405.7 321.5,-383.7 167.5,-383.7"/>
<text text-anchor="start" x="187.5" y="-390.8" font-family="Helvetica,sans-Serif" font-size="11.00" fill="#000000">auto_remediated</text>
<polygon fill="none" stroke="#000000" points="321.5,-383.7 321.5,-405.7 396.5,-405.7 396.5,-383.7 321.5,-383.7"/>
<text text-anchor="start" x="324.5" y="-391.4" font-family="Helvetica,sans-Serif" font-size="11.00" fill="#000000">bit[0]</text>
<polygon fill="none" stroke="#000000" points="167.5,-361.7 167.5,-383.7 321.5,-383.7 321.5,-361.7 167.5,-361.7"/>
<text text-anchor="start" x="187.5" y="-368.8" font-family="Helvetica,sans-Serif" font-size="11.00" fill="#000000">all_rules</text>
<polygon fill="none" stroke="#000000" points="321.5,-361.7 321.5,-383.7 396.5,-383.7 396.5,-361.7 321.5,-361.7"/>
<text text-anchor="start" x="324.5" y="-369.4" font-family="Helvetica,sans-Serif" font-size="11.00" fill="#000000">bit[0]</text>
<polygon fill="none" stroke="#000000" points="167.5,-339.7 167.5,-361.7 321.5,-361.7 321.5,-339.7 167.5,-339.7"/>
<text text-anchor="start" x="187.5" y="-346.8" font-family="Helvetica,sans-Serif" font-size="11.00" fill="#000000">keycode</text>
<polygon fill="none" stroke="#000000" points="321.5,-339.7 321.5,-361.7 396.5,-361.7 396.5,-339.7 321.5,-339.7"/>
<text text-anchor="start" x="324.5" y="-347.4" font-family="Helvetica,sans-Serif" font-size="11.00" fill="#000000">varchar[255]</text>
<polygon fill="none" stroke="#000000" points="167.5,-317.7 167.5,-339.7 321.5,-339.7 321.5,-317.7 167.5,-317.7"/>
<text text-anchor="start" x="187.5" y="-324.8" font-family="Helvetica,sans-Serif" font-size="11.00" fill="#000000">all_rules_threshold</text>
<polygon fill="none" stroke="#000000" points="321.5,-317.7 321.5,-339.7 396.5,-339.7 396.5,-317.7 321.5,-317.7"/>
<text text-anchor="start" x="324.5" y="-325.4" font-family="Helvetica,sans-Serif" font-size="11.00" fill="#000000">bigint[19]</text>
<polygon fill="none" stroke="#000000" points="167.5,-295.7 167.5,-317.7 321.5,-317.7 321.5,-295.7 167.5,-295.7"/>
<text text-anchor="start" x="187.5" y="-302.8" font-family="Helvetica,sans-Serif" font-size="11.00" fill="#000000">start_date</text>
<polygon fill="none" stroke="#000000" points="321.5,-295.7 321.5,-317.7 396.5,-317.7 396.5,-295.7 321.5,-295.7"/>
<text text-anchor="start" x="324.5" y="-303.4" font-family="Helvetica,sans-Serif" font-size="11.00" fill="#000000">bigint[19]</text>
<polygon fill="none" stroke="#000000" points="167.5,-273.7 167.5,-295.7 321.5,-295.7 321.5,-273.7 167.5,-273.7"/>
<text text-anchor="start" x="187.5" y="-280.8" font-family="Helvetica,sans-Serif" font-size="11.00" fill="#000000">end_date</text>
<polygon fill="none" stroke="#000000" points="321.5,-273.7 321.5,-295.7 396.5,-295.7 396.5,-273.7 321.5,-273.7"/>
<text text-anchor="start" x="324.5" y="-281.4" font-family="Helvetica,sans-Serif" font-size="11.00" fill="#000000">bigint[19]</text>
<polygon fill="none" stroke="#000000" points="167.5,-251.7 167.5,-273.7 321.5,-273.7 321.5,-251.7 167.5,-251.7"/>
<text text-anchor="start" x="187.5" y="-258.8" font-family="Helvetica,sans-Serif" font-size="11.00" fill="#000000">include_all_start_dates</text>
<polygon fill="none" stroke="#000000" points="321.5,-251.7 321.5,-273.7 396.5,-273.7 396.5,-251.7 321.5,-251.7"/>
<text text-anchor="start" x="324.5" y="-259.4" font-family="Helvetica,sans-Serif" font-size="11.00" fill="#000000">bit[0]</text>
<polygon fill="none" stroke="#000000" points="167.5,-229.7 167.5,-251.7 321.5,-251.7 321.5,-229.7 167.5,-229.7"/>
<text text-anchor="start" x="187.5" y="-236.8" font-family="Helvetica,sans-Serif" font-size="11.00" fill="#000000">all_environments</text>
<polygon fill="none" stroke="#000000" points="321.5,-229.7 321.5,-251.7 396.5,-251.7 396.5,-229.7 321.5,-229.7"/>
<text text-anchor="start" x="324.5" y="-237.4" font-family="Helvetica,sans-Serif" font-size="11.00" fill="#000000">bit[0]</text>
<polygon fill="none" stroke="#000000" points="167.5,-207.7 167.5,-229.7 321.5,-229.7 321.5,-207.7 167.5,-207.7"/>
<text text-anchor="start" x="187.5" y="-214.8" font-family="Helvetica,sans-Serif" font-size="11.00" fill="#000000">custom_start_date</text>
<polygon fill="none" stroke="#000000" points="321.5,-207.7 321.5,-229.7 396.5,-229.7 396.5,-207.7 321.5,-207.7"/>
<text text-anchor="start" x="324.5" y="-215.4" font-family="Helvetica,sans-Serif" font-size="11.00" fill="#000000">bit[0]</text>
<polygon fill="none" stroke="#000000" points="167.5,-185.7 167.5,-207.7 321.5,-207.7 321.5,-185.7 167.5,-185.7"/>
<text text-anchor="start" x="187.5" y="-192.8" font-family="Helvetica,sans-Serif" font-size="11.00" fill="#000000">custom_end_date</text>
<polygon fill="none" stroke="#000000" points="321.5,-185.7 321.5,-207.7 396.5,-207.7 396.5,-185.7 321.5,-185.7"/>
<text text-anchor="start" x="324.5" y="-193.4" font-family="Helvetica,sans-Serif" font-size="11.00" fill="#000000">bit[0]</text>
<polygon fill="none" stroke="#000000" points="167.5,-163.7 167.5,-185.7 321.5,-185.7 321.5,-163.7 167.5,-163.7"/>
<text text-anchor="start" x="187.5" y="-170.8" font-family="Helvetica,sans-Serif" font-size="11.00" fill="#000000">is_job_start_time</text>
<polygon fill="none" stroke="#000000" points="321.5,-163.7 321.5,-185.7 396.5,-185.7 396.5,-163.7 321.5,-163.7"/>
<text text-anchor="start" x="324.5" y="-171.4" font-family="Helvetica,sans-Serif" font-size="11.00" fill="#000000">bit[0]</text>
<polygon fill="none" stroke="#000000" points="167.5,-141.7 167.5,-163.7 321.5,-163.7 321.5,-141.7 167.5,-141.7"/>
<text text-anchor="start" x="187.5" y="-148.8" font-family="Helvetica,sans-Serif" font-size="11.00" fill="#000000">opt_into_query</text>
<polygon fill="none" stroke="#000000" points="321.5,-141.7 321.5,-163.7 396.5,-163.7 396.5,-141.7 321.5,-141.7"/>
<text text-anchor="start" x="324.5" y="-149.4" font-family="Helvetica,sans-Serif" font-size="11.00" fill="#000000">bit[0]</text>
<polygon fill="#ffffff" stroke="transparent" points="167.5,-122.7 167.5,-141.7 235.5,-141.7 235.5,-122.7 167.5,-122.7"/>
<polygon fill="none" stroke="#000000" points="167.5,-122.7 167.5,-141.7 235.5,-141.7 235.5,-122.7 167.5,-122.7"/>
<text text-anchor="start" x="170.5" y="-128.8" font-family="Helvetica,sans-Serif" font-size="11.00" fill="#000000">&lt; 0</text>
<polygon fill="#ffffff" stroke="transparent" points="235.5,-122.7 235.5,-141.7 321.5,-141.7 321.5,-122.7 235.5,-122.7"/>
<polygon fill="none" stroke="#000000" points="235.5,-122.7 235.5,-141.7 321.5,-141.7 321.5,-122.7 235.5,-122.7"/>
<text text-anchor="start" x="286.1105" y="-128.8" font-family="Helvetica,sans-Serif" font-size="11.00" fill="#000000">0 rows</text>
<polygon fill="#ffffff" stroke="transparent" points="321.5,-122.7 321.5,-141.7 396.5,-141.7 396.5,-122.7 321.5,-122.7"/>
<polygon fill="none" stroke="#000000" points="321.5,-122.7 321.5,-141.7 396.5,-141.7 396.5,-122.7 321.5,-122.7"/>
<text text-anchor="start" x="377.9053" y="-128.8" font-family="Helvetica,sans-Serif" font-size="11.00" fill="#000000">8 &gt;</text>
<polygon fill="none" stroke="#000000" stroke-width="2" points="166,-121.7 166,-759.7 397,-759.7 397,-121.7 166,-121.7"/>
</a>
</g>
</g>
<!-- job_outcome_policy_application&#45;&gt;job_outcome_policy -->
<g id="edge3" class="edge">
<title>job_outcome_policy_application:w&#45;&gt;job_outcome_policy:e</title>
<path fill="none" stroke="#000000" d="M449.0885,-976.8266C411.8284,-938.4232 450.3627,-724.7 396.5,-724.7"/>
<polygon fill="#000000" stroke="#000000" points="455.1719,-979.4907 461.0558,-985.9976 458.836,-981.0954 462.5,-982.7 462.5,-982.7 462.5,-982.7 458.836,-981.0954 463.9442,-979.4024 455.1719,-979.4907 455.1719,-979.4907"/>
<ellipse fill="none" stroke="#000000" cx="452.2407" cy="-978.207" rx="3.2" ry="3.2"/>
</g>
<!-- job_outcome_policy_application_tags -->
<g id="node5" class="node">
<title>job_outcome_policy_application_tags</title>
<g id="a_node5"><a xlink:href="../../tables/job_outcome_policy_application_tags.html" xlink:title="job_outcome_policy_application_tags" target="_top">
<polygon fill="#ffffff" stroke="transparent" points="447,-265.7 447,-373.7 702,-373.7 702,-265.7 447,-265.7"/>
<polygon fill="#f5f5f5" stroke="transparent" points="447.5,-350.7 447.5,-373.7 702.5,-373.7 702.5,-350.7 447.5,-350.7"/>
<polygon fill="none" stroke="#000000" points="447.5,-350.7 447.5,-373.7 702.5,-373.7 702.5,-350.7 447.5,-350.7"/>
<text text-anchor="start" x="452.5" y="-359.8" font-family="Helvetica,sans-Serif" font-weight="bold" font-size="11.00" fill="#000000">job_outcome_policy_application_tags</text>
<text text-anchor="start" x="667.5437" y="-358.8" font-family="Helvetica,sans-Serif" font-size="11.00" fill="#000000">[table]</text>
<polygon fill="none" stroke="#000000" points="447.5,-328.7 447.5,-350.7 702.5,-350.7 702.5,-328.7 447.5,-328.7"/>
<image xlink:href="../../images/primaryKeys.png" width="11px" height="12px" preserveAspectRatio="xMinYMin meet" x="452.5" y="-345.7"/>
<text text-anchor="start" x="467.5" y="-335.8" font-family="Helvetica,sans-Serif" font-size="11.00" fill="#000000">job_outcome_policy_application_tags_id</text>
<polygon fill="#ffffff" stroke="transparent" points="447.5,-306.7 447.5,-328.7 702.5,-328.7 702.5,-306.7 447.5,-306.7"/>
<polygon fill="none" stroke="#000000" points="447.5,-306.7 447.5,-328.7 702.5,-328.7 702.5,-306.7 447.5,-306.7"/>
<image xlink:href="../../images/foreignKeys.png" width="11px" height="12px" preserveAspectRatio="xMinYMin meet" x="452.5" y="-323.7"/>
<text text-anchor="start" x="467.5" y="-313.8" font-family="Helvetica,sans-Serif" font-size="11.00" fill="#000000">job_outcome_policy_id</text>
<polygon fill="#ffffff" stroke="transparent" points="447.5,-284.7 447.5,-306.7 702.5,-306.7 702.5,-284.7 447.5,-284.7"/>
<polygon fill="none" stroke="#000000" points="447.5,-284.7 447.5,-306.7 702.5,-306.7 702.5,-284.7 447.5,-284.7"/>
<text text-anchor="start" x="467.5" y="-291.8" font-family="Helvetica,sans-Serif" font-size="11.00" fill="#000000">application_tags</text>
<polygon fill="#ffffff" stroke="transparent" points="447.5,-265.7 447.5,-284.7 560.5,-284.7 560.5,-265.7 447.5,-265.7"/>
<polygon fill="none" stroke="#000000" points="447.5,-265.7 447.5,-284.7 560.5,-284.7 560.5,-265.7 447.5,-265.7"/>
<text text-anchor="start" x="450.5" y="-271.8" font-family="Helvetica,sans-Serif" font-size="11.00" fill="#000000">&lt; 1</text>
<polygon fill="#ffffff" stroke="transparent" points="560.5,-265.7 560.5,-284.7 644.5,-284.7 644.5,-265.7 560.5,-265.7"/>
<polygon fill="none" stroke="#000000" points="560.5,-265.7 560.5,-284.7 644.5,-284.7 644.5,-265.7 560.5,-265.7"/>
<text text-anchor="start" x="609.1105" y="-271.8" font-family="Helvetica,sans-Serif" font-size="11.00" fill="#000000">0 rows</text>
<polygon fill="#ffffff" stroke="transparent" points="644.5,-265.7 644.5,-284.7 702.5,-284.7 702.5,-265.7 644.5,-265.7"/>
<polygon fill="none" stroke="#000000" points="644.5,-265.7 644.5,-284.7 702.5,-284.7 702.5,-265.7 644.5,-265.7"/>
<text text-anchor="start" x="693.3862" y="-271.8" font-family="Helvetica,sans-Serif" font-size="11.00" fill="#000000"> &#160;</text>
</a>
</g>
</g>
<!-- job_outcome_policy_application_tags&#45;&gt;job_outcome_policy -->
<g id="edge4" class="edge">
<title>job_outcome_policy_application_tags:w&#45;&gt;job_outcome_policy:e</title>
<path fill="none" stroke="#000000" d="M433.2909,-321.9954C371.4328,-365.4931 482.1328,-724.7 396.5,-724.7"/>
<polygon fill="#000000" stroke="#000000" points="439.8423,-320.015 448.5417,-321.146 443.6711,-318.8575 447.5,-317.7 447.5,-317.7 447.5,-317.7 443.6711,-318.8575 446.4583,-314.254 439.8423,-320.015 439.8423,-320.015"/>
<ellipse fill="none" stroke="#000000" cx="436.7792" cy="-320.941" rx="3.2" ry="3.2"/>
</g>
<!-- job_outcome_policy_environment -->
<g id="node6" class="node">
<title>job_outcome_policy_environment</title>
<g id="a_node6"><a xlink:href="../../tables/job_outcome_policy_environment.html" xlink:title="job_outcome_policy_environment" target="_top">
<polygon fill="#ffffff" stroke="transparent" points="458,-801.7 458,-909.7 691,-909.7 691,-801.7 458,-801.7"/>
<polygon fill="#f5f5f5" stroke="transparent" points="458.5,-886.7 458.5,-909.7 691.5,-909.7 691.5,-886.7 458.5,-886.7"/>
<polygon fill="none" stroke="#000000" points="458.5,-886.7 458.5,-909.7 691.5,-909.7 691.5,-886.7 458.5,-886.7"/>
<text text-anchor="start" x="463.5" y="-895.8" font-family="Helvetica,sans-Serif" font-weight="bold" font-size="11.00" fill="#000000">job_outcome_policy_environment</text>
<text text-anchor="start" x="656.5437" y="-894.8" font-family="Helvetica,sans-Serif" font-size="11.00" fill="#000000">[table]</text>
<polygon fill="none" stroke="#000000" points="458.5,-864.7 458.5,-886.7 691.5,-886.7 691.5,-864.7 458.5,-864.7"/>
<image xlink:href="../../images/primaryKeys.png" width="11px" height="12px" preserveAspectRatio="xMinYMin meet" x="463.5" y="-881.7"/>
<text text-anchor="start" x="478.5" y="-871.8" font-family="Helvetica,sans-Serif" font-size="11.00" fill="#000000">job_outcome_policy_environment_id</text>
<polygon fill="#ffffff" stroke="transparent" points="458.5,-842.7 458.5,-864.7 691.5,-864.7 691.5,-842.7 458.5,-842.7"/>
<polygon fill="none" stroke="#000000" points="458.5,-842.7 458.5,-864.7 691.5,-864.7 691.5,-842.7 458.5,-842.7"/>
<image xlink:href="../../images/foreignKeys.png" width="11px" height="12px" preserveAspectRatio="xMinYMin meet" x="463.5" y="-859.7"/>
<text text-anchor="start" x="478.5" y="-849.8" font-family="Helvetica,sans-Serif" font-size="11.00" fill="#000000">job_outcome_policy_id</text>
<polygon fill="#ffffff" stroke="transparent" points="458.5,-820.7 458.5,-842.7 691.5,-842.7 691.5,-820.7 458.5,-820.7"/>
<polygon fill="none" stroke="#000000" points="458.5,-820.7 458.5,-842.7 691.5,-842.7 691.5,-820.7 458.5,-820.7"/>
<text text-anchor="start" x="478.5" y="-827.8" font-family="Helvetica,sans-Serif" font-size="11.00" fill="#000000">environment</text>
<polygon fill="#ffffff" stroke="transparent" points="458.5,-801.7 458.5,-820.7 560.5,-820.7 560.5,-801.7 458.5,-801.7"/>
<polygon fill="none" stroke="#000000" points="458.5,-801.7 458.5,-820.7 560.5,-820.7 560.5,-801.7 458.5,-801.7"/>
<text text-anchor="start" x="461.5" y="-807.8" font-family="Helvetica,sans-Serif" font-size="11.00" fill="#000000">&lt; 1</text>
<polygon fill="#ffffff" stroke="transparent" points="560.5,-801.7 560.5,-820.7 638.5,-820.7 638.5,-801.7 560.5,-801.7"/>
<polygon fill="none" stroke="#000000" points="560.5,-801.7 560.5,-820.7 638.5,-820.7 638.5,-801.7 560.5,-801.7"/>
<text text-anchor="start" x="603.1105" y="-807.8" font-family="Helvetica,sans-Serif" font-size="11.00" fill="#000000">0 rows</text>
<polygon fill="#ffffff" stroke="transparent" points="638.5,-801.7 638.5,-820.7 691.5,-820.7 691.5,-801.7 638.5,-801.7"/>
<polygon fill="none" stroke="#000000" points="638.5,-801.7 638.5,-820.7 691.5,-820.7 691.5,-801.7 638.5,-801.7"/>
<text text-anchor="start" x="682.3862" y="-807.8" font-family="Helvetica,sans-Serif" font-size="11.00" fill="#000000"> &#160;</text>
</a>
</g>
</g>
<!-- job_outcome_policy_environment&#45;&gt;job_outcome_policy -->
<g id="edge5" class="edge">
<title>job_outcome_policy_environment:w&#45;&gt;job_outcome_policy:e</title>
<path fill="none" stroke="#000000" d="M444.2877,-850.7633C405.5683,-831.5616 454.3964,-724.7 396.5,-724.7"/>
<polygon fill="#000000" stroke="#000000" points="450.6655,-852.0811 457.7715,-857.2255 454.5828,-852.8905 458.5,-853.7 458.5,-853.7 458.5,-853.7 454.5828,-852.8905 459.2285,-850.1745 450.6655,-852.0811 450.6655,-852.0811"/>
<ellipse fill="none" stroke="#000000" cx="447.5317" cy="-851.4335" rx="3.2" ry="3.2"/>
</g>
<!-- job_outcome_policy_importance -->
<g id="node7" class="node">
<title>job_outcome_policy_importance</title>
<g id="a_node7"><a xlink:href="../../tables/job_outcome_policy_importance.html" xlink:title="job_outcome_policy_importance" target="_top">
<polygon fill="#ffffff" stroke="transparent" points="462,-672.7 462,-780.7 687,-780.7 687,-672.7 462,-672.7"/>
<polygon fill="#f5f5f5" stroke="transparent" points="462.5,-757.7 462.5,-780.7 687.5,-780.7 687.5,-757.7 462.5,-757.7"/>
<polygon fill="none" stroke="#000000" points="462.5,-757.7 462.5,-780.7 687.5,-780.7 687.5,-757.7 462.5,-757.7"/>
<text text-anchor="start" x="467.5" y="-766.8" font-family="Helvetica,sans-Serif" font-weight="bold" font-size="11.00" fill="#000000">job_outcome_policy_importance</text>
<text text-anchor="start" x="652.5437" y="-765.8" font-family="Helvetica,sans-Serif" font-size="11.00" fill="#000000">[table]</text>
<polygon fill="none" stroke="#000000" points="462.5,-735.7 462.5,-757.7 687.5,-757.7 687.5,-735.7 462.5,-735.7"/>
<image xlink:href="../../images/primaryKeys.png" width="11px" height="12px" preserveAspectRatio="xMinYMin meet" x="467.5" y="-752.7"/>
<text text-anchor="start" x="482.5" y="-742.8" font-family="Helvetica,sans-Serif" font-size="11.00" fill="#000000">job_outcome_policy_importance_id</text>
<polygon fill="#ffffff" stroke="transparent" points="462.5,-713.7 462.5,-735.7 687.5,-735.7 687.5,-713.7 462.5,-713.7"/>
<polygon fill="none" stroke="#000000" points="462.5,-713.7 462.5,-735.7 687.5,-735.7 687.5,-713.7 462.5,-713.7"/>
<image xlink:href="../../images/foreignKeys.png" width="11px" height="12px" preserveAspectRatio="xMinYMin meet" x="467.5" y="-730.7"/>
<text text-anchor="start" x="482.5" y="-720.8" font-family="Helvetica,sans-Serif" font-size="11.00" fill="#000000">job_outcome_policy_id</text>
<polygon fill="#ffffff" stroke="transparent" points="462.5,-691.7 462.5,-713.7 687.5,-713.7 687.5,-691.7 462.5,-691.7"/>
<polygon fill="none" stroke="#000000" points="462.5,-691.7 462.5,-713.7 687.5,-713.7 687.5,-691.7 462.5,-691.7"/>
<text text-anchor="start" x="482.5" y="-698.8" font-family="Helvetica,sans-Serif" font-size="11.00" fill="#000000">importance</text>
<polygon fill="#ffffff" stroke="transparent" points="462.5,-672.7 462.5,-691.7 560.5,-691.7 560.5,-672.7 462.5,-672.7"/>
<polygon fill="none" stroke="#000000" points="462.5,-672.7 462.5,-691.7 560.5,-691.7 560.5,-672.7 462.5,-672.7"/>
<text text-anchor="start" x="465.5" y="-678.8" font-family="Helvetica,sans-Serif" font-size="11.00" fill="#000000">&lt; 1</text>
<polygon fill="#ffffff" stroke="transparent" points="560.5,-672.7 560.5,-691.7 636.5,-691.7 636.5,-672.7 560.5,-672.7"/>
<polygon fill="none" stroke="#000000" points="560.5,-672.7 560.5,-691.7 636.5,-691.7 636.5,-672.7 560.5,-672.7"/>
<text text-anchor="start" x="601.1105" y="-678.8" font-family="Helvetica,sans-Serif" font-size="11.00" fill="#000000">0 rows</text>
<polygon fill="#ffffff" stroke="transparent" points="636.5,-672.7 636.5,-691.7 687.5,-691.7 687.5,-672.7 636.5,-672.7"/>
<polygon fill="none" stroke="#000000" points="636.5,-672.7 636.5,-691.7 687.5,-691.7 687.5,-672.7 636.5,-672.7"/>
<text text-anchor="start" x="678.3862" y="-678.8" font-family="Helvetica,sans-Serif" font-size="11.00" fill="#000000"> &#160;</text>
</a>
</g>
</g>
<!-- job_outcome_policy_importance&#45;&gt;job_outcome_policy -->
<g id="edge6" class="edge">
<title>job_outcome_policy_importance:w&#45;&gt;job_outcome_policy:e</title>
<path fill="none" stroke="#000000" d="M448.0303,-724.7C429.6432,-724.7 420.3333,-724.7 396.5,-724.7"/>
<polygon fill="#000000" stroke="#000000" points="454.5,-724.7001 462.5,-728.3 458.5,-724.7 462.5,-724.7 462.5,-724.7 462.5,-724.7 458.5,-724.7 462.5,-721.1 454.5,-724.7001 454.5,-724.7001"/>
<ellipse fill="none" stroke="#000000" cx="451.3" cy="-724.7001" rx="3.2" ry="3.2"/>
</g>
<!-- job_outcome_policy_rule -->
<g id="node8" class="node">
<title>job_outcome_policy_rule</title>
<g id="a_node8"><a xlink:href="../../tables/job_outcome_policy_rule.html" xlink:title="job_outcome_policy_rule" target="_top">
<polygon fill="#ffffff" stroke="transparent" points="483,-67.2 483,-194.2 666,-194.2 666,-67.2 483,-67.2"/>
<polygon fill="#f5f5f5" stroke="transparent" points="483.5,-170.7 483.5,-193.7 666.5,-193.7 666.5,-170.7 483.5,-170.7"/>
<polygon fill="none" stroke="#000000" points="483.5,-170.7 483.5,-193.7 666.5,-193.7 666.5,-170.7 483.5,-170.7"/>
<text text-anchor="start" x="488.5" y="-179.8" font-family="Helvetica,sans-Serif" font-weight="bold" font-size="11.00" fill="#000000">job_outcome_policy_rule</text>
<text text-anchor="start" x="631.5437" y="-178.8" font-family="Helvetica,sans-Serif" font-size="11.00" fill="#000000">[table]</text>
<polygon fill="none" stroke="#000000" points="483.5,-148.7 483.5,-170.7 666.5,-170.7 666.5,-148.7 483.5,-148.7"/>
<image xlink:href="../../images/primaryKeys.png" width="11px" height="12px" preserveAspectRatio="xMinYMin meet" x="488.5" y="-165.7"/>
<text text-anchor="start" x="503.5" y="-155.8" font-family="Helvetica,sans-Serif" font-size="11.00" fill="#000000">job_outcome_policy_rule_id</text>
<polygon fill="#ffffff" stroke="transparent" points="483.5,-126.7 483.5,-148.7 666.5,-148.7 666.5,-126.7 483.5,-126.7"/>
<polygon fill="none" stroke="#000000" points="483.5,-126.7 483.5,-148.7 666.5,-148.7 666.5,-126.7 483.5,-126.7"/>
<image xlink:href="../../images/foreignKeys.png" width="11px" height="12px" preserveAspectRatio="xMinYMin meet" x="488.5" y="-143.7"/>
<text text-anchor="start" x="503.5" y="-133.8" font-family="Helvetica,sans-Serif" font-size="11.00" fill="#000000">job_outcome_policy_id</text>
<polygon fill="#ffffff" stroke="transparent" points="483.5,-104.7 483.5,-126.7 666.5,-126.7 666.5,-104.7 483.5,-104.7"/>
<polygon fill="none" stroke="#000000" points="483.5,-104.7 483.5,-126.7 666.5,-126.7 666.5,-104.7 483.5,-104.7"/>
<image xlink:href="../../images/foreignKeys.png" width="11px" height="12px" preserveAspectRatio="xMinYMin meet" x="488.5" y="-121.7"/>
<text text-anchor="start" x="503.5" y="-111.8" font-family="Helvetica,sans-Serif" font-size="11.00" fill="#000000">rule_name</text>
<polygon fill="none" stroke="#000000" points="483.5,-85.7 483.5,-104.7 666.5,-104.7 666.5,-85.7 483.5,-85.7"/>
<text text-anchor="start" x="486.5" y="-91.8" font-family="Helvetica,sans-Serif" font-size="11.00" fill="#000000">...</text>
<polygon fill="#ffffff" stroke="transparent" points="483.5,-66.7 483.5,-85.7 560.5,-85.7 560.5,-66.7 483.5,-66.7"/>
<polygon fill="none" stroke="#000000" points="483.5,-66.7 483.5,-85.7 560.5,-85.7 560.5,-66.7 483.5,-66.7"/>
<text text-anchor="start" x="486.5" y="-72.8" font-family="Helvetica,sans-Serif" font-size="11.00" fill="#000000">&lt; 2</text>
<polygon fill="#ffffff" stroke="transparent" points="560.5,-66.7 560.5,-85.7 626.5,-85.7 626.5,-66.7 560.5,-66.7"/>
<polygon fill="none" stroke="#000000" points="560.5,-66.7 560.5,-85.7 626.5,-85.7 626.5,-66.7 560.5,-66.7"/>
<text text-anchor="start" x="591.1105" y="-72.8" font-family="Helvetica,sans-Serif" font-size="11.00" fill="#000000">0 rows</text>
<polygon fill="#ffffff" stroke="transparent" points="626.5,-66.7 626.5,-85.7 666.5,-85.7 666.5,-66.7 626.5,-66.7"/>
<polygon fill="none" stroke="#000000" points="626.5,-66.7 626.5,-85.7 666.5,-85.7 666.5,-66.7 626.5,-66.7"/>
<text text-anchor="start" x="657.3862" y="-72.8" font-family="Helvetica,sans-Serif" font-size="11.00" fill="#000000"> &#160;</text>
</a>
</g>
</g>
<!-- job_outcome_policy_rule&#45;&gt;job_outcome_policy -->
<g id="edge7" class="edge">
<title>job_outcome_policy_rule:w&#45;&gt;job_outcome_policy:e</title>
<path fill="none" stroke="#000000" d="M468.7797,-139.5854C431.9642,-150.4817 450.2595,-206.6177 439,-255.7 427.3006,-306.6999 448.8246,-724.7 396.5,-724.7"/>
<polygon fill="#000000" stroke="#000000" points="475.5648,-138.7164 483.9574,-141.2708 479.5324,-138.2082 483.5,-137.7 483.5,-137.7 483.5,-137.7 479.5324,-138.2082 483.0426,-134.1292 475.5648,-138.7164 475.5648,-138.7164"/>
<ellipse fill="none" stroke="#000000" cx="472.3908" cy="-139.123" rx="3.2" ry="3.2"/>
</g>
<!-- rules -->
<g id="node9" class="node">
<title>rules</title>
<g id="a_node9"><a xlink:href="../../tables/rules.html" xlink:title="rules" target="_top">
<polygon fill="#ffffff" stroke="transparent" points="240,-38.2 240,-99.2 323,-99.2 323,-38.2 240,-38.2"/>
<polygon fill="#f5f5f5" stroke="transparent" points="240.5,-75.7 240.5,-98.7 323.5,-98.7 323.5,-75.7 240.5,-75.7"/>
<polygon fill="none" stroke="#000000" points="240.5,-75.7 240.5,-98.7 323.5,-98.7 323.5,-75.7 240.5,-75.7"/>
<text text-anchor="start" x="245.5" y="-84.8" font-family="Helvetica,sans-Serif" font-weight="bold" font-size="11.00" fill="#000000">rules</text>
<text text-anchor="start" x="288.5437" y="-83.8" font-family="Helvetica,sans-Serif" font-size="11.00" fill="#000000">[table]</text>
<polygon fill="none" stroke="#000000" points="240.5,-56.7 240.5,-75.7 323.5,-75.7 323.5,-56.7 240.5,-56.7"/>
<text text-anchor="start" x="243.5" y="-62.8" font-family="Helvetica,sans-Serif" font-size="11.00" fill="#000000">...</text>
<polygon fill="#ffffff" stroke="transparent" points="240.5,-37.7 240.5,-56.7 252.5,-56.7 252.5,-37.7 240.5,-37.7"/>
<polygon fill="none" stroke="#000000" points="240.5,-37.7 240.5,-56.7 252.5,-56.7 252.5,-37.7 240.5,-37.7"/>
<text text-anchor="start" x="243.4431" y="-43.8" font-family="Helvetica,sans-Serif" font-size="11.00" fill="#000000"> &#160;</text>
<polygon fill="#ffffff" stroke="transparent" points="252.5,-37.7 252.5,-56.7 296.5,-56.7 296.5,-37.7 252.5,-37.7"/>
<polygon fill="none" stroke="#000000" points="252.5,-37.7 252.5,-56.7 296.5,-56.7 296.5,-37.7 252.5,-37.7"/>
<text text-anchor="start" x="255.2478" y="-43.8" font-family="Helvetica,sans-Serif" font-size="11.00" fill="#000000">82 rows</text>
<polygon fill="#ffffff" stroke="transparent" points="296.5,-37.7 296.5,-56.7 323.5,-56.7 323.5,-37.7 296.5,-37.7"/>
<polygon fill="none" stroke="#000000" points="296.5,-37.7 296.5,-56.7 323.5,-56.7 323.5,-37.7 296.5,-37.7"/>
<text text-anchor="start" x="299.1452" y="-43.8" font-family="Helvetica,sans-Serif" font-size="11.00" fill="#000000">16 &gt;</text>
</a>
</g>
</g>
<!-- job_outcome_policy_rule&#45;&gt;rules -->
<g id="edge8" class="edge">
<title>job_outcome_policy_rule:w&#45;&gt;rules:e</title>
<path fill="none" stroke="#000000" d="M469.0709,-115.031C407.1975,-109.0977 392.9095,-65.7 323.5,-65.7"/>
<polygon fill="#000000" stroke="#000000" points="475.5086,-115.3294 483.3332,-119.2961 479.5043,-115.5147 483.5,-115.7 483.5,-115.7 483.5,-115.7 479.5043,-115.5147 483.6668,-112.1039 475.5086,-115.3294 475.5086,-115.3294"/>
<ellipse fill="none" stroke="#000000" cx="472.312" cy="-115.1812" rx="3.2" ry="3.2"/>
</g>
<!-- job_outcome_policy_rule_severity -->
<g id="node10" class="node">
<title>job_outcome_policy_rule_severity</title>
<g id="a_node10"><a xlink:href="../../tables/job_outcome_policy_rule_severity.html" xlink:title="job_outcome_policy_rule_severity" target="_top">
<polygon fill="#ffffff" stroke="transparent" points="457,-543.7 457,-651.7 692,-651.7 692,-543.7 457,-543.7"/>
<polygon fill="#f5f5f5" stroke="transparent" points="457.5,-628.7 457.5,-651.7 692.5,-651.7 692.5,-628.7 457.5,-628.7"/>
<polygon fill="none" stroke="#000000" points="457.5,-628.7 457.5,-651.7 692.5,-651.7 692.5,-628.7 457.5,-628.7"/>
<text text-anchor="start" x="462.5" y="-637.8" font-family="Helvetica,sans-Serif" font-weight="bold" font-size="11.00" fill="#000000">job_outcome_policy_rule_severity</text>
<text text-anchor="start" x="657.5437" y="-636.8" font-family="Helvetica,sans-Serif" font-size="11.00" fill="#000000">[table]</text>
<polygon fill="none" stroke="#000000" points="457.5,-606.7 457.5,-628.7 692.5,-628.7 692.5,-606.7 457.5,-606.7"/>
<image xlink:href="../../images/primaryKeys.png" width="11px" height="12px" preserveAspectRatio="xMinYMin meet" x="462.5" y="-623.7"/>
<text text-anchor="start" x="477.5" y="-613.8" font-family="Helvetica,sans-Serif" font-size="11.00" fill="#000000">job_outcome_policy_rule_severity_id</text>
<polygon fill="#ffffff" stroke="transparent" points="457.5,-584.7 457.5,-606.7 692.5,-606.7 692.5,-584.7 457.5,-584.7"/>
<polygon fill="none" stroke="#000000" points="457.5,-584.7 457.5,-606.7 692.5,-606.7 692.5,-584.7 457.5,-584.7"/>
<image xlink:href="../../images/foreignKeys.png" width="11px" height="12px" preserveAspectRatio="xMinYMin meet" x="462.5" y="-601.7"/>
<text text-anchor="start" x="477.5" y="-591.8" font-family="Helvetica,sans-Serif" font-size="11.00" fill="#000000">job_outcome_policy_id</text>
<polygon fill="#ffffff" stroke="transparent" points="457.5,-562.7 457.5,-584.7 692.5,-584.7 692.5,-562.7 457.5,-562.7"/>
<polygon fill="none" stroke="#000000" points="457.5,-562.7 457.5,-584.7 692.5,-584.7 692.5,-562.7 457.5,-562.7"/>
<text text-anchor="start" x="477.5" y="-569.8" font-family="Helvetica,sans-Serif" font-size="11.00" fill="#000000">severity</text>
<polygon fill="#ffffff" stroke="transparent" points="457.5,-543.7 457.5,-562.7 560.5,-562.7 560.5,-543.7 457.5,-543.7"/>
<polygon fill="none" stroke="#000000" points="457.5,-543.7 457.5,-562.7 560.5,-562.7 560.5,-543.7 457.5,-543.7"/>
<text text-anchor="start" x="460.5" y="-549.8" font-family="Helvetica,sans-Serif" font-size="11.00" fill="#000000">&lt; 1</text>
<polygon fill="#ffffff" stroke="transparent" points="560.5,-543.7 560.5,-562.7 639.5,-562.7 639.5,-543.7 560.5,-543.7"/>
<polygon fill="none" stroke="#000000" points="560.5,-543.7 560.5,-562.7 639.5,-562.7 639.5,-543.7 560.5,-543.7"/>
<text text-anchor="start" x="604.1105" y="-549.8" font-family="Helvetica,sans-Serif" font-size="11.00" fill="#000000">0 rows</text>
<polygon fill="#ffffff" stroke="transparent" points="639.5,-543.7 639.5,-562.7 692.5,-562.7 692.5,-543.7 639.5,-543.7"/>
<polygon fill="none" stroke="#000000" points="639.5,-543.7 639.5,-562.7 692.5,-562.7 692.5,-543.7 639.5,-543.7"/>
<text text-anchor="start" x="683.3862" y="-549.8" font-family="Helvetica,sans-Serif" font-size="11.00" fill="#000000"> &#160;</text>
</a>
</g>
</g>
<!-- job_outcome_policy_rule_severity&#45;&gt;job_outcome_policy -->
<g id="edge9" class="edge">
<title>job_outcome_policy_rule_severity:w&#45;&gt;job_outcome_policy:e</title>
<path fill="none" stroke="#000000" d="M443.3489,-598.6367C404.8671,-617.8384 454.2223,-724.7 396.5,-724.7"/>
<polygon fill="#000000" stroke="#000000" points="449.6669,-597.3256 458.2315,-599.2249 453.5834,-596.5128 457.5,-595.7 457.5,-595.7 457.5,-595.7 453.5834,-596.5128 456.7685,-592.1751 449.6669,-597.3256 449.6669,-597.3256"/>
<ellipse fill="none" stroke="#000000" cx="446.5337" cy="-597.9759" rx="3.2" ry="3.2"/>
</g>
<!-- job_outcome_policy_severity -->
<g id="node11" class="node">
<title>job_outcome_policy_severity</title>
<g id="a_node11"><a xlink:href="../../tables/job_outcome_policy_severity.html" xlink:title="job_outcome_policy_severity" target="_top">
<polygon fill="#ffffff" stroke="transparent" points="471.5,-395.2 471.5,-522.2 677.5,-522.2 677.5,-395.2 471.5,-395.2"/>
<polygon fill="#f5f5f5" stroke="transparent" points="471.5,-498.7 471.5,-521.7 677.5,-521.7 677.5,-498.7 471.5,-498.7"/>
<polygon fill="none" stroke="#000000" points="471.5,-498.7 471.5,-521.7 677.5,-521.7 677.5,-498.7 471.5,-498.7"/>
<text text-anchor="start" x="476.5" y="-507.8" font-family="Helvetica,sans-Serif" font-weight="bold" font-size="11.00" fill="#000000">job_outcome_policy_severity</text>
<text text-anchor="start" x="642.5437" y="-506.8" font-family="Helvetica,sans-Serif" font-size="11.00" fill="#000000">[table]</text>
<polygon fill="none" stroke="#000000" points="471.5,-476.7 471.5,-498.7 677.5,-498.7 677.5,-476.7 471.5,-476.7"/>
<image xlink:href="../../images/primaryKeys.png" width="11px" height="12px" preserveAspectRatio="xMinYMin meet" x="476.5" y="-493.7"/>
<text text-anchor="start" x="491.5" y="-483.8" font-family="Helvetica,sans-Serif" font-size="11.00" fill="#000000">job_outcome_policy_severity_id</text>
<polygon fill="#ffffff" stroke="transparent" points="471.5,-454.7 471.5,-476.7 677.5,-476.7 677.5,-454.7 471.5,-454.7"/>
<polygon fill="none" stroke="#000000" points="471.5,-454.7 471.5,-476.7 677.5,-476.7 677.5,-454.7 471.5,-454.7"/>
<image xlink:href="../../images/foreignKeys.png" width="11px" height="12px" preserveAspectRatio="xMinYMin meet" x="476.5" y="-471.7"/>
<text text-anchor="start" x="491.5" y="-461.8" font-family="Helvetica,sans-Serif" font-size="11.00" fill="#000000">job_outcome_policy_id</text>
<polygon fill="#ffffff" stroke="transparent" points="471.5,-432.7 471.5,-454.7 677.5,-454.7 677.5,-432.7 471.5,-432.7"/>
<polygon fill="none" stroke="#000000" points="471.5,-432.7 471.5,-454.7 677.5,-454.7 677.5,-432.7 471.5,-432.7"/>
<text text-anchor="start" x="491.5" y="-439.8" font-family="Helvetica,sans-Serif" font-size="11.00" fill="#000000">severity</text>
<polygon fill="none" stroke="#000000" points="471.5,-413.7 471.5,-432.7 677.5,-432.7 677.5,-413.7 471.5,-413.7"/>
<text text-anchor="start" x="474.5" y="-419.8" font-family="Helvetica,sans-Serif" font-size="11.00" fill="#000000">...</text>
<polygon fill="#ffffff" stroke="transparent" points="471.5,-394.7 471.5,-413.7 559.5,-413.7 559.5,-394.7 471.5,-394.7"/>
<polygon fill="none" stroke="#000000" points="471.5,-394.7 471.5,-413.7 559.5,-413.7 559.5,-394.7 471.5,-394.7"/>
<text text-anchor="start" x="474.5" y="-400.8" font-family="Helvetica,sans-Serif" font-size="11.00" fill="#000000">&lt; 1</text>
<polygon fill="#ffffff" stroke="transparent" points="559.5,-394.7 559.5,-413.7 631.5,-413.7 631.5,-394.7 559.5,-394.7"/>
<polygon fill="none" stroke="#000000" points="559.5,-394.7 559.5,-413.7 631.5,-413.7 631.5,-394.7 559.5,-394.7"/>
<text text-anchor="start" x="596.1105" y="-400.8" font-family="Helvetica,sans-Serif" font-size="11.00" fill="#000000">0 rows</text>
<polygon fill="#ffffff" stroke="transparent" points="631.5,-394.7 631.5,-413.7 677.5,-413.7 677.5,-394.7 631.5,-394.7"/>
<polygon fill="none" stroke="#000000" points="631.5,-394.7 631.5,-413.7 677.5,-413.7 677.5,-394.7 631.5,-394.7"/>
<text text-anchor="start" x="668.3862" y="-400.8" font-family="Helvetica,sans-Serif" font-size="11.00" fill="#000000"> &#160;</text>
</a>
</g>
</g>
<!-- job_outcome_policy_severity&#45;&gt;job_outcome_policy -->
<g id="edge10" class="edge">
<title>job_outcome_policy_severity:w&#45;&gt;job_outcome_policy:e</title>
<path fill="none" stroke="#000000" d="M457.9862,-471.3505C418.6527,-509.2266 451.1537,-724.7 396.5,-724.7"/>
<polygon fill="#000000" stroke="#000000" points="464.1192,-468.7861 472.8888,-469.0214 467.8096,-467.2431 471.5,-465.7 471.5,-465.7 471.5,-465.7 467.8096,-467.2431 470.1112,-462.3786 464.1192,-468.7861 464.1192,-468.7861"/>
<ellipse fill="none" stroke="#000000" cx="461.1669" cy="-470.0206" rx="3.2" ry="3.2"/>
</g>
<!-- security_check -->
<g id="node12" class="node">
<title>security_check</title>
<g id="a_node12"><a xlink:href="../../tables/security_check.html" xlink:title="security_check" target="_top">
<polygon fill="#ffffff" stroke="transparent" points="497.5,-1060.2 497.5,-1231.2 651.5,-1231.2 651.5,-1060.2 497.5,-1060.2"/>
<polygon fill="#f5f5f5" stroke="transparent" points="497.5,-1207.7 497.5,-1230.7 651.5,-1230.7 651.5,-1207.7 497.5,-1207.7"/>
<polygon fill="none" stroke="#000000" points="497.5,-1207.7 497.5,-1230.7 651.5,-1230.7 651.5,-1207.7 497.5,-1207.7"/>
<text text-anchor="start" x="502.5" y="-1216.8" font-family="Helvetica,sans-Serif" font-weight="bold" font-size="11.00" fill="#000000">security_check</text>
<text text-anchor="start" x="616.5437" y="-1215.8" font-family="Helvetica,sans-Serif" font-size="11.00" fill="#000000">[table]</text>
<polygon fill="none" stroke="#000000" points="497.5,-1185.7 497.5,-1207.7 651.5,-1207.7 651.5,-1185.7 497.5,-1185.7"/>
<image xlink:href="../../images/primaryKeys.png" width="11px" height="12px" preserveAspectRatio="xMinYMin meet" x="502.5" y="-1202.7"/>
<text text-anchor="start" x="517.5" y="-1192.8" font-family="Helvetica,sans-Serif" font-size="11.00" fill="#000000">security_check_id</text>
<polygon fill="#ffffff" stroke="transparent" points="497.5,-1163.7 497.5,-1185.7 651.5,-1185.7 651.5,-1163.7 497.5,-1163.7"/>
<polygon fill="none" stroke="#000000" points="497.5,-1163.7 497.5,-1185.7 651.5,-1185.7 651.5,-1163.7 497.5,-1163.7"/>
<image xlink:href="../../images/foreignKeys.png" width="11px" height="12px" preserveAspectRatio="xMinYMin meet" x="502.5" y="-1180.7"/>
<text text-anchor="start" x="517.5" y="-1170.8" font-family="Helvetica,sans-Serif" font-size="11.00" fill="#000000">organizations_id</text>
<polygon fill="#ffffff" stroke="transparent" points="497.5,-1141.7 497.5,-1163.7 651.5,-1163.7 651.5,-1141.7 497.5,-1141.7"/>
<polygon fill="none" stroke="#000000" points="497.5,-1141.7 497.5,-1163.7 651.5,-1163.7 651.5,-1141.7 497.5,-1141.7"/>
<image xlink:href="../../images/foreignKeys.png" width="11px" height="12px" preserveAspectRatio="xMinYMin meet" x="502.5" y="-1158.7"/>
<text text-anchor="start" x="517.5" y="-1148.8" font-family="Helvetica,sans-Serif" font-size="11.00" fill="#000000">applications_id</text>
<polygon fill="#ffffff" stroke="transparent" points="497.5,-1119.7 497.5,-1141.7 651.5,-1141.7 651.5,-1119.7 497.5,-1119.7"/>
<polygon fill="none" stroke="#000000" points="497.5,-1119.7 497.5,-1141.7 651.5,-1141.7 651.5,-1119.7 497.5,-1119.7"/>
<image xlink:href="../../images/foreignKeys.png" width="11px" height="12px" preserveAspectRatio="xMinYMin meet" x="502.5" y="-1136.7"/>
<text text-anchor="start" x="517.5" y="-1126.8" font-family="Helvetica,sans-Serif" font-size="11.00" fill="#000000">job_outcome_policy_id</text>
<polygon fill="#ffffff" stroke="transparent" points="497.5,-1097.7 497.5,-1119.7 651.5,-1119.7 651.5,-1097.7 497.5,-1097.7"/>
<polygon fill="none" stroke="#000000" points="497.5,-1097.7 497.5,-1119.7 651.5,-1119.7 651.5,-1097.7 497.5,-1097.7"/>
<text text-anchor="start" x="517.5" y="-1104.8" font-family="Helvetica,sans-Serif" font-size="11.00" fill="#000000">origin</text>
<polygon fill="none" stroke="#000000" points="497.5,-1078.7 497.5,-1097.7 651.5,-1097.7 651.5,-1078.7 497.5,-1078.7"/>
<text text-anchor="start" x="500.5" y="-1084.8" font-family="Helvetica,sans-Serif" font-size="11.00" fill="#000000">...</text>
<polygon fill="#ffffff" stroke="transparent" points="497.5,-1059.7 497.5,-1078.7 559.5,-1078.7 559.5,-1059.7 497.5,-1059.7"/>
<polygon fill="none" stroke="#000000" points="497.5,-1059.7 497.5,-1078.7 559.5,-1078.7 559.5,-1059.7 497.5,-1059.7"/>
<text text-anchor="start" x="500.5" y="-1065.8" font-family="Helvetica,sans-Serif" font-size="11.00" fill="#000000">&lt; 3</text>
<polygon fill="#ffffff" stroke="transparent" points="559.5,-1059.7 559.5,-1078.7 618.5,-1078.7 618.5,-1059.7 559.5,-1059.7"/>
<polygon fill="none" stroke="#000000" points="559.5,-1059.7 559.5,-1078.7 618.5,-1078.7 618.5,-1059.7 559.5,-1059.7"/>
<text text-anchor="start" x="583.1105" y="-1065.8" font-family="Helvetica,sans-Serif" font-size="11.00" fill="#000000">0 rows</text>
<polygon fill="#ffffff" stroke="transparent" points="618.5,-1059.7 618.5,-1078.7 651.5,-1078.7 651.5,-1059.7 618.5,-1059.7"/>
<polygon fill="none" stroke="#000000" points="618.5,-1059.7 618.5,-1078.7 651.5,-1078.7 651.5,-1059.7 618.5,-1059.7"/>
<text text-anchor="start" x="642.3862" y="-1065.8" font-family="Helvetica,sans-Serif" font-size="11.00" fill="#000000"> &#160;</text>
</a>
</g>
</g>
<!-- security_check&#45;&gt;applications -->
<g id="edge11" class="edge">
<title>security_check:w&#45;&gt;applications:e</title>
<path fill="none" stroke="#000000" d="M482.9123,-1152.2183C420.1255,-1147.9464 402.4275,-1116.7 332.5,-1116.7"/>
<polygon fill="#000000" stroke="#000000" points="489.5044,-1152.4359 497.3812,-1156.298 493.5022,-1152.568 497.5,-1152.7 497.5,-1152.7 497.5,-1152.7 493.5022,-1152.568 497.6188,-1149.102 489.5044,-1152.4359 489.5044,-1152.4359"/>
<ellipse fill="none" stroke="#000000" cx="486.3061" cy="-1152.3303" rx="3.2" ry="3.2"/>
</g>
<!-- security_check&#45;&gt;organizations -->
<g id="edge13" class="edge">
<title>security_check:w&#45;&gt;organizations:e</title>
<path fill="none" stroke="#000000" d="M482.7721,-1174.749C343.2319,-1175.6786 300.6311,-1189.2044 157,-1160.7 137.9677,-1156.9229 135.4034,-1145.7 116,-1145.7"/>
<polygon fill="#000000" stroke="#000000" points="489.5,-1174.7267 497.512,-1178.3 493.5,-1174.7133 497.5,-1174.7 497.5,-1174.7 497.5,-1174.7 493.5,-1174.7133 497.488,-1171.1 489.5,-1174.7267 489.5,-1174.7267"/>
<ellipse fill="none" stroke="#000000" cx="486.3001" cy="-1174.7373" rx="3.2" ry="3.2"/>
</g>
<!-- security_check&#45;&gt;job_outcome_policy -->
<g id="edge12" class="edge">
<title>security_check:w&#45;&gt;job_outcome_policy:e</title>
<path fill="none" stroke="#000000" d="M482.9084,-1128.9125C453.3727,-1120.7448 453.3317,-1085.8167 439,-1049.7 412.1349,-981.9983 469.3371,-724.7 396.5,-724.7"/>
<polygon fill="#000000" stroke="#000000" points="489.5594,-1129.7272 497.0622,-1134.2733 493.5297,-1130.2136 497.5,-1130.7 497.5,-1130.7 497.5,-1130.7 493.5297,-1130.2136 497.9378,-1127.1267 489.5594,-1129.7272 489.5594,-1129.7272"/>
<ellipse fill="none" stroke="#000000" cx="486.3831" cy="-1129.3381" rx="3.2" ry="3.2"/>
</g>
</g>
</svg>
