<?xml version="1.0" encoding="UTF-8" standalone="no"?>
<!DOCTYPE svg PUBLIC "-//W3C//DTD SVG 1.1//EN"
 "http://www.w3.org/Graphics/SVG/1.1/DTD/svg11.dtd">
<!-- Generated by graphviz version 2.40.1 (20161225.0304)
 -->
<!-- Title: oneDegreeRelationshipsDiagram Pages: 1 -->
<svg width="553pt" height="267pt"
 viewBox="0.00 0.00 553.00 266.70" xmlns="http://www.w3.org/2000/svg" xmlns:xlink="http://www.w3.org/1999/xlink">
<g id="graph0" class="graph" transform="scale(1 1) rotate(0) translate(4 262.7)">
<title>oneDegreeRelationshipsDiagram</title>
<polygon fill="#ffffff" stroke="transparent" points="-4,4 -4,-262.7 549,-262.7 549,4 -4,4"/>
<text text-anchor="middle" x="72.4936" y="-7.3" font-family="Helvetica,sans-Serif" font-size="11.00" fill="#000000">Generated by SchemaSpy</text>
<!-- job_outcome_policy_application_tags -->
<g id="node1" class="node">
<title>job_outcome_policy_application_tags</title>
<g id="a_node1"><a xlink:href="../../tables/job_outcome_policy_application_tags.html" xlink:title="job_outcome_policy_application_tags" target="_top">
<polygon fill="#ffffff" stroke="transparent" points="211,-142.7 211,-254.7 537,-254.7 537,-142.7 211,-142.7"/>
<polygon fill="#f5f5f5" stroke="transparent" points="213,-229.7 213,-252.7 535,-252.7 535,-229.7 213,-229.7"/>
<polygon fill="none" stroke="#000000" points="213,-229.7 213,-252.7 535,-252.7 535,-229.7 213,-229.7"/>
<text text-anchor="start" x="218" y="-238.8" font-family="Helvetica,sans-Serif" font-weight="bold" font-size="11.00" fill="#000000">job_outcome_policy_application_tags</text>
<text text-anchor="start" x="500.0437" y="-237.8" font-family="Helvetica,sans-Serif" font-size="11.00" fill="#000000">[table]</text>
<polygon fill="none" stroke="#000000" points="213,-207.7 213,-229.7 468,-229.7 468,-207.7 213,-207.7"/>
<image xlink:href="../../images/primaryKeys.png" width="11px" height="12px" preserveAspectRatio="xMinYMin meet" x="218" y="-224.7"/>
<text text-anchor="start" x="233" y="-214.8" font-family="Helvetica,sans-Serif" font-size="11.00" fill="#000000">job_outcome_policy_application_tags_id</text>
<polygon fill="none" stroke="#000000" points="468,-207.7 468,-229.7 535,-229.7 535,-207.7 468,-207.7"/>
<text text-anchor="start" x="471" y="-215.4" font-family="Helvetica,sans-Serif" font-size="11.00" fill="#000000">bigint[19]</text>
<polygon fill="#ffffff" stroke="transparent" points="213,-185.7 213,-207.7 468,-207.7 468,-185.7 213,-185.7"/>
<polygon fill="none" stroke="#000000" points="213,-185.7 213,-207.7 468,-207.7 468,-185.7 213,-185.7"/>
<image xlink:href="../../images/foreignKeys.png" width="11px" height="12px" preserveAspectRatio="xMinYMin meet" x="218" y="-202.7"/>
<text text-anchor="start" x="233" y="-192.8" font-family="Helvetica,sans-Serif" font-size="11.00" fill="#000000">job_outcome_policy_id</text>
<polygon fill="none" stroke="#000000" points="468,-185.7 468,-207.7 535,-207.7 535,-185.7 468,-185.7"/>
<text text-anchor="start" x="471" y="-193.4" font-family="Helvetica,sans-Serif" font-size="11.00" fill="#000000">bigint[19]</text>
<polygon fill="#ffffff" stroke="transparent" points="213,-163.7 213,-185.7 468,-185.7 468,-163.7 213,-163.7"/>
<polygon fill="none" stroke="#000000" points="213,-163.7 213,-185.7 468,-185.7 468,-163.7 213,-163.7"/>
<text text-anchor="start" x="233" y="-170.8" font-family="Helvetica,sans-Serif" font-size="11.00" fill="#000000">application_tags</text>
<polygon fill="none" stroke="#000000" points="468,-163.7 468,-185.7 535,-185.7 535,-163.7 468,-163.7"/>
<text text-anchor="start" x="470.9365" y="-171.4" font-family="Helvetica,sans-Serif" font-size="11.00" fill="#000000">varchar[255]</text>
<polygon fill="#ffffff" stroke="transparent" points="213,-144.7 213,-163.7 332,-163.7 332,-144.7 213,-144.7"/>
<polygon fill="none" stroke="#000000" points="213,-144.7 213,-163.7 332,-163.7 332,-144.7 213,-144.7"/>
<text text-anchor="start" x="216" y="-150.8" font-family="Helvetica,sans-Serif" font-size="11.00" fill="#000000">&lt; 1</text>
<polygon fill="#ffffff" stroke="transparent" points="332,-144.7 332,-163.7 468,-163.7 468,-144.7 332,-144.7"/>
<polygon fill="none" stroke="#000000" points="332,-144.7 332,-163.7 468,-163.7 468,-144.7 332,-144.7"/>
<text text-anchor="start" x="432.6105" y="-150.8" font-family="Helvetica,sans-Serif" font-size="11.00" fill="#000000">0 rows</text>
<polygon fill="#ffffff" stroke="transparent" points="468,-144.7 468,-163.7 535,-163.7 535,-144.7 468,-144.7"/>
<polygon fill="none" stroke="#000000" points="468,-144.7 468,-163.7 535,-163.7 535,-144.7 468,-144.7"/>
<text text-anchor="start" x="516.4053" y="-150.8" font-family="Helvetica,sans-Serif" font-size="11.00" fill="#000000">0 &gt;</text>
<polygon fill="none" stroke="#000000" stroke-width="2" points="212,-143.7 212,-253.7 536,-253.7 536,-143.7 212,-143.7"/>
</a>
</g>
</g>
<!-- job_outcome_policy -->
<g id="node2" class="node">
<title>job_outcome_policy</title>
<g id="a_node2"><a xlink:href="../../tables/job_outcome_policy.html" xlink:title="job_outcome_policy" target="_top">
<polygon fill="#ffffff" stroke="transparent" points="8,-38.2 8,-231.2 162,-231.2 162,-38.2 8,-38.2"/>
<polygon fill="#f5f5f5" stroke="transparent" points="8,-207.7 8,-230.7 162,-230.7 162,-207.7 8,-207.7"/>
<polygon fill="none" stroke="#000000" points="8,-207.7 8,-230.7 162,-230.7 162,-207.7 8,-207.7"/>
<text text-anchor="start" x="13" y="-216.8" font-family="Helvetica,sans-Serif" font-weight="bold" font-size="11.00" fill="#000000">job_outcome_policy</text>
<text text-anchor="start" x="127.0437" y="-215.8" font-family="Helvetica,sans-Serif" font-size="11.00" fill="#000000">[table]</text>
<polygon fill="none" stroke="#000000" points="8,-185.7 8,-207.7 162,-207.7 162,-185.7 8,-185.7"/>
<image xlink:href="../../images/primaryKeys.png" width="11px" height="12px" preserveAspectRatio="xMinYMin meet" x="13" y="-202.7"/>
<text text-anchor="start" x="28" y="-192.8" font-family="Helvetica,sans-Serif" font-size="11.00" fill="#000000">job_outcome_policy_id</text>
<polygon fill="#ffffff" stroke="transparent" points="8,-163.7 8,-185.7 162,-185.7 162,-163.7 8,-163.7"/>
<polygon fill="none" stroke="#000000" points="8,-163.7 8,-185.7 162,-185.7 162,-163.7 8,-163.7"/>
<text text-anchor="start" x="28" y="-170.8" font-family="Helvetica,sans-Serif" font-size="11.00" fill="#000000">organizations_id</text>
<polygon fill="#ffffff" stroke="transparent" points="8,-141.7 8,-163.7 162,-163.7 162,-141.7 8,-141.7"/>
<polygon fill="none" stroke="#000000" points="8,-141.7 8,-163.7 162,-163.7 162,-141.7 8,-141.7"/>
<text text-anchor="start" x="28" y="-148.8" font-family="Helvetica,sans-Serif" font-size="11.00" fill="#000000">name</text>
<polygon fill="#ffffff" stroke="transparent" points="8,-119.7 8,-141.7 162,-141.7 162,-119.7 8,-119.7"/>
<polygon fill="none" stroke="#000000" points="8,-119.7 8,-141.7 162,-141.7 162,-119.7 8,-119.7"/>
<text text-anchor="start" x="28" y="-126.8" font-family="Helvetica,sans-Serif" font-size="11.00" fill="#000000">enabled</text>
<polygon fill="#ffffff" stroke="transparent" points="8,-97.7 8,-119.7 162,-119.7 162,-97.7 8,-97.7"/>
<polygon fill="none" stroke="#000000" points="8,-97.7 8,-119.7 162,-119.7 162,-97.7 8,-97.7"/>
<text text-anchor="start" x="28" y="-104.8" font-family="Helvetica,sans-Serif" font-size="11.00" fill="#000000">app_criterion</text>
<polygon fill="#ffffff" stroke="transparent" points="8,-75.7 8,-97.7 162,-97.7 162,-75.7 8,-75.7"/>
<polygon fill="none" stroke="#000000" points="8,-75.7 8,-97.7 162,-97.7 162,-75.7 8,-75.7"/>
<text text-anchor="start" x="28" y="-82.8" font-family="Helvetica,sans-Serif" font-size="11.00" fill="#000000">all_applications</text>
<polygon fill="none" stroke="#000000" points="8,-56.7 8,-75.7 162,-75.7 162,-56.7 8,-56.7"/>
<text text-anchor="start" x="11" y="-62.8" font-family="Helvetica,sans-Serif" font-size="11.00" fill="#000000">...</text>
<polygon fill="#ffffff" stroke="transparent" points="8,-37.7 8,-56.7 61,-56.7 61,-37.7 8,-37.7"/>
<polygon fill="none" stroke="#000000" points="8,-37.7 8,-56.7 61,-56.7 61,-37.7 8,-37.7"/>
<text text-anchor="start" x="11" y="-43.8" font-family="Helvetica,sans-Serif" font-size="11.00" fill="#000000"> &#160;</text>
<polygon fill="#ffffff" stroke="transparent" points="61,-37.7 61,-56.7 120,-56.7 120,-37.7 61,-37.7"/>
<polygon fill="none" stroke="#000000" points="61,-37.7 61,-56.7 120,-56.7 120,-37.7 61,-37.7"/>
<text text-anchor="start" x="84.6105" y="-43.8" font-family="Helvetica,sans-Serif" font-size="11.00" fill="#000000">0 rows</text>
<polygon fill="#ffffff" stroke="transparent" points="120,-37.7 120,-56.7 162,-56.7 162,-37.7 120,-37.7"/>
<polygon fill="none" stroke="#000000" points="120,-37.7 120,-56.7 162,-56.7 162,-37.7 120,-37.7"/>
<text text-anchor="start" x="143.4053" y="-43.8" font-family="Helvetica,sans-Serif" font-size="11.00" fill="#000000">8 &gt;</text>
</a>
</g>
</g>
<!-- job_outcome_policy_application_tags&#45;&gt;job_outcome_policy -->
<g id="edge1" class="edge">
<title>job_outcome_policy_application_tags:w&#45;&gt;job_outcome_policy:e</title>
<path fill="none" stroke="#000000" d="M198.276,-196.7C186.2815,-196.7 178.8229,-196.7 162,-196.7"/>
<polygon fill="#000000" stroke="#000000" points="205,-196.7001 213,-200.3 209,-196.7 213,-196.7 213,-196.7 213,-196.7 209,-196.7 213,-193.1 205,-196.7001 205,-196.7001"/>
<ellipse fill="none" stroke="#000000" cx="201.8" cy="-196.7001" rx="3.2" ry="3.2"/>
</g>
</g>
</svg>
