<?xml version="1.0" encoding="UTF-8" standalone="no"?>
<!DOCTYPE svg PUBLIC "-//W3C//DTD SVG 1.1//EN"
 "http://www.w3.org/Graphics/SVG/1.1/DTD/svg11.dtd">
<!-- Generated by graphviz version 2.40.1 (20161225.0304)
 -->
<!-- Title: twoDegreesRelationshipsDiagram Pages: 1 -->
<svg width="523pt" height="737pt"
 viewBox="0.00 0.00 523.00 737.20" xmlns="http://www.w3.org/2000/svg" xmlns:xlink="http://www.w3.org/1999/xlink">
<g id="graph0" class="graph" transform="scale(1 1) rotate(0) translate(4 733.2)">
<title>twoDegreesRelationshipsDiagram</title>
<polygon fill="#ffffff" stroke="transparent" points="-4,4 -4,-733.2 519,-733.2 519,4 -4,4"/>
<text text-anchor="middle" x="72.4936" y="-7.3" font-family="Helvetica,sans-Serif" font-size="11.00" fill="#000000">Generated by SchemaSpy</text>
<!-- job_outcome_policy_application -->
<g id="node1" class="node">
<title>job_outcome_policy_application</title>
<g id="a_node1"><a xlink:href="../../tables/job_outcome_policy_application.html" xlink:title="job_outcome_policy_application" target="_top">
<polygon fill="#ffffff" stroke="transparent" points="260,-664.2 260,-725.2 458,-725.2 458,-664.2 260,-664.2"/>
<polygon fill="#f5f5f5" stroke="transparent" points="260,-701.7 260,-724.7 458,-724.7 458,-701.7 260,-701.7"/>
<polygon fill="none" stroke="#000000" points="260,-701.7 260,-724.7 458,-724.7 458,-701.7 260,-701.7"/>
<text text-anchor="start" x="264.5628" y="-710.8" font-family="Helvetica,sans-Serif" font-weight="bold" font-size="11.00" fill="#000000">job_outcome_policy_application</text>
<text text-anchor="start" x="423.5219" y="-709.8" font-family="Helvetica,sans-Serif" font-size="11.00" fill="#000000">[table]</text>
<polygon fill="none" stroke="#000000" points="260,-682.7 260,-701.7 458,-701.7 458,-682.7 260,-682.7"/>
<text text-anchor="start" x="263" y="-688.8" font-family="Helvetica,sans-Serif" font-size="11.00" fill="#000000">...</text>
<polygon fill="#ffffff" stroke="transparent" points="260,-663.7 260,-682.7 344,-682.7 344,-663.7 260,-663.7"/>
<polygon fill="none" stroke="#000000" points="260,-663.7 260,-682.7 344,-682.7 344,-663.7 260,-663.7"/>
<text text-anchor="start" x="263" y="-669.8" font-family="Helvetica,sans-Serif" font-size="11.00" fill="#000000">&lt; 2</text>
<polygon fill="#ffffff" stroke="transparent" points="344,-663.7 344,-682.7 414,-682.7 414,-663.7 344,-663.7"/>
<polygon fill="none" stroke="#000000" points="344,-663.7 344,-682.7 414,-682.7 414,-663.7 344,-663.7"/>
<text text-anchor="start" x="378.6105" y="-669.8" font-family="Helvetica,sans-Serif" font-size="11.00" fill="#000000">0 rows</text>
<polygon fill="#ffffff" stroke="transparent" points="414,-663.7 414,-682.7 458,-682.7 458,-663.7 414,-663.7"/>
<polygon fill="none" stroke="#000000" points="414,-663.7 414,-682.7 458,-682.7 458,-663.7 414,-663.7"/>
<text text-anchor="start" x="448.8862" y="-669.8" font-family="Helvetica,sans-Serif" font-size="11.00" fill="#000000"> &#160;</text>
</a>
</g>
</g>
<!-- job_outcome_policy -->
<g id="node2" class="node">
<title>job_outcome_policy</title>
<g id="a_node2"><a xlink:href="../../tables/job_outcome_policy.html" xlink:title="job_outcome_policy" target="_top">
<polygon fill="#ffffff" stroke="transparent" points="8,-207.2 8,-400.2 162,-400.2 162,-207.2 8,-207.2"/>
<polygon fill="#f5f5f5" stroke="transparent" points="8,-376.7 8,-399.7 162,-399.7 162,-376.7 8,-376.7"/>
<polygon fill="none" stroke="#000000" points="8,-376.7 8,-399.7 162,-399.7 162,-376.7 8,-376.7"/>
<text text-anchor="start" x="13" y="-385.8" font-family="Helvetica,sans-Serif" font-weight="bold" font-size="11.00" fill="#000000">job_outcome_policy</text>
<text text-anchor="start" x="127.0437" y="-384.8" font-family="Helvetica,sans-Serif" font-size="11.00" fill="#000000">[table]</text>
<polygon fill="none" stroke="#000000" points="8,-354.7 8,-376.7 162,-376.7 162,-354.7 8,-354.7"/>
<image xlink:href="../../images/primaryKeys.png" width="11px" height="12px" preserveAspectRatio="xMinYMin meet" x="13" y="-371.7"/>
<text text-anchor="start" x="28" y="-361.8" font-family="Helvetica,sans-Serif" font-size="11.00" fill="#000000">job_outcome_policy_id</text>
<polygon fill="#ffffff" stroke="transparent" points="8,-332.7 8,-354.7 162,-354.7 162,-332.7 8,-332.7"/>
<polygon fill="none" stroke="#000000" points="8,-332.7 8,-354.7 162,-354.7 162,-332.7 8,-332.7"/>
<text text-anchor="start" x="28" y="-339.8" font-family="Helvetica,sans-Serif" font-size="11.00" fill="#000000">organizations_id</text>
<polygon fill="#ffffff" stroke="transparent" points="8,-310.7 8,-332.7 162,-332.7 162,-310.7 8,-310.7"/>
<polygon fill="none" stroke="#000000" points="8,-310.7 8,-332.7 162,-332.7 162,-310.7 8,-310.7"/>
<text text-anchor="start" x="28" y="-317.8" font-family="Helvetica,sans-Serif" font-size="11.00" fill="#000000">name</text>
<polygon fill="#ffffff" stroke="transparent" points="8,-288.7 8,-310.7 162,-310.7 162,-288.7 8,-288.7"/>
<polygon fill="none" stroke="#000000" points="8,-288.7 8,-310.7 162,-310.7 162,-288.7 8,-288.7"/>
<text text-anchor="start" x="28" y="-295.8" font-family="Helvetica,sans-Serif" font-size="11.00" fill="#000000">enabled</text>
<polygon fill="#ffffff" stroke="transparent" points="8,-266.7 8,-288.7 162,-288.7 162,-266.7 8,-266.7"/>
<polygon fill="none" stroke="#000000" points="8,-266.7 8,-288.7 162,-288.7 162,-266.7 8,-266.7"/>
<text text-anchor="start" x="28" y="-273.8" font-family="Helvetica,sans-Serif" font-size="11.00" fill="#000000">app_criterion</text>
<polygon fill="#ffffff" stroke="transparent" points="8,-244.7 8,-266.7 162,-266.7 162,-244.7 8,-244.7"/>
<polygon fill="none" stroke="#000000" points="8,-244.7 8,-266.7 162,-266.7 162,-244.7 8,-244.7"/>
<text text-anchor="start" x="28" y="-251.8" font-family="Helvetica,sans-Serif" font-size="11.00" fill="#000000">all_applications</text>
<polygon fill="none" stroke="#000000" points="8,-225.7 8,-244.7 162,-244.7 162,-225.7 8,-225.7"/>
<text text-anchor="start" x="11" y="-231.8" font-family="Helvetica,sans-Serif" font-size="11.00" fill="#000000">...</text>
<polygon fill="#ffffff" stroke="transparent" points="8,-206.7 8,-225.7 61,-225.7 61,-206.7 8,-206.7"/>
<polygon fill="none" stroke="#000000" points="8,-206.7 8,-225.7 61,-225.7 61,-206.7 8,-206.7"/>
<text text-anchor="start" x="11" y="-212.8" font-family="Helvetica,sans-Serif" font-size="11.00" fill="#000000"> &#160;</text>
<polygon fill="#ffffff" stroke="transparent" points="61,-206.7 61,-225.7 120,-225.7 120,-206.7 61,-206.7"/>
<polygon fill="none" stroke="#000000" points="61,-206.7 61,-225.7 120,-225.7 120,-206.7 61,-206.7"/>
<text text-anchor="start" x="84.6105" y="-212.8" font-family="Helvetica,sans-Serif" font-size="11.00" fill="#000000">0 rows</text>
<polygon fill="#ffffff" stroke="transparent" points="120,-206.7 120,-225.7 162,-225.7 162,-206.7 120,-206.7"/>
<polygon fill="none" stroke="#000000" points="120,-206.7 120,-225.7 162,-225.7 162,-206.7 120,-206.7"/>
<text text-anchor="start" x="143.4053" y="-212.8" font-family="Helvetica,sans-Serif" font-size="11.00" fill="#000000">8 &gt;</text>
</a>
</g>
</g>
<!-- job_outcome_policy_application&#45;&gt;job_outcome_policy -->
<g id="edge1" class="edge">
<title>job_outcome_policy_application:w&#45;&gt;job_outcome_policy:e</title>
<path fill="none" stroke="#000000" d="M245.3852,-690.5071C225.6517,-686.8654 216.3113,-674.8331 203,-653.7 168.5462,-599.0013 226.6453,-365.7 162,-365.7"/>
<polygon fill="#000000" stroke="#000000" points="252.0265,-691.0492 259.7071,-695.2881 256.0133,-691.3746 260,-691.7 260,-691.7 260,-691.7 256.0133,-691.3746 260.2929,-688.1119 252.0265,-691.0492 252.0265,-691.0492"/>
<ellipse fill="none" stroke="#000000" cx="248.8371" cy="-690.7888" rx="3.2" ry="3.2"/>
</g>
<!-- job_outcome_policy_application_tags -->
<g id="node3" class="node">
<title>job_outcome_policy_application_tags</title>
<g id="a_node3"><a xlink:href="../../tables/job_outcome_policy_application_tags.html" xlink:title="job_outcome_policy_application_tags" target="_top">
<polygon fill="#ffffff" stroke="transparent" points="246.5,-582.2 246.5,-643.2 471.5,-643.2 471.5,-582.2 246.5,-582.2"/>
<polygon fill="#f5f5f5" stroke="transparent" points="247,-619.7 247,-642.7 472,-642.7 472,-619.7 247,-619.7"/>
<polygon fill="none" stroke="#000000" points="247,-619.7 247,-642.7 472,-642.7 472,-619.7 247,-619.7"/>
<text text-anchor="start" x="251.612" y="-628.8" font-family="Helvetica,sans-Serif" font-weight="bold" font-size="11.00" fill="#000000">job_outcome_policy_application_tags</text>
<text text-anchor="start" x="437.5219" y="-627.8" font-family="Helvetica,sans-Serif" font-size="11.00" fill="#000000">[table]</text>
<polygon fill="none" stroke="#000000" points="247,-600.7 247,-619.7 472,-619.7 472,-600.7 247,-600.7"/>
<text text-anchor="start" x="250" y="-606.8" font-family="Helvetica,sans-Serif" font-size="11.00" fill="#000000">...</text>
<polygon fill="#ffffff" stroke="transparent" points="247,-581.7 247,-600.7 345,-600.7 345,-581.7 247,-581.7"/>
<polygon fill="none" stroke="#000000" points="247,-581.7 247,-600.7 345,-600.7 345,-581.7 247,-581.7"/>
<text text-anchor="start" x="250" y="-587.8" font-family="Helvetica,sans-Serif" font-size="11.00" fill="#000000">&lt; 1</text>
<polygon fill="#ffffff" stroke="transparent" points="345,-581.7 345,-600.7 421,-600.7 421,-581.7 345,-581.7"/>
<polygon fill="none" stroke="#000000" points="345,-581.7 345,-600.7 421,-600.7 421,-581.7 345,-581.7"/>
<text text-anchor="start" x="385.6105" y="-587.8" font-family="Helvetica,sans-Serif" font-size="11.00" fill="#000000">0 rows</text>
<polygon fill="#ffffff" stroke="transparent" points="421,-581.7 421,-600.7 472,-600.7 472,-581.7 421,-581.7"/>
<polygon fill="none" stroke="#000000" points="421,-581.7 421,-600.7 472,-600.7 472,-581.7 421,-581.7"/>
<text text-anchor="start" x="462.8862" y="-587.8" font-family="Helvetica,sans-Serif" font-size="11.00" fill="#000000"> &#160;</text>
</a>
</g>
</g>
<!-- job_outcome_policy_application_tags&#45;&gt;job_outcome_policy -->
<g id="edge2" class="edge">
<title>job_outcome_policy_application_tags:w&#45;&gt;job_outcome_policy:e</title>
<path fill="none" stroke="#000000" d="M232.7137,-607.5445C218.5299,-602.5248 213.1606,-589.1432 203,-571.7 179.5067,-531.3679 208.6757,-365.7 162,-365.7"/>
<polygon fill="#000000" stroke="#000000" points="239.0895,-608.5064 246.4629,-613.2597 243.0448,-609.1032 247,-609.7 247,-609.7 247,-609.7 243.0448,-609.1032 247.5371,-606.1403 239.0895,-608.5064 239.0895,-608.5064"/>
<ellipse fill="none" stroke="#000000" cx="235.9253" cy="-608.029" rx="3.2" ry="3.2"/>
</g>
<!-- job_outcome_policy_environment -->
<g id="node4" class="node">
<title>job_outcome_policy_environment</title>
<g id="a_node4"><a xlink:href="../../tables/job_outcome_policy_environment.html" xlink:title="job_outcome_policy_environment" target="_top">
<polygon fill="#ffffff" stroke="transparent" points="256,-500.2 256,-561.2 462,-561.2 462,-500.2 256,-500.2"/>
<polygon fill="#f5f5f5" stroke="transparent" points="256,-537.7 256,-560.7 462,-560.7 462,-537.7 256,-537.7"/>
<polygon fill="none" stroke="#000000" points="256,-537.7 256,-560.7 462,-560.7 462,-537.7 256,-537.7"/>
<text text-anchor="start" x="260.5918" y="-546.8" font-family="Helvetica,sans-Serif" font-weight="bold" font-size="11.00" fill="#000000">job_outcome_policy_environment</text>
<text text-anchor="start" x="427.5219" y="-545.8" font-family="Helvetica,sans-Serif" font-size="11.00" fill="#000000">[table]</text>
<polygon fill="none" stroke="#000000" points="256,-518.7 256,-537.7 462,-537.7 462,-518.7 256,-518.7"/>
<text text-anchor="start" x="259" y="-524.8" font-family="Helvetica,sans-Serif" font-size="11.00" fill="#000000">...</text>
<polygon fill="#ffffff" stroke="transparent" points="256,-499.7 256,-518.7 344,-518.7 344,-499.7 256,-499.7"/>
<polygon fill="none" stroke="#000000" points="256,-499.7 256,-518.7 344,-518.7 344,-499.7 256,-499.7"/>
<text text-anchor="start" x="259" y="-505.8" font-family="Helvetica,sans-Serif" font-size="11.00" fill="#000000">&lt; 1</text>
<polygon fill="#ffffff" stroke="transparent" points="344,-499.7 344,-518.7 416,-518.7 416,-499.7 344,-499.7"/>
<polygon fill="none" stroke="#000000" points="344,-499.7 344,-518.7 416,-518.7 416,-499.7 344,-499.7"/>
<text text-anchor="start" x="380.6105" y="-505.8" font-family="Helvetica,sans-Serif" font-size="11.00" fill="#000000">0 rows</text>
<polygon fill="#ffffff" stroke="transparent" points="416,-499.7 416,-518.7 462,-518.7 462,-499.7 416,-499.7"/>
<polygon fill="none" stroke="#000000" points="416,-499.7 416,-518.7 462,-518.7 462,-499.7 416,-499.7"/>
<text text-anchor="start" x="452.8862" y="-505.8" font-family="Helvetica,sans-Serif" font-size="11.00" fill="#000000"> &#160;</text>
</a>
</g>
</g>
<!-- job_outcome_policy_environment&#45;&gt;job_outcome_policy -->
<g id="edge3" class="edge">
<title>job_outcome_policy_environment:w&#45;&gt;job_outcome_policy:e</title>
<path fill="none" stroke="#000000" d="M241.5623,-526.1316C224.0169,-521.7734 216.8841,-508.5814 203,-489.7 168.6133,-442.9364 220.0455,-365.7 162,-365.7"/>
<polygon fill="#000000" stroke="#000000" points="248.0468,-526.836 255.6112,-531.2789 252.0234,-527.268 256,-527.7 256,-527.7 256,-527.7 252.0234,-527.268 256.3888,-524.1211 248.0468,-526.836 248.0468,-526.836"/>
<ellipse fill="none" stroke="#000000" cx="244.8655" cy="-526.4904" rx="3.2" ry="3.2"/>
</g>
<!-- job_outcome_policy_importance -->
<g id="node5" class="node">
<title>job_outcome_policy_importance</title>
<g id="a_node5"><a xlink:href="../../tables/job_outcome_policy_importance.html" xlink:title="job_outcome_policy_importance" target="_top">
<polygon fill="#ffffff" stroke="transparent" points="211,-366.7 211,-478.7 507,-478.7 507,-366.7 211,-366.7"/>
<polygon fill="#f5f5f5" stroke="transparent" points="213,-453.7 213,-476.7 505,-476.7 505,-453.7 213,-453.7"/>
<polygon fill="none" stroke="#000000" points="213,-453.7 213,-476.7 505,-476.7 505,-453.7 213,-453.7"/>
<text text-anchor="start" x="218" y="-462.8" font-family="Helvetica,sans-Serif" font-weight="bold" font-size="11.00" fill="#000000">job_outcome_policy_importance</text>
<text text-anchor="start" x="470.0437" y="-461.8" font-family="Helvetica,sans-Serif" font-size="11.00" fill="#000000">[table]</text>
<polygon fill="none" stroke="#000000" points="213,-431.7 213,-453.7 438,-453.7 438,-431.7 213,-431.7"/>
<image xlink:href="../../images/primaryKeys.png" width="11px" height="12px" preserveAspectRatio="xMinYMin meet" x="218" y="-448.7"/>
<text text-anchor="start" x="233" y="-438.8" font-family="Helvetica,sans-Serif" font-size="11.00" fill="#000000">job_outcome_policy_importance_id</text>
<polygon fill="none" stroke="#000000" points="438,-431.7 438,-453.7 505,-453.7 505,-431.7 438,-431.7"/>
<text text-anchor="start" x="441" y="-439.4" font-family="Helvetica,sans-Serif" font-size="11.00" fill="#000000">bigint[19]</text>
<polygon fill="#ffffff" stroke="transparent" points="213,-409.7 213,-431.7 438,-431.7 438,-409.7 213,-409.7"/>
<polygon fill="none" stroke="#000000" points="213,-409.7 213,-431.7 438,-431.7 438,-409.7 213,-409.7"/>
<image xlink:href="../../images/foreignKeys.png" width="11px" height="12px" preserveAspectRatio="xMinYMin meet" x="218" y="-426.7"/>
<text text-anchor="start" x="233" y="-416.8" font-family="Helvetica,sans-Serif" font-size="11.00" fill="#000000">job_outcome_policy_id</text>
<polygon fill="none" stroke="#000000" points="438,-409.7 438,-431.7 505,-431.7 505,-409.7 438,-409.7"/>
<text text-anchor="start" x="441" y="-417.4" font-family="Helvetica,sans-Serif" font-size="11.00" fill="#000000">bigint[19]</text>
<polygon fill="#ffffff" stroke="transparent" points="213,-387.7 213,-409.7 438,-409.7 438,-387.7 213,-387.7"/>
<polygon fill="none" stroke="#000000" points="213,-387.7 213,-409.7 438,-409.7 438,-387.7 213,-387.7"/>
<text text-anchor="start" x="233" y="-394.8" font-family="Helvetica,sans-Serif" font-size="11.00" fill="#000000">importance</text>
<polygon fill="none" stroke="#000000" points="438,-387.7 438,-409.7 505,-409.7 505,-387.7 438,-387.7"/>
<text text-anchor="start" x="440.9365" y="-395.4" font-family="Helvetica,sans-Serif" font-size="11.00" fill="#000000">varchar[255]</text>
<polygon fill="#ffffff" stroke="transparent" points="213,-368.7 213,-387.7 317,-387.7 317,-368.7 213,-368.7"/>
<polygon fill="none" stroke="#000000" points="213,-368.7 213,-387.7 317,-387.7 317,-368.7 213,-368.7"/>
<text text-anchor="start" x="216" y="-374.8" font-family="Helvetica,sans-Serif" font-size="11.00" fill="#000000">&lt; 1</text>
<polygon fill="#ffffff" stroke="transparent" points="317,-368.7 317,-387.7 438,-387.7 438,-368.7 317,-368.7"/>
<polygon fill="none" stroke="#000000" points="317,-368.7 317,-387.7 438,-387.7 438,-368.7 317,-368.7"/>
<text text-anchor="start" x="402.6105" y="-374.8" font-family="Helvetica,sans-Serif" font-size="11.00" fill="#000000">0 rows</text>
<polygon fill="#ffffff" stroke="transparent" points="438,-368.7 438,-387.7 505,-387.7 505,-368.7 438,-368.7"/>
<polygon fill="none" stroke="#000000" points="438,-368.7 438,-387.7 505,-387.7 505,-368.7 438,-368.7"/>
<text text-anchor="start" x="486.4053" y="-374.8" font-family="Helvetica,sans-Serif" font-size="11.00" fill="#000000">0 &gt;</text>
<polygon fill="none" stroke="#000000" stroke-width="2" points="212,-367.7 212,-477.7 506,-477.7 506,-367.7 212,-367.7"/>
</a>
</g>
</g>
<!-- job_outcome_policy_importance&#45;&gt;job_outcome_policy -->
<g id="edge4" class="edge">
<title>job_outcome_policy_importance:w&#45;&gt;job_outcome_policy:e</title>
<path fill="none" stroke="#000000" d="M199.2081,-416.0107C183.7137,-402.7102 189.3462,-365.7 162,-365.7"/>
<polygon fill="#000000" stroke="#000000" points="205.4258,-418.1247 211.8411,-424.1084 209.2129,-419.4124 213,-420.7 213,-420.7 213,-420.7 209.2129,-419.4124 214.1589,-417.2916 205.4258,-418.1247 205.4258,-418.1247"/>
<ellipse fill="none" stroke="#000000" cx="202.3961" cy="-417.0946" rx="3.2" ry="3.2"/>
</g>
<!-- job_outcome_policy_rule -->
<g id="node6" class="node">
<title>job_outcome_policy_rule</title>
<g id="a_node6"><a xlink:href="../../tables/job_outcome_policy_rule.html" xlink:title="job_outcome_policy_rule" target="_top">
<polygon fill="#ffffff" stroke="transparent" points="277,-284.2 277,-345.2 441,-345.2 441,-284.2 277,-284.2"/>
<polygon fill="#f5f5f5" stroke="transparent" points="277,-321.7 277,-344.7 441,-344.7 441,-321.7 277,-321.7"/>
<polygon fill="none" stroke="#000000" points="277,-321.7 277,-344.7 441,-344.7 441,-321.7 277,-321.7"/>
<text text-anchor="start" x="281.681" y="-330.8" font-family="Helvetica,sans-Serif" font-weight="bold" font-size="11.00" fill="#000000">job_outcome_policy_rule</text>
<text text-anchor="start" x="406.5219" y="-329.8" font-family="Helvetica,sans-Serif" font-size="11.00" fill="#000000">[table]</text>
<polygon fill="none" stroke="#000000" points="277,-302.7 277,-321.7 441,-321.7 441,-302.7 277,-302.7"/>
<text text-anchor="start" x="280" y="-308.8" font-family="Helvetica,sans-Serif" font-size="11.00" fill="#000000">...</text>
<polygon fill="#ffffff" stroke="transparent" points="277,-283.7 277,-302.7 344,-302.7 344,-283.7 277,-283.7"/>
<polygon fill="none" stroke="#000000" points="277,-283.7 277,-302.7 344,-302.7 344,-283.7 277,-283.7"/>
<text text-anchor="start" x="280" y="-289.8" font-family="Helvetica,sans-Serif" font-size="11.00" fill="#000000">&lt; 2</text>
<polygon fill="#ffffff" stroke="transparent" points="344,-283.7 344,-302.7 405,-302.7 405,-283.7 344,-283.7"/>
<polygon fill="none" stroke="#000000" points="344,-283.7 344,-302.7 405,-302.7 405,-283.7 344,-283.7"/>
<text text-anchor="start" x="369.6105" y="-289.8" font-family="Helvetica,sans-Serif" font-size="11.00" fill="#000000">0 rows</text>
<polygon fill="#ffffff" stroke="transparent" points="405,-283.7 405,-302.7 441,-302.7 441,-283.7 405,-283.7"/>
<polygon fill="none" stroke="#000000" points="405,-283.7 405,-302.7 441,-302.7 441,-283.7 405,-283.7"/>
<text text-anchor="start" x="431.8862" y="-289.8" font-family="Helvetica,sans-Serif" font-size="11.00" fill="#000000"> &#160;</text>
</a>
</g>
</g>
<!-- job_outcome_policy_rule&#45;&gt;job_outcome_policy -->
<g id="edge5" class="edge">
<title>job_outcome_policy_rule:w&#45;&gt;job_outcome_policy:e</title>
<path fill="none" stroke="#000000" d="M262.4637,-313.0348C219.6685,-321.3504 213.1718,-365.7 162,-365.7"/>
<polygon fill="#000000" stroke="#000000" points="269.0335,-312.4316 277.3292,-315.2849 273.0168,-312.0658 277,-311.7 277,-311.7 277,-311.7 273.0168,-312.0658 276.6708,-308.1151 269.0335,-312.4316 269.0335,-312.4316"/>
<ellipse fill="none" stroke="#000000" cx="265.8469" cy="-312.7242" rx="3.2" ry="3.2"/>
</g>
<!-- job_outcome_policy_rule_severity -->
<g id="node7" class="node">
<title>job_outcome_policy_rule_severity</title>
<g id="a_node7"><a xlink:href="../../tables/job_outcome_policy_rule_severity.html" xlink:title="job_outcome_policy_rule_severity" target="_top">
<polygon fill="#ffffff" stroke="transparent" points="255,-202.2 255,-263.2 463,-263.2 463,-202.2 255,-202.2"/>
<polygon fill="#f5f5f5" stroke="transparent" points="255,-239.7 255,-262.7 463,-262.7 463,-239.7 255,-239.7"/>
<polygon fill="none" stroke="#000000" points="255,-239.7 255,-262.7 463,-262.7 463,-239.7 255,-239.7"/>
<text text-anchor="start" x="259.6788" y="-248.8" font-family="Helvetica,sans-Serif" font-weight="bold" font-size="11.00" fill="#000000">job_outcome_policy_rule_severity</text>
<text text-anchor="start" x="428.5219" y="-247.8" font-family="Helvetica,sans-Serif" font-size="11.00" fill="#000000">[table]</text>
<polygon fill="none" stroke="#000000" points="255,-220.7 255,-239.7 463,-239.7 463,-220.7 255,-220.7"/>
<text text-anchor="start" x="258" y="-226.8" font-family="Helvetica,sans-Serif" font-size="11.00" fill="#000000">...</text>
<polygon fill="#ffffff" stroke="transparent" points="255,-201.7 255,-220.7 344,-220.7 344,-201.7 255,-201.7"/>
<polygon fill="none" stroke="#000000" points="255,-201.7 255,-220.7 344,-220.7 344,-201.7 255,-201.7"/>
<text text-anchor="start" x="258" y="-207.8" font-family="Helvetica,sans-Serif" font-size="11.00" fill="#000000">&lt; 1</text>
<polygon fill="#ffffff" stroke="transparent" points="344,-201.7 344,-220.7 416,-220.7 416,-201.7 344,-201.7"/>
<polygon fill="none" stroke="#000000" points="344,-201.7 344,-220.7 416,-220.7 416,-201.7 344,-201.7"/>
<text text-anchor="start" x="380.6105" y="-207.8" font-family="Helvetica,sans-Serif" font-size="11.00" fill="#000000">0 rows</text>
<polygon fill="#ffffff" stroke="transparent" points="416,-201.7 416,-220.7 463,-220.7 463,-201.7 416,-201.7"/>
<polygon fill="none" stroke="#000000" points="416,-201.7 416,-220.7 463,-220.7 463,-201.7 416,-201.7"/>
<text text-anchor="start" x="453.8862" y="-207.8" font-family="Helvetica,sans-Serif" font-size="11.00" fill="#000000"> &#160;</text>
</a>
</g>
</g>
<!-- job_outcome_policy_rule_severity&#45;&gt;job_outcome_policy -->
<g id="edge6" class="edge">
<title>job_outcome_policy_rule_severity:w&#45;&gt;job_outcome_policy:e</title>
<path fill="none" stroke="#000000" d="M240.5165,-231.6857C222.8796,-237.2759 217.7664,-254.0273 203,-273.7 176.1269,-309.5021 206.7655,-365.7 162,-365.7"/>
<polygon fill="#000000" stroke="#000000" points="247.0741,-230.7867 255.489,-233.2666 251.0371,-230.2433 255,-229.7 255,-229.7 255,-229.7 251.0371,-230.2433 254.511,-226.1334 247.0741,-230.7867 247.0741,-230.7867"/>
<ellipse fill="none" stroke="#000000" cx="243.9038" cy="-231.2214" rx="3.2" ry="3.2"/>
</g>
<!-- job_outcome_policy_severity -->
<g id="node8" class="node">
<title>job_outcome_policy_severity</title>
<g id="a_node8"><a xlink:href="../../tables/job_outcome_policy_severity.html" xlink:title="job_outcome_policy_severity" target="_top">
<polygon fill="#ffffff" stroke="transparent" points="267,-120.2 267,-181.2 451,-181.2 451,-120.2 267,-120.2"/>
<polygon fill="#f5f5f5" stroke="transparent" points="267,-157.7 267,-180.7 451,-180.7 451,-157.7 267,-157.7"/>
<polygon fill="none" stroke="#000000" points="267,-157.7 267,-180.7 451,-180.7 451,-157.7 267,-157.7"/>
<text text-anchor="start" x="271.9026" y="-166.8" font-family="Helvetica,sans-Serif" font-weight="bold" font-size="11.00" fill="#000000">job_outcome_policy_severity</text>
<text text-anchor="start" x="416.5219" y="-165.8" font-family="Helvetica,sans-Serif" font-size="11.00" fill="#000000">[table]</text>
<polygon fill="none" stroke="#000000" points="267,-138.7 267,-157.7 451,-157.7 451,-138.7 267,-138.7"/>
<text text-anchor="start" x="270" y="-144.8" font-family="Helvetica,sans-Serif" font-size="11.00" fill="#000000">...</text>
<polygon fill="#ffffff" stroke="transparent" points="267,-119.7 267,-138.7 344,-138.7 344,-119.7 267,-119.7"/>
<polygon fill="none" stroke="#000000" points="267,-119.7 267,-138.7 344,-138.7 344,-119.7 267,-119.7"/>
<text text-anchor="start" x="270" y="-125.8" font-family="Helvetica,sans-Serif" font-size="11.00" fill="#000000">&lt; 1</text>
<polygon fill="#ffffff" stroke="transparent" points="344,-119.7 344,-138.7 410,-138.7 410,-119.7 344,-119.7"/>
<polygon fill="none" stroke="#000000" points="344,-119.7 344,-138.7 410,-138.7 410,-119.7 344,-119.7"/>
<text text-anchor="start" x="374.6105" y="-125.8" font-family="Helvetica,sans-Serif" font-size="11.00" fill="#000000">0 rows</text>
<polygon fill="#ffffff" stroke="transparent" points="410,-119.7 410,-138.7 451,-138.7 451,-119.7 410,-119.7"/>
<polygon fill="none" stroke="#000000" points="410,-119.7 410,-138.7 451,-138.7 451,-119.7 410,-119.7"/>
<text text-anchor="start" x="441.8862" y="-125.8" font-family="Helvetica,sans-Serif" font-size="11.00" fill="#000000"> &#160;</text>
</a>
</g>
</g>
<!-- job_outcome_policy_severity&#45;&gt;job_outcome_policy -->
<g id="edge7" class="edge">
<title>job_outcome_policy_severity:w&#45;&gt;job_outcome_policy:e</title>
<path fill="none" stroke="#000000" d="M252.4861,-148.8263C229.1273,-152.8638 219.4441,-167.6617 203,-191.7 158.1411,-257.2757 241.4512,-365.7 162,-365.7"/>
<polygon fill="#000000" stroke="#000000" points="259.024,-148.319 267.2786,-151.2892 263.012,-148.0095 267,-147.7 267,-147.7 267,-147.7 263.012,-148.0095 266.7214,-144.1108 259.024,-148.319 259.024,-148.319"/>
<ellipse fill="none" stroke="#000000" cx="255.8336" cy="-148.5666" rx="3.2" ry="3.2"/>
</g>
<!-- security_check -->
<g id="node9" class="node">
<title>security_check</title>
<g id="a_node9"><a xlink:href="../../tables/security_check.html" xlink:title="security_check" target="_top">
<polygon fill="#ffffff" stroke="transparent" points="301.5,-38.2 301.5,-99.2 416.5,-99.2 416.5,-38.2 301.5,-38.2"/>
<polygon fill="#f5f5f5" stroke="transparent" points="302,-75.7 302,-98.7 417,-98.7 417,-75.7 302,-75.7"/>
<polygon fill="none" stroke="#000000" points="302,-75.7 302,-98.7 417,-98.7 417,-75.7 302,-75.7"/>
<text text-anchor="start" x="306.6329" y="-84.8" font-family="Helvetica,sans-Serif" font-weight="bold" font-size="11.00" fill="#000000">security_check</text>
<text text-anchor="start" x="382.5219" y="-83.8" font-family="Helvetica,sans-Serif" font-size="11.00" fill="#000000">[table]</text>
<polygon fill="none" stroke="#000000" points="302,-56.7 302,-75.7 417,-75.7 417,-56.7 302,-56.7"/>
<text text-anchor="start" x="305" y="-62.8" font-family="Helvetica,sans-Serif" font-size="11.00" fill="#000000">...</text>
<polygon fill="#ffffff" stroke="transparent" points="302,-37.7 302,-56.7 345,-56.7 345,-37.7 302,-37.7"/>
<polygon fill="none" stroke="#000000" points="302,-37.7 302,-56.7 345,-56.7 345,-37.7 302,-37.7"/>
<text text-anchor="start" x="305" y="-43.8" font-family="Helvetica,sans-Serif" font-size="11.00" fill="#000000">&lt; 3</text>
<polygon fill="#ffffff" stroke="transparent" points="345,-37.7 345,-56.7 394,-56.7 394,-37.7 345,-37.7"/>
<polygon fill="none" stroke="#000000" points="345,-37.7 345,-56.7 394,-56.7 394,-37.7 345,-37.7"/>
<text text-anchor="start" x="358.6105" y="-43.8" font-family="Helvetica,sans-Serif" font-size="11.00" fill="#000000">0 rows</text>
<polygon fill="#ffffff" stroke="transparent" points="394,-37.7 394,-56.7 417,-56.7 417,-37.7 394,-37.7"/>
<polygon fill="none" stroke="#000000" points="394,-37.7 394,-56.7 417,-56.7 417,-37.7 394,-37.7"/>
<text text-anchor="start" x="407.8862" y="-43.8" font-family="Helvetica,sans-Serif" font-size="11.00" fill="#000000"> &#160;</text>
</a>
</g>
</g>
<!-- security_check&#45;&gt;job_outcome_policy -->
<g id="edge8" class="edge">
<title>security_check:w&#45;&gt;job_outcome_policy:e</title>
<path fill="none" stroke="#000000" d="M287.363,-65.9348C249.1417,-67.3267 229.2037,-75.6348 203,-109.7 167.8725,-155.3663 219.6139,-365.7 162,-365.7"/>
<polygon fill="#000000" stroke="#000000" points="294.001,-65.8284 302.0578,-69.2995 298.0005,-65.7642 302,-65.7 302,-65.7 302,-65.7 298.0005,-65.7642 301.9422,-62.1005 294.001,-65.8284 294.001,-65.8284"/>
<ellipse fill="none" stroke="#000000" cx="290.8014" cy="-65.8797" rx="3.2" ry="3.2"/>
</g>
</g>
</svg>
