<?xml version="1.0" encoding="UTF-8" standalone="no"?>
<!DOCTYPE svg PUBLIC "-//W3C//DTD SVG 1.1//EN"
 "http://www.w3.org/Graphics/SVG/1.1/DTD/svg11.dtd">
<!-- Generated by graphviz version 2.40.1 (20161225.0304)
 -->
<!-- Title: twoDegreesRelationshipsDiagram Pages: 1 -->
<svg width="527pt" height="737pt"
 viewBox="0.00 0.00 527.00 737.20" xmlns="http://www.w3.org/2000/svg" xmlns:xlink="http://www.w3.org/1999/xlink">
<g id="graph0" class="graph" transform="scale(1 1) rotate(0) translate(4 733.2)">
<title>twoDegreesRelationshipsDiagram</title>
<polygon fill="#ffffff" stroke="transparent" points="-4,4 -4,-733.2 523,-733.2 523,4 -4,4"/>
<text text-anchor="middle" x="72.4936" y="-7.3" font-family="Helvetica,sans-Serif" font-size="11.00" fill="#000000">Generated by SchemaSpy</text>
<!-- job_outcome_policy_application -->
<g id="node1" class="node">
<title>job_outcome_policy_application</title>
<g id="a_node1"><a xlink:href="../../tables/job_outcome_policy_application.html" xlink:title="job_outcome_policy_application" target="_top">
<polygon fill="#ffffff" stroke="transparent" points="262,-664.2 262,-725.2 460,-725.2 460,-664.2 262,-664.2"/>
<polygon fill="#f5f5f5" stroke="transparent" points="262,-701.7 262,-724.7 460,-724.7 460,-701.7 262,-701.7"/>
<polygon fill="none" stroke="#000000" points="262,-701.7 262,-724.7 460,-724.7 460,-701.7 262,-701.7"/>
<text text-anchor="start" x="266.5628" y="-710.8" font-family="Helvetica,sans-Serif" font-weight="bold" font-size="11.00" fill="#000000">job_outcome_policy_application</text>
<text text-anchor="start" x="425.5219" y="-709.8" font-family="Helvetica,sans-Serif" font-size="11.00" fill="#000000">[table]</text>
<polygon fill="none" stroke="#000000" points="262,-682.7 262,-701.7 460,-701.7 460,-682.7 262,-682.7"/>
<text text-anchor="start" x="265" y="-688.8" font-family="Helvetica,sans-Serif" font-size="11.00" fill="#000000">...</text>
<polygon fill="#ffffff" stroke="transparent" points="262,-663.7 262,-682.7 346,-682.7 346,-663.7 262,-663.7"/>
<polygon fill="none" stroke="#000000" points="262,-663.7 262,-682.7 346,-682.7 346,-663.7 262,-663.7"/>
<text text-anchor="start" x="265" y="-669.8" font-family="Helvetica,sans-Serif" font-size="11.00" fill="#000000">&lt; 2</text>
<polygon fill="#ffffff" stroke="transparent" points="346,-663.7 346,-682.7 416,-682.7 416,-663.7 346,-663.7"/>
<polygon fill="none" stroke="#000000" points="346,-663.7 346,-682.7 416,-682.7 416,-663.7 346,-663.7"/>
<text text-anchor="start" x="380.6105" y="-669.8" font-family="Helvetica,sans-Serif" font-size="11.00" fill="#000000">0 rows</text>
<polygon fill="#ffffff" stroke="transparent" points="416,-663.7 416,-682.7 460,-682.7 460,-663.7 416,-663.7"/>
<polygon fill="none" stroke="#000000" points="416,-663.7 416,-682.7 460,-682.7 460,-663.7 416,-663.7"/>
<text text-anchor="start" x="450.8862" y="-669.8" font-family="Helvetica,sans-Serif" font-size="11.00" fill="#000000"> &#160;</text>
</a>
</g>
</g>
<!-- job_outcome_policy -->
<g id="node2" class="node">
<title>job_outcome_policy</title>
<g id="a_node2"><a xlink:href="../../tables/job_outcome_policy.html" xlink:title="job_outcome_policy" target="_top">
<polygon fill="#ffffff" stroke="transparent" points="8,-246.2 8,-439.2 162,-439.2 162,-246.2 8,-246.2"/>
<polygon fill="#f5f5f5" stroke="transparent" points="8,-415.7 8,-438.7 162,-438.7 162,-415.7 8,-415.7"/>
<polygon fill="none" stroke="#000000" points="8,-415.7 8,-438.7 162,-438.7 162,-415.7 8,-415.7"/>
<text text-anchor="start" x="13" y="-424.8" font-family="Helvetica,sans-Serif" font-weight="bold" font-size="11.00" fill="#000000">job_outcome_policy</text>
<text text-anchor="start" x="127.0437" y="-423.8" font-family="Helvetica,sans-Serif" font-size="11.00" fill="#000000">[table]</text>
<polygon fill="none" stroke="#000000" points="8,-393.7 8,-415.7 162,-415.7 162,-393.7 8,-393.7"/>
<image xlink:href="../../images/primaryKeys.png" width="11px" height="12px" preserveAspectRatio="xMinYMin meet" x="13" y="-410.7"/>
<text text-anchor="start" x="28" y="-400.8" font-family="Helvetica,sans-Serif" font-size="11.00" fill="#000000">job_outcome_policy_id</text>
<polygon fill="#ffffff" stroke="transparent" points="8,-371.7 8,-393.7 162,-393.7 162,-371.7 8,-371.7"/>
<polygon fill="none" stroke="#000000" points="8,-371.7 8,-393.7 162,-393.7 162,-371.7 8,-371.7"/>
<text text-anchor="start" x="28" y="-378.8" font-family="Helvetica,sans-Serif" font-size="11.00" fill="#000000">organizations_id</text>
<polygon fill="#ffffff" stroke="transparent" points="8,-349.7 8,-371.7 162,-371.7 162,-349.7 8,-349.7"/>
<polygon fill="none" stroke="#000000" points="8,-349.7 8,-371.7 162,-371.7 162,-349.7 8,-349.7"/>
<text text-anchor="start" x="28" y="-356.8" font-family="Helvetica,sans-Serif" font-size="11.00" fill="#000000">name</text>
<polygon fill="#ffffff" stroke="transparent" points="8,-327.7 8,-349.7 162,-349.7 162,-327.7 8,-327.7"/>
<polygon fill="none" stroke="#000000" points="8,-327.7 8,-349.7 162,-349.7 162,-327.7 8,-327.7"/>
<text text-anchor="start" x="28" y="-334.8" font-family="Helvetica,sans-Serif" font-size="11.00" fill="#000000">enabled</text>
<polygon fill="#ffffff" stroke="transparent" points="8,-305.7 8,-327.7 162,-327.7 162,-305.7 8,-305.7"/>
<polygon fill="none" stroke="#000000" points="8,-305.7 8,-327.7 162,-327.7 162,-305.7 8,-305.7"/>
<text text-anchor="start" x="28" y="-312.8" font-family="Helvetica,sans-Serif" font-size="11.00" fill="#000000">app_criterion</text>
<polygon fill="#ffffff" stroke="transparent" points="8,-283.7 8,-305.7 162,-305.7 162,-283.7 8,-283.7"/>
<polygon fill="none" stroke="#000000" points="8,-283.7 8,-305.7 162,-305.7 162,-283.7 8,-283.7"/>
<text text-anchor="start" x="28" y="-290.8" font-family="Helvetica,sans-Serif" font-size="11.00" fill="#000000">all_applications</text>
<polygon fill="none" stroke="#000000" points="8,-264.7 8,-283.7 162,-283.7 162,-264.7 8,-264.7"/>
<text text-anchor="start" x="11" y="-270.8" font-family="Helvetica,sans-Serif" font-size="11.00" fill="#000000">...</text>
<polygon fill="#ffffff" stroke="transparent" points="8,-245.7 8,-264.7 61,-264.7 61,-245.7 8,-245.7"/>
<polygon fill="none" stroke="#000000" points="8,-245.7 8,-264.7 61,-264.7 61,-245.7 8,-245.7"/>
<text text-anchor="start" x="11" y="-251.8" font-family="Helvetica,sans-Serif" font-size="11.00" fill="#000000"> &#160;</text>
<polygon fill="#ffffff" stroke="transparent" points="61,-245.7 61,-264.7 120,-264.7 120,-245.7 61,-245.7"/>
<polygon fill="none" stroke="#000000" points="61,-245.7 61,-264.7 120,-264.7 120,-245.7 61,-245.7"/>
<text text-anchor="start" x="84.6105" y="-251.8" font-family="Helvetica,sans-Serif" font-size="11.00" fill="#000000">0 rows</text>
<polygon fill="#ffffff" stroke="transparent" points="120,-245.7 120,-264.7 162,-264.7 162,-245.7 120,-245.7"/>
<polygon fill="none" stroke="#000000" points="120,-245.7 120,-264.7 162,-264.7 162,-245.7 120,-245.7"/>
<text text-anchor="start" x="143.4053" y="-251.8" font-family="Helvetica,sans-Serif" font-size="11.00" fill="#000000">8 &gt;</text>
</a>
</g>
</g>
<!-- job_outcome_policy_application&#45;&gt;job_outcome_policy -->
<g id="edge1" class="edge">
<title>job_outcome_policy_application:w&#45;&gt;job_outcome_policy:e</title>
<path fill="none" stroke="#000000" d="M247.5973,-690.6318C226.9441,-687.1826 217.1746,-675.2927 203,-653.7 172.2255,-606.8201 218.0784,-404.7 162,-404.7"/>
<polygon fill="#000000" stroke="#000000" points="254.0219,-691.1082 261.7337,-695.2901 258.011,-691.4041 262,-691.7 262,-691.7 262,-691.7 258.011,-691.4041 262.2663,-688.1099 254.0219,-691.1082 254.0219,-691.1082"/>
<ellipse fill="none" stroke="#000000" cx="250.8307" cy="-690.8715" rx="3.2" ry="3.2"/>
</g>
<!-- job_outcome_policy_application_tags -->
<g id="node3" class="node">
<title>job_outcome_policy_application_tags</title>
<g id="a_node3"><a xlink:href="../../tables/job_outcome_policy_application_tags.html" xlink:title="job_outcome_policy_application_tags" target="_top">
<polygon fill="#ffffff" stroke="transparent" points="248.5,-582.2 248.5,-643.2 473.5,-643.2 473.5,-582.2 248.5,-582.2"/>
<polygon fill="#f5f5f5" stroke="transparent" points="249,-619.7 249,-642.7 474,-642.7 474,-619.7 249,-619.7"/>
<polygon fill="none" stroke="#000000" points="249,-619.7 249,-642.7 474,-642.7 474,-619.7 249,-619.7"/>
<text text-anchor="start" x="253.612" y="-628.8" font-family="Helvetica,sans-Serif" font-weight="bold" font-size="11.00" fill="#000000">job_outcome_policy_application_tags</text>
<text text-anchor="start" x="439.5219" y="-627.8" font-family="Helvetica,sans-Serif" font-size="11.00" fill="#000000">[table]</text>
<polygon fill="none" stroke="#000000" points="249,-600.7 249,-619.7 474,-619.7 474,-600.7 249,-600.7"/>
<text text-anchor="start" x="252" y="-606.8" font-family="Helvetica,sans-Serif" font-size="11.00" fill="#000000">...</text>
<polygon fill="#ffffff" stroke="transparent" points="249,-581.7 249,-600.7 347,-600.7 347,-581.7 249,-581.7"/>
<polygon fill="none" stroke="#000000" points="249,-581.7 249,-600.7 347,-600.7 347,-581.7 249,-581.7"/>
<text text-anchor="start" x="252" y="-587.8" font-family="Helvetica,sans-Serif" font-size="11.00" fill="#000000">&lt; 1</text>
<polygon fill="#ffffff" stroke="transparent" points="347,-581.7 347,-600.7 423,-600.7 423,-581.7 347,-581.7"/>
<polygon fill="none" stroke="#000000" points="347,-581.7 347,-600.7 423,-600.7 423,-581.7 347,-581.7"/>
<text text-anchor="start" x="387.6105" y="-587.8" font-family="Helvetica,sans-Serif" font-size="11.00" fill="#000000">0 rows</text>
<polygon fill="#ffffff" stroke="transparent" points="423,-581.7 423,-600.7 474,-600.7 474,-581.7 423,-581.7"/>
<polygon fill="none" stroke="#000000" points="423,-581.7 423,-600.7 474,-600.7 474,-581.7 423,-581.7"/>
<text text-anchor="start" x="464.8862" y="-587.8" font-family="Helvetica,sans-Serif" font-size="11.00" fill="#000000"> &#160;</text>
</a>
</g>
</g>
<!-- job_outcome_policy_application_tags&#45;&gt;job_outcome_policy -->
<g id="edge2" class="edge">
<title>job_outcome_policy_application_tags:w&#45;&gt;job_outcome_policy:e</title>
<path fill="none" stroke="#000000" d="M234.319,-607.5594C219.7096,-602.5701 214.0144,-589.2468 203,-571.7 162.3679,-506.9697 238.4264,-404.7 162,-404.7"/>
<polygon fill="#000000" stroke="#000000" points="241.0837,-608.5457 248.4806,-613.2623 245.0419,-609.1228 249,-609.7 249,-609.7 249,-609.7 245.0419,-609.1228 249.5194,-606.1377 241.0837,-608.5457 241.0837,-608.5457"/>
<ellipse fill="none" stroke="#000000" cx="237.9172" cy="-608.084" rx="3.2" ry="3.2"/>
</g>
<!-- job_outcome_policy_environment -->
<g id="node4" class="node">
<title>job_outcome_policy_environment</title>
<g id="a_node4"><a xlink:href="../../tables/job_outcome_policy_environment.html" xlink:title="job_outcome_policy_environment" target="_top">
<polygon fill="#ffffff" stroke="transparent" points="258,-500.2 258,-561.2 464,-561.2 464,-500.2 258,-500.2"/>
<polygon fill="#f5f5f5" stroke="transparent" points="258,-537.7 258,-560.7 464,-560.7 464,-537.7 258,-537.7"/>
<polygon fill="none" stroke="#000000" points="258,-537.7 258,-560.7 464,-560.7 464,-537.7 258,-537.7"/>
<text text-anchor="start" x="262.5918" y="-546.8" font-family="Helvetica,sans-Serif" font-weight="bold" font-size="11.00" fill="#000000">job_outcome_policy_environment</text>
<text text-anchor="start" x="429.5219" y="-545.8" font-family="Helvetica,sans-Serif" font-size="11.00" fill="#000000">[table]</text>
<polygon fill="none" stroke="#000000" points="258,-518.7 258,-537.7 464,-537.7 464,-518.7 258,-518.7"/>
<text text-anchor="start" x="261" y="-524.8" font-family="Helvetica,sans-Serif" font-size="11.00" fill="#000000">...</text>
<polygon fill="#ffffff" stroke="transparent" points="258,-499.7 258,-518.7 346,-518.7 346,-499.7 258,-499.7"/>
<polygon fill="none" stroke="#000000" points="258,-499.7 258,-518.7 346,-518.7 346,-499.7 258,-499.7"/>
<text text-anchor="start" x="261" y="-505.8" font-family="Helvetica,sans-Serif" font-size="11.00" fill="#000000">&lt; 1</text>
<polygon fill="#ffffff" stroke="transparent" points="346,-499.7 346,-518.7 418,-518.7 418,-499.7 346,-499.7"/>
<polygon fill="none" stroke="#000000" points="346,-499.7 346,-518.7 418,-518.7 418,-499.7 346,-499.7"/>
<text text-anchor="start" x="382.6105" y="-505.8" font-family="Helvetica,sans-Serif" font-size="11.00" fill="#000000">0 rows</text>
<polygon fill="#ffffff" stroke="transparent" points="418,-499.7 418,-518.7 464,-518.7 464,-499.7 418,-499.7"/>
<polygon fill="none" stroke="#000000" points="418,-499.7 418,-518.7 464,-518.7 464,-499.7 418,-499.7"/>
<text text-anchor="start" x="454.8862" y="-505.8" font-family="Helvetica,sans-Serif" font-size="11.00" fill="#000000"> &#160;</text>
</a>
</g>
</g>
<!-- job_outcome_policy_environment&#45;&gt;job_outcome_policy -->
<g id="edge3" class="edge">
<title>job_outcome_policy_environment:w&#45;&gt;job_outcome_policy:e</title>
<path fill="none" stroke="#000000" d="M243.5467,-526.1276C225.5803,-521.664 218.6955,-508.0416 203,-489.7 175.7298,-457.8324 203.9429,-404.7 162,-404.7"/>
<polygon fill="#000000" stroke="#000000" points="250.0469,-526.8347 257.6106,-531.2789 254.0235,-527.2674 258,-527.7 258,-527.7 258,-527.7 254.0235,-527.2674 258.3894,-524.1211 250.0469,-526.8347 250.0469,-526.8347"/>
<ellipse fill="none" stroke="#000000" cx="246.8657" cy="-526.4886" rx="3.2" ry="3.2"/>
</g>
<!-- job_outcome_policy_importance -->
<g id="node5" class="node">
<title>job_outcome_policy_importance</title>
<g id="a_node5"><a xlink:href="../../tables/job_outcome_policy_importance.html" xlink:title="job_outcome_policy_importance" target="_top">
<polygon fill="#ffffff" stroke="transparent" points="261,-418.2 261,-479.2 461,-479.2 461,-418.2 261,-418.2"/>
<polygon fill="#f5f5f5" stroke="transparent" points="261,-455.7 261,-478.7 461,-478.7 461,-455.7 261,-455.7"/>
<polygon fill="none" stroke="#000000" points="261,-455.7 261,-478.7 461,-478.7 461,-455.7 261,-455.7"/>
<text text-anchor="start" x="265.6493" y="-464.8" font-family="Helvetica,sans-Serif" font-weight="bold" font-size="11.00" fill="#000000">job_outcome_policy_importance</text>
<text text-anchor="start" x="426.5219" y="-463.8" font-family="Helvetica,sans-Serif" font-size="11.00" fill="#000000">[table]</text>
<polygon fill="none" stroke="#000000" points="261,-436.7 261,-455.7 461,-455.7 461,-436.7 261,-436.7"/>
<text text-anchor="start" x="264" y="-442.8" font-family="Helvetica,sans-Serif" font-size="11.00" fill="#000000">...</text>
<polygon fill="#ffffff" stroke="transparent" points="261,-417.7 261,-436.7 346,-436.7 346,-417.7 261,-417.7"/>
<polygon fill="none" stroke="#000000" points="261,-417.7 261,-436.7 346,-436.7 346,-417.7 261,-417.7"/>
<text text-anchor="start" x="264" y="-423.8" font-family="Helvetica,sans-Serif" font-size="11.00" fill="#000000">&lt; 1</text>
<polygon fill="#ffffff" stroke="transparent" points="346,-417.7 346,-436.7 416,-436.7 416,-417.7 346,-417.7"/>
<polygon fill="none" stroke="#000000" points="346,-417.7 346,-436.7 416,-436.7 416,-417.7 346,-417.7"/>
<text text-anchor="start" x="380.6105" y="-423.8" font-family="Helvetica,sans-Serif" font-size="11.00" fill="#000000">0 rows</text>
<polygon fill="#ffffff" stroke="transparent" points="416,-417.7 416,-436.7 461,-436.7 461,-417.7 416,-417.7"/>
<polygon fill="none" stroke="#000000" points="416,-417.7 416,-436.7 461,-436.7 461,-417.7 416,-417.7"/>
<text text-anchor="start" x="451.8862" y="-423.8" font-family="Helvetica,sans-Serif" font-size="11.00" fill="#000000"> &#160;</text>
</a>
</g>
</g>
<!-- job_outcome_policy_importance&#45;&gt;job_outcome_policy -->
<g id="edge4" class="edge">
<title>job_outcome_policy_importance:w&#45;&gt;job_outcome_policy:e</title>
<path fill="none" stroke="#000000" d="M246.3767,-444.2408C211.9629,-436.9371 204.2291,-404.7 162,-404.7"/>
<polygon fill="#000000" stroke="#000000" points="253.0395,-444.9056 260.6425,-449.2822 257.0198,-445.3028 261,-445.7 261,-445.7 261,-445.7 257.0198,-445.3028 261.3575,-442.1178 253.0395,-444.9056 253.0395,-444.9056"/>
<ellipse fill="none" stroke="#000000" cx="249.8553" cy="-444.5878" rx="3.2" ry="3.2"/>
</g>
<!-- job_outcome_policy_rule -->
<g id="node6" class="node">
<title>job_outcome_policy_rule</title>
<g id="a_node6"><a xlink:href="../../tables/job_outcome_policy_rule.html" xlink:title="job_outcome_policy_rule" target="_top">
<polygon fill="#ffffff" stroke="transparent" points="279,-336.2 279,-397.2 443,-397.2 443,-336.2 279,-336.2"/>
<polygon fill="#f5f5f5" stroke="transparent" points="279,-373.7 279,-396.7 443,-396.7 443,-373.7 279,-373.7"/>
<polygon fill="none" stroke="#000000" points="279,-373.7 279,-396.7 443,-396.7 443,-373.7 279,-373.7"/>
<text text-anchor="start" x="283.681" y="-382.8" font-family="Helvetica,sans-Serif" font-weight="bold" font-size="11.00" fill="#000000">job_outcome_policy_rule</text>
<text text-anchor="start" x="408.5219" y="-381.8" font-family="Helvetica,sans-Serif" font-size="11.00" fill="#000000">[table]</text>
<polygon fill="none" stroke="#000000" points="279,-354.7 279,-373.7 443,-373.7 443,-354.7 279,-354.7"/>
<text text-anchor="start" x="282" y="-360.8" font-family="Helvetica,sans-Serif" font-size="11.00" fill="#000000">...</text>
<polygon fill="#ffffff" stroke="transparent" points="279,-335.7 279,-354.7 346,-354.7 346,-335.7 279,-335.7"/>
<polygon fill="none" stroke="#000000" points="279,-335.7 279,-354.7 346,-354.7 346,-335.7 279,-335.7"/>
<text text-anchor="start" x="282" y="-341.8" font-family="Helvetica,sans-Serif" font-size="11.00" fill="#000000">&lt; 2</text>
<polygon fill="#ffffff" stroke="transparent" points="346,-335.7 346,-354.7 407,-354.7 407,-335.7 346,-335.7"/>
<polygon fill="none" stroke="#000000" points="346,-335.7 346,-354.7 407,-354.7 407,-335.7 346,-335.7"/>
<text text-anchor="start" x="371.6105" y="-341.8" font-family="Helvetica,sans-Serif" font-size="11.00" fill="#000000">0 rows</text>
<polygon fill="#ffffff" stroke="transparent" points="407,-335.7 407,-354.7 443,-354.7 443,-335.7 407,-335.7"/>
<polygon fill="none" stroke="#000000" points="407,-335.7 407,-354.7 443,-354.7 443,-335.7 407,-335.7"/>
<text text-anchor="start" x="433.8862" y="-341.8" font-family="Helvetica,sans-Serif" font-size="11.00" fill="#000000"> &#160;</text>
</a>
</g>
</g>
<!-- job_outcome_policy_rule&#45;&gt;job_outcome_policy -->
<g id="edge5" class="edge">
<title>job_outcome_policy_rule:w&#45;&gt;job_outcome_policy:e</title>
<path fill="none" stroke="#000000" d="M264.4227,-364.7547C222.1558,-371.1721 211.8271,-404.7 162,-404.7"/>
<polygon fill="#000000" stroke="#000000" points="271.0209,-364.2774 279.2598,-367.2906 275.0104,-363.9887 279,-363.7 279,-363.7 279,-363.7 275.0104,-363.9887 278.7402,-360.1094 271.0209,-364.2774 271.0209,-364.2774"/>
<ellipse fill="none" stroke="#000000" cx="267.8292" cy="-364.5083" rx="3.2" ry="3.2"/>
</g>
<!-- job_outcome_policy_rule_severity -->
<g id="node7" class="node">
<title>job_outcome_policy_rule_severity</title>
<g id="a_node7"><a xlink:href="../../tables/job_outcome_policy_rule_severity.html" xlink:title="job_outcome_policy_rule_severity" target="_top">
<polygon fill="#ffffff" stroke="transparent" points="211,-202.7 211,-314.7 511,-314.7 511,-202.7 211,-202.7"/>
<polygon fill="#f5f5f5" stroke="transparent" points="213,-289.7 213,-312.7 509,-312.7 509,-289.7 213,-289.7"/>
<polygon fill="none" stroke="#000000" points="213,-289.7 213,-312.7 509,-312.7 509,-289.7 213,-289.7"/>
<text text-anchor="start" x="218" y="-298.8" font-family="Helvetica,sans-Serif" font-weight="bold" font-size="11.00" fill="#000000">job_outcome_policy_rule_severity</text>
<text text-anchor="start" x="474.0437" y="-297.8" font-family="Helvetica,sans-Serif" font-size="11.00" fill="#000000">[table]</text>
<polygon fill="none" stroke="#000000" points="213,-267.7 213,-289.7 448,-289.7 448,-267.7 213,-267.7"/>
<image xlink:href="../../images/primaryKeys.png" width="11px" height="12px" preserveAspectRatio="xMinYMin meet" x="218" y="-284.7"/>
<text text-anchor="start" x="233" y="-274.8" font-family="Helvetica,sans-Serif" font-size="11.00" fill="#000000">job_outcome_policy_rule_severity_id</text>
<polygon fill="none" stroke="#000000" points="448,-267.7 448,-289.7 509,-289.7 509,-267.7 448,-267.7"/>
<text text-anchor="start" x="451" y="-275.4" font-family="Helvetica,sans-Serif" font-size="11.00" fill="#000000">bigint[19]</text>
<polygon fill="#ffffff" stroke="transparent" points="213,-245.7 213,-267.7 448,-267.7 448,-245.7 213,-245.7"/>
<polygon fill="none" stroke="#000000" points="213,-245.7 213,-267.7 448,-267.7 448,-245.7 213,-245.7"/>
<image xlink:href="../../images/foreignKeys.png" width="11px" height="12px" preserveAspectRatio="xMinYMin meet" x="218" y="-262.7"/>
<text text-anchor="start" x="233" y="-252.8" font-family="Helvetica,sans-Serif" font-size="11.00" fill="#000000">job_outcome_policy_id</text>
<polygon fill="none" stroke="#000000" points="448,-245.7 448,-267.7 509,-267.7 509,-245.7 448,-245.7"/>
<text text-anchor="start" x="451" y="-253.4" font-family="Helvetica,sans-Serif" font-size="11.00" fill="#000000">bigint[19]</text>
<polygon fill="#ffffff" stroke="transparent" points="213,-223.7 213,-245.7 448,-245.7 448,-223.7 213,-223.7"/>
<polygon fill="none" stroke="#000000" points="213,-223.7 213,-245.7 448,-245.7 448,-223.7 213,-223.7"/>
<text text-anchor="start" x="233" y="-230.8" font-family="Helvetica,sans-Serif" font-size="11.00" fill="#000000">severity</text>
<polygon fill="none" stroke="#000000" points="448,-223.7 448,-245.7 509,-245.7 509,-223.7 448,-223.7"/>
<text text-anchor="start" x="450.994" y="-231.4" font-family="Helvetica,sans-Serif" font-size="11.00" fill="#000000">varchar[20]</text>
<polygon fill="#ffffff" stroke="transparent" points="213,-204.7 213,-223.7 322,-223.7 322,-204.7 213,-204.7"/>
<polygon fill="none" stroke="#000000" points="213,-204.7 213,-223.7 322,-223.7 322,-204.7 213,-204.7"/>
<text text-anchor="start" x="216" y="-210.8" font-family="Helvetica,sans-Serif" font-size="11.00" fill="#000000">&lt; 1</text>
<polygon fill="#ffffff" stroke="transparent" points="322,-204.7 322,-223.7 448,-223.7 448,-204.7 322,-204.7"/>
<polygon fill="none" stroke="#000000" points="322,-204.7 322,-223.7 448,-223.7 448,-204.7 322,-204.7"/>
<text text-anchor="start" x="412.6105" y="-210.8" font-family="Helvetica,sans-Serif" font-size="11.00" fill="#000000">0 rows</text>
<polygon fill="#ffffff" stroke="transparent" points="448,-204.7 448,-223.7 509,-223.7 509,-204.7 448,-204.7"/>
<polygon fill="none" stroke="#000000" points="448,-204.7 448,-223.7 509,-223.7 509,-204.7 448,-204.7"/>
<text text-anchor="start" x="490.4053" y="-210.8" font-family="Helvetica,sans-Serif" font-size="11.00" fill="#000000">0 &gt;</text>
<polygon fill="none" stroke="#000000" stroke-width="2" points="212,-203.7 212,-313.7 510,-313.7 510,-203.7 212,-203.7"/>
</a>
</g>
</g>
<!-- job_outcome_policy_rule_severity&#45;&gt;job_outcome_policy -->
<g id="edge6" class="edge">
<title>job_outcome_policy_rule_severity:w&#45;&gt;job_outcome_policy:e</title>
<path fill="none" stroke="#000000" d="M198.6212,-259.6564C157.1199,-280.5155 225.7306,-404.7 162,-404.7"/>
<polygon fill="#000000" stroke="#000000" points="205.1639,-258.3112 213.725,-260.2262 209.082,-257.5056 213,-256.7 213,-256.7 213,-256.7 209.082,-257.5056 212.275,-253.1738 205.1639,-258.3112 205.1639,-258.3112"/>
<ellipse fill="none" stroke="#000000" cx="202.0295" cy="-258.9557" rx="3.2" ry="3.2"/>
</g>
<!-- job_outcome_policy_severity -->
<g id="node8" class="node">
<title>job_outcome_policy_severity</title>
<g id="a_node8"><a xlink:href="../../tables/job_outcome_policy_severity.html" xlink:title="job_outcome_policy_severity" target="_top">
<polygon fill="#ffffff" stroke="transparent" points="269,-120.2 269,-181.2 453,-181.2 453,-120.2 269,-120.2"/>
<polygon fill="#f5f5f5" stroke="transparent" points="269,-157.7 269,-180.7 453,-180.7 453,-157.7 269,-157.7"/>
<polygon fill="none" stroke="#000000" points="269,-157.7 269,-180.7 453,-180.7 453,-157.7 269,-157.7"/>
<text text-anchor="start" x="273.9026" y="-166.8" font-family="Helvetica,sans-Serif" font-weight="bold" font-size="11.00" fill="#000000">job_outcome_policy_severity</text>
<text text-anchor="start" x="418.5219" y="-165.8" font-family="Helvetica,sans-Serif" font-size="11.00" fill="#000000">[table]</text>
<polygon fill="none" stroke="#000000" points="269,-138.7 269,-157.7 453,-157.7 453,-138.7 269,-138.7"/>
<text text-anchor="start" x="272" y="-144.8" font-family="Helvetica,sans-Serif" font-size="11.00" fill="#000000">...</text>
<polygon fill="#ffffff" stroke="transparent" points="269,-119.7 269,-138.7 346,-138.7 346,-119.7 269,-119.7"/>
<polygon fill="none" stroke="#000000" points="269,-119.7 269,-138.7 346,-138.7 346,-119.7 269,-119.7"/>
<text text-anchor="start" x="272" y="-125.8" font-family="Helvetica,sans-Serif" font-size="11.00" fill="#000000">&lt; 1</text>
<polygon fill="#ffffff" stroke="transparent" points="346,-119.7 346,-138.7 412,-138.7 412,-119.7 346,-119.7"/>
<polygon fill="none" stroke="#000000" points="346,-119.7 346,-138.7 412,-138.7 412,-119.7 346,-119.7"/>
<text text-anchor="start" x="376.6105" y="-125.8" font-family="Helvetica,sans-Serif" font-size="11.00" fill="#000000">0 rows</text>
<polygon fill="#ffffff" stroke="transparent" points="412,-119.7 412,-138.7 453,-138.7 453,-119.7 412,-119.7"/>
<polygon fill="none" stroke="#000000" points="412,-119.7 412,-138.7 453,-138.7 453,-119.7 412,-119.7"/>
<text text-anchor="start" x="443.8862" y="-125.8" font-family="Helvetica,sans-Serif" font-size="11.00" fill="#000000"> &#160;</text>
</a>
</g>
</g>
<!-- job_outcome_policy_severity&#45;&gt;job_outcome_policy -->
<g id="edge7" class="edge">
<title>job_outcome_policy_severity:w&#45;&gt;job_outcome_policy:e</title>
<path fill="none" stroke="#000000" d="M254.3641,-148.7643C229.951,-152.7054 219.5353,-167.5556 203,-192.7 176.6351,-232.7919 209.9841,-404.7 162,-404.7"/>
<polygon fill="#000000" stroke="#000000" points="261.0211,-148.2802 269.2611,-151.2905 265.0105,-147.9901 269,-147.7 269,-147.7 269,-147.7 265.0105,-147.9901 268.7389,-144.1095 261.0211,-148.2802 261.0211,-148.2802"/>
<ellipse fill="none" stroke="#000000" cx="257.8295" cy="-148.5123" rx="3.2" ry="3.2"/>
</g>
<!-- security_check -->
<g id="node9" class="node">
<title>security_check</title>
<g id="a_node9"><a xlink:href="../../tables/security_check.html" xlink:title="security_check" target="_top">
<polygon fill="#ffffff" stroke="transparent" points="303.5,-38.2 303.5,-99.2 418.5,-99.2 418.5,-38.2 303.5,-38.2"/>
<polygon fill="#f5f5f5" stroke="transparent" points="304,-75.7 304,-98.7 419,-98.7 419,-75.7 304,-75.7"/>
<polygon fill="none" stroke="#000000" points="304,-75.7 304,-98.7 419,-98.7 419,-75.7 304,-75.7"/>
<text text-anchor="start" x="308.6329" y="-84.8" font-family="Helvetica,sans-Serif" font-weight="bold" font-size="11.00" fill="#000000">security_check</text>
<text text-anchor="start" x="384.5219" y="-83.8" font-family="Helvetica,sans-Serif" font-size="11.00" fill="#000000">[table]</text>
<polygon fill="none" stroke="#000000" points="304,-56.7 304,-75.7 419,-75.7 419,-56.7 304,-56.7"/>
<text text-anchor="start" x="307" y="-62.8" font-family="Helvetica,sans-Serif" font-size="11.00" fill="#000000">...</text>
<polygon fill="#ffffff" stroke="transparent" points="304,-37.7 304,-56.7 347,-56.7 347,-37.7 304,-37.7"/>
<polygon fill="none" stroke="#000000" points="304,-37.7 304,-56.7 347,-56.7 347,-37.7 304,-37.7"/>
<text text-anchor="start" x="307" y="-43.8" font-family="Helvetica,sans-Serif" font-size="11.00" fill="#000000">&lt; 3</text>
<polygon fill="#ffffff" stroke="transparent" points="347,-37.7 347,-56.7 396,-56.7 396,-37.7 347,-37.7"/>
<polygon fill="none" stroke="#000000" points="347,-37.7 347,-56.7 396,-56.7 396,-37.7 347,-37.7"/>
<text text-anchor="start" x="360.6105" y="-43.8" font-family="Helvetica,sans-Serif" font-size="11.00" fill="#000000">0 rows</text>
<polygon fill="#ffffff" stroke="transparent" points="396,-37.7 396,-56.7 419,-56.7 419,-37.7 396,-37.7"/>
<polygon fill="none" stroke="#000000" points="396,-37.7 396,-56.7 419,-56.7 419,-37.7 396,-37.7"/>
<text text-anchor="start" x="409.8862" y="-43.8" font-family="Helvetica,sans-Serif" font-size="11.00" fill="#000000"> &#160;</text>
</a>
</g>
</g>
<!-- security_check&#45;&gt;job_outcome_policy -->
<g id="edge8" class="edge">
<title>security_check:w&#45;&gt;job_outcome_policy:e</title>
<path fill="none" stroke="#000000" d="M289.3531,-65.9006C250.2229,-67.1314 229.4727,-74.8061 203,-109.7 162.9969,-162.4285 228.1857,-404.7 162,-404.7"/>
<polygon fill="#000000" stroke="#000000" points="296.0008,-65.8096 304.0493,-69.2997 300.0004,-65.7548 304,-65.7 304,-65.7 304,-65.7 300.0004,-65.7548 303.9507,-62.1003 296.0008,-65.8096 296.0008,-65.8096"/>
<ellipse fill="none" stroke="#000000" cx="292.8011" cy="-65.8535" rx="3.2" ry="3.2"/>
</g>
</g>
</svg>
