<?xml version="1.0" encoding="UTF-8" standalone="no"?>
<!DOCTYPE svg PUBLIC "-//W3C//DTD SVG 1.1//EN"
 "http://www.w3.org/Graphics/SVG/1.1/DTD/svg11.dtd">
<!-- Generated by graphviz version 2.40.1 (20161225.0304)
 -->
<!-- Title: oneDegreeRelationshipsDiagram Pages: 1 -->
<svg width="449pt" height="399pt"
 viewBox="0.00 0.00 449.00 398.70" xmlns="http://www.w3.org/2000/svg" xmlns:xlink="http://www.w3.org/1999/xlink">
<g id="graph0" class="graph" transform="scale(1 1) rotate(0) translate(4 394.7)">
<title>oneDegreeRelationshipsDiagram</title>
<polygon fill="#ffffff" stroke="transparent" points="-4,4 -4,-394.7 445,-394.7 445,4 -4,4"/>
<text text-anchor="middle" x="72.4936" y="-7.3" font-family="Helvetica,sans-Serif" font-size="11.00" fill="#000000">Generated by SchemaSpy</text>
<!-- library_usage -->
<g id="node1" class="node">
<title>library_usage</title>
<g id="a_node1"><a xlink:href="../../tables/library_usage.html" xlink:title="library_usage" target="_top">
<polygon fill="#ffffff" stroke="transparent" points="240,-186.7 240,-386.7 433,-386.7 433,-186.7 240,-186.7"/>
<polygon fill="#f5f5f5" stroke="transparent" points="242.5,-361.7 242.5,-384.7 431.5,-384.7 431.5,-361.7 242.5,-361.7"/>
<polygon fill="none" stroke="#000000" points="242.5,-361.7 242.5,-384.7 431.5,-384.7 431.5,-361.7 242.5,-361.7"/>
<text text-anchor="start" x="247.5" y="-370.8" font-family="Helvetica,sans-Serif" font-weight="bold" font-size="11.00" fill="#000000">library_usage</text>
<text text-anchor="start" x="396.5437" y="-369.8" font-family="Helvetica,sans-Serif" font-size="11.00" fill="#000000">[table]</text>
<polygon fill="none" stroke="#000000" points="242.5,-339.7 242.5,-361.7 358.5,-361.7 358.5,-339.7 242.5,-339.7"/>
<image xlink:href="../../images/primaryKeys.png" width="11px" height="12px" preserveAspectRatio="xMinYMin meet" x="247.5" y="-356.7"/>
<text text-anchor="start" x="262.5" y="-346.8" font-family="Helvetica,sans-Serif" font-size="11.00" fill="#000000">library_usage_id</text>
<polygon fill="none" stroke="#000000" points="358.5,-339.7 358.5,-361.7 431.5,-361.7 431.5,-339.7 358.5,-339.7"/>
<text text-anchor="start" x="361.5" y="-347.4" font-family="Helvetica,sans-Serif" font-size="11.00" fill="#000000">bigint[19]</text>
<polygon fill="#ffffff" stroke="transparent" points="242.5,-317.7 242.5,-339.7 358.5,-339.7 358.5,-317.7 242.5,-317.7"/>
<polygon fill="none" stroke="#000000" points="242.5,-317.7 242.5,-339.7 358.5,-339.7 358.5,-317.7 242.5,-317.7"/>
<text text-anchor="start" x="262.5" y="-324.8" font-family="Helvetica,sans-Serif" font-size="11.00" fill="#000000">class_name</text>
<polygon fill="none" stroke="#000000" points="358.5,-317.7 358.5,-339.7 431.5,-339.7 431.5,-317.7 358.5,-317.7"/>
<text text-anchor="start" x="361.5" y="-325.4" font-family="Helvetica,sans-Serif" font-size="11.00" fill="#000000">varchar[200]</text>
<polygon fill="none" stroke="#000000" points="242.5,-295.7 242.5,-317.7 358.5,-317.7 358.5,-295.7 242.5,-295.7"/>
<text text-anchor="start" x="262.5" y="-302.8" font-family="Helvetica,sans-Serif" font-size="11.00" fill="#000000">first_seen</text>
<polygon fill="none" stroke="#000000" points="358.5,-295.7 358.5,-317.7 431.5,-317.7 431.5,-295.7 358.5,-295.7"/>
<text text-anchor="start" x="361.5" y="-303.4" font-family="Helvetica,sans-Serif" font-size="11.00" fill="#000000">datetime[19]</text>
<polygon fill="none" stroke="#000000" points="242.5,-273.7 242.5,-295.7 358.5,-295.7 358.5,-273.7 242.5,-273.7"/>
<text text-anchor="start" x="262.5" y="-280.8" font-family="Helvetica,sans-Serif" font-size="11.00" fill="#000000">last_seen</text>
<polygon fill="none" stroke="#000000" points="358.5,-273.7 358.5,-295.7 431.5,-295.7 431.5,-273.7 358.5,-273.7"/>
<text text-anchor="start" x="361.5" y="-281.4" font-family="Helvetica,sans-Serif" font-size="11.00" fill="#000000">datetime[19]</text>
<polygon fill="#ffffff" stroke="transparent" points="242.5,-251.7 242.5,-273.7 358.5,-273.7 358.5,-251.7 242.5,-251.7"/>
<polygon fill="none" stroke="#000000" points="242.5,-251.7 242.5,-273.7 358.5,-273.7 358.5,-251.7 242.5,-251.7"/>
<image xlink:href="../../images/foreignKeys.png" width="11px" height="12px" preserveAspectRatio="xMinYMin meet" x="247.5" y="-268.7"/>
<text text-anchor="start" x="262.5" y="-258.8" font-family="Helvetica,sans-Serif" font-size="11.00" fill="#000000">application_id</text>
<polygon fill="none" stroke="#000000" points="358.5,-251.7 358.5,-273.7 431.5,-273.7 431.5,-251.7 358.5,-251.7"/>
<text text-anchor="start" x="361.5" y="-259.4" font-family="Helvetica,sans-Serif" font-size="11.00" fill="#000000">varchar[255]</text>
<polygon fill="#ffffff" stroke="transparent" points="242.5,-229.7 242.5,-251.7 358.5,-251.7 358.5,-229.7 242.5,-229.7"/>
<polygon fill="none" stroke="#000000" points="242.5,-229.7 242.5,-251.7 358.5,-251.7 358.5,-229.7 242.5,-229.7"/>
<text text-anchor="start" x="262.5" y="-236.8" font-family="Helvetica,sans-Serif" font-size="11.00" fill="#000000">sha1</text>
<polygon fill="none" stroke="#000000" points="358.5,-229.7 358.5,-251.7 431.5,-251.7 431.5,-229.7 358.5,-229.7"/>
<text text-anchor="start" x="361.5" y="-237.4" font-family="Helvetica,sans-Serif" font-size="11.00" fill="#000000">varchar[255]</text>
<polygon fill="none" stroke="#000000" points="242.5,-207.7 242.5,-229.7 358.5,-229.7 358.5,-207.7 242.5,-207.7"/>
<text text-anchor="start" x="262.5" y="-214.8" font-family="Helvetica,sans-Serif" font-size="11.00" fill="#000000">full_class_path</text>
<polygon fill="none" stroke="#000000" points="358.5,-207.7 358.5,-229.7 431.5,-229.7 431.5,-207.7 358.5,-207.7"/>
<text text-anchor="start" x="361.3791" y="-215.4" font-family="Helvetica,sans-Serif" font-size="11.00" fill="#000000">varchar[5000]</text>
<polygon fill="#ffffff" stroke="transparent" points="242.5,-188.7 242.5,-207.7 291.5,-207.7 291.5,-188.7 242.5,-188.7"/>
<polygon fill="none" stroke="#000000" points="242.5,-188.7 242.5,-207.7 291.5,-207.7 291.5,-188.7 242.5,-188.7"/>
<text text-anchor="start" x="245.5" y="-194.8" font-family="Helvetica,sans-Serif" font-size="11.00" fill="#000000">&lt; 1</text>
<polygon fill="#ffffff" stroke="transparent" points="291.5,-188.7 291.5,-207.7 358.5,-207.7 358.5,-188.7 291.5,-188.7"/>
<polygon fill="none" stroke="#000000" points="291.5,-188.7 291.5,-207.7 358.5,-207.7 358.5,-188.7 291.5,-188.7"/>
<text text-anchor="start" x="323.1105" y="-194.8" font-family="Helvetica,sans-Serif" font-size="11.00" fill="#000000">0 rows</text>
<polygon fill="#ffffff" stroke="transparent" points="358.5,-188.7 358.5,-207.7 431.5,-207.7 431.5,-188.7 358.5,-188.7"/>
<polygon fill="none" stroke="#000000" points="358.5,-188.7 358.5,-207.7 431.5,-207.7 431.5,-188.7 358.5,-188.7"/>
<text text-anchor="start" x="412.9053" y="-194.8" font-family="Helvetica,sans-Serif" font-size="11.00" fill="#000000">0 &gt;</text>
<polygon fill="none" stroke="#000000" stroke-width="2" points="241,-187.7 241,-385.7 432,-385.7 432,-187.7 241,-187.7"/>
</a>
</g>
</g>
<!-- applications -->
<g id="node2" class="node">
<title>applications</title>
<g id="a_node2"><a xlink:href="../../tables/applications.html" xlink:title="applications" target="_top">
<polygon fill="#ffffff" stroke="transparent" points="8,-38.2 8,-297.2 191,-297.2 191,-38.2 8,-38.2"/>
<polygon fill="#f5f5f5" stroke="transparent" points="8.5,-273.7 8.5,-296.7 191.5,-296.7 191.5,-273.7 8.5,-273.7"/>
<polygon fill="none" stroke="#000000" points="8.5,-273.7 8.5,-296.7 191.5,-296.7 191.5,-273.7 8.5,-273.7"/>
<text text-anchor="start" x="13.5" y="-282.8" font-family="Helvetica,sans-Serif" font-weight="bold" font-size="11.00" fill="#000000">applications</text>
<text text-anchor="start" x="156.5437" y="-281.8" font-family="Helvetica,sans-Serif" font-size="11.00" fill="#000000">[table]</text>
<polygon fill="none" stroke="#000000" points="8.5,-251.7 8.5,-273.7 191.5,-273.7 191.5,-251.7 8.5,-251.7"/>
<image xlink:href="../../images/primaryKeys.png" width="11px" height="12px" preserveAspectRatio="xMinYMin meet" x="13.5" y="-268.7"/>
<text text-anchor="start" x="28.5" y="-258.8" font-family="Helvetica,sans-Serif" font-size="11.00" fill="#000000">application_id</text>
<polygon fill="#ffffff" stroke="transparent" points="8.5,-229.7 8.5,-251.7 191.5,-251.7 191.5,-229.7 8.5,-229.7"/>
<polygon fill="none" stroke="#000000" points="8.5,-229.7 8.5,-251.7 191.5,-251.7 191.5,-229.7 8.5,-229.7"/>
<text text-anchor="start" x="28.5" y="-236.8" font-family="Helvetica,sans-Serif" font-size="11.00" fill="#000000">app_name</text>
<polygon fill="#ffffff" stroke="transparent" points="8.5,-207.7 8.5,-229.7 191.5,-229.7 191.5,-207.7 8.5,-207.7"/>
<polygon fill="none" stroke="#000000" points="8.5,-207.7 8.5,-229.7 191.5,-229.7 191.5,-207.7 8.5,-207.7"/>
<text text-anchor="start" x="28.5" y="-214.8" font-family="Helvetica,sans-Serif" font-size="11.00" fill="#000000">app_short_name</text>
<polygon fill="#ffffff" stroke="transparent" points="8.5,-185.7 8.5,-207.7 191.5,-207.7 191.5,-185.7 8.5,-185.7"/>
<polygon fill="none" stroke="#000000" points="8.5,-185.7 8.5,-207.7 191.5,-207.7 191.5,-185.7 8.5,-185.7"/>
<image xlink:href="../../images/foreignKeys.png" width="11px" height="12px" preserveAspectRatio="xMinYMin meet" x="13.5" y="-202.7"/>
<text text-anchor="start" x="28.5" y="-192.8" font-family="Helvetica,sans-Serif" font-size="11.00" fill="#000000">app_license_fk</text>
<polygon fill="#ffffff" stroke="transparent" points="8.5,-163.7 8.5,-185.7 191.5,-185.7 191.5,-163.7 8.5,-163.7"/>
<polygon fill="none" stroke="#000000" points="8.5,-163.7 8.5,-185.7 191.5,-185.7 191.5,-163.7 8.5,-163.7"/>
<image xlink:href="../../images/foreignKeys.png" width="11px" height="12px" preserveAspectRatio="xMinYMin meet" x="13.5" y="-180.7"/>
<text text-anchor="start" x="28.5" y="-170.8" font-family="Helvetica,sans-Serif" font-size="11.00" fill="#000000">app_parent_fk</text>
<polygon fill="#ffffff" stroke="transparent" points="8.5,-141.7 8.5,-163.7 191.5,-163.7 191.5,-141.7 8.5,-141.7"/>
<polygon fill="none" stroke="#000000" points="8.5,-141.7 8.5,-163.7 191.5,-163.7 191.5,-141.7 8.5,-141.7"/>
<text text-anchor="start" x="28.5" y="-148.8" font-family="Helvetica,sans-Serif" font-size="11.00" fill="#000000">app_display_name</text>
<polygon fill="#ffffff" stroke="transparent" points="8.5,-119.7 8.5,-141.7 191.5,-141.7 191.5,-119.7 8.5,-119.7"/>
<polygon fill="none" stroke="#000000" points="8.5,-119.7 8.5,-141.7 191.5,-141.7 191.5,-119.7 8.5,-119.7"/>
<text text-anchor="start" x="28.5" y="-126.8" font-family="Helvetica,sans-Serif" font-size="11.00" fill="#000000">importance</text>
<polygon fill="#ffffff" stroke="transparent" points="8.5,-97.7 8.5,-119.7 191.5,-119.7 191.5,-97.7 8.5,-97.7"/>
<polygon fill="none" stroke="#000000" points="8.5,-97.7 8.5,-119.7 191.5,-119.7 191.5,-97.7 8.5,-97.7"/>
<image xlink:href="../../images/foreignKeys.png" width="11px" height="12px" preserveAspectRatio="xMinYMin meet" x="13.5" y="-114.7"/>
<text text-anchor="start" x="28.5" y="-104.8" font-family="Helvetica,sans-Serif" font-size="11.00" fill="#000000">organizations_id</text>
<polygon fill="#ffffff" stroke="transparent" points="8.5,-75.7 8.5,-97.7 191.5,-97.7 191.5,-75.7 8.5,-75.7"/>
<polygon fill="none" stroke="#000000" points="8.5,-75.7 8.5,-97.7 191.5,-97.7 191.5,-75.7 8.5,-75.7"/>
<text text-anchor="start" x="28.5" y="-82.8" font-family="Helvetica,sans-Serif" font-size="11.00" fill="#000000">agent_language</text>
<polygon fill="none" stroke="#000000" points="8.5,-56.7 8.5,-75.7 191.5,-75.7 191.5,-56.7 8.5,-56.7"/>
<text text-anchor="start" x="11.5" y="-62.8" font-family="Helvetica,sans-Serif" font-size="11.00" fill="#000000">...</text>
<polygon fill="#ffffff" stroke="transparent" points="8.5,-37.7 8.5,-56.7 77.5,-56.7 77.5,-37.7 8.5,-37.7"/>
<polygon fill="none" stroke="#000000" points="8.5,-37.7 8.5,-56.7 77.5,-56.7 77.5,-37.7 8.5,-37.7"/>
<text text-anchor="start" x="11.5" y="-43.8" font-family="Helvetica,sans-Serif" font-size="11.00" fill="#000000">&lt; 3</text>
<polygon fill="#ffffff" stroke="transparent" points="77.5,-37.7 77.5,-56.7 139.5,-56.7 139.5,-37.7 77.5,-37.7"/>
<polygon fill="none" stroke="#000000" points="77.5,-37.7 77.5,-56.7 139.5,-56.7 139.5,-37.7 77.5,-37.7"/>
<text text-anchor="start" x="104.1105" y="-43.8" font-family="Helvetica,sans-Serif" font-size="11.00" fill="#000000">0 rows</text>
<polygon fill="#ffffff" stroke="transparent" points="139.5,-37.7 139.5,-56.7 191.5,-56.7 191.5,-37.7 139.5,-37.7"/>
<polygon fill="none" stroke="#000000" points="139.5,-37.7 139.5,-56.7 191.5,-56.7 191.5,-37.7 139.5,-37.7"/>
<text text-anchor="start" x="166.7904" y="-43.8" font-family="Helvetica,sans-Serif" font-size="11.00" fill="#000000">57 &gt;</text>
</a>
</g>
</g>
<!-- library_usage&#45;&gt;applications -->
<g id="edge1" class="edge">
<title>library_usage:w&#45;&gt;applications:e</title>
<path fill="none" stroke="#000000" d="M227.776,-262.7C215.7815,-262.7 208.3229,-262.7 191.5,-262.7"/>
<polygon fill="#000000" stroke="#000000" points="234.5,-262.7001 242.5,-266.3 238.5,-262.7 242.5,-262.7 242.5,-262.7 242.5,-262.7 238.5,-262.7 242.5,-259.1 234.5,-262.7001 234.5,-262.7001"/>
<ellipse fill="none" stroke="#000000" cx="231.3" cy="-262.7001" rx="3.2" ry="3.2"/>
</g>
</g>
</svg>
