<?xml version="1.0" encoding="UTF-8" standalone="no"?>
<!DOCTYPE svg PUBLIC "-//W3C//DTD SVG 1.1//EN"
 "http://www.w3.org/Graphics/SVG/1.1/DTD/svg11.dtd">
<!-- Generated by graphviz version 2.40.1 (20161225.0304)
 -->
<!-- Title: oneDegreeRelationshipsDiagram Pages: 1 -->
<svg width="361pt" height="160pt"
 viewBox="0.00 0.00 361.00 160.20" xmlns="http://www.w3.org/2000/svg" xmlns:xlink="http://www.w3.org/1999/xlink">
<g id="graph0" class="graph" transform="scale(1 1) rotate(0) translate(4 156.2)">
<title>oneDegreeRelationshipsDiagram</title>
<polygon fill="#ffffff" stroke="transparent" points="-4,4 -4,-156.2 357,-156.2 357,4 -4,4"/>
<text text-anchor="middle" x="72.4936" y="-7.3" font-family="Helvetica,sans-Serif" font-size="11.00" fill="#000000">Generated by SchemaSpy</text>
<!-- library_license -->
<g id="node1" class="node">
<title>library_license</title>
<g id="a_node1"><a xlink:href="../../tables/library_license.html" xlink:title="library_license" target="_top">
<polygon fill="#ffffff" stroke="transparent" points="169,-58.2 169,-148.2 345,-148.2 345,-58.2 169,-58.2"/>
<polygon fill="#f5f5f5" stroke="transparent" points="171,-123.2 171,-146.2 343,-146.2 343,-123.2 171,-123.2"/>
<polygon fill="none" stroke="#000000" points="171,-123.2 171,-146.2 343,-146.2 343,-123.2 171,-123.2"/>
<text text-anchor="start" x="176" y="-132.3" font-family="Helvetica,sans-Serif" font-weight="bold" font-size="11.00" fill="#000000">library_license</text>
<text text-anchor="start" x="308.0437" y="-131.3" font-family="Helvetica,sans-Serif" font-size="11.00" fill="#000000">[table]</text>
<polygon fill="none" stroke="#000000" points="171,-101.2 171,-123.2 276,-123.2 276,-101.2 171,-101.2"/>
<image xlink:href="../../images/primaryKeys.png" width="11px" height="12px" preserveAspectRatio="xMinYMin meet" x="176" y="-118.2"/>
<text text-anchor="start" x="191" y="-108.3" font-family="Helvetica,sans-Serif" font-size="11.00" fill="#000000">library_id</text>
<polygon fill="none" stroke="#000000" points="276,-101.2 276,-123.2 343,-123.2 343,-101.2 276,-101.2"/>
<text text-anchor="start" x="279" y="-108.9" font-family="Helvetica,sans-Serif" font-size="11.00" fill="#000000">int[10]</text>
<polygon fill="none" stroke="#000000" points="171,-79.2 171,-101.2 276,-101.2 276,-79.2 171,-79.2"/>
<image xlink:href="../../images/primaryKeys.png" width="11px" height="12px" preserveAspectRatio="xMinYMin meet" x="176" y="-96.2"/>
<text text-anchor="start" x="191" y="-86.3" font-family="Helvetica,sans-Serif" font-size="11.00" fill="#000000">license</text>
<polygon fill="none" stroke="#000000" points="276,-79.2 276,-101.2 343,-101.2 343,-79.2 276,-79.2"/>
<text text-anchor="start" x="278.9365" y="-86.9" font-family="Helvetica,sans-Serif" font-size="11.00" fill="#000000">varchar[255]</text>
<polygon fill="#ffffff" stroke="transparent" points="171,-60.2 171,-79.2 215,-79.2 215,-60.2 171,-60.2"/>
<polygon fill="none" stroke="#000000" points="171,-60.2 171,-79.2 215,-79.2 215,-60.2 171,-60.2"/>
<text text-anchor="start" x="174" y="-66.3" font-family="Helvetica,sans-Serif" font-size="11.00" fill="#000000">&lt; 1</text>
<polygon fill="#ffffff" stroke="transparent" points="215,-60.2 215,-79.2 276,-79.2 276,-60.2 215,-60.2"/>
<polygon fill="none" stroke="#000000" points="215,-60.2 215,-79.2 276,-79.2 276,-60.2 215,-60.2"/>
<text text-anchor="start" x="240.6105" y="-66.3" font-family="Helvetica,sans-Serif" font-size="11.00" fill="#000000">0 rows</text>
<polygon fill="#ffffff" stroke="transparent" points="276,-60.2 276,-79.2 343,-79.2 343,-60.2 276,-60.2"/>
<polygon fill="none" stroke="#000000" points="276,-60.2 276,-79.2 343,-79.2 343,-60.2 276,-60.2"/>
<text text-anchor="start" x="324.4053" y="-66.3" font-family="Helvetica,sans-Serif" font-size="11.00" fill="#000000">0 &gt;</text>
<polygon fill="none" stroke="#000000" stroke-width="2" points="170,-59.2 170,-147.2 344,-147.2 344,-59.2 170,-59.2"/>
</a>
</g>
</g>
<!-- library -->
<g id="node2" class="node">
<title>library</title>
<g id="a_node2"><a xlink:href="../../tables/library.html" xlink:title="library" target="_top">
<polygon fill="#ffffff" stroke="transparent" points="8,-38.2 8,-146.2 120,-146.2 120,-38.2 8,-38.2"/>
<polygon fill="#f5f5f5" stroke="transparent" points="8,-123.2 8,-146.2 120,-146.2 120,-123.2 8,-123.2"/>
<polygon fill="none" stroke="#000000" points="8,-123.2 8,-146.2 120,-146.2 120,-123.2 8,-123.2"/>
<text text-anchor="start" x="13" y="-132.3" font-family="Helvetica,sans-Serif" font-weight="bold" font-size="11.00" fill="#000000">library</text>
<text text-anchor="start" x="85.0437" y="-131.3" font-family="Helvetica,sans-Serif" font-size="11.00" fill="#000000">[table]</text>
<polygon fill="none" stroke="#000000" points="8,-101.2 8,-123.2 120,-123.2 120,-101.2 8,-101.2"/>
<image xlink:href="../../images/primaryKeys.png" width="11px" height="12px" preserveAspectRatio="xMinYMin meet" x="13" y="-118.2"/>
<text text-anchor="start" x="28" y="-108.3" font-family="Helvetica,sans-Serif" font-size="11.00" fill="#000000">id</text>
<polygon fill="none" stroke="#000000" points="8,-79.2 8,-101.2 120,-101.2 120,-79.2 8,-79.2"/>
<image xlink:href="../../images/primaryKeys.png" width="11px" height="12px" preserveAspectRatio="xMinYMin meet" x="13" y="-96.2"/>
<text text-anchor="start" x="28" y="-86.3" font-family="Helvetica,sans-Serif" font-size="11.00" fill="#000000">hash</text>
<polygon fill="none" stroke="#000000" points="8,-57.2 8,-79.2 120,-79.2 120,-57.2 8,-57.2"/>
<image xlink:href="../../images/primaryKeys.png" width="11px" height="12px" preserveAspectRatio="xMinYMin meet" x="13" y="-74.2"/>
<text text-anchor="start" x="28" y="-64.3" font-family="Helvetica,sans-Serif" font-size="11.00" fill="#000000">agent_language</text>
<polygon fill="#ffffff" stroke="transparent" points="8,-38.2 8,-57.2 40,-57.2 40,-38.2 8,-38.2"/>
<polygon fill="none" stroke="#000000" points="8,-38.2 8,-57.2 40,-57.2 40,-38.2 8,-38.2"/>
<text text-anchor="start" x="11" y="-44.3" font-family="Helvetica,sans-Serif" font-size="11.00" fill="#000000"> &#160;</text>
<polygon fill="#ffffff" stroke="transparent" points="40,-38.2 40,-57.2 88,-57.2 88,-38.2 40,-38.2"/>
<polygon fill="none" stroke="#000000" points="40,-38.2 40,-57.2 88,-57.2 88,-38.2 40,-38.2"/>
<text text-anchor="start" x="52.6105" y="-44.3" font-family="Helvetica,sans-Serif" font-size="11.00" fill="#000000">0 rows</text>
<polygon fill="#ffffff" stroke="transparent" points="88,-38.2 88,-57.2 120,-57.2 120,-38.2 88,-38.2"/>
<polygon fill="none" stroke="#000000" points="88,-38.2 88,-57.2 120,-57.2 120,-38.2 88,-38.2"/>
<text text-anchor="start" x="101.4053" y="-44.3" font-family="Helvetica,sans-Serif" font-size="11.00" fill="#000000">4 &gt;</text>
</a>
</g>
</g>
<!-- library_license&#45;&gt;library -->
<g id="edge1" class="edge">
<title>library_license:w&#45;&gt;library:e</title>
<path fill="none" stroke="#000000" d="M156.276,-112.2C144.2815,-112.2 136.8229,-112.2 120,-112.2"/>
<polygon fill="#000000" stroke="#000000" points="163,-112.2001 171,-115.8 167,-112.2 171,-112.2 171,-112.2 171,-112.2 167,-112.2 171,-108.6 163,-112.2001 163,-112.2001"/>
<ellipse fill="none" stroke="#000000" cx="159.8" cy="-112.2001" rx="3.2" ry="3.2"/>
</g>
</g>
</svg>
