<?xml version="1.0" encoding="UTF-8" standalone="no"?>
<!DOCTYPE svg PUBLIC "-//W3C//DTD SVG 1.1//EN"
 "http://www.w3.org/Graphics/SVG/1.1/DTD/svg11.dtd">
<!-- Generated by graphviz version 2.40.1 (20161225.0304)
 -->
<!-- Title: oneDegreeRelationshipsDiagram Pages: 1 -->
<svg width="387pt" height="499pt"
 viewBox="0.00 0.00 387.00 498.70" xmlns="http://www.w3.org/2000/svg" xmlns:xlink="http://www.w3.org/1999/xlink">
<g id="graph0" class="graph" transform="scale(1 1) rotate(0) translate(4 494.7)">
<title>oneDegreeRelationshipsDiagram</title>
<polygon fill="#ffffff" stroke="transparent" points="-4,4 -4,-494.7 383,-494.7 383,4 -4,4"/>
<text text-anchor="middle" x="72.4936" y="-7.3" font-family="Helvetica,sans-Serif" font-size="11.00" fill="#000000">Generated by SchemaSpy</text>
<!-- artifacts_dot_net -->
<g id="node1" class="node">
<title>artifacts_dot_net</title>
<g id="a_node1"><a xlink:href="../../tables/artifacts_dot_net.html" xlink:title="artifacts_dot_net" target="_top">
<polygon fill="#ffffff" stroke="transparent" points="240,-208.2 240,-379.2 371,-379.2 371,-208.2 240,-208.2"/>
<polygon fill="#f5f5f5" stroke="transparent" points="240.5,-355.7 240.5,-378.7 371.5,-378.7 371.5,-355.7 240.5,-355.7"/>
<polygon fill="none" stroke="#000000" points="240.5,-355.7 240.5,-378.7 371.5,-378.7 371.5,-355.7 240.5,-355.7"/>
<text text-anchor="start" x="245.5" y="-364.8" font-family="Helvetica,sans-Serif" font-weight="bold" font-size="11.00" fill="#000000">artifacts_dot_net</text>
<text text-anchor="start" x="336.5437" y="-363.8" font-family="Helvetica,sans-Serif" font-size="11.00" fill="#000000">[table]</text>
<polygon fill="none" stroke="#000000" points="240.5,-333.7 240.5,-355.7 371.5,-355.7 371.5,-333.7 240.5,-333.7"/>
<image xlink:href="../../images/primaryKeys.png" width="11px" height="12px" preserveAspectRatio="xMinYMin meet" x="245.5" y="-350.7"/>
<text text-anchor="start" x="260.5" y="-340.8" font-family="Helvetica,sans-Serif" font-size="11.00" fill="#000000">id</text>
<polygon fill="#ffffff" stroke="transparent" points="240.5,-311.7 240.5,-333.7 371.5,-333.7 371.5,-311.7 240.5,-311.7"/>
<polygon fill="none" stroke="#000000" points="240.5,-311.7 240.5,-333.7 371.5,-333.7 371.5,-311.7 240.5,-311.7"/>
<text text-anchor="start" x="260.5" y="-318.8" font-family="Helvetica,sans-Serif" font-size="11.00" fill="#000000">version</text>
<polygon fill="#ffffff" stroke="transparent" points="240.5,-289.7 240.5,-311.7 371.5,-311.7 371.5,-289.7 240.5,-289.7"/>
<polygon fill="none" stroke="#000000" points="240.5,-289.7 240.5,-311.7 371.5,-311.7 371.5,-289.7 240.5,-289.7"/>
<image xlink:href="../../images/foreignKeys.png" width="11px" height="12px" preserveAspectRatio="xMinYMin meet" x="245.5" y="-306.7"/>
<text text-anchor="start" x="260.5" y="-296.8" font-family="Helvetica,sans-Serif" font-size="11.00" fill="#000000">hash</text>
<polygon fill="#ffffff" stroke="transparent" points="240.5,-267.7 240.5,-289.7 371.5,-289.7 371.5,-267.7 240.5,-267.7"/>
<polygon fill="none" stroke="#000000" points="240.5,-267.7 240.5,-289.7 371.5,-289.7 371.5,-267.7 240.5,-267.7"/>
<text text-anchor="start" x="260.5" y="-274.8" font-family="Helvetica,sans-Serif" font-size="11.00" fill="#000000">group_name</text>
<polygon fill="#ffffff" stroke="transparent" points="240.5,-245.7 240.5,-267.7 371.5,-267.7 371.5,-245.7 240.5,-245.7"/>
<polygon fill="none" stroke="#000000" points="240.5,-245.7 240.5,-267.7 371.5,-267.7 371.5,-245.7 240.5,-245.7"/>
<text text-anchor="start" x="260.5" y="-252.8" font-family="Helvetica,sans-Serif" font-size="11.00" fill="#000000">artifact_name</text>
<polygon fill="none" stroke="#000000" points="240.5,-226.7 240.5,-245.7 371.5,-245.7 371.5,-226.7 240.5,-226.7"/>
<text text-anchor="start" x="243.5" y="-232.8" font-family="Helvetica,sans-Serif" font-size="11.00" fill="#000000">...</text>
<polygon fill="#ffffff" stroke="transparent" points="240.5,-207.7 240.5,-226.7 286.5,-226.7 286.5,-207.7 240.5,-207.7"/>
<polygon fill="none" stroke="#000000" points="240.5,-207.7 240.5,-226.7 286.5,-226.7 286.5,-207.7 240.5,-207.7"/>
<text text-anchor="start" x="243.5" y="-213.8" font-family="Helvetica,sans-Serif" font-size="11.00" fill="#000000">&lt; 1</text>
<polygon fill="#ffffff" stroke="transparent" points="286.5,-207.7 286.5,-226.7 337.5,-226.7 337.5,-207.7 286.5,-207.7"/>
<polygon fill="none" stroke="#000000" points="286.5,-207.7 286.5,-226.7 337.5,-226.7 337.5,-207.7 286.5,-207.7"/>
<text text-anchor="start" x="302.1105" y="-213.8" font-family="Helvetica,sans-Serif" font-size="11.00" fill="#000000">0 rows</text>
<polygon fill="#ffffff" stroke="transparent" points="337.5,-207.7 337.5,-226.7 371.5,-226.7 371.5,-207.7 337.5,-207.7"/>
<polygon fill="none" stroke="#000000" points="337.5,-207.7 337.5,-226.7 371.5,-226.7 371.5,-207.7 337.5,-207.7"/>
<text text-anchor="start" x="352.9053" y="-213.8" font-family="Helvetica,sans-Serif" font-size="11.00" fill="#000000">1 &gt;</text>
</a>
</g>
</g>
<!-- library -->
<g id="node2" class="node">
<title>library</title>
<g id="a_node2"><a xlink:href="../../tables/library.html" xlink:title="library" target="_top">
<polygon fill="#ffffff" stroke="transparent" points="8,-161.7 8,-273.7 191,-273.7 191,-161.7 8,-161.7"/>
<polygon fill="#f5f5f5" stroke="transparent" points="10.5,-248.7 10.5,-271.7 189.5,-271.7 189.5,-248.7 10.5,-248.7"/>
<polygon fill="none" stroke="#000000" points="10.5,-248.7 10.5,-271.7 189.5,-271.7 189.5,-248.7 10.5,-248.7"/>
<text text-anchor="start" x="15.5" y="-257.8" font-family="Helvetica,sans-Serif" font-weight="bold" font-size="11.00" fill="#000000">library</text>
<text text-anchor="start" x="154.5437" y="-256.8" font-family="Helvetica,sans-Serif" font-size="11.00" fill="#000000">[table]</text>
<polygon fill="none" stroke="#000000" points="10.5,-226.7 10.5,-248.7 122.5,-248.7 122.5,-226.7 10.5,-226.7"/>
<image xlink:href="../../images/primaryKeys.png" width="11px" height="12px" preserveAspectRatio="xMinYMin meet" x="15.5" y="-243.7"/>
<text text-anchor="start" x="30.5" y="-233.8" font-family="Helvetica,sans-Serif" font-size="11.00" fill="#000000">id</text>
<polygon fill="none" stroke="#000000" points="122.5,-226.7 122.5,-248.7 189.5,-248.7 189.5,-226.7 122.5,-226.7"/>
<text text-anchor="start" x="125.5" y="-234.4" font-family="Helvetica,sans-Serif" font-size="11.00" fill="#000000">int[10]</text>
<polygon fill="none" stroke="#000000" points="10.5,-204.7 10.5,-226.7 122.5,-226.7 122.5,-204.7 10.5,-204.7"/>
<image xlink:href="../../images/primaryKeys.png" width="11px" height="12px" preserveAspectRatio="xMinYMin meet" x="15.5" y="-221.7"/>
<text text-anchor="start" x="30.5" y="-211.8" font-family="Helvetica,sans-Serif" font-size="11.00" fill="#000000">hash</text>
<polygon fill="none" stroke="#000000" points="122.5,-204.7 122.5,-226.7 189.5,-226.7 189.5,-204.7 122.5,-204.7"/>
<text text-anchor="start" x="125.4365" y="-212.4" font-family="Helvetica,sans-Serif" font-size="11.00" fill="#000000">varchar[255]</text>
<polygon fill="none" stroke="#000000" points="10.5,-182.7 10.5,-204.7 122.5,-204.7 122.5,-182.7 10.5,-182.7"/>
<image xlink:href="../../images/primaryKeys.png" width="11px" height="12px" preserveAspectRatio="xMinYMin meet" x="15.5" y="-199.7"/>
<text text-anchor="start" x="30.5" y="-189.8" font-family="Helvetica,sans-Serif" font-size="11.00" fill="#000000">agent_language</text>
<polygon fill="none" stroke="#000000" points="122.5,-182.7 122.5,-204.7 189.5,-204.7 189.5,-182.7 122.5,-182.7"/>
<text text-anchor="start" x="125.5" y="-190.4" font-family="Helvetica,sans-Serif" font-size="11.00" fill="#000000">varchar[20]</text>
<polygon fill="#ffffff" stroke="transparent" points="10.5,-163.7 10.5,-182.7 57.5,-182.7 57.5,-163.7 10.5,-163.7"/>
<polygon fill="none" stroke="#000000" points="10.5,-163.7 10.5,-182.7 57.5,-182.7 57.5,-163.7 10.5,-163.7"/>
<text text-anchor="start" x="13.5" y="-169.8" font-family="Helvetica,sans-Serif" font-size="11.00" fill="#000000">&lt; 0</text>
<polygon fill="#ffffff" stroke="transparent" points="57.5,-163.7 57.5,-182.7 122.5,-182.7 122.5,-163.7 57.5,-163.7"/>
<polygon fill="none" stroke="#000000" points="57.5,-163.7 57.5,-182.7 122.5,-182.7 122.5,-163.7 57.5,-163.7"/>
<text text-anchor="start" x="87.1105" y="-169.8" font-family="Helvetica,sans-Serif" font-size="11.00" fill="#000000">0 rows</text>
<polygon fill="#ffffff" stroke="transparent" points="122.5,-163.7 122.5,-182.7 189.5,-182.7 189.5,-163.7 122.5,-163.7"/>
<polygon fill="none" stroke="#000000" points="122.5,-163.7 122.5,-182.7 189.5,-182.7 189.5,-163.7 122.5,-163.7"/>
<text text-anchor="start" x="170.9053" y="-169.8" font-family="Helvetica,sans-Serif" font-size="11.00" fill="#000000">4 &gt;</text>
<polygon fill="none" stroke="#000000" stroke-width="2" points="9,-162.7 9,-272.7 190,-272.7 190,-162.7 9,-162.7"/>
</a>
</g>
</g>
<!-- artifacts_dot_net&#45;&gt;library -->
<g id="edge1" class="edge">
<title>artifacts_dot_net:w&#45;&gt;library:e</title>
<path fill="none" stroke="#000000" d="M230.1156,-298.5989C202.6891,-285.5096 229.4258,-215.7 189.5,-215.7"/>
<polygon fill="#000000" stroke="#000000" points="240.5092,-296.6208 238.9226,-304.4619 237.3544,-304.1446 238.941,-296.3035 240.5092,-296.6208"/>
<polyline fill="none" stroke="#000000" points="240.5,-300.7 236.5794,-299.9067 "/>
<ellipse fill="none" stroke="#000000" cx="233.443" cy="-299.2721" rx="3.2" ry="3.2"/>
</g>
<!-- library_license -->
<g id="node3" class="node">
<title>library_license</title>
<g id="a_node3"><a xlink:href="../../tables/library_license.html" xlink:title="library_license" target="_top">
<polygon fill="#ffffff" stroke="transparent" points="249,-400.7 249,-486.7 362,-486.7 362,-400.7 249,-400.7"/>
<polygon fill="#f5f5f5" stroke="transparent" points="249.5,-463.7 249.5,-486.7 362.5,-486.7 362.5,-463.7 249.5,-463.7"/>
<polygon fill="none" stroke="#000000" points="249.5,-463.7 249.5,-486.7 362.5,-486.7 362.5,-463.7 249.5,-463.7"/>
<text text-anchor="start" x="254.3616" y="-472.8" font-family="Helvetica,sans-Serif" font-weight="bold" font-size="11.00" fill="#000000">library_license</text>
<text text-anchor="start" x="328.0219" y="-471.8" font-family="Helvetica,sans-Serif" font-size="11.00" fill="#000000">[table]</text>
<polygon fill="none" stroke="#000000" points="249.5,-441.7 249.5,-463.7 362.5,-463.7 362.5,-441.7 249.5,-441.7"/>
<image xlink:href="../../images/primaryKeys.png" width="11px" height="12px" preserveAspectRatio="xMinYMin meet" x="254.5" y="-458.7"/>
<text text-anchor="start" x="273.5" y="-448.8" font-family="Helvetica,sans-Serif" font-size="11.00" fill="#000000">library_id</text>
<polygon fill="none" stroke="#000000" points="249.5,-419.7 249.5,-441.7 362.5,-441.7 362.5,-419.7 249.5,-419.7"/>
<image xlink:href="../../images/primaryKeys.png" width="11px" height="12px" preserveAspectRatio="xMinYMin meet" x="254.5" y="-436.7"/>
<text text-anchor="start" x="273.5" y="-426.8" font-family="Helvetica,sans-Serif" font-size="11.00" fill="#000000">license</text>
<polygon fill="#ffffff" stroke="transparent" points="249.5,-400.7 249.5,-419.7 291.5,-419.7 291.5,-400.7 249.5,-400.7"/>
<polygon fill="none" stroke="#000000" points="249.5,-400.7 249.5,-419.7 291.5,-419.7 291.5,-400.7 249.5,-400.7"/>
<text text-anchor="start" x="252.5" y="-406.8" font-family="Helvetica,sans-Serif" font-size="11.00" fill="#000000">&lt; 1</text>
<polygon fill="#ffffff" stroke="transparent" points="291.5,-400.7 291.5,-419.7 339.5,-419.7 339.5,-400.7 291.5,-400.7"/>
<polygon fill="none" stroke="#000000" points="291.5,-400.7 291.5,-419.7 339.5,-419.7 339.5,-400.7 291.5,-400.7"/>
<text text-anchor="start" x="304.1105" y="-406.8" font-family="Helvetica,sans-Serif" font-size="11.00" fill="#000000">0 rows</text>
<polygon fill="#ffffff" stroke="transparent" points="339.5,-400.7 339.5,-419.7 362.5,-419.7 362.5,-400.7 339.5,-400.7"/>
<polygon fill="none" stroke="#000000" points="339.5,-400.7 339.5,-419.7 362.5,-419.7 362.5,-400.7 339.5,-400.7"/>
<text text-anchor="start" x="353.3862" y="-406.8" font-family="Helvetica,sans-Serif" font-size="11.00" fill="#000000"> &#160;</text>
</a>
</g>
</g>
<!-- library_license&#45;&gt;library -->
<g id="edge2" class="edge">
<title>library_license:w&#45;&gt;library:e</title>
<path fill="none" stroke="#000000" d="M234.8432,-450.7089C165.2106,-429.0343 283.0876,-237.7 189.5,-237.7"/>
<polygon fill="#000000" stroke="#000000" points="241.5728,-451.623 249.0154,-456.2672 245.5364,-452.1615 249.5,-452.7 249.5,-452.7 249.5,-452.7 245.5364,-452.1615 249.9846,-449.1328 241.5728,-451.623 241.5728,-451.623"/>
<ellipse fill="none" stroke="#000000" cx="238.4019" cy="-451.1923" rx="3.2" ry="3.2"/>
</g>
<!-- org_libraries -->
<g id="node4" class="node">
<title>org_libraries</title>
<g id="a_node4"><a xlink:href="../../tables/org_libraries.html" xlink:title="org_libraries" target="_top">
<polygon fill="#ffffff" stroke="transparent" points="247.5,-38.2 247.5,-187.2 363.5,-187.2 363.5,-38.2 247.5,-38.2"/>
<polygon fill="#f5f5f5" stroke="transparent" points="247.5,-163.7 247.5,-186.7 363.5,-186.7 363.5,-163.7 247.5,-163.7"/>
<polygon fill="none" stroke="#000000" points="247.5,-163.7 247.5,-186.7 363.5,-186.7 363.5,-163.7 247.5,-163.7"/>
<text text-anchor="start" x="252.5" y="-172.8" font-family="Helvetica,sans-Serif" font-weight="bold" font-size="11.00" fill="#000000">org_libraries</text>
<text text-anchor="start" x="328.5437" y="-171.8" font-family="Helvetica,sans-Serif" font-size="11.00" fill="#000000">[table]</text>
<polygon fill="none" stroke="#000000" points="247.5,-141.7 247.5,-163.7 363.5,-163.7 363.5,-141.7 247.5,-141.7"/>
<image xlink:href="../../images/primaryKeys.png" width="11px" height="12px" preserveAspectRatio="xMinYMin meet" x="252.5" y="-158.7"/>
<text text-anchor="start" x="267.5" y="-148.8" font-family="Helvetica,sans-Serif" font-size="11.00" fill="#000000">id</text>
<polygon fill="#ffffff" stroke="transparent" points="247.5,-119.7 247.5,-141.7 363.5,-141.7 363.5,-119.7 247.5,-119.7"/>
<polygon fill="none" stroke="#000000" points="247.5,-119.7 247.5,-141.7 363.5,-141.7 363.5,-119.7 247.5,-119.7"/>
<image xlink:href="../../images/foreignKeys.png" width="11px" height="12px" preserveAspectRatio="xMinYMin meet" x="252.5" y="-136.7"/>
<text text-anchor="start" x="267.5" y="-126.8" font-family="Helvetica,sans-Serif" font-size="11.00" fill="#000000">sha1</text>
<polygon fill="#ffffff" stroke="transparent" points="247.5,-97.7 247.5,-119.7 363.5,-119.7 363.5,-97.7 247.5,-97.7"/>
<polygon fill="none" stroke="#000000" points="247.5,-97.7 247.5,-119.7 363.5,-119.7 363.5,-97.7 247.5,-97.7"/>
<image xlink:href="../../images/foreignKeys.png" width="11px" height="12px" preserveAspectRatio="xMinYMin meet" x="252.5" y="-114.7"/>
<text text-anchor="start" x="267.5" y="-104.8" font-family="Helvetica,sans-Serif" font-size="11.00" fill="#000000">organizations_id</text>
<polygon fill="#ffffff" stroke="transparent" points="247.5,-75.7 247.5,-97.7 363.5,-97.7 363.5,-75.7 247.5,-75.7"/>
<polygon fill="none" stroke="#000000" points="247.5,-75.7 247.5,-97.7 363.5,-97.7 363.5,-75.7 247.5,-75.7"/>
<image xlink:href="../../images/foreignKeys.png" width="11px" height="12px" preserveAspectRatio="xMinYMin meet" x="252.5" y="-92.7"/>
<text text-anchor="start" x="267.5" y="-82.8" font-family="Helvetica,sans-Serif" font-size="11.00" fill="#000000">agent_language</text>
<polygon fill="none" stroke="#000000" points="247.5,-56.7 247.5,-75.7 363.5,-75.7 363.5,-56.7 247.5,-56.7"/>
<text text-anchor="start" x="250.5" y="-62.8" font-family="Helvetica,sans-Serif" font-size="11.00" fill="#000000">...</text>
<polygon fill="#ffffff" stroke="transparent" points="247.5,-37.7 247.5,-56.7 286.5,-56.7 286.5,-37.7 247.5,-37.7"/>
<polygon fill="none" stroke="#000000" points="247.5,-37.7 247.5,-56.7 286.5,-56.7 286.5,-37.7 247.5,-37.7"/>
<text text-anchor="start" x="250.5" y="-43.8" font-family="Helvetica,sans-Serif" font-size="11.00" fill="#000000">&lt; 3</text>
<polygon fill="#ffffff" stroke="transparent" points="286.5,-37.7 286.5,-56.7 333.5,-56.7 333.5,-37.7 286.5,-37.7"/>
<polygon fill="none" stroke="#000000" points="286.5,-37.7 286.5,-56.7 333.5,-56.7 333.5,-37.7 286.5,-37.7"/>
<text text-anchor="start" x="298.1105" y="-43.8" font-family="Helvetica,sans-Serif" font-size="11.00" fill="#000000">0 rows</text>
<polygon fill="#ffffff" stroke="transparent" points="333.5,-37.7 333.5,-56.7 363.5,-56.7 363.5,-37.7 333.5,-37.7"/>
<polygon fill="none" stroke="#000000" points="333.5,-37.7 333.5,-56.7 363.5,-56.7 363.5,-37.7 333.5,-37.7"/>
<text text-anchor="start" x="344.9053" y="-43.8" font-family="Helvetica,sans-Serif" font-size="11.00" fill="#000000">2 &gt;</text>
</a>
</g>
</g>
<!-- org_libraries&#45;&gt;library -->
<g id="edge3" class="edge">
<title>org_libraries:w&#45;&gt;library:e</title>
<path fill="none" stroke="#000000" d="M233.2203,-90.2601C203.1379,-108.8262 237.6763,-193.7 189.5,-193.7"/>
<polygon fill="#000000" stroke="#000000" points="239.7376,-88.6353 248.3709,-90.1931 243.6188,-87.6676 247.5,-86.7 247.5,-86.7 247.5,-86.7 243.6188,-87.6676 246.6291,-83.2069 239.7376,-88.6353 239.7376,-88.6353"/>
<ellipse fill="none" stroke="#000000" cx="236.6326" cy="-89.4094" rx="3.2" ry="3.2"/>
</g>
<!-- org_libraries&#45;&gt;library -->
<g id="edge4" class="edge">
<title>org_libraries:w&#45;&gt;library:e</title>
<path fill="none" stroke="#000000" d="M233.4226,-134.5731C209.0781,-151.2016 229.3391,-215.7 189.5,-215.7"/>
<polygon fill="#000000" stroke="#000000" points="239.7866,-132.8222 248.455,-134.171 243.6433,-131.7611 247.5,-130.7 247.5,-130.7 247.5,-130.7 243.6433,-131.7611 246.545,-127.229 239.7866,-132.8222 239.7866,-132.8222"/>
<ellipse fill="none" stroke="#000000" cx="236.7013" cy="-133.6711" rx="3.2" ry="3.2"/>
</g>
</g>
</svg>
