<?xml version="1.0" encoding="UTF-8" standalone="no"?>
<!DOCTYPE svg PUBLIC "-//W3C//DTD SVG 1.1//EN"
 "http://www.w3.org/Graphics/SVG/1.1/DTD/svg11.dtd">
<!-- Generated by graphviz version 2.40.1 (20161225.0304)
 -->
<!-- Title: oneDegreeRelationshipsDiagram Pages: 1 -->
<svg width="682pt" height="372pt"
 viewBox="0.00 0.00 682.00 371.70" xmlns="http://www.w3.org/2000/svg" xmlns:xlink="http://www.w3.org/1999/xlink">
<g id="graph0" class="graph" transform="scale(1 1) rotate(0) translate(4 367.7)">
<title>oneDegreeRelationshipsDiagram</title>
<polygon fill="#ffffff" stroke="transparent" points="-4,4 -4,-367.7 678,-367.7 678,4 -4,4"/>
<text text-anchor="middle" x="72.4936" y="-7.3" font-family="Helvetica,sans-Serif" font-size="11.00" fill="#000000">Generated by SchemaSpy</text>
<!-- message -->
<g id="node1" class="node">
<title>message</title>
<g id="a_node1"><a xlink:href="../../tables/message.html" xlink:title="message" target="_top">
<polygon fill="#ffffff" stroke="transparent" points="282,-137.7 282,-359.7 470,-359.7 470,-137.7 282,-137.7"/>
<polygon fill="#f5f5f5" stroke="transparent" points="284,-334.7 284,-357.7 468,-357.7 468,-334.7 284,-334.7"/>
<polygon fill="none" stroke="#000000" points="284,-334.7 284,-357.7 468,-357.7 468,-334.7 284,-334.7"/>
<text text-anchor="start" x="289" y="-343.8" font-family="Helvetica,sans-Serif" font-weight="bold" font-size="11.00" fill="#000000">message</text>
<text text-anchor="start" x="433.0437" y="-342.8" font-family="Helvetica,sans-Serif" font-size="11.00" fill="#000000">[table]</text>
<polygon fill="none" stroke="#000000" points="284,-312.7 284,-334.7 395,-334.7 395,-312.7 284,-312.7"/>
<image xlink:href="../../images/primaryKeys.png" width="11px" height="12px" preserveAspectRatio="xMinYMin meet" x="289" y="-329.7"/>
<text text-anchor="start" x="304" y="-319.8" font-family="Helvetica,sans-Serif" font-size="11.00" fill="#000000">message_id</text>
<polygon fill="none" stroke="#000000" points="395,-312.7 395,-334.7 468,-334.7 468,-312.7 395,-312.7"/>
<text text-anchor="start" x="398" y="-320.4" font-family="Helvetica,sans-Serif" font-size="11.00" fill="#000000">bigint[19]</text>
<polygon fill="none" stroke="#000000" points="284,-290.7 284,-312.7 395,-312.7 395,-290.7 284,-290.7"/>
<text text-anchor="start" x="304" y="-297.8" font-family="Helvetica,sans-Serif" font-size="11.00" fill="#000000">creation</text>
<polygon fill="none" stroke="#000000" points="395,-290.7 395,-312.7 468,-312.7 468,-290.7 395,-290.7"/>
<text text-anchor="start" x="398" y="-298.4" font-family="Helvetica,sans-Serif" font-size="11.00" fill="#000000">datetime[19]</text>
<polygon fill="none" stroke="#000000" points="284,-268.7 284,-290.7 395,-290.7 395,-268.7 284,-268.7"/>
<text text-anchor="start" x="304" y="-275.8" font-family="Helvetica,sans-Serif" font-size="11.00" fill="#000000">expiration</text>
<polygon fill="none" stroke="#000000" points="395,-268.7 395,-290.7 468,-290.7 468,-268.7 395,-268.7"/>
<text text-anchor="start" x="398" y="-276.4" font-family="Helvetica,sans-Serif" font-size="11.00" fill="#000000">datetime[19]</text>
<polygon fill="none" stroke="#000000" points="284,-246.7 284,-268.7 395,-268.7 395,-246.7 284,-246.7"/>
<text text-anchor="start" x="304" y="-253.8" font-family="Helvetica,sans-Serif" font-size="11.00" fill="#000000">message</text>
<polygon fill="none" stroke="#000000" points="395,-246.7 395,-268.7 468,-268.7 468,-246.7 395,-246.7"/>
<text text-anchor="start" x="397.8791" y="-254.4" font-family="Helvetica,sans-Serif" font-size="11.00" fill="#000000">varchar[4000]</text>
<polygon fill="none" stroke="#000000" points="284,-224.7 284,-246.7 395,-246.7 395,-224.7 284,-224.7"/>
<text text-anchor="start" x="304" y="-231.8" font-family="Helvetica,sans-Serif" font-size="11.00" fill="#000000">title</text>
<polygon fill="none" stroke="#000000" points="395,-224.7 395,-246.7 468,-246.7 468,-224.7 395,-224.7"/>
<text text-anchor="start" x="397.8791" y="-232.4" font-family="Helvetica,sans-Serif" font-size="11.00" fill="#000000">varchar[4000]</text>
<polygon fill="none" stroke="#000000" points="284,-202.7 284,-224.7 395,-224.7 395,-202.7 284,-202.7"/>
<text text-anchor="start" x="304" y="-209.8" font-family="Helvetica,sans-Serif" font-size="11.00" fill="#000000">message_type</text>
<polygon fill="none" stroke="#000000" points="395,-202.7 395,-224.7 468,-224.7 468,-202.7 395,-202.7"/>
<text text-anchor="start" x="398" y="-210.4" font-family="Helvetica,sans-Serif" font-size="11.00" fill="#000000">int[10]</text>
<polygon fill="#ffffff" stroke="transparent" points="284,-180.7 284,-202.7 395,-202.7 395,-180.7 284,-180.7"/>
<polygon fill="none" stroke="#000000" points="284,-180.7 284,-202.7 395,-202.7 395,-180.7 284,-180.7"/>
<image xlink:href="../../images/foreignKeys.png" width="11px" height="12px" preserveAspectRatio="xMinYMin meet" x="289" y="-197.7"/>
<text text-anchor="start" x="304" y="-187.8" font-family="Helvetica,sans-Serif" font-size="11.00" fill="#000000">user_creator_fk</text>
<polygon fill="none" stroke="#000000" points="395,-180.7 395,-202.7 468,-202.7 468,-180.7 395,-180.7"/>
<text text-anchor="start" x="398" y="-188.4" font-family="Helvetica,sans-Serif" font-size="11.00" fill="#000000">varchar[255]</text>
<polygon fill="#ffffff" stroke="transparent" points="284,-158.7 284,-180.7 395,-180.7 395,-158.7 284,-158.7"/>
<polygon fill="none" stroke="#000000" points="284,-158.7 284,-180.7 395,-180.7 395,-158.7 284,-158.7"/>
<text text-anchor="start" x="304" y="-165.8" font-family="Helvetica,sans-Serif" font-size="11.00" fill="#000000">trace_fk</text>
<polygon fill="none" stroke="#000000" points="395,-158.7 395,-180.7 468,-180.7 468,-158.7 395,-158.7"/>
<text text-anchor="start" x="398" y="-166.4" font-family="Helvetica,sans-Serif" font-size="11.00" fill="#000000">bigint[19]</text>
<polygon fill="#ffffff" stroke="transparent" points="284,-139.7 284,-158.7 331,-158.7 331,-139.7 284,-139.7"/>
<polygon fill="none" stroke="#000000" points="284,-139.7 284,-158.7 331,-158.7 331,-139.7 284,-139.7"/>
<text text-anchor="start" x="287" y="-145.8" font-family="Helvetica,sans-Serif" font-size="11.00" fill="#000000">&lt; 1</text>
<polygon fill="#ffffff" stroke="transparent" points="331,-139.7 331,-158.7 395,-158.7 395,-139.7 331,-139.7"/>
<polygon fill="none" stroke="#000000" points="331,-139.7 331,-158.7 395,-158.7 395,-139.7 331,-139.7"/>
<text text-anchor="start" x="359.6105" y="-145.8" font-family="Helvetica,sans-Serif" font-size="11.00" fill="#000000">0 rows</text>
<polygon fill="#ffffff" stroke="transparent" points="395,-139.7 395,-158.7 468,-158.7 468,-139.7 395,-139.7"/>
<polygon fill="none" stroke="#000000" points="395,-139.7 395,-158.7 468,-158.7 468,-139.7 395,-139.7"/>
<text text-anchor="start" x="449.4053" y="-145.8" font-family="Helvetica,sans-Serif" font-size="11.00" fill="#000000">1 &gt;</text>
<polygon fill="none" stroke="#000000" stroke-width="2" points="283,-138.7 283,-358.7 469,-358.7 469,-138.7 283,-138.7"/>
</a>
</g>
</g>
<!-- users -->
<g id="node2" class="node">
<title>users</title>
<g id="a_node2"><a xlink:href="../../tables/users.html" xlink:title="users" target="_top">
<polygon fill="#ffffff" stroke="transparent" points="8,-38.2 8,-187.2 233,-187.2 233,-38.2 8,-38.2"/>
<polygon fill="#f5f5f5" stroke="transparent" points="8.5,-163.7 8.5,-186.7 233.5,-186.7 233.5,-163.7 8.5,-163.7"/>
<polygon fill="none" stroke="#000000" points="8.5,-163.7 8.5,-186.7 233.5,-186.7 233.5,-163.7 8.5,-163.7"/>
<text text-anchor="start" x="13.5" y="-172.8" font-family="Helvetica,sans-Serif" font-weight="bold" font-size="11.00" fill="#000000">users</text>
<text text-anchor="start" x="198.5437" y="-171.8" font-family="Helvetica,sans-Serif" font-size="11.00" fill="#000000">[table]</text>
<polygon fill="none" stroke="#000000" points="8.5,-141.7 8.5,-163.7 233.5,-163.7 233.5,-141.7 8.5,-141.7"/>
<image xlink:href="../../images/primaryKeys.png" width="11px" height="12px" preserveAspectRatio="xMinYMin meet" x="13.5" y="-158.7"/>
<text text-anchor="start" x="28.5" y="-148.8" font-family="Helvetica,sans-Serif" font-size="11.00" fill="#000000">user_id</text>
<polygon fill="#ffffff" stroke="transparent" points="8.5,-119.7 8.5,-141.7 233.5,-141.7 233.5,-119.7 8.5,-119.7"/>
<polygon fill="none" stroke="#000000" points="8.5,-119.7 8.5,-141.7 233.5,-141.7 233.5,-119.7 8.5,-119.7"/>
<text text-anchor="start" x="28.5" y="-126.8" font-family="Helvetica,sans-Serif" font-size="11.00" fill="#000000">user_uid</text>
<polygon fill="#ffffff" stroke="transparent" points="8.5,-97.7 8.5,-119.7 233.5,-119.7 233.5,-97.7 8.5,-97.7"/>
<polygon fill="none" stroke="#000000" points="8.5,-97.7 8.5,-119.7 233.5,-119.7 233.5,-97.7 8.5,-97.7"/>
<image xlink:href="../../images/foreignKeys.png" width="11px" height="12px" preserveAspectRatio="xMinYMin meet" x="13.5" y="-114.7"/>
<text text-anchor="start" x="28.5" y="-104.8" font-family="Helvetica,sans-Serif" font-size="11.00" fill="#000000">default_org</text>
<polygon fill="#ffffff" stroke="transparent" points="8.5,-75.7 8.5,-97.7 233.5,-97.7 233.5,-75.7 8.5,-75.7"/>
<polygon fill="none" stroke="#000000" points="8.5,-75.7 8.5,-97.7 233.5,-97.7 233.5,-75.7 8.5,-75.7"/>
<text text-anchor="start" x="28.5" y="-82.8" font-family="Helvetica,sans-Serif" font-size="11.00" fill="#000000">type</text>
<polygon fill="none" stroke="#000000" points="8.5,-56.7 8.5,-75.7 233.5,-75.7 233.5,-56.7 8.5,-56.7"/>
<text text-anchor="start" x="11.5" y="-62.8" font-family="Helvetica,sans-Serif" font-size="11.00" fill="#000000">...</text>
<polygon fill="#ffffff" stroke="transparent" points="8.5,-37.7 8.5,-56.7 98.5,-56.7 98.5,-37.7 8.5,-37.7"/>
<polygon fill="none" stroke="#000000" points="8.5,-37.7 8.5,-56.7 98.5,-56.7 98.5,-37.7 8.5,-37.7"/>
<text text-anchor="start" x="11.5" y="-43.8" font-family="Helvetica,sans-Serif" font-size="11.00" fill="#000000">&lt; 1</text>
<polygon fill="#ffffff" stroke="transparent" points="98.5,-37.7 98.5,-56.7 171.5,-56.7 171.5,-37.7 98.5,-37.7"/>
<polygon fill="none" stroke="#000000" points="98.5,-37.7 98.5,-56.7 171.5,-56.7 171.5,-37.7 98.5,-37.7"/>
<text text-anchor="start" x="136.1105" y="-43.8" font-family="Helvetica,sans-Serif" font-size="11.00" fill="#000000">6 rows</text>
<polygon fill="#ffffff" stroke="transparent" points="171.5,-37.7 171.5,-56.7 233.5,-56.7 233.5,-37.7 171.5,-37.7"/>
<polygon fill="none" stroke="#000000" points="171.5,-37.7 171.5,-56.7 233.5,-56.7 233.5,-37.7 171.5,-37.7"/>
<text text-anchor="start" x="208.7904" y="-43.8" font-family="Helvetica,sans-Serif" font-size="11.00" fill="#000000">33 &gt;</text>
</a>
</g>
</g>
<!-- message&#45;&gt;users -->
<g id="edge1" class="edge">
<title>message:w&#45;&gt;users:e</title>
<path fill="none" stroke="#000000" d="M270.0207,-187.2262C256.7259,-176.9822 255.8765,-152.7 233.5,-152.7"/>
<polygon fill="#000000" stroke="#000000" points="276.3807,-189.2616 282.9027,-195.1287 280.1903,-190.4808 284,-191.7 284,-191.7 284,-191.7 280.1903,-190.4808 285.0973,-188.2713 276.3807,-189.2616 276.3807,-189.2616"/>
<ellipse fill="none" stroke="#000000" cx="273.3329" cy="-188.2862" rx="3.2" ry="3.2"/>
</g>
<!-- message_user_inbox -->
<g id="node3" class="node">
<title>message_user_inbox</title>
<g id="a_node3"><a xlink:href="../../tables/message_user_inbox.html" xlink:title="message_user_inbox" target="_top">
<polygon fill="#ffffff" stroke="transparent" points="519,-159.2 519,-286.2 666,-286.2 666,-159.2 519,-159.2"/>
<polygon fill="#f5f5f5" stroke="transparent" points="519.5,-262.7 519.5,-285.7 666.5,-285.7 666.5,-262.7 519.5,-262.7"/>
<polygon fill="none" stroke="#000000" points="519.5,-262.7 519.5,-285.7 666.5,-285.7 666.5,-262.7 519.5,-262.7"/>
<text text-anchor="start" x="524.2357" y="-271.8" font-family="Helvetica,sans-Serif" font-weight="bold" font-size="11.00" fill="#000000">message_user_inbox</text>
<text text-anchor="start" x="632.0219" y="-270.8" font-family="Helvetica,sans-Serif" font-size="11.00" fill="#000000">[table]</text>
<polygon fill="none" stroke="#000000" points="519.5,-240.7 519.5,-262.7 666.5,-262.7 666.5,-240.7 519.5,-240.7"/>
<image xlink:href="../../images/primaryKeys.png" width="11px" height="12px" preserveAspectRatio="xMinYMin meet" x="524.5" y="-257.7"/>
<text text-anchor="start" x="541.5" y="-247.8" font-family="Helvetica,sans-Serif" font-size="11.00" fill="#000000">message_user_id</text>
<polygon fill="#ffffff" stroke="transparent" points="519.5,-218.7 519.5,-240.7 666.5,-240.7 666.5,-218.7 519.5,-218.7"/>
<polygon fill="none" stroke="#000000" points="519.5,-218.7 519.5,-240.7 666.5,-240.7 666.5,-218.7 519.5,-218.7"/>
<image xlink:href="../../images/foreignKeys.png" width="11px" height="12px" preserveAspectRatio="xMinYMin meet" x="524.5" y="-235.7"/>
<text text-anchor="start" x="541.5" y="-225.8" font-family="Helvetica,sans-Serif" font-size="11.00" fill="#000000">message_fk</text>
<polygon fill="#ffffff" stroke="transparent" points="519.5,-196.7 519.5,-218.7 666.5,-218.7 666.5,-196.7 519.5,-196.7"/>
<polygon fill="none" stroke="#000000" points="519.5,-196.7 519.5,-218.7 666.5,-218.7 666.5,-196.7 519.5,-196.7"/>
<image xlink:href="../../images/foreignKeys.png" width="11px" height="12px" preserveAspectRatio="xMinYMin meet" x="524.5" y="-213.7"/>
<text text-anchor="start" x="541.5" y="-203.8" font-family="Helvetica,sans-Serif" font-size="11.00" fill="#000000">user_fk</text>
<polygon fill="none" stroke="#000000" points="519.5,-177.7 519.5,-196.7 666.5,-196.7 666.5,-177.7 519.5,-177.7"/>
<text text-anchor="start" x="522.5" y="-183.8" font-family="Helvetica,sans-Serif" font-size="11.00" fill="#000000">...</text>
<polygon fill="#ffffff" stroke="transparent" points="519.5,-158.7 519.5,-177.7 578.5,-177.7 578.5,-158.7 519.5,-158.7"/>
<polygon fill="none" stroke="#000000" points="519.5,-158.7 519.5,-177.7 578.5,-177.7 578.5,-158.7 519.5,-158.7"/>
<text text-anchor="start" x="522.5" y="-164.8" font-family="Helvetica,sans-Serif" font-size="11.00" fill="#000000">&lt; 2</text>
<polygon fill="#ffffff" stroke="transparent" points="578.5,-158.7 578.5,-177.7 635.5,-177.7 635.5,-158.7 578.5,-158.7"/>
<polygon fill="none" stroke="#000000" points="578.5,-158.7 578.5,-177.7 635.5,-177.7 635.5,-158.7 578.5,-158.7"/>
<text text-anchor="start" x="600.1105" y="-164.8" font-family="Helvetica,sans-Serif" font-size="11.00" fill="#000000">0 rows</text>
<polygon fill="#ffffff" stroke="transparent" points="635.5,-158.7 635.5,-177.7 666.5,-177.7 666.5,-158.7 635.5,-158.7"/>
<polygon fill="none" stroke="#000000" points="635.5,-158.7 635.5,-177.7 666.5,-177.7 666.5,-158.7 635.5,-158.7"/>
<text text-anchor="start" x="657.3862" y="-164.8" font-family="Helvetica,sans-Serif" font-size="11.00" fill="#000000"> &#160;</text>
</a>
</g>
</g>
<!-- message_user_inbox&#45;&gt;message -->
<g id="edge2" class="edge">
<title>message_user_inbox:w&#45;&gt;message:e</title>
<path fill="none" stroke="#000000" d="M505.5639,-233.7391C481.3782,-251.7313 509.6824,-323.7 468,-323.7"/>
<polygon fill="#000000" stroke="#000000" points="511.8162,-231.927 520.5022,-233.1577 515.6581,-230.8135 519.5,-229.7 519.5,-229.7 519.5,-229.7 515.6581,-230.8135 518.4978,-226.2423 511.8162,-231.927 511.8162,-231.927"/>
<ellipse fill="none" stroke="#000000" cx="508.7427" cy="-232.8178" rx="3.2" ry="3.2"/>
</g>
<!-- message_user_inbox&#45;&gt;users -->
<g id="edge3" class="edge">
<title>message_user_inbox:w&#45;&gt;users:e</title>
<path fill="none" stroke="#000000" d="M505.5256,-203.7366C488.0539,-190.1385 506.8803,-145.2533 478,-127.7 400.5217,-80.6091 361.2225,-102.9475 274,-127.7 253.6504,-133.4749 254.6532,-152.7 233.5,-152.7"/>
<polygon fill="#000000" stroke="#000000" points="511.8036,-205.5171 518.5177,-211.1634 515.6518,-206.6086 519.5,-207.7 519.5,-207.7 519.5,-207.7 515.6518,-206.6086 520.4823,-204.2366 511.8036,-205.5171 511.8036,-205.5171"/>
<ellipse fill="none" stroke="#000000" cx="508.725" cy="-204.644" rx="3.2" ry="3.2"/>
</g>
</g>
</svg>
