<?xml version="1.0" encoding="UTF-8" standalone="no"?>
<!DOCTYPE svg PUBLIC "-//W3C//DTD SVG 1.1//EN"
 "http://www.w3.org/Graphics/SVG/1.1/DTD/svg11.dtd">
<!-- Generated by graphviz version 2.40.1 (20161225.0304)
 -->
<!-- Title: oneDegreeRelationshipsDiagram Pages: 1 -->
<svg width="800pt" height="565pt"
 viewBox="0.00 0.00 800.09 564.70" xmlns="http://www.w3.org/2000/svg" xmlns:xlink="http://www.w3.org/1999/xlink">
<g id="graph0" class="graph" transform="scale(1 1) rotate(0) translate(4 560.7)">
<title>oneDegreeRelationshipsDiagram</title>
<polygon fill="#ffffff" stroke="transparent" points="-4,4 -4,-560.7 796.0898,-560.7 796.0898,4 -4,4"/>
<text text-anchor="middle" x="72.4936" y="-7.3" font-family="Helvetica,sans-Serif" font-size="11.00" fill="#000000">Generated by SchemaSpy</text>
<!-- applications -->
<g id="node1" class="node">
<title>applications</title>
<g id="a_node1"><a xlink:href="../../tables/applications.html" xlink:title="applications" target="_top">
<polygon fill="#ffffff" stroke="transparent" points="315,-230.2 315,-489.2 498,-489.2 498,-230.2 315,-230.2"/>
<polygon fill="#f5f5f5" stroke="transparent" points="315.5,-465.7 315.5,-488.7 498.5,-488.7 498.5,-465.7 315.5,-465.7"/>
<polygon fill="none" stroke="#000000" points="315.5,-465.7 315.5,-488.7 498.5,-488.7 498.5,-465.7 315.5,-465.7"/>
<text text-anchor="start" x="320.5" y="-474.8" font-family="Helvetica,sans-Serif" font-weight="bold" font-size="11.00" fill="#000000">applications</text>
<text text-anchor="start" x="463.5437" y="-473.8" font-family="Helvetica,sans-Serif" font-size="11.00" fill="#000000">[table]</text>
<polygon fill="none" stroke="#000000" points="315.5,-443.7 315.5,-465.7 498.5,-465.7 498.5,-443.7 315.5,-443.7"/>
<image xlink:href="../../images/primaryKeys.png" width="11px" height="12px" preserveAspectRatio="xMinYMin meet" x="320.5" y="-460.7"/>
<text text-anchor="start" x="335.5" y="-450.8" font-family="Helvetica,sans-Serif" font-size="11.00" fill="#000000">application_id</text>
<polygon fill="#ffffff" stroke="transparent" points="315.5,-421.7 315.5,-443.7 498.5,-443.7 498.5,-421.7 315.5,-421.7"/>
<polygon fill="none" stroke="#000000" points="315.5,-421.7 315.5,-443.7 498.5,-443.7 498.5,-421.7 315.5,-421.7"/>
<text text-anchor="start" x="335.5" y="-428.8" font-family="Helvetica,sans-Serif" font-size="11.00" fill="#000000">app_name</text>
<polygon fill="#ffffff" stroke="transparent" points="315.5,-399.7 315.5,-421.7 498.5,-421.7 498.5,-399.7 315.5,-399.7"/>
<polygon fill="none" stroke="#000000" points="315.5,-399.7 315.5,-421.7 498.5,-421.7 498.5,-399.7 315.5,-399.7"/>
<text text-anchor="start" x="335.5" y="-406.8" font-family="Helvetica,sans-Serif" font-size="11.00" fill="#000000">app_short_name</text>
<polygon fill="#ffffff" stroke="transparent" points="315.5,-377.7 315.5,-399.7 498.5,-399.7 498.5,-377.7 315.5,-377.7"/>
<polygon fill="none" stroke="#000000" points="315.5,-377.7 315.5,-399.7 498.5,-399.7 498.5,-377.7 315.5,-377.7"/>
<image xlink:href="../../images/foreignKeys.png" width="11px" height="12px" preserveAspectRatio="xMinYMin meet" x="320.5" y="-394.7"/>
<text text-anchor="start" x="335.5" y="-384.8" font-family="Helvetica,sans-Serif" font-size="11.00" fill="#000000">app_license_fk</text>
<polygon fill="#ffffff" stroke="transparent" points="315.5,-355.7 315.5,-377.7 498.5,-377.7 498.5,-355.7 315.5,-355.7"/>
<polygon fill="none" stroke="#000000" points="315.5,-355.7 315.5,-377.7 498.5,-377.7 498.5,-355.7 315.5,-355.7"/>
<image xlink:href="../../images/foreignKeys.png" width="11px" height="12px" preserveAspectRatio="xMinYMin meet" x="320.5" y="-372.7"/>
<text text-anchor="start" x="335.5" y="-362.8" font-family="Helvetica,sans-Serif" font-size="11.00" fill="#000000">app_parent_fk</text>
<polygon fill="#ffffff" stroke="transparent" points="315.5,-333.7 315.5,-355.7 498.5,-355.7 498.5,-333.7 315.5,-333.7"/>
<polygon fill="none" stroke="#000000" points="315.5,-333.7 315.5,-355.7 498.5,-355.7 498.5,-333.7 315.5,-333.7"/>
<text text-anchor="start" x="335.5" y="-340.8" font-family="Helvetica,sans-Serif" font-size="11.00" fill="#000000">app_display_name</text>
<polygon fill="#ffffff" stroke="transparent" points="315.5,-311.7 315.5,-333.7 498.5,-333.7 498.5,-311.7 315.5,-311.7"/>
<polygon fill="none" stroke="#000000" points="315.5,-311.7 315.5,-333.7 498.5,-333.7 498.5,-311.7 315.5,-311.7"/>
<text text-anchor="start" x="335.5" y="-318.8" font-family="Helvetica,sans-Serif" font-size="11.00" fill="#000000">importance</text>
<polygon fill="#ffffff" stroke="transparent" points="315.5,-289.7 315.5,-311.7 498.5,-311.7 498.5,-289.7 315.5,-289.7"/>
<polygon fill="none" stroke="#000000" points="315.5,-289.7 315.5,-311.7 498.5,-311.7 498.5,-289.7 315.5,-289.7"/>
<image xlink:href="../../images/foreignKeys.png" width="11px" height="12px" preserveAspectRatio="xMinYMin meet" x="320.5" y="-306.7"/>
<text text-anchor="start" x="335.5" y="-296.8" font-family="Helvetica,sans-Serif" font-size="11.00" fill="#000000">organizations_id</text>
<polygon fill="#ffffff" stroke="transparent" points="315.5,-267.7 315.5,-289.7 498.5,-289.7 498.5,-267.7 315.5,-267.7"/>
<polygon fill="none" stroke="#000000" points="315.5,-267.7 315.5,-289.7 498.5,-289.7 498.5,-267.7 315.5,-267.7"/>
<text text-anchor="start" x="335.5" y="-274.8" font-family="Helvetica,sans-Serif" font-size="11.00" fill="#000000">agent_language</text>
<polygon fill="none" stroke="#000000" points="315.5,-248.7 315.5,-267.7 498.5,-267.7 498.5,-248.7 315.5,-248.7"/>
<text text-anchor="start" x="318.5" y="-254.8" font-family="Helvetica,sans-Serif" font-size="11.00" fill="#000000">...</text>
<polygon fill="#ffffff" stroke="transparent" points="315.5,-229.7 315.5,-248.7 384.5,-248.7 384.5,-229.7 315.5,-229.7"/>
<polygon fill="none" stroke="#000000" points="315.5,-229.7 315.5,-248.7 384.5,-248.7 384.5,-229.7 315.5,-229.7"/>
<text text-anchor="start" x="318.5" y="-235.8" font-family="Helvetica,sans-Serif" font-size="11.00" fill="#000000">&lt; 3</text>
<polygon fill="#ffffff" stroke="transparent" points="384.5,-229.7 384.5,-248.7 446.5,-248.7 446.5,-229.7 384.5,-229.7"/>
<polygon fill="none" stroke="#000000" points="384.5,-229.7 384.5,-248.7 446.5,-248.7 446.5,-229.7 384.5,-229.7"/>
<text text-anchor="start" x="411.1105" y="-235.8" font-family="Helvetica,sans-Serif" font-size="11.00" fill="#000000">0 rows</text>
<polygon fill="#ffffff" stroke="transparent" points="446.5,-229.7 446.5,-248.7 498.5,-248.7 498.5,-229.7 446.5,-229.7"/>
<polygon fill="none" stroke="#000000" points="446.5,-229.7 446.5,-248.7 498.5,-248.7 498.5,-229.7 446.5,-229.7"/>
<text text-anchor="start" x="473.7904" y="-235.8" font-family="Helvetica,sans-Serif" font-size="11.00" fill="#000000">57 &gt;</text>
</a>
</g>
</g>
<!-- organizations -->
<g id="node2" class="node">
<title>organizations</title>
<g id="a_node2"><a xlink:href="../../tables/organizations.html" xlink:title="organizations" target="_top">
<polygon fill="#ffffff" stroke="transparent" points="8,-208.2 8,-423.2 266,-423.2 266,-208.2 8,-208.2"/>
<polygon fill="#f5f5f5" stroke="transparent" points="8,-399.7 8,-422.7 266,-422.7 266,-399.7 8,-399.7"/>
<polygon fill="none" stroke="#000000" points="8,-399.7 8,-422.7 266,-422.7 266,-399.7 8,-399.7"/>
<text text-anchor="start" x="13" y="-408.8" font-family="Helvetica,sans-Serif" font-weight="bold" font-size="11.00" fill="#000000">organizations</text>
<text text-anchor="start" x="231.0437" y="-407.8" font-family="Helvetica,sans-Serif" font-size="11.00" fill="#000000">[table]</text>
<polygon fill="#ffffff" stroke="transparent" points="8,-377.7 8,-399.7 266,-399.7 266,-377.7 8,-377.7"/>
<polygon fill="none" stroke="#000000" points="8,-377.7 8,-399.7 266,-399.7 266,-377.7 8,-377.7"/>
<text text-anchor="start" x="28" y="-384.8" font-family="Helvetica,sans-Serif" font-size="11.00" fill="#000000">name</text>
<polygon fill="#ffffff" stroke="transparent" points="8,-355.7 8,-377.7 266,-377.7 266,-355.7 8,-355.7"/>
<polygon fill="none" stroke="#000000" points="8,-355.7 8,-377.7 266,-377.7 266,-355.7 8,-355.7"/>
<image xlink:href="../../images/foreignKeys.png" width="11px" height="12px" preserveAspectRatio="xMinYMin meet" x="13" y="-372.7"/>
<text text-anchor="start" x="28" y="-362.8" font-family="Helvetica,sans-Serif" font-size="11.00" fill="#000000">configKey_fk</text>
<polygon fill="#ffffff" stroke="transparent" points="8,-333.7 8,-355.7 266,-355.7 266,-333.7 8,-333.7"/>
<polygon fill="none" stroke="#000000" points="8,-333.7 8,-355.7 266,-355.7 266,-333.7 8,-333.7"/>
<image xlink:href="../../images/foreignKeys.png" width="11px" height="12px" preserveAspectRatio="xMinYMin meet" x="13" y="-350.7"/>
<text text-anchor="start" x="28" y="-340.8" font-family="Helvetica,sans-Serif" font-size="11.00" fill="#000000">passwordPolicy_fk</text>
<polygon fill="#ffffff" stroke="transparent" points="8,-311.7 8,-333.7 266,-333.7 266,-311.7 8,-311.7"/>
<polygon fill="none" stroke="#000000" points="8,-311.7 8,-333.7 266,-333.7 266,-311.7 8,-311.7"/>
<image xlink:href="../../images/foreignKeys.png" width="11px" height="12px" preserveAspectRatio="xMinYMin meet" x="13" y="-328.7"/>
<text text-anchor="start" x="28" y="-318.8" font-family="Helvetica,sans-Serif" font-size="11.00" fill="#000000">report_settings_fk</text>
<polygon fill="none" stroke="#000000" points="8,-289.7 8,-311.7 266,-311.7 266,-289.7 8,-289.7"/>
<image xlink:href="../../images/primaryKeys.png" width="11px" height="12px" preserveAspectRatio="xMinYMin meet" x="13" y="-306.7"/>
<text text-anchor="start" x="28" y="-296.8" font-family="Helvetica,sans-Serif" font-size="11.00" fill="#000000">id</text>
<polygon fill="#ffffff" stroke="transparent" points="8,-267.7 8,-289.7 266,-289.7 266,-267.7 8,-267.7"/>
<polygon fill="none" stroke="#000000" points="8,-267.7 8,-289.7 266,-289.7 266,-267.7 8,-267.7"/>
<text text-anchor="start" x="28" y="-274.8" font-family="Helvetica,sans-Serif" font-size="11.00" fill="#000000">uuid</text>
<polygon fill="#ffffff" stroke="transparent" points="8,-245.7 8,-267.7 266,-267.7 266,-245.7 8,-245.7"/>
<polygon fill="none" stroke="#000000" points="8,-245.7 8,-267.7 266,-267.7 266,-245.7 8,-245.7"/>
<image xlink:href="../../images/foreignKeys.png" width="11px" height="12px" preserveAspectRatio="xMinYMin meet" x="13" y="-262.7"/>
<text text-anchor="start" x="28" y="-252.8" font-family="Helvetica,sans-Serif" font-size="11.00" fill="#000000">saml_idp_config_fk</text>
<polygon fill="none" stroke="#000000" points="8,-226.7 8,-245.7 266,-245.7 266,-226.7 8,-226.7"/>
<text text-anchor="start" x="11" y="-232.8" font-family="Helvetica,sans-Serif" font-size="11.00" fill="#000000">...</text>
<polygon fill="#ffffff" stroke="transparent" points="8,-207.7 8,-226.7 115,-226.7 115,-207.7 8,-207.7"/>
<polygon fill="none" stroke="#000000" points="8,-207.7 8,-226.7 115,-226.7 115,-207.7 8,-207.7"/>
<text text-anchor="start" x="11" y="-213.8" font-family="Helvetica,sans-Serif" font-size="11.00" fill="#000000">&lt; 4</text>
<polygon fill="#ffffff" stroke="transparent" points="115,-207.7 115,-226.7 196,-226.7 196,-207.7 115,-207.7"/>
<polygon fill="none" stroke="#000000" points="115,-207.7 115,-226.7 196,-226.7 196,-207.7 115,-207.7"/>
<text text-anchor="start" x="160.6105" y="-213.8" font-family="Helvetica,sans-Serif" font-size="11.00" fill="#000000">3 rows</text>
<polygon fill="#ffffff" stroke="transparent" points="196,-207.7 196,-226.7 266,-226.7 266,-207.7 196,-207.7"/>
<polygon fill="none" stroke="#000000" points="196,-207.7 196,-226.7 266,-226.7 266,-207.7 196,-207.7"/>
<text text-anchor="start" x="241.2904" y="-213.8" font-family="Helvetica,sans-Serif" font-size="11.00" fill="#000000">81 &gt;</text>
</a>
</g>
</g>
<!-- applications&#45;&gt;organizations -->
<g id="edge1" class="edge">
<title>applications:w&#45;&gt;organizations:e</title>
<path fill="none" stroke="#000000" d="M300.8428,-300.7C289.4139,-300.7 282.1563,-300.7 266,-300.7"/>
<polygon fill="#000000" stroke="#000000" points="307.5,-300.7001 315.5,-304.3 311.5,-300.7 315.5,-300.7 315.5,-300.7 315.5,-300.7 311.5,-300.7 315.5,-297.1 307.5,-300.7001 307.5,-300.7001"/>
<ellipse fill="none" stroke="#000000" cx="304.3" cy="-300.7001" rx="3.2" ry="3.2"/>
</g>
<!-- metadata_app -->
<g id="node3" class="node">
<title>metadata_app</title>
<g id="a_node3"><a xlink:href="../../tables/metadata_app.html" xlink:title="metadata_app" target="_top">
<polygon fill="#ffffff" stroke="transparent" points="547,-312.7 547,-534.7 756,-534.7 756,-312.7 547,-312.7"/>
<polygon fill="#f5f5f5" stroke="transparent" points="549.5,-509.7 549.5,-532.7 754.5,-532.7 754.5,-509.7 549.5,-509.7"/>
<polygon fill="none" stroke="#000000" points="549.5,-509.7 549.5,-532.7 754.5,-532.7 754.5,-509.7 549.5,-509.7"/>
<text text-anchor="start" x="554.5" y="-518.8" font-family="Helvetica,sans-Serif" font-weight="bold" font-size="11.00" fill="#000000">metadata_app</text>
<text text-anchor="start" x="719.5437" y="-517.8" font-family="Helvetica,sans-Serif" font-size="11.00" fill="#000000">[table]</text>
<polygon fill="none" stroke="#000000" points="549.5,-487.7 549.5,-509.7 671.5,-509.7 671.5,-487.7 549.5,-487.7"/>
<image xlink:href="../../images/primaryKeys.png" width="11px" height="12px" preserveAspectRatio="xMinYMin meet" x="554.5" y="-504.7"/>
<text text-anchor="start" x="569.5" y="-494.8" font-family="Helvetica,sans-Serif" font-size="11.00" fill="#000000">id</text>
<polygon fill="none" stroke="#000000" points="671.5,-487.7 671.5,-509.7 754.5,-509.7 754.5,-487.7 671.5,-487.7"/>
<text text-anchor="start" x="674.1783" y="-495.4" font-family="Helvetica,sans-Serif" font-size="11.00" fill="#000000">int unsigned[10]</text>
<polygon fill="#ffffff" stroke="transparent" points="549.5,-465.7 549.5,-487.7 671.5,-487.7 671.5,-465.7 549.5,-465.7"/>
<polygon fill="none" stroke="#000000" points="549.5,-465.7 549.5,-487.7 671.5,-487.7 671.5,-465.7 549.5,-465.7"/>
<image xlink:href="../../images/foreignKeys.png" width="11px" height="12px" preserveAspectRatio="xMinYMin meet" x="554.5" y="-482.7"/>
<text text-anchor="start" x="569.5" y="-472.8" font-family="Helvetica,sans-Serif" font-size="11.00" fill="#000000">organizations_id</text>
<polygon fill="none" stroke="#000000" points="671.5,-465.7 671.5,-487.7 754.5,-487.7 754.5,-465.7 671.5,-465.7"/>
<text text-anchor="start" x="674.1783" y="-473.4" font-family="Helvetica,sans-Serif" font-size="11.00" fill="#000000">int unsigned[10]</text>
<polygon fill="#ffffff" stroke="transparent" points="549.5,-443.7 549.5,-465.7 671.5,-465.7 671.5,-443.7 549.5,-443.7"/>
<polygon fill="none" stroke="#000000" points="549.5,-443.7 549.5,-465.7 671.5,-465.7 671.5,-443.7 549.5,-443.7"/>
<image xlink:href="../../images/foreignKeys.png" width="11px" height="12px" preserveAspectRatio="xMinYMin meet" x="554.5" y="-460.7"/>
<text text-anchor="start" x="569.5" y="-450.8" font-family="Helvetica,sans-Serif" font-size="11.00" fill="#000000">applications_id</text>
<polygon fill="none" stroke="#000000" points="671.5,-443.7 671.5,-465.7 754.5,-465.7 754.5,-443.7 671.5,-443.7"/>
<text text-anchor="start" x="674.5" y="-451.4" font-family="Helvetica,sans-Serif" font-size="11.00" fill="#000000">varchar[255]</text>
<polygon fill="none" stroke="#000000" points="549.5,-421.7 549.5,-443.7 671.5,-443.7 671.5,-421.7 549.5,-421.7"/>
<text text-anchor="start" x="569.5" y="-428.8" font-family="Helvetica,sans-Serif" font-size="11.00" fill="#000000">metadata_value</text>
<polygon fill="none" stroke="#000000" points="671.5,-421.7 671.5,-443.7 754.5,-443.7 754.5,-421.7 671.5,-421.7"/>
<text text-anchor="start" x="674.5" y="-429.4" font-family="Helvetica,sans-Serif" font-size="11.00" fill="#000000">varchar[255]</text>
<polygon fill="#ffffff" stroke="transparent" points="549.5,-399.7 549.5,-421.7 671.5,-421.7 671.5,-399.7 549.5,-399.7"/>
<polygon fill="none" stroke="#000000" points="549.5,-399.7 549.5,-421.7 671.5,-421.7 671.5,-399.7 549.5,-399.7"/>
<image xlink:href="../../images/foreignKeys.png" width="11px" height="12px" preserveAspectRatio="xMinYMin meet" x="554.5" y="-416.7"/>
<text text-anchor="start" x="569.5" y="-406.8" font-family="Helvetica,sans-Serif" font-size="11.00" fill="#000000">metadata_field_id</text>
<polygon fill="none" stroke="#000000" points="671.5,-399.7 671.5,-421.7 754.5,-421.7 754.5,-399.7 671.5,-399.7"/>
<text text-anchor="start" x="674.1783" y="-407.4" font-family="Helvetica,sans-Serif" font-size="11.00" fill="#000000">int unsigned[10]</text>
<polygon fill="#ffffff" stroke="transparent" points="549.5,-377.7 549.5,-399.7 671.5,-399.7 671.5,-377.7 549.5,-377.7"/>
<polygon fill="none" stroke="#000000" points="549.5,-377.7 549.5,-399.7 671.5,-399.7 671.5,-377.7 549.5,-377.7"/>
<image xlink:href="../../images/foreignKeys.png" width="11px" height="12px" preserveAspectRatio="xMinYMin meet" x="554.5" y="-394.7"/>
<text text-anchor="start" x="569.5" y="-384.8" font-family="Helvetica,sans-Serif" font-size="11.00" fill="#000000">parent_app_id</text>
<polygon fill="none" stroke="#000000" points="671.5,-377.7 671.5,-399.7 754.5,-399.7 754.5,-377.7 671.5,-377.7"/>
<text text-anchor="start" x="674.1783" y="-385.4" font-family="Helvetica,sans-Serif" font-size="11.00" fill="#000000">int unsigned[10]</text>
<polygon fill="none" stroke="#000000" points="549.5,-355.7 549.5,-377.7 671.5,-377.7 671.5,-355.7 549.5,-355.7"/>
<text text-anchor="start" x="569.5" y="-362.8" font-family="Helvetica,sans-Serif" font-size="11.00" fill="#000000">agent_value</text>
<polygon fill="none" stroke="#000000" points="671.5,-355.7 671.5,-377.7 754.5,-377.7 754.5,-355.7 671.5,-355.7"/>
<text text-anchor="start" x="674.5" y="-363.4" font-family="Helvetica,sans-Serif" font-size="11.00" fill="#000000">varchar[255]</text>
<polygon fill="none" stroke="#000000" points="549.5,-333.7 549.5,-355.7 671.5,-355.7 671.5,-333.7 549.5,-333.7"/>
<text text-anchor="start" x="569.5" y="-340.8" font-family="Helvetica,sans-Serif" font-size="11.00" fill="#000000">user_value</text>
<polygon fill="none" stroke="#000000" points="671.5,-333.7 671.5,-355.7 754.5,-355.7 754.5,-333.7 671.5,-333.7"/>
<text text-anchor="start" x="674.5" y="-341.4" font-family="Helvetica,sans-Serif" font-size="11.00" fill="#000000">varchar[255]</text>
<polygon fill="#ffffff" stroke="transparent" points="549.5,-314.7 549.5,-333.7 601.5,-333.7 601.5,-314.7 549.5,-314.7"/>
<polygon fill="none" stroke="#000000" points="549.5,-314.7 549.5,-333.7 601.5,-333.7 601.5,-314.7 549.5,-314.7"/>
<text text-anchor="start" x="552.5" y="-320.8" font-family="Helvetica,sans-Serif" font-size="11.00" fill="#000000">&lt; 4</text>
<polygon fill="#ffffff" stroke="transparent" points="601.5,-314.7 601.5,-333.7 671.5,-333.7 671.5,-314.7 601.5,-314.7"/>
<polygon fill="none" stroke="#000000" points="601.5,-314.7 601.5,-333.7 671.5,-333.7 671.5,-314.7 601.5,-314.7"/>
<text text-anchor="start" x="636.1105" y="-320.8" font-family="Helvetica,sans-Serif" font-size="11.00" fill="#000000">0 rows</text>
<polygon fill="#ffffff" stroke="transparent" points="671.5,-314.7 671.5,-333.7 754.5,-333.7 754.5,-314.7 671.5,-314.7"/>
<polygon fill="none" stroke="#000000" points="671.5,-314.7 671.5,-333.7 754.5,-333.7 754.5,-314.7 671.5,-314.7"/>
<text text-anchor="start" x="735.9053" y="-320.8" font-family="Helvetica,sans-Serif" font-size="11.00" fill="#000000">1 &gt;</text>
<polygon fill="none" stroke="#000000" stroke-width="2" points="548,-313.7 548,-533.7 755,-533.7 755,-313.7 548,-313.7"/>
</a>
</g>
</g>
<!-- metadata_app&#45;&gt;applications -->
<g id="edge2" class="edge">
<title>metadata_app:w&#45;&gt;applications:e</title>
<path fill="none" stroke="#000000" d="M534.776,-454.7C522.7815,-454.7 515.3229,-454.7 498.5,-454.7"/>
<polygon fill="#000000" stroke="#000000" points="541.5,-454.7001 549.5,-458.3 545.5,-454.7 549.5,-454.7 549.5,-454.7 549.5,-454.7 545.5,-454.7 549.5,-451.1 541.5,-454.7001 541.5,-454.7001"/>
<ellipse fill="none" stroke="#000000" cx="538.3" cy="-454.7001" rx="3.2" ry="3.2"/>
</g>
<!-- metadata_app&#45;&gt;organizations -->
<g id="edge4" class="edge">
<title>metadata_app:w&#45;&gt;organizations:e</title>
<path fill="none" stroke="#000000" d="M535.2006,-480.2364C525.756,-485.6891 521.2561,-495.915 506,-499.7 420.158,-520.997 375.5599,-555.5745 307,-499.7 237.0001,-442.6519 356.3021,-300.7 266,-300.7"/>
<polygon fill="#000000" stroke="#000000" points="541.734,-478.6207 550.3643,-480.1947 545.617,-477.6603 549.5,-476.7 549.5,-476.7 549.5,-476.7 545.617,-477.6603 548.6357,-473.2053 541.734,-478.6207 541.734,-478.6207"/>
<ellipse fill="none" stroke="#000000" cx="538.6276" cy="-479.389" rx="3.2" ry="3.2"/>
</g>
<!-- metadata_app&#45;&gt;metadata_app -->
<g id="edge5" class="edge">
<title>metadata_app:w&#45;&gt;metadata_app:e</title>
<path fill="none" stroke="#000000" d="M538.1847,-398.1695C489.221,-446.8178 499.3574,-551.7 652,-551.7 815.5,-551.7 815.5,-541.3667 754.5,-498.7"/>
<polygon fill="#000000" stroke="#000000" points="543.3649,-393.8343 551.8104,-391.4608 546.4325,-391.2671 549.5,-388.7 549.5,-388.7 549.5,-388.7 546.4325,-391.2671 547.1896,-385.9392 543.3649,-393.8343 543.3649,-393.8343"/>
<ellipse fill="none" stroke="#000000" cx="540.9109" cy="-395.888" rx="3.2" ry="3.2"/>
</g>
<!-- metadata_fields -->
<g id="node4" class="node">
<title>metadata_fields</title>
<g id="a_node4"><a xlink:href="../../tables/metadata_fields.html" xlink:title="metadata_fields" target="_top">
<polygon fill="#ffffff" stroke="transparent" points="346.5,-38.2 346.5,-209.2 466.5,-209.2 466.5,-38.2 346.5,-38.2"/>
<polygon fill="#f5f5f5" stroke="transparent" points="346.5,-185.7 346.5,-208.7 466.5,-208.7 466.5,-185.7 346.5,-185.7"/>
<polygon fill="none" stroke="#000000" points="346.5,-185.7 346.5,-208.7 466.5,-208.7 466.5,-185.7 346.5,-185.7"/>
<text text-anchor="start" x="351.1832" y="-194.8" font-family="Helvetica,sans-Serif" font-weight="bold" font-size="11.00" fill="#000000">metadata_fields</text>
<text text-anchor="start" x="432.0219" y="-193.8" font-family="Helvetica,sans-Serif" font-size="11.00" fill="#000000">[table]</text>
<polygon fill="none" stroke="#000000" points="346.5,-163.7 346.5,-185.7 466.5,-185.7 466.5,-163.7 346.5,-163.7"/>
<image xlink:href="../../images/primaryKeys.png" width="11px" height="12px" preserveAspectRatio="xMinYMin meet" x="351.5" y="-180.7"/>
<text text-anchor="start" x="368.5" y="-170.8" font-family="Helvetica,sans-Serif" font-size="11.00" fill="#000000">id</text>
<polygon fill="#ffffff" stroke="transparent" points="346.5,-141.7 346.5,-163.7 466.5,-163.7 466.5,-141.7 346.5,-141.7"/>
<polygon fill="none" stroke="#000000" points="346.5,-141.7 346.5,-163.7 466.5,-163.7 466.5,-141.7 346.5,-141.7"/>
<image xlink:href="../../images/foreignKeys.png" width="11px" height="12px" preserveAspectRatio="xMinYMin meet" x="351.5" y="-158.7"/>
<text text-anchor="start" x="368.5" y="-148.8" font-family="Helvetica,sans-Serif" font-size="11.00" fill="#000000">organizations_id</text>
<polygon fill="#ffffff" stroke="transparent" points="346.5,-119.7 346.5,-141.7 466.5,-141.7 466.5,-119.7 346.5,-119.7"/>
<polygon fill="none" stroke="#000000" points="346.5,-119.7 346.5,-141.7 466.5,-141.7 466.5,-119.7 346.5,-119.7"/>
<text text-anchor="start" x="368.5" y="-126.8" font-family="Helvetica,sans-Serif" font-size="11.00" fill="#000000">reference_type</text>
<polygon fill="#ffffff" stroke="transparent" points="346.5,-97.7 346.5,-119.7 466.5,-119.7 466.5,-97.7 346.5,-97.7"/>
<polygon fill="none" stroke="#000000" points="346.5,-97.7 346.5,-119.7 466.5,-119.7 466.5,-97.7 346.5,-97.7"/>
<text text-anchor="start" x="368.5" y="-104.8" font-family="Helvetica,sans-Serif" font-size="11.00" fill="#000000">agent_label</text>
<polygon fill="#ffffff" stroke="transparent" points="346.5,-75.7 346.5,-97.7 466.5,-97.7 466.5,-75.7 346.5,-75.7"/>
<polygon fill="none" stroke="#000000" points="346.5,-75.7 346.5,-97.7 466.5,-97.7 466.5,-75.7 346.5,-75.7"/>
<image xlink:href="../../images/foreignKeys.png" width="11px" height="12px" preserveAspectRatio="xMinYMin meet" x="351.5" y="-92.7"/>
<text text-anchor="start" x="368.5" y="-82.8" font-family="Helvetica,sans-Serif" font-size="11.00" fill="#000000">parent_field_id</text>
<polygon fill="none" stroke="#000000" points="346.5,-56.7 346.5,-75.7 466.5,-75.7 466.5,-56.7 346.5,-56.7"/>
<text text-anchor="start" x="349.5" y="-62.8" font-family="Helvetica,sans-Serif" font-size="11.00" fill="#000000">...</text>
<polygon fill="#ffffff" stroke="transparent" points="346.5,-37.7 346.5,-56.7 387.5,-56.7 387.5,-37.7 346.5,-37.7"/>
<polygon fill="none" stroke="#000000" points="346.5,-37.7 346.5,-56.7 387.5,-56.7 387.5,-37.7 346.5,-37.7"/>
<text text-anchor="start" x="349.5" y="-43.8" font-family="Helvetica,sans-Serif" font-size="11.00" fill="#000000">&lt; 2</text>
<polygon fill="#ffffff" stroke="transparent" points="387.5,-37.7 387.5,-56.7 435.5,-56.7 435.5,-37.7 387.5,-37.7"/>
<polygon fill="none" stroke="#000000" points="387.5,-37.7 387.5,-56.7 435.5,-56.7 435.5,-37.7 387.5,-37.7"/>
<text text-anchor="start" x="400.1105" y="-43.8" font-family="Helvetica,sans-Serif" font-size="11.00" fill="#000000">0 rows</text>
<polygon fill="#ffffff" stroke="transparent" points="435.5,-37.7 435.5,-56.7 466.5,-56.7 466.5,-37.7 435.5,-37.7"/>
<polygon fill="none" stroke="#000000" points="435.5,-37.7 435.5,-56.7 466.5,-56.7 466.5,-37.7 435.5,-37.7"/>
<text text-anchor="start" x="447.9053" y="-43.8" font-family="Helvetica,sans-Serif" font-size="11.00" fill="#000000">5 &gt;</text>
</a>
</g>
</g>
<!-- metadata_app&#45;&gt;metadata_fields -->
<g id="edge3" class="edge">
<title>metadata_app:w&#45;&gt;metadata_fields:e</title>
<path fill="none" stroke="#000000" d="M535.099,-409.4068C472.3529,-396.6574 543.1226,-292.3907 506,-219.7 493.8965,-195.9998 493.112,-174.7 466.5,-174.7"/>
<polygon fill="#000000" stroke="#000000" points="541.5321,-409.9844 549.178,-414.2856 545.516,-410.3422 549.5,-410.7 549.5,-410.7 549.5,-410.7 545.516,-410.3422 549.822,-407.1144 541.5321,-409.9844 541.5321,-409.9844"/>
<ellipse fill="none" stroke="#000000" cx="538.3449" cy="-409.6982" rx="3.2" ry="3.2"/>
</g>
<!-- metadata_fields&#45;&gt;organizations -->
<g id="edge6" class="edge">
<title>metadata_fields:w&#45;&gt;organizations:e</title>
<path fill="none" stroke="#000000" d="M332.0919,-155.0247C281.108,-173.8535 335.321,-300.7 266,-300.7"/>
<polygon fill="#000000" stroke="#000000" points="338.6021,-153.9744 347.0735,-156.254 342.5511,-153.3372 346.5,-152.7 346.5,-152.7 346.5,-152.7 342.5511,-153.3372 345.9265,-149.146 338.6021,-153.9744 338.6021,-153.9744"/>
<ellipse fill="none" stroke="#000000" cx="335.443" cy="-154.4841" rx="3.2" ry="3.2"/>
</g>
</g>
</svg>
