<?xml version="1.0" encoding="UTF-8" standalone="no"?>
<!DOCTYPE svg PUBLIC "-//W3C//DTD SVG 1.1//EN"
 "http://www.w3.org/Graphics/SVG/1.1/DTD/svg11.dtd">
<!-- Generated by graphviz version 2.40.1 (20161225.0304)
 -->
<!-- Title: twoDegreesRelationshipsDiagram Pages: 1 -->
<svg width="895pt" height="387pt"
 viewBox="0.00 0.00 895.00 386.70" xmlns="http://www.w3.org/2000/svg" xmlns:xlink="http://www.w3.org/1999/xlink">
<g id="graph0" class="graph" transform="scale(1 1) rotate(0) translate(4 382.7)">
<title>twoDegreesRelationshipsDiagram</title>
<polygon fill="#ffffff" stroke="transparent" points="-4,4 -4,-382.7 891,-382.7 891,4 -4,4"/>
<text text-anchor="middle" x="72.4936" y="-7.3" font-family="Helvetica,sans-Serif" font-size="11.00" fill="#000000">Generated by SchemaSpy</text>
<!-- notifications_org_triggers_channels -->
<g id="node1" class="node">
<title>notifications_org_triggers_channels</title>
<g id="a_node1"><a xlink:href="../../tables/notifications_org_triggers_channels.html" xlink:title="notifications_org_triggers_channels" target="_top">
<polygon fill="#ffffff" stroke="transparent" points="222,-246.2 222,-373.2 450,-373.2 450,-246.2 222,-246.2"/>
<polygon fill="#f5f5f5" stroke="transparent" points="222,-349.7 222,-372.7 450,-372.7 450,-349.7 222,-349.7"/>
<polygon fill="none" stroke="#000000" points="222,-349.7 222,-372.7 450,-372.7 450,-349.7 222,-349.7"/>
<text text-anchor="start" x="227" y="-358.8" font-family="Helvetica,sans-Serif" font-weight="bold" font-size="11.00" fill="#000000">notifications_org_triggers_channels</text>
<text text-anchor="start" x="415.0437" y="-357.8" font-family="Helvetica,sans-Serif" font-size="11.00" fill="#000000">[table]</text>
<polygon fill="none" stroke="#000000" points="222,-327.7 222,-349.7 450,-349.7 450,-327.7 222,-327.7"/>
<image xlink:href="../../images/primaryKeys.png" width="11px" height="12px" preserveAspectRatio="xMinYMin meet" x="227" y="-344.7"/>
<text text-anchor="start" x="242" y="-334.8" font-family="Helvetica,sans-Serif" font-size="11.00" fill="#000000">id</text>
<polygon fill="#ffffff" stroke="transparent" points="222,-305.7 222,-327.7 450,-327.7 450,-305.7 222,-305.7"/>
<polygon fill="none" stroke="#000000" points="222,-305.7 222,-327.7 450,-327.7 450,-305.7 222,-305.7"/>
<image xlink:href="../../images/foreignKeys.png" width="11px" height="12px" preserveAspectRatio="xMinYMin meet" x="227" y="-322.7"/>
<text text-anchor="start" x="242" y="-312.8" font-family="Helvetica,sans-Serif" font-size="11.00" fill="#000000">notifications_org_triggers_id</text>
<polygon fill="#ffffff" stroke="transparent" points="222,-283.7 222,-305.7 450,-305.7 450,-283.7 222,-283.7"/>
<polygon fill="none" stroke="#000000" points="222,-283.7 222,-305.7 450,-305.7 450,-283.7 222,-283.7"/>
<text text-anchor="start" x="242" y="-290.8" font-family="Helvetica,sans-Serif" font-size="11.00" fill="#000000">channel_type</text>
<polygon fill="none" stroke="#000000" points="222,-264.7 222,-283.7 450,-283.7 450,-264.7 222,-264.7"/>
<text text-anchor="start" x="225" y="-270.8" font-family="Helvetica,sans-Serif" font-size="11.00" fill="#000000">...</text>
<polygon fill="#ffffff" stroke="transparent" points="222,-245.7 222,-264.7 314,-264.7 314,-245.7 222,-245.7"/>
<polygon fill="none" stroke="#000000" points="222,-245.7 222,-264.7 314,-264.7 314,-245.7 222,-245.7"/>
<text text-anchor="start" x="225" y="-251.8" font-family="Helvetica,sans-Serif" font-size="11.00" fill="#000000">&lt; 1</text>
<polygon fill="#ffffff" stroke="transparent" points="314,-245.7 314,-264.7 393,-264.7 393,-245.7 314,-245.7"/>
<polygon fill="none" stroke="#000000" points="314,-245.7 314,-264.7 393,-264.7 393,-245.7 314,-245.7"/>
<text text-anchor="start" x="351.4956" y="-251.8" font-family="Helvetica,sans-Serif" font-size="11.00" fill="#000000">78 rows</text>
<polygon fill="#ffffff" stroke="transparent" points="393,-245.7 393,-264.7 450,-264.7 450,-245.7 393,-245.7"/>
<polygon fill="none" stroke="#000000" points="393,-245.7 393,-264.7 450,-264.7 450,-245.7 393,-245.7"/>
<text text-anchor="start" x="431.4053" y="-251.8" font-family="Helvetica,sans-Serif" font-size="11.00" fill="#000000">1 &gt;</text>
</a>
</g>
</g>
<!-- notifications_org_triggers -->
<g id="node2" class="node">
<title>notifications_org_triggers</title>
<g id="a_node2"><a xlink:href="../../tables/notifications_org_triggers.html" xlink:title="notifications_org_triggers" target="_top">
<polygon fill="#ffffff" stroke="transparent" points="8,-289.2 8,-350.2 173,-350.2 173,-289.2 8,-289.2"/>
<polygon fill="#f5f5f5" stroke="transparent" points="8.5,-326.7 8.5,-349.7 173.5,-349.7 173.5,-326.7 8.5,-326.7"/>
<polygon fill="none" stroke="#000000" points="8.5,-326.7 8.5,-349.7 173.5,-349.7 173.5,-326.7 8.5,-326.7"/>
<text text-anchor="start" x="13.0721" y="-335.8" font-family="Helvetica,sans-Serif" font-weight="bold" font-size="11.00" fill="#000000">notifications_org_triggers</text>
<text text-anchor="start" x="139.0219" y="-334.8" font-family="Helvetica,sans-Serif" font-size="11.00" fill="#000000">[table]</text>
<polygon fill="none" stroke="#000000" points="8.5,-307.7 8.5,-326.7 173.5,-326.7 173.5,-307.7 8.5,-307.7"/>
<text text-anchor="start" x="11.5" y="-313.8" font-family="Helvetica,sans-Serif" font-size="11.00" fill="#000000">...</text>
<polygon fill="#ffffff" stroke="transparent" points="8.5,-288.7 8.5,-307.7 68.5,-307.7 68.5,-288.7 8.5,-288.7"/>
<polygon fill="none" stroke="#000000" points="8.5,-288.7 8.5,-307.7 68.5,-307.7 68.5,-288.7 8.5,-288.7"/>
<text text-anchor="start" x="11.5" y="-294.8" font-family="Helvetica,sans-Serif" font-size="11.00" fill="#000000">&lt; 1</text>
<polygon fill="#ffffff" stroke="transparent" points="68.5,-288.7 68.5,-307.7 132.5,-307.7 132.5,-288.7 68.5,-288.7"/>
<polygon fill="none" stroke="#000000" points="68.5,-288.7 68.5,-307.7 132.5,-307.7 132.5,-288.7 68.5,-288.7"/>
<text text-anchor="start" x="90.9956" y="-294.8" font-family="Helvetica,sans-Serif" font-size="11.00" fill="#000000">26 rows</text>
<polygon fill="#ffffff" stroke="transparent" points="132.5,-288.7 132.5,-307.7 173.5,-307.7 173.5,-288.7 132.5,-288.7"/>
<polygon fill="none" stroke="#000000" points="132.5,-288.7 132.5,-307.7 173.5,-307.7 173.5,-288.7 132.5,-288.7"/>
<text text-anchor="start" x="154.9053" y="-294.8" font-family="Helvetica,sans-Serif" font-size="11.00" fill="#000000">5 &gt;</text>
</a>
</g>
</g>
<!-- notifications_org_triggers_channels&#45;&gt;notifications_org_triggers -->
<g id="edge1" class="edge">
<title>notifications_org_triggers_channels:w&#45;&gt;notifications_org_triggers:e</title>
<path fill="none" stroke="#000000" d="M207.2829,-316.7C196.2886,-316.7 189.1615,-316.7 173.5,-316.7"/>
<polygon fill="#000000" stroke="#000000" points="214,-316.7001 222,-320.3 218,-316.7 222,-316.7 222,-316.7 222,-316.7 218,-316.7 222,-313.1 214,-316.7001 214,-316.7001"/>
<ellipse fill="none" stroke="#000000" cx="210.8" cy="-316.7001" rx="3.2" ry="3.2"/>
</g>
<!-- notifications_org_triggers_channels_webhooks -->
<g id="node3" class="node">
<title>notifications_org_triggers_channels_webhooks</title>
<g id="a_node3"><a xlink:href="../../tables/notifications_org_triggers_channels_webhooks.html" xlink:title="notifications_org_triggers_channels_webhooks" target="_top">
<polygon fill="#ffffff" stroke="transparent" points="499,-284.7 499,-374.7 879,-374.7 879,-284.7 499,-284.7"/>
<polygon fill="#f5f5f5" stroke="transparent" points="501,-349.7 501,-372.7 877,-372.7 877,-349.7 501,-349.7"/>
<polygon fill="none" stroke="#000000" points="501,-349.7 501,-372.7 877,-372.7 877,-349.7 501,-349.7"/>
<text text-anchor="start" x="506" y="-358.8" font-family="Helvetica,sans-Serif" font-weight="bold" font-size="11.00" fill="#000000">notifications_org_triggers_channels_webhooks</text>
<text text-anchor="start" x="842.0437" y="-357.8" font-family="Helvetica,sans-Serif" font-size="11.00" fill="#000000">[table]</text>
<polygon fill="none" stroke="#000000" points="501,-327.7 501,-349.7 794,-349.7 794,-327.7 501,-327.7"/>
<image xlink:href="../../images/primaryKeys.png" width="11px" height="12px" preserveAspectRatio="xMinYMin meet" x="506" y="-344.7"/>
<text text-anchor="start" x="521" y="-334.8" font-family="Helvetica,sans-Serif" font-size="11.00" fill="#000000">notifications_org_trigger_channel_id</text>
<polygon fill="none" stroke="#000000" points="794,-327.7 794,-349.7 877,-349.7 877,-327.7 794,-327.7"/>
<text text-anchor="start" x="796.6783" y="-335.4" font-family="Helvetica,sans-Serif" font-size="11.00" fill="#000000">int unsigned[10]</text>
<polygon fill="none" stroke="#000000" points="501,-305.7 501,-327.7 794,-327.7 794,-305.7 501,-305.7"/>
<image xlink:href="../../images/primaryKeys.png" width="11px" height="12px" preserveAspectRatio="xMinYMin meet" x="506" y="-322.7"/>
<text text-anchor="start" x="521" y="-312.8" font-family="Helvetica,sans-Serif" font-size="11.00" fill="#000000">webhook_id</text>
<polygon fill="none" stroke="#000000" points="794,-305.7 794,-327.7 877,-327.7 877,-305.7 794,-305.7"/>
<text text-anchor="start" x="796.6783" y="-313.4" font-family="Helvetica,sans-Serif" font-size="11.00" fill="#000000">int unsigned[10]</text>
<polygon fill="#ffffff" stroke="transparent" points="501,-286.7 501,-305.7 639,-305.7 639,-286.7 501,-286.7"/>
<polygon fill="none" stroke="#000000" points="501,-286.7 501,-305.7 639,-305.7 639,-286.7 501,-286.7"/>
<text text-anchor="start" x="504" y="-292.8" font-family="Helvetica,sans-Serif" font-size="11.00" fill="#000000">&lt; 2</text>
<polygon fill="#ffffff" stroke="transparent" points="639,-286.7 639,-305.7 794,-305.7 794,-286.7 639,-286.7"/>
<polygon fill="none" stroke="#000000" points="639,-286.7 639,-305.7 794,-305.7 794,-286.7 639,-286.7"/>
<text text-anchor="start" x="758.6105" y="-292.8" font-family="Helvetica,sans-Serif" font-size="11.00" fill="#000000">0 rows</text>
<polygon fill="#ffffff" stroke="transparent" points="794,-286.7 794,-305.7 877,-305.7 877,-286.7 794,-286.7"/>
<polygon fill="none" stroke="#000000" points="794,-286.7 794,-305.7 877,-305.7 877,-286.7 794,-286.7"/>
<text text-anchor="start" x="858.4053" y="-292.8" font-family="Helvetica,sans-Serif" font-size="11.00" fill="#000000">0 &gt;</text>
<polygon fill="none" stroke="#000000" stroke-width="2" points="500,-285.7 500,-373.7 878,-373.7 878,-285.7 500,-285.7"/>
</a>
</g>
</g>
<!-- notifications_org_triggers_channels_webhooks&#45;&gt;notifications_org_triggers_channels -->
<g id="edge2" class="edge">
<title>notifications_org_triggers_channels_webhooks:w&#45;&gt;notifications_org_triggers_channels:e</title>
<path fill="none" stroke="#000000" d="M486.276,-338.7C474.2815,-338.7 466.8229,-338.7 450,-338.7"/>
<polygon fill="#000000" stroke="#000000" points="493,-338.7001 501,-342.3 497,-338.7 501,-338.7 501,-338.7 501,-338.7 497,-338.7 501,-335.1 493,-338.7001 493,-338.7001"/>
<ellipse fill="none" stroke="#000000" cx="489.8" cy="-338.7001" rx="3.2" ry="3.2"/>
</g>
<!-- webhooks -->
<g id="node4" class="node">
<title>webhooks</title>
<g id="a_node4"><a xlink:href="../../tables/webhooks.html" xlink:title="webhooks" target="_top">
<polygon fill="#ffffff" stroke="transparent" points="278,-90.2 278,-195.2 394,-195.2 394,-90.2 278,-90.2"/>
<polygon fill="#f5f5f5" stroke="transparent" points="278,-171.7 278,-194.7 394,-194.7 394,-171.7 278,-171.7"/>
<polygon fill="none" stroke="#000000" points="278,-171.7 278,-194.7 394,-194.7 394,-171.7 278,-171.7"/>
<text text-anchor="start" x="283" y="-180.8" font-family="Helvetica,sans-Serif" font-weight="bold" font-size="11.00" fill="#000000">webhooks</text>
<text text-anchor="start" x="359.0437" y="-179.8" font-family="Helvetica,sans-Serif" font-size="11.00" fill="#000000">[table]</text>
<polygon fill="none" stroke="#000000" points="278,-149.7 278,-171.7 394,-171.7 394,-149.7 278,-149.7"/>
<image xlink:href="../../images/primaryKeys.png" width="11px" height="12px" preserveAspectRatio="xMinYMin meet" x="283" y="-166.7"/>
<text text-anchor="start" x="298" y="-156.8" font-family="Helvetica,sans-Serif" font-size="11.00" fill="#000000">id</text>
<polygon fill="#ffffff" stroke="transparent" points="278,-127.7 278,-149.7 394,-149.7 394,-127.7 278,-127.7"/>
<polygon fill="none" stroke="#000000" points="278,-127.7 278,-149.7 394,-149.7 394,-127.7 278,-127.7"/>
<image xlink:href="../../images/foreignKeys.png" width="11px" height="12px" preserveAspectRatio="xMinYMin meet" x="283" y="-144.7"/>
<text text-anchor="start" x="298" y="-134.8" font-family="Helvetica,sans-Serif" font-size="11.00" fill="#000000">organizations_id</text>
<polygon fill="none" stroke="#000000" points="278,-108.7 278,-127.7 394,-127.7 394,-108.7 278,-108.7"/>
<text text-anchor="start" x="281" y="-114.8" font-family="Helvetica,sans-Serif" font-size="11.00" fill="#000000">...</text>
<polygon fill="#ffffff" stroke="transparent" points="278,-89.7 278,-108.7 317,-108.7 317,-89.7 278,-89.7"/>
<polygon fill="none" stroke="#000000" points="278,-89.7 278,-108.7 317,-108.7 317,-89.7 278,-89.7"/>
<text text-anchor="start" x="281" y="-95.8" font-family="Helvetica,sans-Serif" font-size="11.00" fill="#000000">&lt; 1</text>
<polygon fill="#ffffff" stroke="transparent" points="317,-89.7 317,-108.7 364,-108.7 364,-89.7 317,-89.7"/>
<polygon fill="none" stroke="#000000" points="317,-89.7 317,-108.7 364,-108.7 364,-89.7 317,-89.7"/>
<text text-anchor="start" x="328.6105" y="-95.8" font-family="Helvetica,sans-Serif" font-size="11.00" fill="#000000">0 rows</text>
<polygon fill="#ffffff" stroke="transparent" points="364,-89.7 364,-108.7 394,-108.7 394,-89.7 364,-89.7"/>
<polygon fill="none" stroke="#000000" points="364,-89.7 364,-108.7 394,-108.7 394,-89.7 364,-89.7"/>
<text text-anchor="start" x="375.4053" y="-95.8" font-family="Helvetica,sans-Serif" font-size="11.00" fill="#000000">4 &gt;</text>
</a>
</g>
</g>
<!-- notifications_org_triggers_channels_webhooks&#45;&gt;webhooks -->
<g id="edge3" class="edge">
<title>notifications_org_triggers_channels_webhooks:w&#45;&gt;webhooks:e</title>
<path fill="none" stroke="#000000" d="M486.8605,-313.9198C465.3085,-303.3121 477.6078,-264.5317 458,-235.7 433.3576,-199.4653 437.8201,-160.7 394,-160.7"/>
<polygon fill="#000000" stroke="#000000" points="493.1503,-315.1565 500.3054,-320.2324 497.0751,-315.9283 501,-316.7 501,-316.7 501,-316.7 497.0751,-315.9283 501.6946,-313.1676 493.1503,-315.1565 493.1503,-315.1565"/>
<ellipse fill="none" stroke="#000000" cx="490.0104" cy="-314.5391" rx="3.2" ry="3.2"/>
</g>
<!-- organizations -->
<g id="node7" class="node">
<title>organizations</title>
<g id="a_node7"><a xlink:href="../../tables/organizations.html" xlink:title="organizations" target="_top">
<polygon fill="#ffffff" stroke="transparent" points="36.5,-75.2 36.5,-136.2 144.5,-136.2 144.5,-75.2 36.5,-75.2"/>
<polygon fill="#f5f5f5" stroke="transparent" points="36.5,-112.7 36.5,-135.7 144.5,-135.7 144.5,-112.7 36.5,-112.7"/>
<polygon fill="none" stroke="#000000" points="36.5,-112.7 36.5,-135.7 144.5,-135.7 144.5,-112.7 36.5,-112.7"/>
<text text-anchor="start" x="41.2976" y="-121.8" font-family="Helvetica,sans-Serif" font-weight="bold" font-size="11.00" fill="#000000">organizations</text>
<text text-anchor="start" x="110.0219" y="-120.8" font-family="Helvetica,sans-Serif" font-size="11.00" fill="#000000">[table]</text>
<polygon fill="none" stroke="#000000" points="36.5,-93.7 36.5,-112.7 144.5,-112.7 144.5,-93.7 36.5,-93.7"/>
<text text-anchor="start" x="39.5" y="-99.8" font-family="Helvetica,sans-Serif" font-size="11.00" fill="#000000">...</text>
<polygon fill="#ffffff" stroke="transparent" points="36.5,-74.7 36.5,-93.7 68.5,-93.7 68.5,-74.7 36.5,-74.7"/>
<polygon fill="none" stroke="#000000" points="36.5,-74.7 36.5,-93.7 68.5,-93.7 68.5,-74.7 36.5,-74.7"/>
<text text-anchor="start" x="39.5" y="-80.8" font-family="Helvetica,sans-Serif" font-size="11.00" fill="#000000">&lt; 4</text>
<polygon fill="#ffffff" stroke="transparent" points="68.5,-74.7 68.5,-93.7 111.5,-93.7 111.5,-74.7 68.5,-74.7"/>
<polygon fill="none" stroke="#000000" points="68.5,-74.7 68.5,-93.7 111.5,-93.7 111.5,-74.7 68.5,-74.7"/>
<text text-anchor="start" x="76.1105" y="-80.8" font-family="Helvetica,sans-Serif" font-size="11.00" fill="#000000">3 rows</text>
<polygon fill="#ffffff" stroke="transparent" points="111.5,-74.7 111.5,-93.7 144.5,-93.7 144.5,-74.7 111.5,-74.7"/>
<polygon fill="none" stroke="#000000" points="111.5,-74.7 111.5,-93.7 144.5,-93.7 144.5,-74.7 111.5,-74.7"/>
<text text-anchor="start" x="119.7904" y="-80.8" font-family="Helvetica,sans-Serif" font-size="11.00" fill="#000000">81 &gt;</text>
</a>
</g>
</g>
<!-- webhooks&#45;&gt;organizations -->
<g id="edge8" class="edge">
<title>webhooks:w&#45;&gt;organizations:e</title>
<path fill="none" stroke="#000000" d="M263.5327,-137.9809C214.409,-132.907 200.7917,-102.7 144.5,-102.7"/>
<polygon fill="#000000" stroke="#000000" points="270.0099,-138.3028 277.8213,-142.2956 274.0049,-138.5014 278,-138.7 278,-138.7 278,-138.7 274.0049,-138.5014 278.1787,-135.1044 270.0099,-138.3028 270.0099,-138.3028"/>
<ellipse fill="none" stroke="#000000" cx="266.8138" cy="-138.1439" rx="3.2" ry="3.2"/>
</g>
<!-- webhook_applications -->
<g id="node5" class="node">
<title>webhook_applications</title>
<g id="a_node5"><a xlink:href="../../tables/webhook_applications.html" xlink:title="webhook_applications" target="_top">
<polygon fill="#ffffff" stroke="transparent" points="613.5,-202.2 613.5,-263.2 764.5,-263.2 764.5,-202.2 613.5,-202.2"/>
<polygon fill="#f5f5f5" stroke="transparent" points="614,-239.7 614,-262.7 765,-262.7 765,-239.7 614,-239.7"/>
<polygon fill="none" stroke="#000000" points="614,-239.7 614,-262.7 765,-262.7 765,-239.7 614,-239.7"/>
<text text-anchor="start" x="618.9004" y="-248.8" font-family="Helvetica,sans-Serif" font-weight="bold" font-size="11.00" fill="#000000">webhook_applications</text>
<text text-anchor="start" x="730.5219" y="-247.8" font-family="Helvetica,sans-Serif" font-size="11.00" fill="#000000">[table]</text>
<polygon fill="none" stroke="#000000" points="614,-220.7 614,-239.7 765,-239.7 765,-220.7 614,-220.7"/>
<text text-anchor="start" x="617" y="-226.8" font-family="Helvetica,sans-Serif" font-size="11.00" fill="#000000">...</text>
<polygon fill="#ffffff" stroke="transparent" points="614,-201.7 614,-220.7 675,-220.7 675,-201.7 614,-201.7"/>
<polygon fill="none" stroke="#000000" points="614,-201.7 614,-220.7 675,-220.7 675,-201.7 614,-201.7"/>
<text text-anchor="start" x="617" y="-207.8" font-family="Helvetica,sans-Serif" font-size="11.00" fill="#000000">&lt; 2</text>
<polygon fill="#ffffff" stroke="transparent" points="675,-201.7 675,-220.7 733,-220.7 733,-201.7 675,-201.7"/>
<polygon fill="none" stroke="#000000" points="675,-201.7 675,-220.7 733,-220.7 733,-201.7 675,-201.7"/>
<text text-anchor="start" x="697.6105" y="-207.8" font-family="Helvetica,sans-Serif" font-size="11.00" fill="#000000">0 rows</text>
<polygon fill="#ffffff" stroke="transparent" points="733,-201.7 733,-220.7 765,-220.7 765,-201.7 733,-201.7"/>
<polygon fill="none" stroke="#000000" points="733,-201.7 733,-220.7 765,-220.7 765,-201.7 733,-201.7"/>
<text text-anchor="start" x="755.8862" y="-207.8" font-family="Helvetica,sans-Serif" font-size="11.00" fill="#000000"> &#160;</text>
</a>
</g>
</g>
<!-- webhook_applications&#45;&gt;webhooks -->
<g id="edge4" class="edge">
<title>webhook_applications:w&#45;&gt;webhooks:e</title>
<path fill="none" stroke="#000000" d="M599.3374,-229.192C554.3621,-225.9038 540.5736,-207.2789 491,-191.7 447.8227,-178.1312 439.2592,-160.7 394,-160.7"/>
<polygon fill="#000000" stroke="#000000" points="606.0048,-229.4229 613.8753,-233.2978 610.0024,-229.5615 614,-229.7 614,-229.7 614,-229.7 610.0024,-229.5615 614.1247,-226.1022 606.0048,-229.4229 606.0048,-229.4229"/>
<ellipse fill="none" stroke="#000000" cx="602.8067" cy="-229.3121" rx="3.2" ry="3.2"/>
</g>
<!-- webhook_attempt -->
<g id="node6" class="node">
<title>webhook_attempt</title>
<g id="a_node6"><a xlink:href="../../tables/webhook_attempt.html" xlink:title="webhook_attempt" target="_top">
<polygon fill="#ffffff" stroke="transparent" points="624.5,-38.2 624.5,-99.2 753.5,-99.2 753.5,-38.2 624.5,-38.2"/>
<polygon fill="#f5f5f5" stroke="transparent" points="625,-75.7 625,-98.7 754,-98.7 754,-75.7 625,-75.7"/>
<polygon fill="none" stroke="#000000" points="625,-75.7 625,-98.7 754,-98.7 754,-75.7 625,-75.7"/>
<text text-anchor="start" x="629.5962" y="-84.8" font-family="Helvetica,sans-Serif" font-weight="bold" font-size="11.00" fill="#000000">webhook_attempt</text>
<text text-anchor="start" x="719.5219" y="-83.8" font-family="Helvetica,sans-Serif" font-size="11.00" fill="#000000">[table]</text>
<polygon fill="none" stroke="#000000" points="625,-56.7 625,-75.7 754,-75.7 754,-56.7 625,-56.7"/>
<text text-anchor="start" x="628" y="-62.8" font-family="Helvetica,sans-Serif" font-size="11.00" fill="#000000">...</text>
<polygon fill="#ffffff" stroke="transparent" points="625,-37.7 625,-56.7 675,-56.7 675,-37.7 625,-37.7"/>
<polygon fill="none" stroke="#000000" points="625,-37.7 625,-56.7 675,-56.7 675,-37.7 625,-37.7"/>
<text text-anchor="start" x="628" y="-43.8" font-family="Helvetica,sans-Serif" font-size="11.00" fill="#000000">&lt; 3</text>
<polygon fill="#ffffff" stroke="transparent" points="675,-37.7 675,-56.7 727,-56.7 727,-37.7 675,-37.7"/>
<polygon fill="none" stroke="#000000" points="675,-37.7 675,-56.7 727,-56.7 727,-37.7 675,-37.7"/>
<text text-anchor="start" x="691.6105" y="-43.8" font-family="Helvetica,sans-Serif" font-size="11.00" fill="#000000">0 rows</text>
<polygon fill="#ffffff" stroke="transparent" points="727,-37.7 727,-56.7 754,-56.7 754,-37.7 727,-37.7"/>
<polygon fill="none" stroke="#000000" points="727,-37.7 727,-56.7 754,-56.7 754,-37.7 727,-37.7"/>
<text text-anchor="start" x="744.8862" y="-43.8" font-family="Helvetica,sans-Serif" font-size="11.00" fill="#000000"> &#160;</text>
</a>
</g>
</g>
<!-- webhook_attempt&#45;&gt;webhooks -->
<g id="edge6" class="edge">
<title>webhook_attempt:w&#45;&gt;webhooks:e</title>
<path fill="none" stroke="#000000" d="M610.5134,-66.0866C559.7884,-68.9406 543.9849,-87.2572 491,-109.7 446.1507,-128.6969 442.7067,-160.7 394,-160.7"/>
<polygon fill="#000000" stroke="#000000" points="617.0028,-65.9135 625.0961,-69.2987 621.0014,-65.8067 625,-65.7 625,-65.7 625,-65.7 621.0014,-65.8067 624.9039,-62.1013 617.0028,-65.9135 617.0028,-65.9135"/>
<ellipse fill="none" stroke="#000000" cx="613.804" cy="-65.9989" rx="3.2" ry="3.2"/>
</g>
<!-- webhook_attempt&#45;&gt;organizations -->
<g id="edge5" class="edge">
<title>webhook_attempt:w&#45;&gt;organizations:e</title>
<path fill="none" stroke="#000000" d="M610.5605,-65.6621C439.538,-64.7614 389.0909,-48.4136 214,-79.7 181.9709,-85.4232 177.0364,-102.7 144.5,-102.7"/>
<polygon fill="#000000" stroke="#000000" points="617,-65.6789 624.9905,-69.3 621,-65.6895 625,-65.7 625,-65.7 625,-65.7 621,-65.6895 625.0095,-62.1 617,-65.6789 617,-65.6789"/>
<ellipse fill="none" stroke="#000000" cx="613.8" cy="-65.6705" rx="3.2" ry="3.2"/>
</g>
<!-- webhook_properties -->
<g id="node8" class="node">
<title>webhook_properties</title>
<g id="a_node8"><a xlink:href="../../tables/webhook_properties.html" xlink:title="webhook_properties" target="_top">
<polygon fill="#ffffff" stroke="transparent" points="618,-120.2 618,-181.2 760,-181.2 760,-120.2 618,-120.2"/>
<polygon fill="#f5f5f5" stroke="transparent" points="618,-157.7 618,-180.7 760,-180.7 760,-157.7 618,-157.7"/>
<polygon fill="none" stroke="#000000" points="618,-157.7 618,-180.7 760,-180.7 760,-157.7 618,-157.7"/>
<text text-anchor="start" x="622.9868" y="-166.8" font-family="Helvetica,sans-Serif" font-weight="bold" font-size="11.00" fill="#000000">webhook_properties</text>
<text text-anchor="start" x="725.5219" y="-165.8" font-family="Helvetica,sans-Serif" font-size="11.00" fill="#000000">[table]</text>
<polygon fill="none" stroke="#000000" points="618,-138.7 618,-157.7 760,-157.7 760,-138.7 618,-138.7"/>
<text text-anchor="start" x="621" y="-144.8" font-family="Helvetica,sans-Serif" font-size="11.00" fill="#000000">...</text>
<polygon fill="#ffffff" stroke="transparent" points="618,-119.7 618,-138.7 674,-138.7 674,-119.7 618,-119.7"/>
<polygon fill="none" stroke="#000000" points="618,-119.7 618,-138.7 674,-138.7 674,-119.7 618,-119.7"/>
<text text-anchor="start" x="621" y="-125.8" font-family="Helvetica,sans-Serif" font-size="11.00" fill="#000000">&lt; 1</text>
<polygon fill="#ffffff" stroke="transparent" points="674,-119.7 674,-138.7 730,-138.7 730,-119.7 674,-119.7"/>
<polygon fill="none" stroke="#000000" points="674,-119.7 674,-138.7 730,-138.7 730,-119.7 674,-119.7"/>
<text text-anchor="start" x="694.6105" y="-125.8" font-family="Helvetica,sans-Serif" font-size="11.00" fill="#000000">0 rows</text>
<polygon fill="#ffffff" stroke="transparent" points="730,-119.7 730,-138.7 760,-138.7 760,-119.7 730,-119.7"/>
<polygon fill="none" stroke="#000000" points="730,-119.7 730,-138.7 760,-138.7 760,-119.7 730,-119.7"/>
<text text-anchor="start" x="750.8862" y="-125.8" font-family="Helvetica,sans-Serif" font-size="11.00" fill="#000000"> &#160;</text>
</a>
</g>
</g>
<!-- webhook_properties&#45;&gt;webhooks -->
<g id="edge7" class="edge">
<title>webhook_properties:w&#45;&gt;webhooks:e</title>
<path fill="none" stroke="#000000" d="M603.3697,-147.7972C515.5893,-148.9868 488.659,-160.7 394,-160.7"/>
<polygon fill="#000000" stroke="#000000" points="610.0002,-147.7532 618.0239,-151.2999 614.0001,-147.7266 618,-147.7 618,-147.7 618,-147.7 614.0001,-147.7266 617.9761,-144.1001 610.0002,-147.7532 610.0002,-147.7532"/>
<ellipse fill="none" stroke="#000000" cx="606.8002" cy="-147.7745" rx="3.2" ry="3.2"/>
</g>
</g>
</svg>
