<?xml version="1.0" encoding="UTF-8" standalone="no"?>
<!DOCTYPE svg PUBLIC "-//W3C//DTD SVG 1.1//EN"
 "http://www.w3.org/Graphics/SVG/1.1/DTD/svg11.dtd">
<!-- Generated by graphviz version 2.40.1 (20161225.0304)
 -->
<!-- Title: oneDegreeRelationshipsDiagram Pages: 1 -->
<svg width="598pt" height="179pt"
 viewBox="0.00 0.00 598.00 178.70" xmlns="http://www.w3.org/2000/svg" xmlns:xlink="http://www.w3.org/1999/xlink">
<g id="graph0" class="graph" transform="scale(1 1) rotate(0) translate(4 174.7)">
<title>oneDegreeRelationshipsDiagram</title>
<polygon fill="#ffffff" stroke="transparent" points="-4,4 -4,-174.7 594,-174.7 594,4 -4,4"/>
<text text-anchor="middle" x="72.4936" y="-7.3" font-family="Helvetica,sans-Serif" font-size="11.00" fill="#000000">Generated by SchemaSpy</text>
<!-- notifications_org_triggers_rule_severity -->
<g id="node1" class="node">
<title>notifications_org_triggers_rule_severity</title>
<g id="a_node1"><a xlink:href="../../tables/notifications_org_triggers_rule_severity.html" xlink:title="notifications_org_triggers_rule_severity" target="_top">
<polygon fill="#ffffff" stroke="transparent" points="245,-76.7 245,-166.7 582,-166.7 582,-76.7 245,-76.7"/>
<polygon fill="#f5f5f5" stroke="transparent" points="247.5,-141.7 247.5,-164.7 580.5,-164.7 580.5,-141.7 247.5,-141.7"/>
<polygon fill="none" stroke="#000000" points="247.5,-141.7 247.5,-164.7 580.5,-164.7 580.5,-141.7 247.5,-141.7"/>
<text text-anchor="start" x="252.5" y="-150.8" font-family="Helvetica,sans-Serif" font-weight="bold" font-size="11.00" fill="#000000">notifications_org_triggers_rule_severity</text>
<text text-anchor="start" x="545.5437" y="-149.8" font-family="Helvetica,sans-Serif" font-size="11.00" fill="#000000">[table]</text>
<polygon fill="none" stroke="#000000" points="247.5,-119.7 247.5,-141.7 497.5,-141.7 497.5,-119.7 247.5,-119.7"/>
<image xlink:href="../../images/primaryKeys.png" width="11px" height="12px" preserveAspectRatio="xMinYMin meet" x="252.5" y="-136.7"/>
<text text-anchor="start" x="267.5" y="-126.8" font-family="Helvetica,sans-Serif" font-size="11.00" fill="#000000">notifications_org_triggers_id</text>
<polygon fill="none" stroke="#000000" points="497.5,-119.7 497.5,-141.7 580.5,-141.7 580.5,-119.7 497.5,-119.7"/>
<text text-anchor="start" x="500.1783" y="-127.4" font-family="Helvetica,sans-Serif" font-size="11.00" fill="#000000">int unsigned[10]</text>
<polygon fill="none" stroke="#000000" points="247.5,-97.7 247.5,-119.7 497.5,-119.7 497.5,-97.7 247.5,-97.7"/>
<image xlink:href="../../images/primaryKeys.png" width="11px" height="12px" preserveAspectRatio="xMinYMin meet" x="252.5" y="-114.7"/>
<text text-anchor="start" x="267.5" y="-104.8" font-family="Helvetica,sans-Serif" font-size="11.00" fill="#000000">rule_severity</text>
<polygon fill="none" stroke="#000000" points="497.5,-97.7 497.5,-119.7 580.5,-119.7 580.5,-97.7 497.5,-97.7"/>
<text text-anchor="start" x="500.5" y="-105.4" font-family="Helvetica,sans-Serif" font-size="11.00" fill="#000000">varchar[50]</text>
<polygon fill="#ffffff" stroke="transparent" points="247.5,-78.7 247.5,-97.7 363.5,-97.7 363.5,-78.7 247.5,-78.7"/>
<polygon fill="none" stroke="#000000" points="247.5,-78.7 247.5,-97.7 363.5,-97.7 363.5,-78.7 247.5,-78.7"/>
<text text-anchor="start" x="250.5" y="-84.8" font-family="Helvetica,sans-Serif" font-size="11.00" fill="#000000">&lt; 1</text>
<polygon fill="#ffffff" stroke="transparent" points="363.5,-78.7 363.5,-97.7 497.5,-97.7 497.5,-78.7 363.5,-78.7"/>
<polygon fill="none" stroke="#000000" points="363.5,-78.7 363.5,-97.7 497.5,-97.7 497.5,-78.7 363.5,-78.7"/>
<text text-anchor="start" x="462.1105" y="-84.8" font-family="Helvetica,sans-Serif" font-size="11.00" fill="#000000">6 rows</text>
<polygon fill="#ffffff" stroke="transparent" points="497.5,-78.7 497.5,-97.7 580.5,-97.7 580.5,-78.7 497.5,-78.7"/>
<polygon fill="none" stroke="#000000" points="497.5,-78.7 497.5,-97.7 580.5,-97.7 580.5,-78.7 497.5,-78.7"/>
<text text-anchor="start" x="561.9053" y="-84.8" font-family="Helvetica,sans-Serif" font-size="11.00" fill="#000000">0 &gt;</text>
<polygon fill="none" stroke="#000000" stroke-width="2" points="246,-77.7 246,-165.7 581,-165.7 581,-77.7 246,-77.7"/>
</a>
</g>
</g>
<!-- notifications_org_triggers -->
<g id="node2" class="node">
<title>notifications_org_triggers</title>
<g id="a_node2"><a xlink:href="../../tables/notifications_org_triggers.html" xlink:title="notifications_org_triggers" target="_top">
<polygon fill="#ffffff" stroke="transparent" points="8,-38.2 8,-165.2 196,-165.2 196,-38.2 8,-38.2"/>
<polygon fill="#f5f5f5" stroke="transparent" points="8,-141.7 8,-164.7 196,-164.7 196,-141.7 8,-141.7"/>
<polygon fill="none" stroke="#000000" points="8,-141.7 8,-164.7 196,-164.7 196,-141.7 8,-141.7"/>
<text text-anchor="start" x="13" y="-150.8" font-family="Helvetica,sans-Serif" font-weight="bold" font-size="11.00" fill="#000000">notifications_org_triggers</text>
<text text-anchor="start" x="161.0437" y="-149.8" font-family="Helvetica,sans-Serif" font-size="11.00" fill="#000000">[table]</text>
<polygon fill="none" stroke="#000000" points="8,-119.7 8,-141.7 196,-141.7 196,-119.7 8,-119.7"/>
<image xlink:href="../../images/primaryKeys.png" width="11px" height="12px" preserveAspectRatio="xMinYMin meet" x="13" y="-136.7"/>
<text text-anchor="start" x="28" y="-126.8" font-family="Helvetica,sans-Serif" font-size="11.00" fill="#000000">id</text>
<polygon fill="#ffffff" stroke="transparent" points="8,-97.7 8,-119.7 196,-119.7 196,-97.7 8,-97.7"/>
<polygon fill="none" stroke="#000000" points="8,-97.7 8,-119.7 196,-119.7 196,-97.7 8,-97.7"/>
<image xlink:href="../../images/foreignKeys.png" width="11px" height="12px" preserveAspectRatio="xMinYMin meet" x="13" y="-114.7"/>
<text text-anchor="start" x="28" y="-104.8" font-family="Helvetica,sans-Serif" font-size="11.00" fill="#000000">notifications_org_settings_id</text>
<polygon fill="#ffffff" stroke="transparent" points="8,-75.7 8,-97.7 196,-97.7 196,-75.7 8,-75.7"/>
<polygon fill="none" stroke="#000000" points="8,-75.7 8,-97.7 196,-97.7 196,-75.7 8,-75.7"/>
<text text-anchor="start" x="28" y="-82.8" font-family="Helvetica,sans-Serif" font-size="11.00" fill="#000000">trigger_type</text>
<polygon fill="none" stroke="#000000" points="8,-56.7 8,-75.7 196,-75.7 196,-56.7 8,-56.7"/>
<text text-anchor="start" x="11" y="-62.8" font-family="Helvetica,sans-Serif" font-size="11.00" fill="#000000">...</text>
<polygon fill="#ffffff" stroke="transparent" points="8,-37.7 8,-56.7 80,-56.7 80,-37.7 8,-37.7"/>
<polygon fill="none" stroke="#000000" points="8,-37.7 8,-56.7 80,-56.7 80,-37.7 8,-37.7"/>
<text text-anchor="start" x="11" y="-43.8" font-family="Helvetica,sans-Serif" font-size="11.00" fill="#000000">&lt; 1</text>
<polygon fill="#ffffff" stroke="transparent" points="80,-37.7 80,-56.7 149,-56.7 149,-37.7 80,-37.7"/>
<polygon fill="none" stroke="#000000" points="80,-37.7 80,-56.7 149,-56.7 149,-37.7 80,-37.7"/>
<text text-anchor="start" x="107.4956" y="-43.8" font-family="Helvetica,sans-Serif" font-size="11.00" fill="#000000">26 rows</text>
<polygon fill="#ffffff" stroke="transparent" points="149,-37.7 149,-56.7 196,-56.7 196,-37.7 149,-37.7"/>
<polygon fill="none" stroke="#000000" points="149,-37.7 149,-56.7 196,-56.7 196,-37.7 149,-37.7"/>
<text text-anchor="start" x="177.4053" y="-43.8" font-family="Helvetica,sans-Serif" font-size="11.00" fill="#000000">5 &gt;</text>
</a>
</g>
</g>
<!-- notifications_org_triggers_rule_severity&#45;&gt;notifications_org_triggers -->
<g id="edge1" class="edge">
<title>notifications_org_triggers_rule_severity:w&#45;&gt;notifications_org_triggers:e</title>
<path fill="none" stroke="#000000" d="M233.0156,-130.7C220.6771,-130.7 213.1667,-130.7 196,-130.7"/>
<polygon fill="#000000" stroke="#000000" points="239.5,-130.7001 247.5,-134.3 243.5,-130.7 247.5,-130.7 247.5,-130.7 247.5,-130.7 243.5,-130.7 247.5,-127.1 239.5,-130.7001 239.5,-130.7001"/>
<ellipse fill="none" stroke="#000000" cx="236.3" cy="-130.7001" rx="3.2" ry="3.2"/>
</g>
</g>
</svg>
