<?xml version="1.0" encoding="UTF-8" standalone="no"?>
<!DOCTYPE svg PUBLIC "-//W3C//DTD SVG 1.1//EN"
 "http://www.w3.org/Graphics/SVG/1.1/DTD/svg11.dtd">
<!-- Generated by graphviz version 2.40.1 (20161225.0304)
 -->
<!-- Title: twoDegreesRelationshipsDiagram Pages: 1 -->
<svg width="1134pt" height="595pt"
 viewBox="0.00 0.00 1134.00 595.20" xmlns="http://www.w3.org/2000/svg" xmlns:xlink="http://www.w3.org/1999/xlink">
<g id="graph0" class="graph" transform="scale(1 1) rotate(0) translate(4 591.2)">
<title>twoDegreesRelationshipsDiagram</title>
<polygon fill="#ffffff" stroke="transparent" points="-4,4 -4,-591.2 1130,-591.2 1130,4 -4,4"/>
<text text-anchor="middle" x="72.4936" y="-7.3" font-family="Helvetica,sans-Serif" font-size="11.00" fill="#000000">Generated by SchemaSpy</text>
<!-- notifications_org_triggers -->
<g id="node1" class="node">
<title>notifications_org_triggers</title>
<g id="a_node1"><a xlink:href="../../tables/notifications_org_triggers.html" xlink:title="notifications_org_triggers" target="_top">
<polygon fill="#ffffff" stroke="transparent" points="224,-268.2 224,-395.2 412,-395.2 412,-268.2 224,-268.2"/>
<polygon fill="#f5f5f5" stroke="transparent" points="224,-371.7 224,-394.7 412,-394.7 412,-371.7 224,-371.7"/>
<polygon fill="none" stroke="#000000" points="224,-371.7 224,-394.7 412,-394.7 412,-371.7 224,-371.7"/>
<text text-anchor="start" x="229" y="-380.8" font-family="Helvetica,sans-Serif" font-weight="bold" font-size="11.00" fill="#000000">notifications_org_triggers</text>
<text text-anchor="start" x="377.0437" y="-379.8" font-family="Helvetica,sans-Serif" font-size="11.00" fill="#000000">[table]</text>
<polygon fill="none" stroke="#000000" points="224,-349.7 224,-371.7 412,-371.7 412,-349.7 224,-349.7"/>
<image xlink:href="../../images/primaryKeys.png" width="11px" height="12px" preserveAspectRatio="xMinYMin meet" x="229" y="-366.7"/>
<text text-anchor="start" x="244" y="-356.8" font-family="Helvetica,sans-Serif" font-size="11.00" fill="#000000">id</text>
<polygon fill="#ffffff" stroke="transparent" points="224,-327.7 224,-349.7 412,-349.7 412,-327.7 224,-327.7"/>
<polygon fill="none" stroke="#000000" points="224,-327.7 224,-349.7 412,-349.7 412,-327.7 224,-327.7"/>
<image xlink:href="../../images/foreignKeys.png" width="11px" height="12px" preserveAspectRatio="xMinYMin meet" x="229" y="-344.7"/>
<text text-anchor="start" x="244" y="-334.8" font-family="Helvetica,sans-Serif" font-size="11.00" fill="#000000">notifications_org_settings_id</text>
<polygon fill="#ffffff" stroke="transparent" points="224,-305.7 224,-327.7 412,-327.7 412,-305.7 224,-305.7"/>
<polygon fill="none" stroke="#000000" points="224,-305.7 224,-327.7 412,-327.7 412,-305.7 224,-305.7"/>
<text text-anchor="start" x="244" y="-312.8" font-family="Helvetica,sans-Serif" font-size="11.00" fill="#000000">trigger_type</text>
<polygon fill="none" stroke="#000000" points="224,-286.7 224,-305.7 412,-305.7 412,-286.7 224,-286.7"/>
<text text-anchor="start" x="227" y="-292.8" font-family="Helvetica,sans-Serif" font-size="11.00" fill="#000000">...</text>
<polygon fill="#ffffff" stroke="transparent" points="224,-267.7 224,-286.7 296,-286.7 296,-267.7 224,-267.7"/>
<polygon fill="none" stroke="#000000" points="224,-267.7 224,-286.7 296,-286.7 296,-267.7 224,-267.7"/>
<text text-anchor="start" x="227" y="-273.8" font-family="Helvetica,sans-Serif" font-size="11.00" fill="#000000">&lt; 1</text>
<polygon fill="#ffffff" stroke="transparent" points="296,-267.7 296,-286.7 365,-286.7 365,-267.7 296,-267.7"/>
<polygon fill="none" stroke="#000000" points="296,-267.7 296,-286.7 365,-286.7 365,-267.7 296,-267.7"/>
<text text-anchor="start" x="323.4956" y="-273.8" font-family="Helvetica,sans-Serif" font-size="11.00" fill="#000000">26 rows</text>
<polygon fill="#ffffff" stroke="transparent" points="365,-267.7 365,-286.7 412,-286.7 412,-267.7 365,-267.7"/>
<polygon fill="none" stroke="#000000" points="365,-267.7 365,-286.7 412,-286.7 412,-267.7 365,-267.7"/>
<text text-anchor="start" x="393.4053" y="-273.8" font-family="Helvetica,sans-Serif" font-size="11.00" fill="#000000">5 &gt;</text>
</a>
</g>
</g>
<!-- notifications_org_settings -->
<g id="node2" class="node">
<title>notifications_org_settings</title>
<g id="a_node2"><a xlink:href="../../tables/notifications_org_settings.html" xlink:title="notifications_org_settings" target="_top">
<polygon fill="#ffffff" stroke="transparent" points="8,-311.2 8,-372.2 175,-372.2 175,-311.2 8,-311.2"/>
<polygon fill="#f5f5f5" stroke="transparent" points="8.5,-348.7 8.5,-371.7 175.5,-371.7 175.5,-348.7 8.5,-348.7"/>
<polygon fill="none" stroke="#000000" points="8.5,-348.7 8.5,-371.7 175.5,-371.7 175.5,-348.7 8.5,-348.7"/>
<text text-anchor="start" x="13.4556" y="-357.8" font-family="Helvetica,sans-Serif" font-weight="bold" font-size="11.00" fill="#000000">notifications_org_settings</text>
<text text-anchor="start" x="141.0219" y="-356.8" font-family="Helvetica,sans-Serif" font-size="11.00" fill="#000000">[table]</text>
<polygon fill="none" stroke="#000000" points="8.5,-329.7 8.5,-348.7 175.5,-348.7 175.5,-329.7 8.5,-329.7"/>
<text text-anchor="start" x="11.5" y="-335.8" font-family="Helvetica,sans-Serif" font-size="11.00" fill="#000000">...</text>
<polygon fill="#ffffff" stroke="transparent" points="8.5,-310.7 8.5,-329.7 75.5,-329.7 75.5,-310.7 8.5,-310.7"/>
<polygon fill="none" stroke="#000000" points="8.5,-310.7 8.5,-329.7 75.5,-329.7 75.5,-310.7 8.5,-310.7"/>
<text text-anchor="start" x="11.5" y="-316.8" font-family="Helvetica,sans-Serif" font-size="11.00" fill="#000000">&lt; 1</text>
<polygon fill="#ffffff" stroke="transparent" points="75.5,-310.7 75.5,-329.7 130.5,-329.7 130.5,-310.7 75.5,-310.7"/>
<polygon fill="none" stroke="#000000" points="75.5,-310.7 75.5,-329.7 130.5,-329.7 130.5,-310.7 75.5,-310.7"/>
<text text-anchor="start" x="100.6105" y="-316.8" font-family="Helvetica,sans-Serif" font-size="11.00" fill="#000000">1 row</text>
<polygon fill="#ffffff" stroke="transparent" points="130.5,-310.7 130.5,-329.7 175.5,-329.7 175.5,-310.7 130.5,-310.7"/>
<polygon fill="none" stroke="#000000" points="130.5,-310.7 130.5,-329.7 175.5,-329.7 175.5,-310.7 130.5,-310.7"/>
<text text-anchor="start" x="156.9053" y="-316.8" font-family="Helvetica,sans-Serif" font-size="11.00" fill="#000000">1 &gt;</text>
</a>
</g>
</g>
<!-- notifications_org_triggers&#45;&gt;notifications_org_settings -->
<g id="edge1" class="edge">
<title>notifications_org_triggers:w&#45;&gt;notifications_org_settings:e</title>
<path fill="none" stroke="#000000" d="M209.2829,-338.7C198.2886,-338.7 191.1615,-338.7 175.5,-338.7"/>
<polygon fill="#000000" stroke="#000000" points="216,-338.7001 224,-342.3 220,-338.7 224,-338.7 224,-338.7 224,-338.7 220,-338.7 224,-335.1 216,-338.7001 216,-338.7001"/>
<ellipse fill="none" stroke="#000000" cx="212.8" cy="-338.7001" rx="3.2" ry="3.2"/>
</g>
<!-- notifications_org_triggers_asset_type -->
<g id="node3" class="node">
<title>notifications_org_triggers_asset_type</title>
<g id="a_node3"><a xlink:href="../../tables/notifications_org_triggers_asset_type.html" xlink:title="notifications_org_triggers_asset_type" target="_top">
<polygon fill="#ffffff" stroke="transparent" points="506,-522.2 506,-583.2 731,-583.2 731,-522.2 506,-522.2"/>
<polygon fill="#f5f5f5" stroke="transparent" points="506.5,-559.7 506.5,-582.7 731.5,-582.7 731.5,-559.7 506.5,-559.7"/>
<polygon fill="none" stroke="#000000" points="506.5,-559.7 506.5,-582.7 731.5,-582.7 731.5,-559.7 506.5,-559.7"/>
<text text-anchor="start" x="511.4206" y="-568.8" font-family="Helvetica,sans-Serif" font-weight="bold" font-size="11.00" fill="#000000">notifications_org_triggers_asset_type</text>
<text text-anchor="start" x="697.0219" y="-567.8" font-family="Helvetica,sans-Serif" font-size="11.00" fill="#000000">[table]</text>
<polygon fill="none" stroke="#000000" points="506.5,-540.7 506.5,-559.7 731.5,-559.7 731.5,-540.7 506.5,-540.7"/>
<text text-anchor="start" x="509.5" y="-546.8" font-family="Helvetica,sans-Serif" font-size="11.00" fill="#000000">...</text>
<polygon fill="#ffffff" stroke="transparent" points="506.5,-521.7 506.5,-540.7 604.5,-540.7 604.5,-521.7 506.5,-521.7"/>
<polygon fill="none" stroke="#000000" points="506.5,-521.7 506.5,-540.7 604.5,-540.7 604.5,-521.7 506.5,-521.7"/>
<text text-anchor="start" x="509.5" y="-527.8" font-family="Helvetica,sans-Serif" font-size="11.00" fill="#000000">&lt; 1</text>
<polygon fill="#ffffff" stroke="transparent" points="604.5,-521.7 604.5,-540.7 680.5,-540.7 680.5,-521.7 604.5,-521.7"/>
<polygon fill="none" stroke="#000000" points="604.5,-521.7 604.5,-540.7 680.5,-540.7 680.5,-521.7 604.5,-521.7"/>
<text text-anchor="start" x="645.1105" y="-527.8" font-family="Helvetica,sans-Serif" font-size="11.00" fill="#000000">0 rows</text>
<polygon fill="#ffffff" stroke="transparent" points="680.5,-521.7 680.5,-540.7 731.5,-540.7 731.5,-521.7 680.5,-521.7"/>
<polygon fill="none" stroke="#000000" points="680.5,-521.7 680.5,-540.7 731.5,-540.7 731.5,-521.7 680.5,-521.7"/>
<text text-anchor="start" x="722.3862" y="-527.8" font-family="Helvetica,sans-Serif" font-size="11.00" fill="#000000"> &#160;</text>
</a>
</g>
</g>
<!-- notifications_org_triggers_asset_type&#45;&gt;notifications_org_triggers -->
<g id="edge2" class="edge">
<title>notifications_org_triggers_asset_type:w&#45;&gt;notifications_org_triggers:e</title>
<path fill="none" stroke="#000000" d="M492.1626,-548.2429C474.1493,-544.0738 466.559,-531.1344 453,-511.7 413.2097,-454.6677 481.541,-360.7 412,-360.7"/>
<polygon fill="#000000" stroke="#000000" points="498.541,-548.8911 506.136,-553.2816 502.5205,-549.2955 506.5,-549.7 506.5,-549.7 506.5,-549.7 502.5205,-549.2955 506.864,-546.1184 498.541,-548.8911 498.541,-548.8911"/>
<ellipse fill="none" stroke="#000000" cx="495.3574" cy="-548.5675" rx="3.2" ry="3.2"/>
</g>
<!-- notifications_org_triggers_attack_status -->
<g id="node4" class="node">
<title>notifications_org_triggers_attack_status</title>
<g id="a_node4"><a xlink:href="../../tables/notifications_org_triggers_attack_status.html" xlink:title="notifications_org_triggers_attack_status" target="_top">
<polygon fill="#ffffff" stroke="transparent" points="500.5,-440.2 500.5,-501.2 736.5,-501.2 736.5,-440.2 500.5,-440.2"/>
<polygon fill="#f5f5f5" stroke="transparent" points="500.5,-477.7 500.5,-500.7 736.5,-500.7 736.5,-477.7 500.5,-477.7"/>
<polygon fill="none" stroke="#000000" points="500.5,-477.7 500.5,-500.7 736.5,-500.7 736.5,-477.7 500.5,-477.7"/>
<text text-anchor="start" x="505.1137" y="-486.8" font-family="Helvetica,sans-Serif" font-weight="bold" font-size="11.00" fill="#000000">notifications_org_triggers_attack_status</text>
<text text-anchor="start" x="702.0219" y="-485.8" font-family="Helvetica,sans-Serif" font-size="11.00" fill="#000000">[table]</text>
<polygon fill="none" stroke="#000000" points="500.5,-458.7 500.5,-477.7 736.5,-477.7 736.5,-458.7 500.5,-458.7"/>
<text text-anchor="start" x="503.5" y="-464.8" font-family="Helvetica,sans-Serif" font-size="11.00" fill="#000000">...</text>
<polygon fill="#ffffff" stroke="transparent" points="500.5,-439.7 500.5,-458.7 603.5,-458.7 603.5,-439.7 500.5,-439.7"/>
<polygon fill="none" stroke="#000000" points="500.5,-439.7 500.5,-458.7 603.5,-458.7 603.5,-439.7 500.5,-439.7"/>
<text text-anchor="start" x="503.5" y="-445.8" font-family="Helvetica,sans-Serif" font-size="11.00" fill="#000000">&lt; 1</text>
<polygon fill="#ffffff" stroke="transparent" points="603.5,-439.7 603.5,-458.7 682.5,-458.7 682.5,-439.7 603.5,-439.7"/>
<polygon fill="none" stroke="#000000" points="603.5,-439.7 603.5,-458.7 682.5,-458.7 682.5,-439.7 603.5,-439.7"/>
<text text-anchor="start" x="647.1105" y="-445.8" font-family="Helvetica,sans-Serif" font-size="11.00" fill="#000000">5 rows</text>
<polygon fill="#ffffff" stroke="transparent" points="682.5,-439.7 682.5,-458.7 736.5,-458.7 736.5,-439.7 682.5,-439.7"/>
<polygon fill="none" stroke="#000000" points="682.5,-439.7 682.5,-458.7 736.5,-458.7 736.5,-439.7 682.5,-439.7"/>
<text text-anchor="start" x="727.3862" y="-445.8" font-family="Helvetica,sans-Serif" font-size="11.00" fill="#000000"> &#160;</text>
</a>
</g>
</g>
<!-- notifications_org_triggers_attack_status&#45;&gt;notifications_org_triggers -->
<g id="edge3" class="edge">
<title>notifications_org_triggers_attack_status:w&#45;&gt;notifications_org_triggers:e</title>
<path fill="none" stroke="#000000" d="M486.2684,-465.489C471.6495,-460.1487 467.0038,-445.7927 453,-429.7 429.5832,-402.79 447.672,-360.7 412,-360.7"/>
<polygon fill="#000000" stroke="#000000" points="492.5948,-466.4718 499.9473,-471.2573 496.5474,-467.0859 500.5,-467.7 500.5,-467.7 500.5,-467.7 496.5474,-467.0859 501.0527,-464.1427 492.5948,-466.4718 492.5948,-466.4718"/>
<ellipse fill="none" stroke="#000000" cx="489.4328" cy="-465.9806" rx="3.2" ry="3.2"/>
</g>
<!-- notifications_org_triggers_channels -->
<g id="node5" class="node">
<title>notifications_org_triggers_channels</title>
<g id="a_node5"><a xlink:href="../../tables/notifications_org_triggers_channels.html" xlink:title="notifications_org_triggers_channels" target="_top">
<polygon fill="#ffffff" stroke="transparent" points="461,-284.7 461,-418.7 776,-418.7 776,-284.7 461,-284.7"/>
<polygon fill="#f5f5f5" stroke="transparent" points="463.5,-393.7 463.5,-416.7 774.5,-416.7 774.5,-393.7 463.5,-393.7"/>
<polygon fill="none" stroke="#000000" points="463.5,-393.7 463.5,-416.7 774.5,-416.7 774.5,-393.7 463.5,-393.7"/>
<text text-anchor="start" x="468.5" y="-402.8" font-family="Helvetica,sans-Serif" font-weight="bold" font-size="11.00" fill="#000000">notifications_org_triggers_channels</text>
<text text-anchor="start" x="739.5437" y="-401.8" font-family="Helvetica,sans-Serif" font-size="11.00" fill="#000000">[table]</text>
<polygon fill="none" stroke="#000000" points="463.5,-371.7 463.5,-393.7 691.5,-393.7 691.5,-371.7 463.5,-371.7"/>
<image xlink:href="../../images/primaryKeys.png" width="11px" height="12px" preserveAspectRatio="xMinYMin meet" x="468.5" y="-388.7"/>
<text text-anchor="start" x="483.5" y="-378.8" font-family="Helvetica,sans-Serif" font-size="11.00" fill="#000000">id</text>
<polygon fill="none" stroke="#000000" points="691.5,-371.7 691.5,-393.7 774.5,-393.7 774.5,-371.7 691.5,-371.7"/>
<text text-anchor="start" x="694.1783" y="-379.4" font-family="Helvetica,sans-Serif" font-size="11.00" fill="#000000">int unsigned[10]</text>
<polygon fill="#ffffff" stroke="transparent" points="463.5,-349.7 463.5,-371.7 691.5,-371.7 691.5,-349.7 463.5,-349.7"/>
<polygon fill="none" stroke="#000000" points="463.5,-349.7 463.5,-371.7 691.5,-371.7 691.5,-349.7 463.5,-349.7"/>
<image xlink:href="../../images/foreignKeys.png" width="11px" height="12px" preserveAspectRatio="xMinYMin meet" x="468.5" y="-366.7"/>
<text text-anchor="start" x="483.5" y="-356.8" font-family="Helvetica,sans-Serif" font-size="11.00" fill="#000000">notifications_org_triggers_id</text>
<polygon fill="none" stroke="#000000" points="691.5,-349.7 691.5,-371.7 774.5,-371.7 774.5,-349.7 691.5,-349.7"/>
<text text-anchor="start" x="694.1783" y="-357.4" font-family="Helvetica,sans-Serif" font-size="11.00" fill="#000000">int unsigned[10]</text>
<polygon fill="#ffffff" stroke="transparent" points="463.5,-327.7 463.5,-349.7 691.5,-349.7 691.5,-327.7 463.5,-327.7"/>
<polygon fill="none" stroke="#000000" points="463.5,-327.7 463.5,-349.7 691.5,-349.7 691.5,-327.7 463.5,-327.7"/>
<text text-anchor="start" x="483.5" y="-334.8" font-family="Helvetica,sans-Serif" font-size="11.00" fill="#000000">channel_type</text>
<polygon fill="none" stroke="#000000" points="691.5,-327.7 691.5,-349.7 774.5,-349.7 774.5,-327.7 691.5,-327.7"/>
<text text-anchor="start" x="694.5" y="-335.4" font-family="Helvetica,sans-Serif" font-size="11.00" fill="#000000">varchar[50]</text>
<polygon fill="none" stroke="#000000" points="463.5,-305.7 463.5,-327.7 691.5,-327.7 691.5,-305.7 463.5,-305.7"/>
<text text-anchor="start" x="483.5" y="-312.8" font-family="Helvetica,sans-Serif" font-size="11.00" fill="#000000">enabled</text>
<polygon fill="none" stroke="#000000" points="691.5,-305.7 691.5,-327.7 774.5,-327.7 774.5,-305.7 691.5,-305.7"/>
<text text-anchor="start" x="694.5" y="-313.4" font-family="Helvetica,sans-Serif" font-size="11.00" fill="#000000">bit[1]</text>
<polygon fill="#ffffff" stroke="transparent" points="463.5,-286.7 463.5,-305.7 565.5,-305.7 565.5,-286.7 463.5,-286.7"/>
<polygon fill="none" stroke="#000000" points="463.5,-286.7 463.5,-305.7 565.5,-305.7 565.5,-286.7 463.5,-286.7"/>
<text text-anchor="start" x="466.5" y="-292.8" font-family="Helvetica,sans-Serif" font-size="11.00" fill="#000000">&lt; 1</text>
<polygon fill="#ffffff" stroke="transparent" points="565.5,-286.7 565.5,-305.7 691.5,-305.7 691.5,-286.7 565.5,-286.7"/>
<polygon fill="none" stroke="#000000" points="565.5,-286.7 565.5,-305.7 691.5,-305.7 691.5,-286.7 565.5,-286.7"/>
<text text-anchor="start" x="649.9956" y="-292.8" font-family="Helvetica,sans-Serif" font-size="11.00" fill="#000000">78 rows</text>
<polygon fill="#ffffff" stroke="transparent" points="691.5,-286.7 691.5,-305.7 774.5,-305.7 774.5,-286.7 691.5,-286.7"/>
<polygon fill="none" stroke="#000000" points="691.5,-286.7 691.5,-305.7 774.5,-305.7 774.5,-286.7 691.5,-286.7"/>
<text text-anchor="start" x="755.9053" y="-292.8" font-family="Helvetica,sans-Serif" font-size="11.00" fill="#000000">1 &gt;</text>
<polygon fill="none" stroke="#000000" stroke-width="2" points="462,-285.7 462,-417.7 775,-417.7 775,-285.7 462,-285.7"/>
</a>
</g>
</g>
<!-- notifications_org_triggers_channels&#45;&gt;notifications_org_triggers -->
<g id="edge4" class="edge">
<title>notifications_org_triggers_channels:w&#45;&gt;notifications_org_triggers:e</title>
<path fill="none" stroke="#000000" d="M449.0156,-360.7C436.6771,-360.7 429.1667,-360.7 412,-360.7"/>
<polygon fill="#000000" stroke="#000000" points="455.5,-360.7001 463.5,-364.3 459.5,-360.7 463.5,-360.7 463.5,-360.7 463.5,-360.7 459.5,-360.7 463.5,-357.1 455.5,-360.7001 455.5,-360.7001"/>
<ellipse fill="none" stroke="#000000" cx="452.3" cy="-360.7001" rx="3.2" ry="3.2"/>
</g>
<!-- notifications_org_triggers_channels_webhooks -->
<g id="node6" class="node">
<title>notifications_org_triggers_channels_webhooks</title>
<g id="a_node6"><a xlink:href="../../tables/notifications_org_triggers_channels_webhooks.html" xlink:title="notifications_org_triggers_channels_webhooks" target="_top">
<polygon fill="#ffffff" stroke="transparent" points="825,-264.7 825,-350.7 1118,-350.7 1118,-264.7 825,-264.7"/>
<polygon fill="#f5f5f5" stroke="transparent" points="825.5,-327.7 825.5,-350.7 1118.5,-350.7 1118.5,-327.7 825.5,-327.7"/>
<polygon fill="none" stroke="#000000" points="825.5,-327.7 825.5,-350.7 1118.5,-350.7 1118.5,-327.7 825.5,-327.7"/>
<text text-anchor="start" x="830.5" y="-336.8" font-family="Helvetica,sans-Serif" font-weight="bold" font-size="11.00" fill="#000000">notifications_org_triggers_channels_webhooks</text>
<text text-anchor="start" x="1083.5437" y="-335.8" font-family="Helvetica,sans-Serif" font-size="11.00" fill="#000000">[table]</text>
<polygon fill="none" stroke="#000000" points="825.5,-305.7 825.5,-327.7 1118.5,-327.7 1118.5,-305.7 825.5,-305.7"/>
<image xlink:href="../../images/primaryKeys.png" width="11px" height="12px" preserveAspectRatio="xMinYMin meet" x="830.5" y="-322.7"/>
<text text-anchor="start" x="845.5" y="-312.8" font-family="Helvetica,sans-Serif" font-size="11.00" fill="#000000">notifications_org_trigger_channel_id</text>
<polygon fill="none" stroke="#000000" points="825.5,-283.7 825.5,-305.7 1118.5,-305.7 1118.5,-283.7 825.5,-283.7"/>
<image xlink:href="../../images/primaryKeys.png" width="11px" height="12px" preserveAspectRatio="xMinYMin meet" x="830.5" y="-300.7"/>
<text text-anchor="start" x="845.5" y="-290.8" font-family="Helvetica,sans-Serif" font-size="11.00" fill="#000000">webhook_id</text>
<polygon fill="#ffffff" stroke="transparent" points="825.5,-264.7 825.5,-283.7 957.5,-283.7 957.5,-264.7 825.5,-264.7"/>
<polygon fill="none" stroke="#000000" points="825.5,-264.7 825.5,-283.7 957.5,-283.7 957.5,-264.7 825.5,-264.7"/>
<text text-anchor="start" x="828.5" y="-270.8" font-family="Helvetica,sans-Serif" font-size="11.00" fill="#000000">&lt; 2</text>
<polygon fill="#ffffff" stroke="transparent" points="957.5,-264.7 957.5,-283.7 1050.5,-283.7 1050.5,-264.7 957.5,-264.7"/>
<polygon fill="none" stroke="#000000" points="957.5,-264.7 957.5,-283.7 1050.5,-283.7 1050.5,-264.7 957.5,-264.7"/>
<text text-anchor="start" x="1015.1105" y="-270.8" font-family="Helvetica,sans-Serif" font-size="11.00" fill="#000000">0 rows</text>
<polygon fill="#ffffff" stroke="transparent" points="1050.5,-264.7 1050.5,-283.7 1118.5,-283.7 1118.5,-264.7 1050.5,-264.7"/>
<polygon fill="none" stroke="#000000" points="1050.5,-264.7 1050.5,-283.7 1118.5,-283.7 1118.5,-264.7 1050.5,-264.7"/>
<text text-anchor="start" x="1109.3862" y="-270.8" font-family="Helvetica,sans-Serif" font-size="11.00" fill="#000000"> &#160;</text>
</a>
</g>
</g>
<!-- notifications_org_triggers_channels_webhooks&#45;&gt;notifications_org_triggers_channels -->
<g id="edge5" class="edge">
<title>notifications_org_triggers_channels_webhooks:w&#45;&gt;notifications_org_triggers_channels:e</title>
<path fill="none" stroke="#000000" d="M811.5846,-321.4466C794.402,-336.5798 805.4886,-382.7 774.5,-382.7"/>
<polygon fill="#000000" stroke="#000000" points="817.9284,-319.2827 826.6622,-320.1072 821.7142,-317.9914 825.5,-316.7 825.5,-316.7 825.5,-316.7 821.7142,-317.9914 824.3378,-313.2928 817.9284,-319.2827 817.9284,-319.2827"/>
<ellipse fill="none" stroke="#000000" cx="814.8997" cy="-320.3158" rx="3.2" ry="3.2"/>
</g>
<!-- webhooks -->
<g id="node7" class="node">
<title>webhooks</title>
<g id="a_node7"><a xlink:href="../../tables/webhooks.html" xlink:title="webhooks" target="_top">
<polygon fill="#ffffff" stroke="transparent" points="572.5,-202.2 572.5,-263.2 664.5,-263.2 664.5,-202.2 572.5,-202.2"/>
<polygon fill="#f5f5f5" stroke="transparent" points="572.5,-239.7 572.5,-262.7 664.5,-262.7 664.5,-239.7 572.5,-239.7"/>
<polygon fill="none" stroke="#000000" points="572.5,-239.7 572.5,-262.7 664.5,-262.7 664.5,-239.7 572.5,-239.7"/>
<text text-anchor="start" x="577.2423" y="-248.8" font-family="Helvetica,sans-Serif" font-weight="bold" font-size="11.00" fill="#000000">webhooks</text>
<text text-anchor="start" x="630.0219" y="-247.8" font-family="Helvetica,sans-Serif" font-size="11.00" fill="#000000">[table]</text>
<polygon fill="none" stroke="#000000" points="572.5,-220.7 572.5,-239.7 664.5,-239.7 664.5,-220.7 572.5,-220.7"/>
<text text-anchor="start" x="575.5" y="-226.8" font-family="Helvetica,sans-Serif" font-size="11.00" fill="#000000">...</text>
<polygon fill="#ffffff" stroke="transparent" points="572.5,-201.7 572.5,-220.7 599.5,-220.7 599.5,-201.7 572.5,-201.7"/>
<polygon fill="none" stroke="#000000" points="572.5,-201.7 572.5,-220.7 599.5,-220.7 599.5,-201.7 572.5,-201.7"/>
<text text-anchor="start" x="575.5" y="-207.8" font-family="Helvetica,sans-Serif" font-size="11.00" fill="#000000">&lt; 1</text>
<polygon fill="#ffffff" stroke="transparent" points="599.5,-201.7 599.5,-220.7 640.5,-220.7 640.5,-201.7 599.5,-201.7"/>
<polygon fill="none" stroke="#000000" points="599.5,-201.7 599.5,-220.7 640.5,-220.7 640.5,-201.7 599.5,-201.7"/>
<text text-anchor="start" x="605.1105" y="-207.8" font-family="Helvetica,sans-Serif" font-size="11.00" fill="#000000">0 rows</text>
<polygon fill="#ffffff" stroke="transparent" points="640.5,-201.7 640.5,-220.7 664.5,-220.7 664.5,-201.7 640.5,-201.7"/>
<polygon fill="none" stroke="#000000" points="640.5,-201.7 640.5,-220.7 664.5,-220.7 664.5,-201.7 640.5,-201.7"/>
<text text-anchor="start" x="645.9053" y="-207.8" font-family="Helvetica,sans-Serif" font-size="11.00" fill="#000000">4 &gt;</text>
</a>
</g>
</g>
<!-- notifications_org_triggers_channels_webhooks&#45;&gt;webhooks -->
<g id="edge6" class="edge">
<title>notifications_org_triggers_channels_webhooks:w&#45;&gt;webhooks:e</title>
<path fill="none" stroke="#000000" d="M811.1828,-291.957C802.2522,-287.9526 797.2338,-280.3673 784,-274.7 731.8305,-252.3587 721.252,-229.7 664.5,-229.7"/>
<polygon fill="#000000" stroke="#000000" points="817.6429,-293.1946 824.8226,-298.2357 821.5715,-293.9473 825.5,-294.7 825.5,-294.7 825.5,-294.7 821.5715,-293.9473 826.1774,-291.1643 817.6429,-293.1946 817.6429,-293.1946"/>
<ellipse fill="none" stroke="#000000" cx="814.5001" cy="-292.5925" rx="3.2" ry="3.2"/>
</g>
<!-- notifications_org_triggers_rule_severity -->
<g id="node8" class="node">
<title>notifications_org_triggers_rule_severity</title>
<g id="a_node8"><a xlink:href="../../tables/notifications_org_triggers_rule_severity.html" xlink:title="notifications_org_triggers_rule_severity" target="_top">
<polygon fill="#ffffff" stroke="transparent" points="501.5,-120.2 501.5,-181.2 735.5,-181.2 735.5,-120.2 501.5,-120.2"/>
<polygon fill="#f5f5f5" stroke="transparent" points="501.5,-157.7 501.5,-180.7 735.5,-180.7 735.5,-157.7 501.5,-157.7"/>
<polygon fill="none" stroke="#000000" points="501.5,-157.7 501.5,-180.7 735.5,-180.7 735.5,-157.7 501.5,-157.7"/>
<text text-anchor="start" x="506.3462" y="-166.8" font-family="Helvetica,sans-Serif" font-weight="bold" font-size="11.00" fill="#000000">notifications_org_triggers_rule_severity</text>
<text text-anchor="start" x="701.0219" y="-165.8" font-family="Helvetica,sans-Serif" font-size="11.00" fill="#000000">[table]</text>
<polygon fill="none" stroke="#000000" points="501.5,-138.7 501.5,-157.7 735.5,-157.7 735.5,-138.7 501.5,-138.7"/>
<text text-anchor="start" x="504.5" y="-144.8" font-family="Helvetica,sans-Serif" font-size="11.00" fill="#000000">...</text>
<polygon fill="#ffffff" stroke="transparent" points="501.5,-119.7 501.5,-138.7 603.5,-138.7 603.5,-119.7 501.5,-119.7"/>
<polygon fill="none" stroke="#000000" points="501.5,-119.7 501.5,-138.7 603.5,-138.7 603.5,-119.7 501.5,-119.7"/>
<text text-anchor="start" x="504.5" y="-125.8" font-family="Helvetica,sans-Serif" font-size="11.00" fill="#000000">&lt; 1</text>
<polygon fill="#ffffff" stroke="transparent" points="603.5,-119.7 603.5,-138.7 682.5,-138.7 682.5,-119.7 603.5,-119.7"/>
<polygon fill="none" stroke="#000000" points="603.5,-119.7 603.5,-138.7 682.5,-138.7 682.5,-119.7 603.5,-119.7"/>
<text text-anchor="start" x="647.1105" y="-125.8" font-family="Helvetica,sans-Serif" font-size="11.00" fill="#000000">6 rows</text>
<polygon fill="#ffffff" stroke="transparent" points="682.5,-119.7 682.5,-138.7 735.5,-138.7 735.5,-119.7 682.5,-119.7"/>
<polygon fill="none" stroke="#000000" points="682.5,-119.7 682.5,-138.7 735.5,-138.7 735.5,-119.7 682.5,-119.7"/>
<text text-anchor="start" x="726.3862" y="-125.8" font-family="Helvetica,sans-Serif" font-size="11.00" fill="#000000"> &#160;</text>
</a>
</g>
</g>
<!-- notifications_org_triggers_rule_severity&#45;&gt;notifications_org_triggers -->
<g id="edge7" class="edge">
<title>notifications_org_triggers_rule_severity:w&#45;&gt;notifications_org_triggers:e</title>
<path fill="none" stroke="#000000" d="M486.9987,-149.7754C470.2313,-155.3437 464.9607,-171.5646 453,-191.7 413.5275,-258.1504 489.2899,-360.7 412,-360.7"/>
<polygon fill="#000000" stroke="#000000" points="493.5807,-148.8335 502.0101,-151.2637 497.5403,-148.2667 501.5,-147.7 501.5,-147.7 501.5,-147.7 497.5403,-148.2667 500.9899,-144.1363 493.5807,-148.8335 493.5807,-148.8335"/>
<ellipse fill="none" stroke="#000000" cx="490.413" cy="-149.2869" rx="3.2" ry="3.2"/>
</g>
<!-- notifications_org_triggers_server_environment -->
<g id="node9" class="node">
<title>notifications_org_triggers_server_environment</title>
<g id="a_node9"><a xlink:href="../../tables/notifications_org_triggers_server_environment.html" xlink:title="notifications_org_triggers_server_environment" target="_top">
<polygon fill="#ffffff" stroke="transparent" points="484,-38.2 484,-99.2 753,-99.2 753,-38.2 484,-38.2"/>
<polygon fill="#f5f5f5" stroke="transparent" points="484.5,-75.7 484.5,-98.7 753.5,-98.7 753.5,-75.7 484.5,-75.7"/>
<polygon fill="none" stroke="#000000" points="484.5,-75.7 484.5,-98.7 753.5,-98.7 753.5,-75.7 484.5,-75.7"/>
<text text-anchor="start" x="489.425" y="-84.8" font-family="Helvetica,sans-Serif" font-weight="bold" font-size="11.00" fill="#000000">notifications_org_triggers_server_environment</text>
<text text-anchor="start" x="719.0219" y="-83.8" font-family="Helvetica,sans-Serif" font-size="11.00" fill="#000000">[table]</text>
<polygon fill="none" stroke="#000000" points="484.5,-56.7 484.5,-75.7 753.5,-75.7 753.5,-56.7 484.5,-56.7"/>
<text text-anchor="start" x="487.5" y="-62.8" font-family="Helvetica,sans-Serif" font-size="11.00" fill="#000000">...</text>
<polygon fill="#ffffff" stroke="transparent" points="484.5,-37.7 484.5,-56.7 604.5,-56.7 604.5,-37.7 484.5,-37.7"/>
<polygon fill="none" stroke="#000000" points="484.5,-37.7 484.5,-56.7 604.5,-56.7 604.5,-37.7 484.5,-37.7"/>
<text text-anchor="start" x="487.5" y="-43.8" font-family="Helvetica,sans-Serif" font-size="11.00" fill="#000000">&lt; 1</text>
<polygon fill="#ffffff" stroke="transparent" points="604.5,-37.7 604.5,-56.7 691.5,-56.7 691.5,-37.7 604.5,-37.7"/>
<polygon fill="none" stroke="#000000" points="604.5,-37.7 604.5,-56.7 691.5,-56.7 691.5,-37.7 604.5,-37.7"/>
<text text-anchor="start" x="656.1105" y="-43.8" font-family="Helvetica,sans-Serif" font-size="11.00" fill="#000000">0 rows</text>
<polygon fill="#ffffff" stroke="transparent" points="691.5,-37.7 691.5,-56.7 753.5,-56.7 753.5,-37.7 691.5,-37.7"/>
<polygon fill="none" stroke="#000000" points="691.5,-37.7 691.5,-56.7 753.5,-56.7 753.5,-37.7 691.5,-37.7"/>
<text text-anchor="start" x="744.3862" y="-43.8" font-family="Helvetica,sans-Serif" font-size="11.00" fill="#000000"> &#160;</text>
</a>
</g>
</g>
<!-- notifications_org_triggers_server_environment&#45;&gt;notifications_org_triggers -->
<g id="edge8" class="edge">
<title>notifications_org_triggers_server_environment:w&#45;&gt;notifications_org_triggers:e</title>
<path fill="none" stroke="#000000" d="M470.4105,-69.6759C460.6166,-76.9559 459.8131,-93.2015 453,-109.7 431.4282,-161.9382 468.517,-360.7 412,-360.7"/>
<polygon fill="#000000" stroke="#000000" points="476.8007,-67.8727 485.4777,-69.1647 480.6503,-66.7863 484.5,-65.7 484.5,-65.7 484.5,-65.7 480.6503,-66.7863 483.5223,-62.2353 476.8007,-67.8727 476.8007,-67.8727"/>
<ellipse fill="none" stroke="#000000" cx="473.7209" cy="-68.7418" rx="3.2" ry="3.2"/>
</g>
</g>
</svg>
