<?xml version="1.0" encoding="UTF-8" standalone="no"?>
<!DOCTYPE svg PUBLIC "-//W3C//DTD SVG 1.1//EN"
 "http://www.w3.org/Graphics/SVG/1.1/DTD/svg11.dtd">
<!-- Generated by graphviz version 2.40.1 (20161225.0304)
 -->
<!-- Title: oneDegreeRelationshipsDiagram Pages: 1 -->
<svg width="681pt" height="303pt"
 viewBox="0.00 0.00 681.00 303.20" xmlns="http://www.w3.org/2000/svg" xmlns:xlink="http://www.w3.org/1999/xlink">
<g id="graph0" class="graph" transform="scale(1 1) rotate(0) translate(4 299.2)">
<title>oneDegreeRelationshipsDiagram</title>
<polygon fill="#ffffff" stroke="transparent" points="-4,4 -4,-299.2 677,-299.2 677,4 -4,4"/>
<text text-anchor="middle" x="72.4936" y="-7.3" font-family="Helvetica,sans-Serif" font-size="11.00" fill="#000000">Generated by SchemaSpy</text>
<!-- notifications_org_triggers_channels_webhooks -->
<g id="node1" class="node">
<title>notifications_org_triggers_channels_webhooks</title>
<g id="a_node1"><a xlink:href="../../tables/notifications_org_triggers_channels_webhooks.html" xlink:title="notifications_org_triggers_channels_webhooks" target="_top">
<polygon fill="#ffffff" stroke="transparent" points="285,-139.7 285,-229.7 665,-229.7 665,-139.7 285,-139.7"/>
<polygon fill="#f5f5f5" stroke="transparent" points="287,-204.7 287,-227.7 663,-227.7 663,-204.7 287,-204.7"/>
<polygon fill="none" stroke="#000000" points="287,-204.7 287,-227.7 663,-227.7 663,-204.7 287,-204.7"/>
<text text-anchor="start" x="292" y="-213.8" font-family="Helvetica,sans-Serif" font-weight="bold" font-size="11.00" fill="#000000">notifications_org_triggers_channels_webhooks</text>
<text text-anchor="start" x="628.0437" y="-212.8" font-family="Helvetica,sans-Serif" font-size="11.00" fill="#000000">[table]</text>
<polygon fill="none" stroke="#000000" points="287,-182.7 287,-204.7 580,-204.7 580,-182.7 287,-182.7"/>
<image xlink:href="../../images/primaryKeys.png" width="11px" height="12px" preserveAspectRatio="xMinYMin meet" x="292" y="-199.7"/>
<text text-anchor="start" x="307" y="-189.8" font-family="Helvetica,sans-Serif" font-size="11.00" fill="#000000">notifications_org_trigger_channel_id</text>
<polygon fill="none" stroke="#000000" points="580,-182.7 580,-204.7 663,-204.7 663,-182.7 580,-182.7"/>
<text text-anchor="start" x="582.6783" y="-190.4" font-family="Helvetica,sans-Serif" font-size="11.00" fill="#000000">int unsigned[10]</text>
<polygon fill="none" stroke="#000000" points="287,-160.7 287,-182.7 580,-182.7 580,-160.7 287,-160.7"/>
<image xlink:href="../../images/primaryKeys.png" width="11px" height="12px" preserveAspectRatio="xMinYMin meet" x="292" y="-177.7"/>
<text text-anchor="start" x="307" y="-167.8" font-family="Helvetica,sans-Serif" font-size="11.00" fill="#000000">webhook_id</text>
<polygon fill="none" stroke="#000000" points="580,-160.7 580,-182.7 663,-182.7 663,-160.7 580,-160.7"/>
<text text-anchor="start" x="582.6783" y="-168.4" font-family="Helvetica,sans-Serif" font-size="11.00" fill="#000000">int unsigned[10]</text>
<polygon fill="#ffffff" stroke="transparent" points="287,-141.7 287,-160.7 425,-160.7 425,-141.7 287,-141.7"/>
<polygon fill="none" stroke="#000000" points="287,-141.7 287,-160.7 425,-160.7 425,-141.7 287,-141.7"/>
<text text-anchor="start" x="290" y="-147.8" font-family="Helvetica,sans-Serif" font-size="11.00" fill="#000000">&lt; 2</text>
<polygon fill="#ffffff" stroke="transparent" points="425,-141.7 425,-160.7 580,-160.7 580,-141.7 425,-141.7"/>
<polygon fill="none" stroke="#000000" points="425,-141.7 425,-160.7 580,-160.7 580,-141.7 425,-141.7"/>
<text text-anchor="start" x="544.6105" y="-147.8" font-family="Helvetica,sans-Serif" font-size="11.00" fill="#000000">0 rows</text>
<polygon fill="#ffffff" stroke="transparent" points="580,-141.7 580,-160.7 663,-160.7 663,-141.7 580,-141.7"/>
<polygon fill="none" stroke="#000000" points="580,-141.7 580,-160.7 663,-160.7 663,-141.7 580,-141.7"/>
<text text-anchor="start" x="644.4053" y="-147.8" font-family="Helvetica,sans-Serif" font-size="11.00" fill="#000000">0 &gt;</text>
<polygon fill="none" stroke="#000000" stroke-width="2" points="286,-140.7 286,-228.7 664,-228.7 664,-140.7 286,-140.7"/>
</a>
</g>
</g>
<!-- notifications_org_triggers_channels -->
<g id="node2" class="node">
<title>notifications_org_triggers_channels</title>
<g id="a_node2"><a xlink:href="../../tables/notifications_org_triggers_channels.html" xlink:title="notifications_org_triggers_channels" target="_top">
<polygon fill="#ffffff" stroke="transparent" points="8,-164.2 8,-291.2 236,-291.2 236,-164.2 8,-164.2"/>
<polygon fill="#f5f5f5" stroke="transparent" points="8,-267.7 8,-290.7 236,-290.7 236,-267.7 8,-267.7"/>
<polygon fill="none" stroke="#000000" points="8,-267.7 8,-290.7 236,-290.7 236,-267.7 8,-267.7"/>
<text text-anchor="start" x="13" y="-276.8" font-family="Helvetica,sans-Serif" font-weight="bold" font-size="11.00" fill="#000000">notifications_org_triggers_channels</text>
<text text-anchor="start" x="201.0437" y="-275.8" font-family="Helvetica,sans-Serif" font-size="11.00" fill="#000000">[table]</text>
<polygon fill="none" stroke="#000000" points="8,-245.7 8,-267.7 236,-267.7 236,-245.7 8,-245.7"/>
<image xlink:href="../../images/primaryKeys.png" width="11px" height="12px" preserveAspectRatio="xMinYMin meet" x="13" y="-262.7"/>
<text text-anchor="start" x="28" y="-252.8" font-family="Helvetica,sans-Serif" font-size="11.00" fill="#000000">id</text>
<polygon fill="#ffffff" stroke="transparent" points="8,-223.7 8,-245.7 236,-245.7 236,-223.7 8,-223.7"/>
<polygon fill="none" stroke="#000000" points="8,-223.7 8,-245.7 236,-245.7 236,-223.7 8,-223.7"/>
<image xlink:href="../../images/foreignKeys.png" width="11px" height="12px" preserveAspectRatio="xMinYMin meet" x="13" y="-240.7"/>
<text text-anchor="start" x="28" y="-230.8" font-family="Helvetica,sans-Serif" font-size="11.00" fill="#000000">notifications_org_triggers_id</text>
<polygon fill="#ffffff" stroke="transparent" points="8,-201.7 8,-223.7 236,-223.7 236,-201.7 8,-201.7"/>
<polygon fill="none" stroke="#000000" points="8,-201.7 8,-223.7 236,-223.7 236,-201.7 8,-201.7"/>
<text text-anchor="start" x="28" y="-208.8" font-family="Helvetica,sans-Serif" font-size="11.00" fill="#000000">channel_type</text>
<polygon fill="none" stroke="#000000" points="8,-182.7 8,-201.7 236,-201.7 236,-182.7 8,-182.7"/>
<text text-anchor="start" x="11" y="-188.8" font-family="Helvetica,sans-Serif" font-size="11.00" fill="#000000">...</text>
<polygon fill="#ffffff" stroke="transparent" points="8,-163.7 8,-182.7 100,-182.7 100,-163.7 8,-163.7"/>
<polygon fill="none" stroke="#000000" points="8,-163.7 8,-182.7 100,-182.7 100,-163.7 8,-163.7"/>
<text text-anchor="start" x="11" y="-169.8" font-family="Helvetica,sans-Serif" font-size="11.00" fill="#000000">&lt; 1</text>
<polygon fill="#ffffff" stroke="transparent" points="100,-163.7 100,-182.7 179,-182.7 179,-163.7 100,-163.7"/>
<polygon fill="none" stroke="#000000" points="100,-163.7 100,-182.7 179,-182.7 179,-163.7 100,-163.7"/>
<text text-anchor="start" x="137.4956" y="-169.8" font-family="Helvetica,sans-Serif" font-size="11.00" fill="#000000">78 rows</text>
<polygon fill="#ffffff" stroke="transparent" points="179,-163.7 179,-182.7 236,-182.7 236,-163.7 179,-163.7"/>
<polygon fill="none" stroke="#000000" points="179,-163.7 179,-182.7 236,-182.7 236,-163.7 179,-163.7"/>
<text text-anchor="start" x="217.4053" y="-169.8" font-family="Helvetica,sans-Serif" font-size="11.00" fill="#000000">1 &gt;</text>
</a>
</g>
</g>
<!-- notifications_org_triggers_channels_webhooks&#45;&gt;notifications_org_triggers_channels -->
<g id="edge1" class="edge">
<title>notifications_org_triggers_channels_webhooks:w&#45;&gt;notifications_org_triggers_channels:e</title>
<path fill="none" stroke="#000000" d="M272.9033,-198.6435C256.525,-213.4952 265.8329,-256.7 236,-256.7"/>
<polygon fill="#000000" stroke="#000000" points="279.4507,-196.3474 288.1913,-197.0972 283.2254,-195.0237 287,-193.7 287,-193.7 287,-193.7 283.2254,-195.0237 285.8087,-190.3028 279.4507,-196.3474 279.4507,-196.3474"/>
<ellipse fill="none" stroke="#000000" cx="276.431" cy="-197.4064" rx="3.2" ry="3.2"/>
</g>
<!-- webhooks -->
<g id="node3" class="node">
<title>webhooks</title>
<g id="a_node3"><a xlink:href="../../tables/webhooks.html" xlink:title="webhooks" target="_top">
<polygon fill="#ffffff" stroke="transparent" points="64,-38.2 64,-143.2 180,-143.2 180,-38.2 64,-38.2"/>
<polygon fill="#f5f5f5" stroke="transparent" points="64,-119.7 64,-142.7 180,-142.7 180,-119.7 64,-119.7"/>
<polygon fill="none" stroke="#000000" points="64,-119.7 64,-142.7 180,-142.7 180,-119.7 64,-119.7"/>
<text text-anchor="start" x="69" y="-128.8" font-family="Helvetica,sans-Serif" font-weight="bold" font-size="11.00" fill="#000000">webhooks</text>
<text text-anchor="start" x="145.0437" y="-127.8" font-family="Helvetica,sans-Serif" font-size="11.00" fill="#000000">[table]</text>
<polygon fill="none" stroke="#000000" points="64,-97.7 64,-119.7 180,-119.7 180,-97.7 64,-97.7"/>
<image xlink:href="../../images/primaryKeys.png" width="11px" height="12px" preserveAspectRatio="xMinYMin meet" x="69" y="-114.7"/>
<text text-anchor="start" x="84" y="-104.8" font-family="Helvetica,sans-Serif" font-size="11.00" fill="#000000">id</text>
<polygon fill="#ffffff" stroke="transparent" points="64,-75.7 64,-97.7 180,-97.7 180,-75.7 64,-75.7"/>
<polygon fill="none" stroke="#000000" points="64,-75.7 64,-97.7 180,-97.7 180,-75.7 64,-75.7"/>
<image xlink:href="../../images/foreignKeys.png" width="11px" height="12px" preserveAspectRatio="xMinYMin meet" x="69" y="-92.7"/>
<text text-anchor="start" x="84" y="-82.8" font-family="Helvetica,sans-Serif" font-size="11.00" fill="#000000">organizations_id</text>
<polygon fill="none" stroke="#000000" points="64,-56.7 64,-75.7 180,-75.7 180,-56.7 64,-56.7"/>
<text text-anchor="start" x="67" y="-62.8" font-family="Helvetica,sans-Serif" font-size="11.00" fill="#000000">...</text>
<polygon fill="#ffffff" stroke="transparent" points="64,-37.7 64,-56.7 103,-56.7 103,-37.7 64,-37.7"/>
<polygon fill="none" stroke="#000000" points="64,-37.7 64,-56.7 103,-56.7 103,-37.7 64,-37.7"/>
<text text-anchor="start" x="67" y="-43.8" font-family="Helvetica,sans-Serif" font-size="11.00" fill="#000000">&lt; 1</text>
<polygon fill="#ffffff" stroke="transparent" points="103,-37.7 103,-56.7 150,-56.7 150,-37.7 103,-37.7"/>
<polygon fill="none" stroke="#000000" points="103,-37.7 103,-56.7 150,-56.7 150,-37.7 103,-37.7"/>
<text text-anchor="start" x="114.6105" y="-43.8" font-family="Helvetica,sans-Serif" font-size="11.00" fill="#000000">0 rows</text>
<polygon fill="#ffffff" stroke="transparent" points="150,-37.7 150,-56.7 180,-56.7 180,-37.7 150,-37.7"/>
<polygon fill="none" stroke="#000000" points="150,-37.7 150,-56.7 180,-56.7 180,-37.7 150,-37.7"/>
<text text-anchor="start" x="161.4053" y="-43.8" font-family="Helvetica,sans-Serif" font-size="11.00" fill="#000000">4 &gt;</text>
</a>
</g>
</g>
<!-- notifications_org_triggers_channels_webhooks&#45;&gt;webhooks -->
<g id="edge2" class="edge">
<title>notifications_org_triggers_channels_webhooks:w&#45;&gt;webhooks:e</title>
<path fill="none" stroke="#000000" d="M272.6619,-170.0794C231.9229,-160.2184 229.9048,-108.7 180,-108.7"/>
<polygon fill="#000000" stroke="#000000" points="279.0506,-170.8014 286.5956,-175.2772 283.0253,-171.2507 287,-171.7 287,-171.7 287,-171.7 283.0253,-171.2507 287.4044,-168.1228 279.0506,-170.8014 279.0506,-170.8014"/>
<ellipse fill="none" stroke="#000000" cx="275.8709" cy="-170.442" rx="3.2" ry="3.2"/>
</g>
</g>
</svg>
