<?xml version="1.0" encoding="UTF-8" standalone="no"?>
<!DOCTYPE svg PUBLIC "-//W3C//DTD SVG 1.1//EN"
 "http://www.w3.org/Graphics/SVG/1.1/DTD/svg11.dtd">
<!-- Generated by graphviz version 2.40.1 (20161225.0304)
 -->
<!-- Title: oneDegreeRelationshipsDiagram Pages: 1 -->
<svg width="607pt" height="465pt"
 viewBox="0.00 0.00 607.00 464.70" xmlns="http://www.w3.org/2000/svg" xmlns:xlink="http://www.w3.org/1999/xlink">
<g id="graph0" class="graph" transform="scale(1 1) rotate(0) translate(4 460.7)">
<title>oneDegreeRelationshipsDiagram</title>
<polygon fill="#ffffff" stroke="transparent" points="-4,4 -4,-460.7 603,-460.7 603,4 -4,4"/>
<text text-anchor="middle" x="72.4936" y="-7.3" font-family="Helvetica,sans-Serif" font-size="11.00" fill="#000000">Generated by SchemaSpy</text>
<!-- notifications_messages_properties -->
<g id="node1" class="node">
<title>notifications_messages_properties</title>
<g id="a_node1"><a xlink:href="../../tables/notifications_messages_properties.html" xlink:title="notifications_messages_properties" target="_top">
<polygon fill="#ffffff" stroke="transparent" points="282,-296.7 282,-452.7 591,-452.7 591,-296.7 282,-296.7"/>
<polygon fill="#f5f5f5" stroke="transparent" points="284.5,-427.7 284.5,-450.7 589.5,-450.7 589.5,-427.7 284.5,-427.7"/>
<polygon fill="none" stroke="#000000" points="284.5,-427.7 284.5,-450.7 589.5,-450.7 589.5,-427.7 284.5,-427.7"/>
<text text-anchor="start" x="289.5" y="-436.8" font-family="Helvetica,sans-Serif" font-weight="bold" font-size="11.00" fill="#000000">notifications_messages_properties</text>
<text text-anchor="start" x="554.5437" y="-435.8" font-family="Helvetica,sans-Serif" font-size="11.00" fill="#000000">[table]</text>
<polygon fill="none" stroke="#000000" points="284.5,-405.7 284.5,-427.7 506.5,-427.7 506.5,-405.7 284.5,-405.7"/>
<image xlink:href="../../images/primaryKeys.png" width="11px" height="12px" preserveAspectRatio="xMinYMin meet" x="289.5" y="-422.7"/>
<text text-anchor="start" x="304.5" y="-412.8" font-family="Helvetica,sans-Serif" font-size="11.00" fill="#000000">id</text>
<polygon fill="none" stroke="#000000" points="506.5,-405.7 506.5,-427.7 589.5,-427.7 589.5,-405.7 506.5,-405.7"/>
<text text-anchor="start" x="509.1783" y="-413.4" font-family="Helvetica,sans-Serif" font-size="11.00" fill="#000000">int unsigned[10]</text>
<polygon fill="#ffffff" stroke="transparent" points="284.5,-383.7 284.5,-405.7 506.5,-405.7 506.5,-383.7 284.5,-383.7"/>
<polygon fill="none" stroke="#000000" points="284.5,-383.7 284.5,-405.7 506.5,-405.7 506.5,-383.7 284.5,-383.7"/>
<text text-anchor="start" x="304.5" y="-390.8" font-family="Helvetica,sans-Serif" font-size="11.00" fill="#000000">property_name</text>
<polygon fill="none" stroke="#000000" points="506.5,-383.7 506.5,-405.7 589.5,-405.7 589.5,-383.7 506.5,-383.7"/>
<text text-anchor="start" x="509.5" y="-391.4" font-family="Helvetica,sans-Serif" font-size="11.00" fill="#000000">varchar[255]</text>
<polygon fill="none" stroke="#000000" points="284.5,-361.7 284.5,-383.7 506.5,-383.7 506.5,-361.7 284.5,-361.7"/>
<text text-anchor="start" x="304.5" y="-368.8" font-family="Helvetica,sans-Serif" font-size="11.00" fill="#000000">property_value</text>
<polygon fill="none" stroke="#000000" points="506.5,-361.7 506.5,-383.7 589.5,-383.7 589.5,-361.7 506.5,-361.7"/>
<text text-anchor="start" x="509.5" y="-369.4" font-family="Helvetica,sans-Serif" font-size="11.00" fill="#000000">varchar[255]</text>
<polygon fill="none" stroke="#000000" points="284.5,-339.7 284.5,-361.7 506.5,-361.7 506.5,-339.7 284.5,-339.7"/>
<text text-anchor="start" x="304.5" y="-346.8" font-family="Helvetica,sans-Serif" font-size="11.00" fill="#000000">property_label</text>
<polygon fill="none" stroke="#000000" points="506.5,-339.7 506.5,-361.7 589.5,-361.7 589.5,-339.7 506.5,-339.7"/>
<text text-anchor="start" x="509.5" y="-347.4" font-family="Helvetica,sans-Serif" font-size="11.00" fill="#000000">varchar[255]</text>
<polygon fill="#ffffff" stroke="transparent" points="284.5,-317.7 284.5,-339.7 506.5,-339.7 506.5,-317.7 284.5,-317.7"/>
<polygon fill="none" stroke="#000000" points="284.5,-317.7 284.5,-339.7 506.5,-339.7 506.5,-317.7 284.5,-317.7"/>
<image xlink:href="../../images/foreignKeys.png" width="11px" height="12px" preserveAspectRatio="xMinYMin meet" x="289.5" y="-334.7"/>
<text text-anchor="start" x="304.5" y="-324.8" font-family="Helvetica,sans-Serif" font-size="11.00" fill="#000000">notifications_messages_id</text>
<polygon fill="none" stroke="#000000" points="506.5,-317.7 506.5,-339.7 589.5,-339.7 589.5,-317.7 506.5,-317.7"/>
<text text-anchor="start" x="509.5" y="-325.4" font-family="Helvetica,sans-Serif" font-size="11.00" fill="#000000">varchar[255]</text>
<polygon fill="#ffffff" stroke="transparent" points="284.5,-298.7 284.5,-317.7 386.5,-317.7 386.5,-298.7 284.5,-298.7"/>
<polygon fill="none" stroke="#000000" points="284.5,-298.7 284.5,-317.7 386.5,-317.7 386.5,-298.7 284.5,-298.7"/>
<text text-anchor="start" x="287.5" y="-304.8" font-family="Helvetica,sans-Serif" font-size="11.00" fill="#000000">&lt; 1</text>
<polygon fill="#ffffff" stroke="transparent" points="386.5,-298.7 386.5,-317.7 506.5,-317.7 506.5,-298.7 386.5,-298.7"/>
<polygon fill="none" stroke="#000000" points="386.5,-298.7 386.5,-317.7 506.5,-317.7 506.5,-298.7 386.5,-298.7"/>
<text text-anchor="start" x="471.1105" y="-304.8" font-family="Helvetica,sans-Serif" font-size="11.00" fill="#000000">0 rows</text>
<polygon fill="#ffffff" stroke="transparent" points="506.5,-298.7 506.5,-317.7 589.5,-317.7 589.5,-298.7 506.5,-298.7"/>
<polygon fill="none" stroke="#000000" points="506.5,-298.7 506.5,-317.7 589.5,-317.7 589.5,-298.7 506.5,-298.7"/>
<text text-anchor="start" x="570.9053" y="-304.8" font-family="Helvetica,sans-Serif" font-size="11.00" fill="#000000">0 &gt;</text>
<polygon fill="none" stroke="#000000" stroke-width="2" points="283,-297.7 283,-451.7 590,-451.7 590,-297.7 283,-297.7"/>
</a>
</g>
</g>
<!-- notifications_messages -->
<g id="node2" class="node">
<title>notifications_messages</title>
<g id="a_node2"><a xlink:href="../../tables/notifications_messages.html" xlink:title="notifications_messages" target="_top">
<polygon fill="#ffffff" stroke="transparent" points="8,-38.2 8,-363.2 233,-363.2 233,-38.2 8,-38.2"/>
<polygon fill="#f5f5f5" stroke="transparent" points="8.5,-339.7 8.5,-362.7 233.5,-362.7 233.5,-339.7 8.5,-339.7"/>
<polygon fill="none" stroke="#000000" points="8.5,-339.7 8.5,-362.7 233.5,-362.7 233.5,-339.7 8.5,-339.7"/>
<text text-anchor="start" x="13.5" y="-348.8" font-family="Helvetica,sans-Serif" font-weight="bold" font-size="11.00" fill="#000000">notifications_messages</text>
<text text-anchor="start" x="198.5437" y="-347.8" font-family="Helvetica,sans-Serif" font-size="11.00" fill="#000000">[table]</text>
<polygon fill="none" stroke="#000000" points="8.5,-317.7 8.5,-339.7 233.5,-339.7 233.5,-317.7 8.5,-317.7"/>
<image xlink:href="../../images/primaryKeys.png" width="11px" height="12px" preserveAspectRatio="xMinYMin meet" x="13.5" y="-334.7"/>
<text text-anchor="start" x="28.5" y="-324.8" font-family="Helvetica,sans-Serif" font-size="11.00" fill="#000000">id</text>
<polygon fill="#ffffff" stroke="transparent" points="8.5,-295.7 8.5,-317.7 233.5,-317.7 233.5,-295.7 8.5,-295.7"/>
<polygon fill="none" stroke="#000000" points="8.5,-295.7 8.5,-317.7 233.5,-317.7 233.5,-295.7 8.5,-295.7"/>
<image xlink:href="../../images/foreignKeys.png" width="11px" height="12px" preserveAspectRatio="xMinYMin meet" x="13.5" y="-312.7"/>
<text text-anchor="start" x="28.5" y="-302.8" font-family="Helvetica,sans-Serif" font-size="11.00" fill="#000000">organizations_id</text>
<polygon fill="#ffffff" stroke="transparent" points="8.5,-273.7 8.5,-295.7 233.5,-295.7 233.5,-273.7 8.5,-273.7"/>
<polygon fill="none" stroke="#000000" points="8.5,-273.7 8.5,-295.7 233.5,-295.7 233.5,-273.7 8.5,-273.7"/>
<image xlink:href="../../images/foreignKeys.png" width="11px" height="12px" preserveAspectRatio="xMinYMin meet" x="13.5" y="-290.7"/>
<text text-anchor="start" x="28.5" y="-280.8" font-family="Helvetica,sans-Serif" font-size="11.00" fill="#000000">applications_id</text>
<polygon fill="#ffffff" stroke="transparent" points="8.5,-251.7 8.5,-273.7 233.5,-273.7 233.5,-251.7 8.5,-251.7"/>
<polygon fill="none" stroke="#000000" points="8.5,-251.7 8.5,-273.7 233.5,-273.7 233.5,-251.7 8.5,-251.7"/>
<text text-anchor="start" x="28.5" y="-258.8" font-family="Helvetica,sans-Serif" font-size="11.00" fill="#000000">traces_id</text>
<polygon fill="#ffffff" stroke="transparent" points="8.5,-229.7 8.5,-251.7 233.5,-251.7 233.5,-229.7 8.5,-229.7"/>
<polygon fill="none" stroke="#000000" points="8.5,-229.7 8.5,-251.7 233.5,-251.7 233.5,-229.7 8.5,-229.7"/>
<image xlink:href="../../images/foreignKeys.png" width="11px" height="12px" preserveAspectRatio="xMinYMin meet" x="13.5" y="-246.7"/>
<text text-anchor="start" x="28.5" y="-236.8" font-family="Helvetica,sans-Serif" font-size="11.00" fill="#000000">app_libraries_id</text>
<polygon fill="#ffffff" stroke="transparent" points="8.5,-207.7 8.5,-229.7 233.5,-229.7 233.5,-207.7 8.5,-207.7"/>
<polygon fill="none" stroke="#000000" points="8.5,-207.7 8.5,-229.7 233.5,-229.7 233.5,-207.7 8.5,-207.7"/>
<image xlink:href="../../images/foreignKeys.png" width="11px" height="12px" preserveAspectRatio="xMinYMin meet" x="13.5" y="-224.7"/>
<text text-anchor="start" x="28.5" y="-214.8" font-family="Helvetica,sans-Serif" font-size="11.00" fill="#000000">rasp_attacks_id</text>
<polygon fill="#ffffff" stroke="transparent" points="8.5,-185.7 8.5,-207.7 233.5,-207.7 233.5,-185.7 8.5,-185.7"/>
<polygon fill="none" stroke="#000000" points="8.5,-185.7 8.5,-207.7 233.5,-207.7 233.5,-185.7 8.5,-185.7"/>
<image xlink:href="../../images/foreignKeys.png" width="11px" height="12px" preserveAspectRatio="xMinYMin meet" x="13.5" y="-202.7"/>
<text text-anchor="start" x="28.5" y="-192.8" font-family="Helvetica,sans-Serif" font-size="11.00" fill="#000000">servers_id</text>
<polygon fill="#ffffff" stroke="transparent" points="8.5,-163.7 8.5,-185.7 233.5,-185.7 233.5,-163.7 8.5,-163.7"/>
<polygon fill="none" stroke="#000000" points="8.5,-163.7 8.5,-185.7 233.5,-185.7 233.5,-163.7 8.5,-163.7"/>
<text text-anchor="start" x="28.5" y="-170.8" font-family="Helvetica,sans-Serif" font-size="11.00" fill="#000000">traces_notes_id</text>
<polygon fill="#ffffff" stroke="transparent" points="8.5,-141.7 8.5,-163.7 233.5,-163.7 233.5,-141.7 8.5,-141.7"/>
<polygon fill="none" stroke="#000000" points="8.5,-141.7 8.5,-163.7 233.5,-163.7 233.5,-141.7 8.5,-141.7"/>
<image xlink:href="../../images/foreignKeys.png" width="11px" height="12px" preserveAspectRatio="xMinYMin meet" x="13.5" y="-158.7"/>
<text text-anchor="start" x="28.5" y="-148.8" font-family="Helvetica,sans-Serif" font-size="11.00" fill="#000000">organization_remediation_policy_id</text>
<polygon fill="#ffffff" stroke="transparent" points="8.5,-119.7 8.5,-141.7 233.5,-141.7 233.5,-119.7 8.5,-119.7"/>
<polygon fill="none" stroke="#000000" points="8.5,-119.7 8.5,-141.7 233.5,-141.7 233.5,-119.7 8.5,-119.7"/>
<image xlink:href="../../images/foreignKeys.png" width="11px" height="12px" preserveAspectRatio="xMinYMin meet" x="13.5" y="-136.7"/>
<text text-anchor="start" x="28.5" y="-126.8" font-family="Helvetica,sans-Serif" font-size="11.00" fill="#000000">app_compliance_policy_id</text>
<polygon fill="#ffffff" stroke="transparent" points="8.5,-97.7 8.5,-119.7 233.5,-119.7 233.5,-97.7 8.5,-97.7"/>
<polygon fill="none" stroke="#000000" points="8.5,-97.7 8.5,-119.7 233.5,-119.7 233.5,-97.7 8.5,-97.7"/>
<image xlink:href="../../images/foreignKeys.png" width="11px" height="12px" preserveAspectRatio="xMinYMin meet" x="13.5" y="-114.7"/>
<text text-anchor="start" x="28.5" y="-104.8" font-family="Helvetica,sans-Serif" font-size="11.00" fill="#000000">vulnerability_instances_id</text>
<polygon fill="#ffffff" stroke="transparent" points="8.5,-75.7 8.5,-97.7 233.5,-97.7 233.5,-75.7 8.5,-75.7"/>
<polygon fill="none" stroke="#000000" points="8.5,-75.7 8.5,-97.7 233.5,-97.7 233.5,-75.7 8.5,-75.7"/>
<image xlink:href="../../images/foreignKeys.png" width="11px" height="12px" preserveAspectRatio="xMinYMin meet" x="13.5" y="-92.7"/>
<text text-anchor="start" x="28.5" y="-82.8" font-family="Helvetica,sans-Serif" font-size="11.00" fill="#000000">vulnerability_notes_id</text>
<polygon fill="none" stroke="#000000" points="8.5,-56.7 8.5,-75.7 233.5,-75.7 233.5,-56.7 8.5,-56.7"/>
<text text-anchor="start" x="11.5" y="-62.8" font-family="Helvetica,sans-Serif" font-size="11.00" fill="#000000">...</text>
<polygon fill="#ffffff" stroke="transparent" points="8.5,-37.7 8.5,-56.7 101.5,-56.7 101.5,-37.7 8.5,-37.7"/>
<polygon fill="none" stroke="#000000" points="8.5,-37.7 8.5,-56.7 101.5,-56.7 101.5,-37.7 8.5,-37.7"/>
<text text-anchor="start" x="11.5" y="-43.8" font-family="Helvetica,sans-Serif" font-size="11.00" fill="#000000">&lt; 9</text>
<polygon fill="#ffffff" stroke="transparent" points="101.5,-37.7 101.5,-56.7 175.5,-56.7 175.5,-37.7 101.5,-37.7"/>
<polygon fill="none" stroke="#000000" points="101.5,-37.7 101.5,-56.7 175.5,-56.7 175.5,-37.7 101.5,-37.7"/>
<text text-anchor="start" x="140.1105" y="-43.8" font-family="Helvetica,sans-Serif" font-size="11.00" fill="#000000">0 rows</text>
<polygon fill="#ffffff" stroke="transparent" points="175.5,-37.7 175.5,-56.7 233.5,-56.7 233.5,-37.7 175.5,-37.7"/>
<polygon fill="none" stroke="#000000" points="175.5,-37.7 175.5,-56.7 233.5,-56.7 233.5,-37.7 175.5,-37.7"/>
<text text-anchor="start" x="214.9053" y="-43.8" font-family="Helvetica,sans-Serif" font-size="11.00" fill="#000000">4 &gt;</text>
</a>
</g>
</g>
<!-- notifications_messages_properties&#45;&gt;notifications_messages -->
<g id="edge1" class="edge">
<title>notifications_messages_properties:w&#45;&gt;notifications_messages:e</title>
<path fill="none" stroke="#000000" d="M269.776,-328.7C257.7815,-328.7 250.3229,-328.7 233.5,-328.7"/>
<polygon fill="#000000" stroke="#000000" points="276.5,-328.7001 284.5,-332.3 280.5,-328.7 284.5,-328.7 284.5,-328.7 284.5,-328.7 280.5,-328.7 284.5,-325.1 276.5,-328.7001 276.5,-328.7001"/>
<ellipse fill="none" stroke="#000000" cx="273.3" cy="-328.7001" rx="3.2" ry="3.2"/>
</g>
</g>
</svg>
