<?xml version="1.0" encoding="UTF-8" standalone="no"?>
<!DOCTYPE svg PUBLIC "-//W3C//DTD SVG 1.1//EN"
 "http://www.w3.org/Graphics/SVG/1.1/DTD/svg11.dtd">
<!-- Generated by graphviz version 2.40.1 (20161225.0304)
 -->
<!-- Title: twoDegreesRelationshipsDiagram Pages: 1 -->
<svg width="814pt" height="469pt"
 viewBox="0.00 0.00 814.00 469.20" xmlns="http://www.w3.org/2000/svg" xmlns:xlink="http://www.w3.org/1999/xlink">
<g id="graph0" class="graph" transform="scale(1 1) rotate(0) translate(4 465.2)">
<title>twoDegreesRelationshipsDiagram</title>
<polygon fill="#ffffff" stroke="transparent" points="-4,4 -4,-465.2 810,-465.2 810,4 -4,4"/>
<text text-anchor="middle" x="72.4936" y="-7.3" font-family="Helvetica,sans-Serif" font-size="11.00" fill="#000000">Generated by SchemaSpy</text>
<!-- notifications_org_triggers -->
<g id="node1" class="node">
<title>notifications_org_triggers</title>
<g id="a_node1"><a xlink:href="../../tables/notifications_org_triggers.html" xlink:title="notifications_org_triggers" target="_top">
<polygon fill="#ffffff" stroke="transparent" points="224,-167.2 224,-294.2 412,-294.2 412,-167.2 224,-167.2"/>
<polygon fill="#f5f5f5" stroke="transparent" points="224,-270.7 224,-293.7 412,-293.7 412,-270.7 224,-270.7"/>
<polygon fill="none" stroke="#000000" points="224,-270.7 224,-293.7 412,-293.7 412,-270.7 224,-270.7"/>
<text text-anchor="start" x="229" y="-279.8" font-family="Helvetica,sans-Serif" font-weight="bold" font-size="11.00" fill="#000000">notifications_org_triggers</text>
<text text-anchor="start" x="377.0437" y="-278.8" font-family="Helvetica,sans-Serif" font-size="11.00" fill="#000000">[table]</text>
<polygon fill="none" stroke="#000000" points="224,-248.7 224,-270.7 412,-270.7 412,-248.7 224,-248.7"/>
<image xlink:href="../../images/primaryKeys.png" width="11px" height="12px" preserveAspectRatio="xMinYMin meet" x="229" y="-265.7"/>
<text text-anchor="start" x="244" y="-255.8" font-family="Helvetica,sans-Serif" font-size="11.00" fill="#000000">id</text>
<polygon fill="#ffffff" stroke="transparent" points="224,-226.7 224,-248.7 412,-248.7 412,-226.7 224,-226.7"/>
<polygon fill="none" stroke="#000000" points="224,-226.7 224,-248.7 412,-248.7 412,-226.7 224,-226.7"/>
<image xlink:href="../../images/foreignKeys.png" width="11px" height="12px" preserveAspectRatio="xMinYMin meet" x="229" y="-243.7"/>
<text text-anchor="start" x="244" y="-233.8" font-family="Helvetica,sans-Serif" font-size="11.00" fill="#000000">notifications_org_settings_id</text>
<polygon fill="#ffffff" stroke="transparent" points="224,-204.7 224,-226.7 412,-226.7 412,-204.7 224,-204.7"/>
<polygon fill="none" stroke="#000000" points="224,-204.7 224,-226.7 412,-226.7 412,-204.7 224,-204.7"/>
<text text-anchor="start" x="244" y="-211.8" font-family="Helvetica,sans-Serif" font-size="11.00" fill="#000000">trigger_type</text>
<polygon fill="none" stroke="#000000" points="224,-185.7 224,-204.7 412,-204.7 412,-185.7 224,-185.7"/>
<text text-anchor="start" x="227" y="-191.8" font-family="Helvetica,sans-Serif" font-size="11.00" fill="#000000">...</text>
<polygon fill="#ffffff" stroke="transparent" points="224,-166.7 224,-185.7 296,-185.7 296,-166.7 224,-166.7"/>
<polygon fill="none" stroke="#000000" points="224,-166.7 224,-185.7 296,-185.7 296,-166.7 224,-166.7"/>
<text text-anchor="start" x="227" y="-172.8" font-family="Helvetica,sans-Serif" font-size="11.00" fill="#000000">&lt; 1</text>
<polygon fill="#ffffff" stroke="transparent" points="296,-166.7 296,-185.7 365,-185.7 365,-166.7 296,-166.7"/>
<polygon fill="none" stroke="#000000" points="296,-166.7 296,-185.7 365,-185.7 365,-166.7 296,-166.7"/>
<text text-anchor="start" x="323.4956" y="-172.8" font-family="Helvetica,sans-Serif" font-size="11.00" fill="#000000">26 rows</text>
<polygon fill="#ffffff" stroke="transparent" points="365,-166.7 365,-185.7 412,-185.7 412,-166.7 365,-166.7"/>
<polygon fill="none" stroke="#000000" points="365,-166.7 365,-185.7 412,-185.7 412,-166.7 365,-166.7"/>
<text text-anchor="start" x="393.4053" y="-172.8" font-family="Helvetica,sans-Serif" font-size="11.00" fill="#000000">5 &gt;</text>
</a>
</g>
</g>
<!-- notifications_org_settings -->
<g id="node2" class="node">
<title>notifications_org_settings</title>
<g id="a_node2"><a xlink:href="../../tables/notifications_org_settings.html" xlink:title="notifications_org_settings" target="_top">
<polygon fill="#ffffff" stroke="transparent" points="8,-210.2 8,-271.2 175,-271.2 175,-210.2 8,-210.2"/>
<polygon fill="#f5f5f5" stroke="transparent" points="8.5,-247.7 8.5,-270.7 175.5,-270.7 175.5,-247.7 8.5,-247.7"/>
<polygon fill="none" stroke="#000000" points="8.5,-247.7 8.5,-270.7 175.5,-270.7 175.5,-247.7 8.5,-247.7"/>
<text text-anchor="start" x="13.4556" y="-256.8" font-family="Helvetica,sans-Serif" font-weight="bold" font-size="11.00" fill="#000000">notifications_org_settings</text>
<text text-anchor="start" x="141.0219" y="-255.8" font-family="Helvetica,sans-Serif" font-size="11.00" fill="#000000">[table]</text>
<polygon fill="none" stroke="#000000" points="8.5,-228.7 8.5,-247.7 175.5,-247.7 175.5,-228.7 8.5,-228.7"/>
<text text-anchor="start" x="11.5" y="-234.8" font-family="Helvetica,sans-Serif" font-size="11.00" fill="#000000">...</text>
<polygon fill="#ffffff" stroke="transparent" points="8.5,-209.7 8.5,-228.7 75.5,-228.7 75.5,-209.7 8.5,-209.7"/>
<polygon fill="none" stroke="#000000" points="8.5,-209.7 8.5,-228.7 75.5,-228.7 75.5,-209.7 8.5,-209.7"/>
<text text-anchor="start" x="11.5" y="-215.8" font-family="Helvetica,sans-Serif" font-size="11.00" fill="#000000">&lt; 1</text>
<polygon fill="#ffffff" stroke="transparent" points="75.5,-209.7 75.5,-228.7 130.5,-228.7 130.5,-209.7 75.5,-209.7"/>
<polygon fill="none" stroke="#000000" points="75.5,-209.7 75.5,-228.7 130.5,-228.7 130.5,-209.7 75.5,-209.7"/>
<text text-anchor="start" x="100.6105" y="-215.8" font-family="Helvetica,sans-Serif" font-size="11.00" fill="#000000">1 row</text>
<polygon fill="#ffffff" stroke="transparent" points="130.5,-209.7 130.5,-228.7 175.5,-228.7 175.5,-209.7 130.5,-209.7"/>
<polygon fill="none" stroke="#000000" points="130.5,-209.7 130.5,-228.7 175.5,-228.7 175.5,-209.7 130.5,-209.7"/>
<text text-anchor="start" x="156.9053" y="-215.8" font-family="Helvetica,sans-Serif" font-size="11.00" fill="#000000">1 &gt;</text>
</a>
</g>
</g>
<!-- notifications_org_triggers&#45;&gt;notifications_org_settings -->
<g id="edge1" class="edge">
<title>notifications_org_triggers:w&#45;&gt;notifications_org_settings:e</title>
<path fill="none" stroke="#000000" d="M209.2829,-237.7C198.2886,-237.7 191.1615,-237.7 175.5,-237.7"/>
<polygon fill="#000000" stroke="#000000" points="216,-237.7001 224,-241.3 220,-237.7 224,-237.7 224,-237.7 224,-237.7 220,-237.7 224,-234.1 216,-237.7001 216,-237.7001"/>
<ellipse fill="none" stroke="#000000" cx="212.8" cy="-237.7001" rx="3.2" ry="3.2"/>
</g>
<!-- notifications_org_triggers_asset_type -->
<g id="node3" class="node">
<title>notifications_org_triggers_asset_type</title>
<g id="a_node3"><a xlink:href="../../tables/notifications_org_triggers_asset_type.html" xlink:title="notifications_org_triggers_asset_type" target="_top">
<polygon fill="#ffffff" stroke="transparent" points="517,-396.2 517,-457.2 742,-457.2 742,-396.2 517,-396.2"/>
<polygon fill="#f5f5f5" stroke="transparent" points="517.5,-433.7 517.5,-456.7 742.5,-456.7 742.5,-433.7 517.5,-433.7"/>
<polygon fill="none" stroke="#000000" points="517.5,-433.7 517.5,-456.7 742.5,-456.7 742.5,-433.7 517.5,-433.7"/>
<text text-anchor="start" x="522.4206" y="-442.8" font-family="Helvetica,sans-Serif" font-weight="bold" font-size="11.00" fill="#000000">notifications_org_triggers_asset_type</text>
<text text-anchor="start" x="708.0219" y="-441.8" font-family="Helvetica,sans-Serif" font-size="11.00" fill="#000000">[table]</text>
<polygon fill="none" stroke="#000000" points="517.5,-414.7 517.5,-433.7 742.5,-433.7 742.5,-414.7 517.5,-414.7"/>
<text text-anchor="start" x="520.5" y="-420.8" font-family="Helvetica,sans-Serif" font-size="11.00" fill="#000000">...</text>
<polygon fill="#ffffff" stroke="transparent" points="517.5,-395.7 517.5,-414.7 615.5,-414.7 615.5,-395.7 517.5,-395.7"/>
<polygon fill="none" stroke="#000000" points="517.5,-395.7 517.5,-414.7 615.5,-414.7 615.5,-395.7 517.5,-395.7"/>
<text text-anchor="start" x="520.5" y="-401.8" font-family="Helvetica,sans-Serif" font-size="11.00" fill="#000000">&lt; 1</text>
<polygon fill="#ffffff" stroke="transparent" points="615.5,-395.7 615.5,-414.7 691.5,-414.7 691.5,-395.7 615.5,-395.7"/>
<polygon fill="none" stroke="#000000" points="615.5,-395.7 615.5,-414.7 691.5,-414.7 691.5,-395.7 615.5,-395.7"/>
<text text-anchor="start" x="656.1105" y="-401.8" font-family="Helvetica,sans-Serif" font-size="11.00" fill="#000000">0 rows</text>
<polygon fill="#ffffff" stroke="transparent" points="691.5,-395.7 691.5,-414.7 742.5,-414.7 742.5,-395.7 691.5,-395.7"/>
<polygon fill="none" stroke="#000000" points="691.5,-395.7 691.5,-414.7 742.5,-414.7 742.5,-395.7 691.5,-395.7"/>
<text text-anchor="start" x="733.3862" y="-401.8" font-family="Helvetica,sans-Serif" font-size="11.00" fill="#000000"> &#160;</text>
</a>
</g>
</g>
<!-- notifications_org_triggers_asset_type&#45;&gt;notifications_org_triggers -->
<g id="edge2" class="edge">
<title>notifications_org_triggers_asset_type:w&#45;&gt;notifications_org_triggers:e</title>
<path fill="none" stroke="#000000" d="M502.824,-422.7184C480.5356,-419.3704 470.4128,-407.3879 453,-385.7 416.1311,-339.779 470.8901,-259.7 412,-259.7"/>
<polygon fill="#000000" stroke="#000000" points="509.5178,-423.1661 517.2597,-427.292 513.5089,-423.433 517.5,-423.7 517.5,-423.7 517.5,-423.7 513.5089,-423.433 517.7403,-420.108 509.5178,-423.1661 509.5178,-423.1661"/>
<ellipse fill="none" stroke="#000000" cx="506.325" cy="-422.9525" rx="3.2" ry="3.2"/>
</g>
<!-- notifications_org_triggers_attack_status -->
<g id="node4" class="node">
<title>notifications_org_triggers_attack_status</title>
<g id="a_node4"><a xlink:href="../../tables/notifications_org_triggers_attack_status.html" xlink:title="notifications_org_triggers_attack_status" target="_top">
<polygon fill="#ffffff" stroke="transparent" points="511.5,-314.2 511.5,-375.2 747.5,-375.2 747.5,-314.2 511.5,-314.2"/>
<polygon fill="#f5f5f5" stroke="transparent" points="511.5,-351.7 511.5,-374.7 747.5,-374.7 747.5,-351.7 511.5,-351.7"/>
<polygon fill="none" stroke="#000000" points="511.5,-351.7 511.5,-374.7 747.5,-374.7 747.5,-351.7 511.5,-351.7"/>
<text text-anchor="start" x="516.1137" y="-360.8" font-family="Helvetica,sans-Serif" font-weight="bold" font-size="11.00" fill="#000000">notifications_org_triggers_attack_status</text>
<text text-anchor="start" x="713.0219" y="-359.8" font-family="Helvetica,sans-Serif" font-size="11.00" fill="#000000">[table]</text>
<polygon fill="none" stroke="#000000" points="511.5,-332.7 511.5,-351.7 747.5,-351.7 747.5,-332.7 511.5,-332.7"/>
<text text-anchor="start" x="514.5" y="-338.8" font-family="Helvetica,sans-Serif" font-size="11.00" fill="#000000">...</text>
<polygon fill="#ffffff" stroke="transparent" points="511.5,-313.7 511.5,-332.7 614.5,-332.7 614.5,-313.7 511.5,-313.7"/>
<polygon fill="none" stroke="#000000" points="511.5,-313.7 511.5,-332.7 614.5,-332.7 614.5,-313.7 511.5,-313.7"/>
<text text-anchor="start" x="514.5" y="-319.8" font-family="Helvetica,sans-Serif" font-size="11.00" fill="#000000">&lt; 1</text>
<polygon fill="#ffffff" stroke="transparent" points="614.5,-313.7 614.5,-332.7 693.5,-332.7 693.5,-313.7 614.5,-313.7"/>
<polygon fill="none" stroke="#000000" points="614.5,-313.7 614.5,-332.7 693.5,-332.7 693.5,-313.7 614.5,-313.7"/>
<text text-anchor="start" x="658.1105" y="-319.8" font-family="Helvetica,sans-Serif" font-size="11.00" fill="#000000">5 rows</text>
<polygon fill="#ffffff" stroke="transparent" points="693.5,-313.7 693.5,-332.7 747.5,-332.7 747.5,-313.7 693.5,-313.7"/>
<polygon fill="none" stroke="#000000" points="693.5,-313.7 693.5,-332.7 747.5,-332.7 747.5,-313.7 693.5,-313.7"/>
<text text-anchor="start" x="738.3862" y="-319.8" font-family="Helvetica,sans-Serif" font-size="11.00" fill="#000000"> &#160;</text>
</a>
</g>
</g>
<!-- notifications_org_triggers_attack_status&#45;&gt;notifications_org_triggers -->
<g id="edge3" class="edge">
<title>notifications_org_triggers_attack_status:w&#45;&gt;notifications_org_triggers:e</title>
<path fill="none" stroke="#000000" d="M497.1527,-340.0441C478.5027,-335.1474 472.4787,-320.0526 453,-303.7 432.5282,-286.5136 438.7296,-259.7 412,-259.7"/>
<polygon fill="#000000" stroke="#000000" points="503.5528,-340.7827 511.0872,-345.2763 507.5264,-341.2414 511.5,-341.7 511.5,-341.7 511.5,-341.7 507.5264,-341.2414 511.9128,-338.1237 503.5528,-340.7827 503.5528,-340.7827"/>
<ellipse fill="none" stroke="#000000" cx="500.3739" cy="-340.4158" rx="3.2" ry="3.2"/>
</g>
<!-- notifications_org_triggers_channels -->
<g id="node5" class="node">
<title>notifications_org_triggers_channels</title>
<g id="a_node5"><a xlink:href="../../tables/notifications_org_triggers_channels.html" xlink:title="notifications_org_triggers_channels" target="_top">
<polygon fill="#ffffff" stroke="transparent" points="522,-232.2 522,-293.2 737,-293.2 737,-232.2 522,-232.2"/>
<polygon fill="#f5f5f5" stroke="transparent" points="522.5,-269.7 522.5,-292.7 737.5,-292.7 737.5,-269.7 522.5,-269.7"/>
<polygon fill="none" stroke="#000000" points="522.5,-269.7 522.5,-292.7 737.5,-292.7 737.5,-269.7 522.5,-269.7"/>
<text text-anchor="start" x="527.007" y="-278.8" font-family="Helvetica,sans-Serif" font-weight="bold" font-size="11.00" fill="#000000">notifications_org_triggers_channels</text>
<text text-anchor="start" x="703.0219" y="-277.8" font-family="Helvetica,sans-Serif" font-size="11.00" fill="#000000">[table]</text>
<polygon fill="none" stroke="#000000" points="522.5,-250.7 522.5,-269.7 737.5,-269.7 737.5,-250.7 522.5,-250.7"/>
<text text-anchor="start" x="525.5" y="-256.8" font-family="Helvetica,sans-Serif" font-size="11.00" fill="#000000">...</text>
<polygon fill="#ffffff" stroke="transparent" points="522.5,-231.7 522.5,-250.7 607.5,-250.7 607.5,-231.7 522.5,-231.7"/>
<polygon fill="none" stroke="#000000" points="522.5,-231.7 522.5,-250.7 607.5,-250.7 607.5,-231.7 522.5,-231.7"/>
<text text-anchor="start" x="525.5" y="-237.8" font-family="Helvetica,sans-Serif" font-size="11.00" fill="#000000">&lt; 1</text>
<polygon fill="#ffffff" stroke="transparent" points="607.5,-231.7 607.5,-250.7 683.5,-250.7 683.5,-231.7 607.5,-231.7"/>
<polygon fill="none" stroke="#000000" points="607.5,-231.7 607.5,-250.7 683.5,-250.7 683.5,-231.7 607.5,-231.7"/>
<text text-anchor="start" x="641.9956" y="-237.8" font-family="Helvetica,sans-Serif" font-size="11.00" fill="#000000">78 rows</text>
<polygon fill="#ffffff" stroke="transparent" points="683.5,-231.7 683.5,-250.7 737.5,-250.7 737.5,-231.7 683.5,-231.7"/>
<polygon fill="none" stroke="#000000" points="683.5,-231.7 683.5,-250.7 737.5,-250.7 737.5,-231.7 683.5,-231.7"/>
<text text-anchor="start" x="718.9053" y="-237.8" font-family="Helvetica,sans-Serif" font-size="11.00" fill="#000000">1 &gt;</text>
</a>
</g>
</g>
<!-- notifications_org_triggers_channels&#45;&gt;notifications_org_triggers -->
<g id="edge4" class="edge">
<title>notifications_org_triggers_channels:w&#45;&gt;notifications_org_triggers:e</title>
<path fill="none" stroke="#000000" d="M507.6109,-259.7C470.2625,-259.7 455.7396,-259.7 412,-259.7"/>
<polygon fill="#000000" stroke="#000000" points="514.5,-259.7001 522.5,-263.3 518.5,-259.7 522.5,-259.7 522.5,-259.7 522.5,-259.7 518.5,-259.7 522.5,-256.1 514.5,-259.7001 514.5,-259.7001"/>
<ellipse fill="none" stroke="#000000" cx="511.3" cy="-259.7001" rx="3.2" ry="3.2"/>
</g>
<!-- notifications_org_triggers_rule_severity -->
<g id="node6" class="node">
<title>notifications_org_triggers_rule_severity</title>
<g id="a_node6"><a xlink:href="../../tables/notifications_org_triggers_rule_severity.html" xlink:title="notifications_org_triggers_rule_severity" target="_top">
<polygon fill="#ffffff" stroke="transparent" points="461,-120.7 461,-210.7 798,-210.7 798,-120.7 461,-120.7"/>
<polygon fill="#f5f5f5" stroke="transparent" points="463.5,-185.7 463.5,-208.7 796.5,-208.7 796.5,-185.7 463.5,-185.7"/>
<polygon fill="none" stroke="#000000" points="463.5,-185.7 463.5,-208.7 796.5,-208.7 796.5,-185.7 463.5,-185.7"/>
<text text-anchor="start" x="468.5" y="-194.8" font-family="Helvetica,sans-Serif" font-weight="bold" font-size="11.00" fill="#000000">notifications_org_triggers_rule_severity</text>
<text text-anchor="start" x="761.5437" y="-193.8" font-family="Helvetica,sans-Serif" font-size="11.00" fill="#000000">[table]</text>
<polygon fill="none" stroke="#000000" points="463.5,-163.7 463.5,-185.7 713.5,-185.7 713.5,-163.7 463.5,-163.7"/>
<image xlink:href="../../images/primaryKeys.png" width="11px" height="12px" preserveAspectRatio="xMinYMin meet" x="468.5" y="-180.7"/>
<text text-anchor="start" x="483.5" y="-170.8" font-family="Helvetica,sans-Serif" font-size="11.00" fill="#000000">notifications_org_triggers_id</text>
<polygon fill="none" stroke="#000000" points="713.5,-163.7 713.5,-185.7 796.5,-185.7 796.5,-163.7 713.5,-163.7"/>
<text text-anchor="start" x="716.1783" y="-171.4" font-family="Helvetica,sans-Serif" font-size="11.00" fill="#000000">int unsigned[10]</text>
<polygon fill="none" stroke="#000000" points="463.5,-141.7 463.5,-163.7 713.5,-163.7 713.5,-141.7 463.5,-141.7"/>
<image xlink:href="../../images/primaryKeys.png" width="11px" height="12px" preserveAspectRatio="xMinYMin meet" x="468.5" y="-158.7"/>
<text text-anchor="start" x="483.5" y="-148.8" font-family="Helvetica,sans-Serif" font-size="11.00" fill="#000000">rule_severity</text>
<polygon fill="none" stroke="#000000" points="713.5,-141.7 713.5,-163.7 796.5,-163.7 796.5,-141.7 713.5,-141.7"/>
<text text-anchor="start" x="716.5" y="-149.4" font-family="Helvetica,sans-Serif" font-size="11.00" fill="#000000">varchar[50]</text>
<polygon fill="#ffffff" stroke="transparent" points="463.5,-122.7 463.5,-141.7 579.5,-141.7 579.5,-122.7 463.5,-122.7"/>
<polygon fill="none" stroke="#000000" points="463.5,-122.7 463.5,-141.7 579.5,-141.7 579.5,-122.7 463.5,-122.7"/>
<text text-anchor="start" x="466.5" y="-128.8" font-family="Helvetica,sans-Serif" font-size="11.00" fill="#000000">&lt; 1</text>
<polygon fill="#ffffff" stroke="transparent" points="579.5,-122.7 579.5,-141.7 713.5,-141.7 713.5,-122.7 579.5,-122.7"/>
<polygon fill="none" stroke="#000000" points="579.5,-122.7 579.5,-141.7 713.5,-141.7 713.5,-122.7 579.5,-122.7"/>
<text text-anchor="start" x="678.1105" y="-128.8" font-family="Helvetica,sans-Serif" font-size="11.00" fill="#000000">6 rows</text>
<polygon fill="#ffffff" stroke="transparent" points="713.5,-122.7 713.5,-141.7 796.5,-141.7 796.5,-122.7 713.5,-122.7"/>
<polygon fill="none" stroke="#000000" points="713.5,-122.7 713.5,-141.7 796.5,-141.7 796.5,-122.7 713.5,-122.7"/>
<text text-anchor="start" x="777.9053" y="-128.8" font-family="Helvetica,sans-Serif" font-size="11.00" fill="#000000">0 &gt;</text>
<polygon fill="none" stroke="#000000" stroke-width="2" points="462,-121.7 462,-209.7 797,-209.7 797,-121.7 462,-121.7"/>
</a>
</g>
</g>
<!-- notifications_org_triggers_rule_severity&#45;&gt;notifications_org_triggers -->
<g id="edge5" class="edge">
<title>notifications_org_triggers_rule_severity:w&#45;&gt;notifications_org_triggers:e</title>
<path fill="none" stroke="#000000" d="M449.5119,-179.032C427.8888,-196.3534 450.1318,-259.7 412,-259.7"/>
<polygon fill="#000000" stroke="#000000" points="455.8581,-177.0667 464.565,-178.1389 459.679,-175.8833 463.5,-174.7 463.5,-174.7 463.5,-174.7 459.679,-175.8833 462.435,-171.2611 455.8581,-177.0667 455.8581,-177.0667"/>
<ellipse fill="none" stroke="#000000" cx="452.8013" cy="-178.0134" rx="3.2" ry="3.2"/>
</g>
<!-- notifications_org_triggers_server_environment -->
<g id="node7" class="node">
<title>notifications_org_triggers_server_environment</title>
<g id="a_node7"><a xlink:href="../../tables/notifications_org_triggers_server_environment.html" xlink:title="notifications_org_triggers_server_environment" target="_top">
<polygon fill="#ffffff" stroke="transparent" points="495,-38.2 495,-99.2 764,-99.2 764,-38.2 495,-38.2"/>
<polygon fill="#f5f5f5" stroke="transparent" points="495.5,-75.7 495.5,-98.7 764.5,-98.7 764.5,-75.7 495.5,-75.7"/>
<polygon fill="none" stroke="#000000" points="495.5,-75.7 495.5,-98.7 764.5,-98.7 764.5,-75.7 495.5,-75.7"/>
<text text-anchor="start" x="500.425" y="-84.8" font-family="Helvetica,sans-Serif" font-weight="bold" font-size="11.00" fill="#000000">notifications_org_triggers_server_environment</text>
<text text-anchor="start" x="730.0219" y="-83.8" font-family="Helvetica,sans-Serif" font-size="11.00" fill="#000000">[table]</text>
<polygon fill="none" stroke="#000000" points="495.5,-56.7 495.5,-75.7 764.5,-75.7 764.5,-56.7 495.5,-56.7"/>
<text text-anchor="start" x="498.5" y="-62.8" font-family="Helvetica,sans-Serif" font-size="11.00" fill="#000000">...</text>
<polygon fill="#ffffff" stroke="transparent" points="495.5,-37.7 495.5,-56.7 615.5,-56.7 615.5,-37.7 495.5,-37.7"/>
<polygon fill="none" stroke="#000000" points="495.5,-37.7 495.5,-56.7 615.5,-56.7 615.5,-37.7 495.5,-37.7"/>
<text text-anchor="start" x="498.5" y="-43.8" font-family="Helvetica,sans-Serif" font-size="11.00" fill="#000000">&lt; 1</text>
<polygon fill="#ffffff" stroke="transparent" points="615.5,-37.7 615.5,-56.7 702.5,-56.7 702.5,-37.7 615.5,-37.7"/>
<polygon fill="none" stroke="#000000" points="615.5,-37.7 615.5,-56.7 702.5,-56.7 702.5,-37.7 615.5,-37.7"/>
<text text-anchor="start" x="667.1105" y="-43.8" font-family="Helvetica,sans-Serif" font-size="11.00" fill="#000000">0 rows</text>
<polygon fill="#ffffff" stroke="transparent" points="702.5,-37.7 702.5,-56.7 764.5,-56.7 764.5,-37.7 702.5,-37.7"/>
<polygon fill="none" stroke="#000000" points="702.5,-37.7 702.5,-56.7 764.5,-56.7 764.5,-37.7 702.5,-37.7"/>
<text text-anchor="start" x="755.3862" y="-43.8" font-family="Helvetica,sans-Serif" font-size="11.00" fill="#000000"> &#160;</text>
</a>
</g>
</g>
<!-- notifications_org_triggers_server_environment&#45;&gt;notifications_org_triggers -->
<g id="edge6" class="edge">
<title>notifications_org_triggers_server_environment:w&#45;&gt;notifications_org_triggers:e</title>
<path fill="none" stroke="#000000" d="M481.2071,-68.3371C466.8251,-74.7019 463.6475,-91.7838 453,-110.7 419.3098,-170.5532 480.6836,-259.7 412,-259.7"/>
<polygon fill="#000000" stroke="#000000" points="487.6328,-67.1516 496.1532,-69.2402 491.5664,-66.4258 495.5,-65.7 495.5,-65.7 495.5,-65.7 491.5664,-66.4258 494.8468,-62.1598 487.6328,-67.1516 487.6328,-67.1516"/>
<ellipse fill="none" stroke="#000000" cx="484.4859" cy="-67.7322" rx="3.2" ry="3.2"/>
</g>
</g>
</svg>
