<?xml version="1.0" encoding="UTF-8" standalone="no"?>
<!DOCTYPE svg PUBLIC "-//W3C//DTD SVG 1.1//EN"
 "http://www.w3.org/Graphics/SVG/1.1/DTD/svg11.dtd">
<!-- Generated by graphviz version 2.40.1 (20161225.0304)
 -->
<!-- Title: oneDegreeRelationshipsDiagram Pages: 1 -->
<svg width="574pt" height="545pt"
 viewBox="0.00 0.00 574.00 545.20" xmlns="http://www.w3.org/2000/svg" xmlns:xlink="http://www.w3.org/1999/xlink">
<g id="graph0" class="graph" transform="scale(1 1) rotate(0) translate(4 541.2)">
<title>oneDegreeRelationshipsDiagram</title>
<polygon fill="#ffffff" stroke="transparent" points="-4,4 -4,-541.2 570,-541.2 570,4 -4,4"/>
<text text-anchor="middle" x="72.4936" y="-7.3" font-family="Helvetica,sans-Serif" font-size="11.00" fill="#000000">Generated by SchemaSpy</text>
<!-- notifications_user_messages -->
<g id="node1" class="node">
<title>notifications_user_messages</title>
<g id="a_node1"><a xlink:href="../../tables/notifications_user_messages.html" xlink:title="notifications_user_messages" target="_top">
<polygon fill="#ffffff" stroke="transparent" points="282,-348.7 282,-482.7 558,-482.7 558,-348.7 282,-348.7"/>
<polygon fill="#f5f5f5" stroke="transparent" points="284,-457.7 284,-480.7 556,-480.7 556,-457.7 284,-457.7"/>
<polygon fill="none" stroke="#000000" points="284,-457.7 284,-480.7 556,-480.7 556,-457.7 284,-457.7"/>
<text text-anchor="start" x="289" y="-466.8" font-family="Helvetica,sans-Serif" font-weight="bold" font-size="11.00" fill="#000000">notifications_user_messages</text>
<text text-anchor="start" x="521.0437" y="-465.8" font-family="Helvetica,sans-Serif" font-size="11.00" fill="#000000">[table]</text>
<polygon fill="none" stroke="#000000" points="284,-435.7 284,-457.7 473,-457.7 473,-435.7 284,-435.7"/>
<image xlink:href="../../images/primaryKeys.png" width="11px" height="12px" preserveAspectRatio="xMinYMin meet" x="289" y="-452.7"/>
<text text-anchor="start" x="304" y="-442.8" font-family="Helvetica,sans-Serif" font-size="11.00" fill="#000000">id</text>
<polygon fill="none" stroke="#000000" points="473,-435.7 473,-457.7 556,-457.7 556,-435.7 473,-435.7"/>
<text text-anchor="start" x="475.6783" y="-443.4" font-family="Helvetica,sans-Serif" font-size="11.00" fill="#000000">int unsigned[10]</text>
<polygon fill="#ffffff" stroke="transparent" points="284,-413.7 284,-435.7 473,-435.7 473,-413.7 284,-413.7"/>
<polygon fill="none" stroke="#000000" points="284,-413.7 284,-435.7 473,-435.7 473,-413.7 284,-413.7"/>
<image xlink:href="../../images/foreignKeys.png" width="11px" height="12px" preserveAspectRatio="xMinYMin meet" x="289" y="-430.7"/>
<text text-anchor="start" x="304" y="-420.8" font-family="Helvetica,sans-Serif" font-size="11.00" fill="#000000">users_id</text>
<polygon fill="none" stroke="#000000" points="473,-413.7 473,-435.7 556,-435.7 556,-413.7 473,-413.7"/>
<text text-anchor="start" x="476" y="-421.4" font-family="Helvetica,sans-Serif" font-size="11.00" fill="#000000">varchar[255]</text>
<polygon fill="#ffffff" stroke="transparent" points="284,-391.7 284,-413.7 473,-413.7 473,-391.7 284,-391.7"/>
<polygon fill="none" stroke="#000000" points="284,-391.7 284,-413.7 473,-413.7 473,-391.7 284,-391.7"/>
<image xlink:href="../../images/foreignKeys.png" width="11px" height="12px" preserveAspectRatio="xMinYMin meet" x="289" y="-408.7"/>
<text text-anchor="start" x="304" y="-398.8" font-family="Helvetica,sans-Serif" font-size="11.00" fill="#000000">notifications_messages_id</text>
<polygon fill="none" stroke="#000000" points="473,-391.7 473,-413.7 556,-413.7 556,-391.7 473,-391.7"/>
<text text-anchor="start" x="476" y="-399.4" font-family="Helvetica,sans-Serif" font-size="11.00" fill="#000000">varchar[255]</text>
<polygon fill="none" stroke="#000000" points="284,-369.7 284,-391.7 473,-391.7 473,-369.7 284,-369.7"/>
<text text-anchor="start" x="304" y="-376.8" font-family="Helvetica,sans-Serif" font-size="11.00" fill="#000000">status</text>
<polygon fill="none" stroke="#000000" points="473,-369.7 473,-391.7 556,-391.7 556,-369.7 473,-369.7"/>
<text text-anchor="start" x="476" y="-377.4" font-family="Helvetica,sans-Serif" font-size="11.00" fill="#000000">varchar[50]</text>
<polygon fill="#ffffff" stroke="transparent" points="284,-350.7 284,-369.7 370,-369.7 370,-350.7 284,-350.7"/>
<polygon fill="none" stroke="#000000" points="284,-350.7 284,-369.7 370,-369.7 370,-350.7 284,-350.7"/>
<text text-anchor="start" x="287" y="-356.8" font-family="Helvetica,sans-Serif" font-size="11.00" fill="#000000">&lt; 2</text>
<polygon fill="#ffffff" stroke="transparent" points="370,-350.7 370,-369.7 473,-369.7 473,-350.7 370,-350.7"/>
<polygon fill="none" stroke="#000000" points="370,-350.7 370,-369.7 473,-369.7 473,-350.7 370,-350.7"/>
<text text-anchor="start" x="437.6105" y="-356.8" font-family="Helvetica,sans-Serif" font-size="11.00" fill="#000000">0 rows</text>
<polygon fill="#ffffff" stroke="transparent" points="473,-350.7 473,-369.7 556,-369.7 556,-350.7 473,-350.7"/>
<polygon fill="none" stroke="#000000" points="473,-350.7 473,-369.7 556,-369.7 556,-350.7 473,-350.7"/>
<text text-anchor="start" x="537.4053" y="-356.8" font-family="Helvetica,sans-Serif" font-size="11.00" fill="#000000">0 &gt;</text>
<polygon fill="none" stroke="#000000" stroke-width="2" points="283,-349.7 283,-481.7 557,-481.7 557,-349.7 283,-349.7"/>
</a>
</g>
</g>
<!-- notifications_messages -->
<g id="node2" class="node">
<title>notifications_messages</title>
<g id="a_node2"><a xlink:href="../../tables/notifications_messages.html" xlink:title="notifications_messages" target="_top">
<polygon fill="#ffffff" stroke="transparent" points="8,-38.2 8,-363.2 233,-363.2 233,-38.2 8,-38.2"/>
<polygon fill="#f5f5f5" stroke="transparent" points="8.5,-339.7 8.5,-362.7 233.5,-362.7 233.5,-339.7 8.5,-339.7"/>
<polygon fill="none" stroke="#000000" points="8.5,-339.7 8.5,-362.7 233.5,-362.7 233.5,-339.7 8.5,-339.7"/>
<text text-anchor="start" x="13.5" y="-348.8" font-family="Helvetica,sans-Serif" font-weight="bold" font-size="11.00" fill="#000000">notifications_messages</text>
<text text-anchor="start" x="198.5437" y="-347.8" font-family="Helvetica,sans-Serif" font-size="11.00" fill="#000000">[table]</text>
<polygon fill="none" stroke="#000000" points="8.5,-317.7 8.5,-339.7 233.5,-339.7 233.5,-317.7 8.5,-317.7"/>
<image xlink:href="../../images/primaryKeys.png" width="11px" height="12px" preserveAspectRatio="xMinYMin meet" x="13.5" y="-334.7"/>
<text text-anchor="start" x="28.5" y="-324.8" font-family="Helvetica,sans-Serif" font-size="11.00" fill="#000000">id</text>
<polygon fill="#ffffff" stroke="transparent" points="8.5,-295.7 8.5,-317.7 233.5,-317.7 233.5,-295.7 8.5,-295.7"/>
<polygon fill="none" stroke="#000000" points="8.5,-295.7 8.5,-317.7 233.5,-317.7 233.5,-295.7 8.5,-295.7"/>
<image xlink:href="../../images/foreignKeys.png" width="11px" height="12px" preserveAspectRatio="xMinYMin meet" x="13.5" y="-312.7"/>
<text text-anchor="start" x="28.5" y="-302.8" font-family="Helvetica,sans-Serif" font-size="11.00" fill="#000000">organizations_id</text>
<polygon fill="#ffffff" stroke="transparent" points="8.5,-273.7 8.5,-295.7 233.5,-295.7 233.5,-273.7 8.5,-273.7"/>
<polygon fill="none" stroke="#000000" points="8.5,-273.7 8.5,-295.7 233.5,-295.7 233.5,-273.7 8.5,-273.7"/>
<image xlink:href="../../images/foreignKeys.png" width="11px" height="12px" preserveAspectRatio="xMinYMin meet" x="13.5" y="-290.7"/>
<text text-anchor="start" x="28.5" y="-280.8" font-family="Helvetica,sans-Serif" font-size="11.00" fill="#000000">applications_id</text>
<polygon fill="#ffffff" stroke="transparent" points="8.5,-251.7 8.5,-273.7 233.5,-273.7 233.5,-251.7 8.5,-251.7"/>
<polygon fill="none" stroke="#000000" points="8.5,-251.7 8.5,-273.7 233.5,-273.7 233.5,-251.7 8.5,-251.7"/>
<text text-anchor="start" x="28.5" y="-258.8" font-family="Helvetica,sans-Serif" font-size="11.00" fill="#000000">traces_id</text>
<polygon fill="#ffffff" stroke="transparent" points="8.5,-229.7 8.5,-251.7 233.5,-251.7 233.5,-229.7 8.5,-229.7"/>
<polygon fill="none" stroke="#000000" points="8.5,-229.7 8.5,-251.7 233.5,-251.7 233.5,-229.7 8.5,-229.7"/>
<image xlink:href="../../images/foreignKeys.png" width="11px" height="12px" preserveAspectRatio="xMinYMin meet" x="13.5" y="-246.7"/>
<text text-anchor="start" x="28.5" y="-236.8" font-family="Helvetica,sans-Serif" font-size="11.00" fill="#000000">app_libraries_id</text>
<polygon fill="#ffffff" stroke="transparent" points="8.5,-207.7 8.5,-229.7 233.5,-229.7 233.5,-207.7 8.5,-207.7"/>
<polygon fill="none" stroke="#000000" points="8.5,-207.7 8.5,-229.7 233.5,-229.7 233.5,-207.7 8.5,-207.7"/>
<image xlink:href="../../images/foreignKeys.png" width="11px" height="12px" preserveAspectRatio="xMinYMin meet" x="13.5" y="-224.7"/>
<text text-anchor="start" x="28.5" y="-214.8" font-family="Helvetica,sans-Serif" font-size="11.00" fill="#000000">rasp_attacks_id</text>
<polygon fill="#ffffff" stroke="transparent" points="8.5,-185.7 8.5,-207.7 233.5,-207.7 233.5,-185.7 8.5,-185.7"/>
<polygon fill="none" stroke="#000000" points="8.5,-185.7 8.5,-207.7 233.5,-207.7 233.5,-185.7 8.5,-185.7"/>
<image xlink:href="../../images/foreignKeys.png" width="11px" height="12px" preserveAspectRatio="xMinYMin meet" x="13.5" y="-202.7"/>
<text text-anchor="start" x="28.5" y="-192.8" font-family="Helvetica,sans-Serif" font-size="11.00" fill="#000000">servers_id</text>
<polygon fill="#ffffff" stroke="transparent" points="8.5,-163.7 8.5,-185.7 233.5,-185.7 233.5,-163.7 8.5,-163.7"/>
<polygon fill="none" stroke="#000000" points="8.5,-163.7 8.5,-185.7 233.5,-185.7 233.5,-163.7 8.5,-163.7"/>
<text text-anchor="start" x="28.5" y="-170.8" font-family="Helvetica,sans-Serif" font-size="11.00" fill="#000000">traces_notes_id</text>
<polygon fill="#ffffff" stroke="transparent" points="8.5,-141.7 8.5,-163.7 233.5,-163.7 233.5,-141.7 8.5,-141.7"/>
<polygon fill="none" stroke="#000000" points="8.5,-141.7 8.5,-163.7 233.5,-163.7 233.5,-141.7 8.5,-141.7"/>
<image xlink:href="../../images/foreignKeys.png" width="11px" height="12px" preserveAspectRatio="xMinYMin meet" x="13.5" y="-158.7"/>
<text text-anchor="start" x="28.5" y="-148.8" font-family="Helvetica,sans-Serif" font-size="11.00" fill="#000000">organization_remediation_policy_id</text>
<polygon fill="#ffffff" stroke="transparent" points="8.5,-119.7 8.5,-141.7 233.5,-141.7 233.5,-119.7 8.5,-119.7"/>
<polygon fill="none" stroke="#000000" points="8.5,-119.7 8.5,-141.7 233.5,-141.7 233.5,-119.7 8.5,-119.7"/>
<image xlink:href="../../images/foreignKeys.png" width="11px" height="12px" preserveAspectRatio="xMinYMin meet" x="13.5" y="-136.7"/>
<text text-anchor="start" x="28.5" y="-126.8" font-family="Helvetica,sans-Serif" font-size="11.00" fill="#000000">app_compliance_policy_id</text>
<polygon fill="#ffffff" stroke="transparent" points="8.5,-97.7 8.5,-119.7 233.5,-119.7 233.5,-97.7 8.5,-97.7"/>
<polygon fill="none" stroke="#000000" points="8.5,-97.7 8.5,-119.7 233.5,-119.7 233.5,-97.7 8.5,-97.7"/>
<image xlink:href="../../images/foreignKeys.png" width="11px" height="12px" preserveAspectRatio="xMinYMin meet" x="13.5" y="-114.7"/>
<text text-anchor="start" x="28.5" y="-104.8" font-family="Helvetica,sans-Serif" font-size="11.00" fill="#000000">vulnerability_instances_id</text>
<polygon fill="#ffffff" stroke="transparent" points="8.5,-75.7 8.5,-97.7 233.5,-97.7 233.5,-75.7 8.5,-75.7"/>
<polygon fill="none" stroke="#000000" points="8.5,-75.7 8.5,-97.7 233.5,-97.7 233.5,-75.7 8.5,-75.7"/>
<image xlink:href="../../images/foreignKeys.png" width="11px" height="12px" preserveAspectRatio="xMinYMin meet" x="13.5" y="-92.7"/>
<text text-anchor="start" x="28.5" y="-82.8" font-family="Helvetica,sans-Serif" font-size="11.00" fill="#000000">vulnerability_notes_id</text>
<polygon fill="none" stroke="#000000" points="8.5,-56.7 8.5,-75.7 233.5,-75.7 233.5,-56.7 8.5,-56.7"/>
<text text-anchor="start" x="11.5" y="-62.8" font-family="Helvetica,sans-Serif" font-size="11.00" fill="#000000">...</text>
<polygon fill="#ffffff" stroke="transparent" points="8.5,-37.7 8.5,-56.7 101.5,-56.7 101.5,-37.7 8.5,-37.7"/>
<polygon fill="none" stroke="#000000" points="8.5,-37.7 8.5,-56.7 101.5,-56.7 101.5,-37.7 8.5,-37.7"/>
<text text-anchor="start" x="11.5" y="-43.8" font-family="Helvetica,sans-Serif" font-size="11.00" fill="#000000">&lt; 9</text>
<polygon fill="#ffffff" stroke="transparent" points="101.5,-37.7 101.5,-56.7 175.5,-56.7 175.5,-37.7 101.5,-37.7"/>
<polygon fill="none" stroke="#000000" points="101.5,-37.7 101.5,-56.7 175.5,-56.7 175.5,-37.7 101.5,-37.7"/>
<text text-anchor="start" x="140.1105" y="-43.8" font-family="Helvetica,sans-Serif" font-size="11.00" fill="#000000">0 rows</text>
<polygon fill="#ffffff" stroke="transparent" points="175.5,-37.7 175.5,-56.7 233.5,-56.7 233.5,-37.7 175.5,-37.7"/>
<polygon fill="none" stroke="#000000" points="175.5,-37.7 175.5,-56.7 233.5,-56.7 233.5,-37.7 175.5,-37.7"/>
<text text-anchor="start" x="214.9053" y="-43.8" font-family="Helvetica,sans-Serif" font-size="11.00" fill="#000000">4 &gt;</text>
</a>
</g>
</g>
<!-- notifications_user_messages&#45;&gt;notifications_messages -->
<g id="edge1" class="edge">
<title>notifications_user_messages:w&#45;&gt;notifications_messages:e</title>
<path fill="none" stroke="#000000" d="M270.1154,-398.071C251.4593,-381.8706 267.2515,-328.7 233.5,-328.7"/>
<polygon fill="#000000" stroke="#000000" points="276.4107,-400.1697 282.8614,-406.1152 280.2053,-401.4349 284,-402.7 284,-402.7 284,-402.7 280.2053,-401.4349 285.1386,-399.2848 276.4107,-400.1697 276.4107,-400.1697"/>
<ellipse fill="none" stroke="#000000" cx="273.3749" cy="-399.1576" rx="3.2" ry="3.2"/>
</g>
<!-- users -->
<g id="node3" class="node">
<title>users</title>
<g id="a_node3"><a xlink:href="../../tables/users.html" xlink:title="users" target="_top">
<polygon fill="#ffffff" stroke="transparent" points="8,-384.2 8,-533.2 233,-533.2 233,-384.2 8,-384.2"/>
<polygon fill="#f5f5f5" stroke="transparent" points="8.5,-509.7 8.5,-532.7 233.5,-532.7 233.5,-509.7 8.5,-509.7"/>
<polygon fill="none" stroke="#000000" points="8.5,-509.7 8.5,-532.7 233.5,-532.7 233.5,-509.7 8.5,-509.7"/>
<text text-anchor="start" x="13.5" y="-518.8" font-family="Helvetica,sans-Serif" font-weight="bold" font-size="11.00" fill="#000000">users</text>
<text text-anchor="start" x="198.5437" y="-517.8" font-family="Helvetica,sans-Serif" font-size="11.00" fill="#000000">[table]</text>
<polygon fill="none" stroke="#000000" points="8.5,-487.7 8.5,-509.7 233.5,-509.7 233.5,-487.7 8.5,-487.7"/>
<image xlink:href="../../images/primaryKeys.png" width="11px" height="12px" preserveAspectRatio="xMinYMin meet" x="13.5" y="-504.7"/>
<text text-anchor="start" x="28.5" y="-494.8" font-family="Helvetica,sans-Serif" font-size="11.00" fill="#000000">user_id</text>
<polygon fill="#ffffff" stroke="transparent" points="8.5,-465.7 8.5,-487.7 233.5,-487.7 233.5,-465.7 8.5,-465.7"/>
<polygon fill="none" stroke="#000000" points="8.5,-465.7 8.5,-487.7 233.5,-487.7 233.5,-465.7 8.5,-465.7"/>
<text text-anchor="start" x="28.5" y="-472.8" font-family="Helvetica,sans-Serif" font-size="11.00" fill="#000000">user_uid</text>
<polygon fill="#ffffff" stroke="transparent" points="8.5,-443.7 8.5,-465.7 233.5,-465.7 233.5,-443.7 8.5,-443.7"/>
<polygon fill="none" stroke="#000000" points="8.5,-443.7 8.5,-465.7 233.5,-465.7 233.5,-443.7 8.5,-443.7"/>
<image xlink:href="../../images/foreignKeys.png" width="11px" height="12px" preserveAspectRatio="xMinYMin meet" x="13.5" y="-460.7"/>
<text text-anchor="start" x="28.5" y="-450.8" font-family="Helvetica,sans-Serif" font-size="11.00" fill="#000000">default_org</text>
<polygon fill="#ffffff" stroke="transparent" points="8.5,-421.7 8.5,-443.7 233.5,-443.7 233.5,-421.7 8.5,-421.7"/>
<polygon fill="none" stroke="#000000" points="8.5,-421.7 8.5,-443.7 233.5,-443.7 233.5,-421.7 8.5,-421.7"/>
<text text-anchor="start" x="28.5" y="-428.8" font-family="Helvetica,sans-Serif" font-size="11.00" fill="#000000">type</text>
<polygon fill="none" stroke="#000000" points="8.5,-402.7 8.5,-421.7 233.5,-421.7 233.5,-402.7 8.5,-402.7"/>
<text text-anchor="start" x="11.5" y="-408.8" font-family="Helvetica,sans-Serif" font-size="11.00" fill="#000000">...</text>
<polygon fill="#ffffff" stroke="transparent" points="8.5,-383.7 8.5,-402.7 98.5,-402.7 98.5,-383.7 8.5,-383.7"/>
<polygon fill="none" stroke="#000000" points="8.5,-383.7 8.5,-402.7 98.5,-402.7 98.5,-383.7 8.5,-383.7"/>
<text text-anchor="start" x="11.5" y="-389.8" font-family="Helvetica,sans-Serif" font-size="11.00" fill="#000000">&lt; 1</text>
<polygon fill="#ffffff" stroke="transparent" points="98.5,-383.7 98.5,-402.7 171.5,-402.7 171.5,-383.7 98.5,-383.7"/>
<polygon fill="none" stroke="#000000" points="98.5,-383.7 98.5,-402.7 171.5,-402.7 171.5,-383.7 98.5,-383.7"/>
<text text-anchor="start" x="136.1105" y="-389.8" font-family="Helvetica,sans-Serif" font-size="11.00" fill="#000000">6 rows</text>
<polygon fill="#ffffff" stroke="transparent" points="171.5,-383.7 171.5,-402.7 233.5,-402.7 233.5,-383.7 171.5,-383.7"/>
<polygon fill="none" stroke="#000000" points="171.5,-383.7 171.5,-402.7 233.5,-402.7 233.5,-383.7 171.5,-383.7"/>
<text text-anchor="start" x="208.7904" y="-389.8" font-family="Helvetica,sans-Serif" font-size="11.00" fill="#000000">33 &gt;</text>
</a>
</g>
</g>
<!-- notifications_user_messages&#45;&gt;users -->
<g id="edge2" class="edge">
<title>notifications_user_messages:w&#45;&gt;users:e</title>
<path fill="none" stroke="#000000" d="M270.1154,-429.329C251.4593,-445.5294 267.2515,-498.7 233.5,-498.7"/>
<polygon fill="#000000" stroke="#000000" points="276.4107,-427.2303 285.1386,-428.1152 280.2053,-425.9651 284,-424.7 284,-424.7 284,-424.7 280.2053,-425.9651 282.8614,-421.2848 276.4107,-427.2303 276.4107,-427.2303"/>
<ellipse fill="none" stroke="#000000" cx="273.3749" cy="-428.2424" rx="3.2" ry="3.2"/>
</g>
</g>
</svg>
