<?xml version="1.0" encoding="UTF-8" standalone="no"?>
<!DOCTYPE svg PUBLIC "-//W3C//DTD SVG 1.1//EN"
 "http://www.w3.org/Graphics/SVG/1.1/DTD/svg11.dtd">
<!-- Generated by graphviz version 2.40.1 (20161225.0304)
 -->
<!-- Title: oneDegreeRelationshipsDiagram Pages: 1 -->
<svg width="639pt" height="179pt"
 viewBox="0.00 0.00 639.00 178.70" xmlns="http://www.w3.org/2000/svg" xmlns:xlink="http://www.w3.org/1999/xlink">
<g id="graph0" class="graph" transform="scale(1 1) rotate(0) translate(4 174.7)">
<title>oneDegreeRelationshipsDiagram</title>
<polygon fill="#ffffff" stroke="transparent" points="-4,4 -4,-174.7 635,-174.7 635,4 -4,4"/>
<text text-anchor="middle" x="72.4936" y="-7.3" font-family="Helvetica,sans-Serif" font-size="11.00" fill="#000000">Generated by SchemaSpy</text>
<!-- notifications_org_triggers_server_environment -->
<g id="node1" class="node">
<title>notifications_org_triggers_server_environment</title>
<g id="a_node1"><a xlink:href="../../tables/notifications_org_triggers_server_environment.html" xlink:title="notifications_org_triggers_server_environment" target="_top">
<polygon fill="#ffffff" stroke="transparent" points="245,-76.7 245,-166.7 623,-166.7 623,-76.7 245,-76.7"/>
<polygon fill="#f5f5f5" stroke="transparent" points="247,-141.7 247,-164.7 621,-164.7 621,-141.7 247,-141.7"/>
<polygon fill="none" stroke="#000000" points="247,-141.7 247,-164.7 621,-164.7 621,-141.7 247,-141.7"/>
<text text-anchor="start" x="252" y="-150.8" font-family="Helvetica,sans-Serif" font-weight="bold" font-size="11.00" fill="#000000">notifications_org_triggers_server_environment</text>
<text text-anchor="start" x="586.0437" y="-149.8" font-family="Helvetica,sans-Serif" font-size="11.00" fill="#000000">[table]</text>
<polygon fill="none" stroke="#000000" points="247,-119.7 247,-141.7 538,-141.7 538,-119.7 247,-119.7"/>
<image xlink:href="../../images/primaryKeys.png" width="11px" height="12px" preserveAspectRatio="xMinYMin meet" x="252" y="-136.7"/>
<text text-anchor="start" x="267" y="-126.8" font-family="Helvetica,sans-Serif" font-size="11.00" fill="#000000">notifications_org_triggers_id</text>
<polygon fill="none" stroke="#000000" points="538,-119.7 538,-141.7 621,-141.7 621,-119.7 538,-119.7"/>
<text text-anchor="start" x="540.6783" y="-127.4" font-family="Helvetica,sans-Serif" font-size="11.00" fill="#000000">int unsigned[10]</text>
<polygon fill="none" stroke="#000000" points="247,-97.7 247,-119.7 538,-119.7 538,-97.7 247,-97.7"/>
<image xlink:href="../../images/primaryKeys.png" width="11px" height="12px" preserveAspectRatio="xMinYMin meet" x="252" y="-114.7"/>
<text text-anchor="start" x="267" y="-104.8" font-family="Helvetica,sans-Serif" font-size="11.00" fill="#000000">server_environment</text>
<polygon fill="none" stroke="#000000" points="538,-97.7 538,-119.7 621,-119.7 621,-97.7 538,-97.7"/>
<text text-anchor="start" x="541" y="-105.4" font-family="Helvetica,sans-Serif" font-size="11.00" fill="#000000">varchar[50]</text>
<polygon fill="#ffffff" stroke="transparent" points="247,-78.7 247,-97.7 384,-97.7 384,-78.7 247,-78.7"/>
<polygon fill="none" stroke="#000000" points="247,-78.7 247,-97.7 384,-97.7 384,-78.7 247,-78.7"/>
<text text-anchor="start" x="250" y="-84.8" font-family="Helvetica,sans-Serif" font-size="11.00" fill="#000000">&lt; 1</text>
<polygon fill="#ffffff" stroke="transparent" points="384,-78.7 384,-97.7 538,-97.7 538,-78.7 384,-78.7"/>
<polygon fill="none" stroke="#000000" points="384,-78.7 384,-97.7 538,-97.7 538,-78.7 384,-78.7"/>
<text text-anchor="start" x="502.6105" y="-84.8" font-family="Helvetica,sans-Serif" font-size="11.00" fill="#000000">0 rows</text>
<polygon fill="#ffffff" stroke="transparent" points="538,-78.7 538,-97.7 621,-97.7 621,-78.7 538,-78.7"/>
<polygon fill="none" stroke="#000000" points="538,-78.7 538,-97.7 621,-97.7 621,-78.7 538,-78.7"/>
<text text-anchor="start" x="602.4053" y="-84.8" font-family="Helvetica,sans-Serif" font-size="11.00" fill="#000000">0 &gt;</text>
<polygon fill="none" stroke="#000000" stroke-width="2" points="246,-77.7 246,-165.7 622,-165.7 622,-77.7 246,-77.7"/>
</a>
</g>
</g>
<!-- notifications_org_triggers -->
<g id="node2" class="node">
<title>notifications_org_triggers</title>
<g id="a_node2"><a xlink:href="../../tables/notifications_org_triggers.html" xlink:title="notifications_org_triggers" target="_top">
<polygon fill="#ffffff" stroke="transparent" points="8,-38.2 8,-165.2 196,-165.2 196,-38.2 8,-38.2"/>
<polygon fill="#f5f5f5" stroke="transparent" points="8,-141.7 8,-164.7 196,-164.7 196,-141.7 8,-141.7"/>
<polygon fill="none" stroke="#000000" points="8,-141.7 8,-164.7 196,-164.7 196,-141.7 8,-141.7"/>
<text text-anchor="start" x="13" y="-150.8" font-family="Helvetica,sans-Serif" font-weight="bold" font-size="11.00" fill="#000000">notifications_org_triggers</text>
<text text-anchor="start" x="161.0437" y="-149.8" font-family="Helvetica,sans-Serif" font-size="11.00" fill="#000000">[table]</text>
<polygon fill="none" stroke="#000000" points="8,-119.7 8,-141.7 196,-141.7 196,-119.7 8,-119.7"/>
<image xlink:href="../../images/primaryKeys.png" width="11px" height="12px" preserveAspectRatio="xMinYMin meet" x="13" y="-136.7"/>
<text text-anchor="start" x="28" y="-126.8" font-family="Helvetica,sans-Serif" font-size="11.00" fill="#000000">id</text>
<polygon fill="#ffffff" stroke="transparent" points="8,-97.7 8,-119.7 196,-119.7 196,-97.7 8,-97.7"/>
<polygon fill="none" stroke="#000000" points="8,-97.7 8,-119.7 196,-119.7 196,-97.7 8,-97.7"/>
<image xlink:href="../../images/foreignKeys.png" width="11px" height="12px" preserveAspectRatio="xMinYMin meet" x="13" y="-114.7"/>
<text text-anchor="start" x="28" y="-104.8" font-family="Helvetica,sans-Serif" font-size="11.00" fill="#000000">notifications_org_settings_id</text>
<polygon fill="#ffffff" stroke="transparent" points="8,-75.7 8,-97.7 196,-97.7 196,-75.7 8,-75.7"/>
<polygon fill="none" stroke="#000000" points="8,-75.7 8,-97.7 196,-97.7 196,-75.7 8,-75.7"/>
<text text-anchor="start" x="28" y="-82.8" font-family="Helvetica,sans-Serif" font-size="11.00" fill="#000000">trigger_type</text>
<polygon fill="none" stroke="#000000" points="8,-56.7 8,-75.7 196,-75.7 196,-56.7 8,-56.7"/>
<text text-anchor="start" x="11" y="-62.8" font-family="Helvetica,sans-Serif" font-size="11.00" fill="#000000">...</text>
<polygon fill="#ffffff" stroke="transparent" points="8,-37.7 8,-56.7 80,-56.7 80,-37.7 8,-37.7"/>
<polygon fill="none" stroke="#000000" points="8,-37.7 8,-56.7 80,-56.7 80,-37.7 8,-37.7"/>
<text text-anchor="start" x="11" y="-43.8" font-family="Helvetica,sans-Serif" font-size="11.00" fill="#000000">&lt; 1</text>
<polygon fill="#ffffff" stroke="transparent" points="80,-37.7 80,-56.7 149,-56.7 149,-37.7 80,-37.7"/>
<polygon fill="none" stroke="#000000" points="80,-37.7 80,-56.7 149,-56.7 149,-37.7 80,-37.7"/>
<text text-anchor="start" x="107.4956" y="-43.8" font-family="Helvetica,sans-Serif" font-size="11.00" fill="#000000">26 rows</text>
<polygon fill="#ffffff" stroke="transparent" points="149,-37.7 149,-56.7 196,-56.7 196,-37.7 149,-37.7"/>
<polygon fill="none" stroke="#000000" points="149,-37.7 149,-56.7 196,-56.7 196,-37.7 149,-37.7"/>
<text text-anchor="start" x="177.4053" y="-43.8" font-family="Helvetica,sans-Serif" font-size="11.00" fill="#000000">5 &gt;</text>
</a>
</g>
</g>
<!-- notifications_org_triggers_server_environment&#45;&gt;notifications_org_triggers -->
<g id="edge1" class="edge">
<title>notifications_org_triggers_server_environment:w&#45;&gt;notifications_org_triggers:e</title>
<path fill="none" stroke="#000000" d="M232.276,-130.7C220.2815,-130.7 212.8229,-130.7 196,-130.7"/>
<polygon fill="#000000" stroke="#000000" points="239,-130.7001 247,-134.3 243,-130.7 247,-130.7 247,-130.7 247,-130.7 243,-130.7 247,-127.1 239,-130.7001 239,-130.7001"/>
<ellipse fill="none" stroke="#000000" cx="235.8" cy="-130.7001" rx="3.2" ry="3.2"/>
</g>
</g>
</svg>
