<?xml version="1.0" encoding="UTF-8" standalone="no"?>
<!DOCTYPE svg PUBLIC "-//W3C//DTD SVG 1.1//EN"
 "http://www.w3.org/Graphics/SVG/1.1/DTD/svg11.dtd">
<!-- Generated by graphviz version 2.40.1 (20161225.0304)
 -->
<!-- Title: oneDegreeRelationshipsDiagram Pages: 1 -->
<svg width="588pt" height="201pt"
 viewBox="0.00 0.00 588.00 200.70" xmlns="http://www.w3.org/2000/svg" xmlns:xlink="http://www.w3.org/1999/xlink">
<g id="graph0" class="graph" transform="scale(1 1) rotate(0) translate(4 196.7)">
<title>oneDegreeRelationshipsDiagram</title>
<polygon fill="#ffffff" stroke="transparent" points="-4,4 -4,-196.7 584,-196.7 584,4 -4,4"/>
<text text-anchor="middle" x="72.4936" y="-7.3" font-family="Helvetica,sans-Serif" font-size="11.00" fill="#000000">Generated by SchemaSpy</text>
<!-- notifications_user_triggers_channels -->
<g id="node1" class="node">
<title>notifications_user_triggers_channels</title>
<g id="a_node1"><a xlink:href="../../tables/notifications_user_triggers_channels.html" xlink:title="notifications_user_triggers_channels" target="_top">
<polygon fill="#ffffff" stroke="transparent" points="251,-54.7 251,-188.7 572,-188.7 572,-54.7 251,-54.7"/>
<polygon fill="#f5f5f5" stroke="transparent" points="253.5,-163.7 253.5,-186.7 570.5,-186.7 570.5,-163.7 253.5,-163.7"/>
<polygon fill="none" stroke="#000000" points="253.5,-163.7 253.5,-186.7 570.5,-186.7 570.5,-163.7 253.5,-163.7"/>
<text text-anchor="start" x="258.5" y="-172.8" font-family="Helvetica,sans-Serif" font-weight="bold" font-size="11.00" fill="#000000">notifications_user_triggers_channels</text>
<text text-anchor="start" x="535.5437" y="-171.8" font-family="Helvetica,sans-Serif" font-size="11.00" fill="#000000">[table]</text>
<polygon fill="none" stroke="#000000" points="253.5,-141.7 253.5,-163.7 487.5,-163.7 487.5,-141.7 253.5,-141.7"/>
<image xlink:href="../../images/primaryKeys.png" width="11px" height="12px" preserveAspectRatio="xMinYMin meet" x="258.5" y="-158.7"/>
<text text-anchor="start" x="273.5" y="-148.8" font-family="Helvetica,sans-Serif" font-size="11.00" fill="#000000">id</text>
<polygon fill="none" stroke="#000000" points="487.5,-141.7 487.5,-163.7 570.5,-163.7 570.5,-141.7 487.5,-141.7"/>
<text text-anchor="start" x="490.1783" y="-149.4" font-family="Helvetica,sans-Serif" font-size="11.00" fill="#000000">int unsigned[10]</text>
<polygon fill="#ffffff" stroke="transparent" points="253.5,-119.7 253.5,-141.7 487.5,-141.7 487.5,-119.7 253.5,-119.7"/>
<polygon fill="none" stroke="#000000" points="253.5,-119.7 253.5,-141.7 487.5,-141.7 487.5,-119.7 253.5,-119.7"/>
<image xlink:href="../../images/foreignKeys.png" width="11px" height="12px" preserveAspectRatio="xMinYMin meet" x="258.5" y="-136.7"/>
<text text-anchor="start" x="273.5" y="-126.8" font-family="Helvetica,sans-Serif" font-size="11.00" fill="#000000">notifications_user_triggers_id</text>
<polygon fill="none" stroke="#000000" points="487.5,-119.7 487.5,-141.7 570.5,-141.7 570.5,-119.7 487.5,-119.7"/>
<text text-anchor="start" x="490.1783" y="-127.4" font-family="Helvetica,sans-Serif" font-size="11.00" fill="#000000">int unsigned[10]</text>
<polygon fill="#ffffff" stroke="transparent" points="253.5,-97.7 253.5,-119.7 487.5,-119.7 487.5,-97.7 253.5,-97.7"/>
<polygon fill="none" stroke="#000000" points="253.5,-97.7 253.5,-119.7 487.5,-119.7 487.5,-97.7 253.5,-97.7"/>
<text text-anchor="start" x="273.5" y="-104.8" font-family="Helvetica,sans-Serif" font-size="11.00" fill="#000000">channel_type</text>
<polygon fill="none" stroke="#000000" points="487.5,-97.7 487.5,-119.7 570.5,-119.7 570.5,-97.7 487.5,-97.7"/>
<text text-anchor="start" x="490.5" y="-105.4" font-family="Helvetica,sans-Serif" font-size="11.00" fill="#000000">varchar[50]</text>
<polygon fill="none" stroke="#000000" points="253.5,-75.7 253.5,-97.7 487.5,-97.7 487.5,-75.7 253.5,-75.7"/>
<text text-anchor="start" x="273.5" y="-82.8" font-family="Helvetica,sans-Serif" font-size="11.00" fill="#000000">enabled</text>
<polygon fill="none" stroke="#000000" points="487.5,-75.7 487.5,-97.7 570.5,-97.7 570.5,-75.7 487.5,-75.7"/>
<text text-anchor="start" x="490.5" y="-83.4" font-family="Helvetica,sans-Serif" font-size="11.00" fill="#000000">bit[1]</text>
<polygon fill="#ffffff" stroke="transparent" points="253.5,-56.7 253.5,-75.7 355.5,-75.7 355.5,-56.7 253.5,-56.7"/>
<polygon fill="none" stroke="#000000" points="253.5,-56.7 253.5,-75.7 355.5,-75.7 355.5,-56.7 253.5,-56.7"/>
<text text-anchor="start" x="256.5" y="-62.8" font-family="Helvetica,sans-Serif" font-size="11.00" fill="#000000">&lt; 1</text>
<polygon fill="#ffffff" stroke="transparent" points="355.5,-56.7 355.5,-75.7 487.5,-75.7 487.5,-56.7 355.5,-56.7"/>
<polygon fill="none" stroke="#000000" points="355.5,-56.7 355.5,-75.7 487.5,-75.7 487.5,-56.7 355.5,-56.7"/>
<text text-anchor="start" x="439.8807" y="-62.8" font-family="Helvetica,sans-Serif" font-size="11.00" fill="#000000">208 rows</text>
<polygon fill="#ffffff" stroke="transparent" points="487.5,-56.7 487.5,-75.7 570.5,-75.7 570.5,-56.7 487.5,-56.7"/>
<polygon fill="none" stroke="#000000" points="487.5,-56.7 487.5,-75.7 570.5,-75.7 570.5,-56.7 487.5,-56.7"/>
<text text-anchor="start" x="551.9053" y="-62.8" font-family="Helvetica,sans-Serif" font-size="11.00" fill="#000000">0 &gt;</text>
<polygon fill="none" stroke="#000000" stroke-width="2" points="252,-55.7 252,-187.7 571,-187.7 571,-55.7 252,-55.7"/>
</a>
</g>
</g>
<!-- notifications_user_triggers -->
<g id="node2" class="node">
<title>notifications_user_triggers</title>
<g id="a_node2"><a xlink:href="../../tables/notifications_user_triggers.html" xlink:title="notifications_user_triggers" target="_top">
<polygon fill="#ffffff" stroke="transparent" points="8,-38.2 8,-165.2 202,-165.2 202,-38.2 8,-38.2"/>
<polygon fill="#f5f5f5" stroke="transparent" points="8,-141.7 8,-164.7 202,-164.7 202,-141.7 8,-141.7"/>
<polygon fill="none" stroke="#000000" points="8,-141.7 8,-164.7 202,-164.7 202,-141.7 8,-141.7"/>
<text text-anchor="start" x="13" y="-150.8" font-family="Helvetica,sans-Serif" font-weight="bold" font-size="11.00" fill="#000000">notifications_user_triggers</text>
<text text-anchor="start" x="167.0437" y="-149.8" font-family="Helvetica,sans-Serif" font-size="11.00" fill="#000000">[table]</text>
<polygon fill="none" stroke="#000000" points="8,-119.7 8,-141.7 202,-141.7 202,-119.7 8,-119.7"/>
<image xlink:href="../../images/primaryKeys.png" width="11px" height="12px" preserveAspectRatio="xMinYMin meet" x="13" y="-136.7"/>
<text text-anchor="start" x="28" y="-126.8" font-family="Helvetica,sans-Serif" font-size="11.00" fill="#000000">id</text>
<polygon fill="#ffffff" stroke="transparent" points="8,-97.7 8,-119.7 202,-119.7 202,-97.7 8,-97.7"/>
<polygon fill="none" stroke="#000000" points="8,-97.7 8,-119.7 202,-119.7 202,-97.7 8,-97.7"/>
<image xlink:href="../../images/foreignKeys.png" width="11px" height="12px" preserveAspectRatio="xMinYMin meet" x="13" y="-114.7"/>
<text text-anchor="start" x="28" y="-104.8" font-family="Helvetica,sans-Serif" font-size="11.00" fill="#000000">notifications_user_settings_id</text>
<polygon fill="#ffffff" stroke="transparent" points="8,-75.7 8,-97.7 202,-97.7 202,-75.7 8,-75.7"/>
<polygon fill="none" stroke="#000000" points="8,-75.7 8,-97.7 202,-97.7 202,-75.7 8,-75.7"/>
<text text-anchor="start" x="28" y="-82.8" font-family="Helvetica,sans-Serif" font-size="11.00" fill="#000000">trigger_type</text>
<polygon fill="none" stroke="#000000" points="8,-56.7 8,-75.7 202,-75.7 202,-56.7 8,-56.7"/>
<text text-anchor="start" x="11" y="-62.8" font-family="Helvetica,sans-Serif" font-size="11.00" fill="#000000">...</text>
<polygon fill="#ffffff" stroke="transparent" points="8,-37.7 8,-56.7 80,-56.7 80,-37.7 8,-37.7"/>
<polygon fill="none" stroke="#000000" points="8,-37.7 8,-56.7 80,-56.7 80,-37.7 8,-37.7"/>
<text text-anchor="start" x="11" y="-43.8" font-family="Helvetica,sans-Serif" font-size="11.00" fill="#000000">&lt; 1</text>
<polygon fill="#ffffff" stroke="transparent" points="80,-37.7 80,-56.7 155,-56.7 155,-37.7 80,-37.7"/>
<polygon fill="none" stroke="#000000" points="80,-37.7 80,-56.7 155,-56.7 155,-37.7 80,-37.7"/>
<text text-anchor="start" x="107.3807" y="-43.8" font-family="Helvetica,sans-Serif" font-size="11.00" fill="#000000">104 rows</text>
<polygon fill="#ffffff" stroke="transparent" points="155,-37.7 155,-56.7 202,-56.7 202,-37.7 155,-37.7"/>
<polygon fill="none" stroke="#000000" points="155,-37.7 155,-56.7 202,-56.7 202,-37.7 155,-37.7"/>
<text text-anchor="start" x="183.4053" y="-43.8" font-family="Helvetica,sans-Serif" font-size="11.00" fill="#000000">5 &gt;</text>
</a>
</g>
</g>
<!-- notifications_user_triggers_channels&#45;&gt;notifications_user_triggers -->
<g id="edge1" class="edge">
<title>notifications_user_triggers_channels:w&#45;&gt;notifications_user_triggers:e</title>
<path fill="none" stroke="#000000" d="M239.0156,-130.7C226.6771,-130.7 219.1667,-130.7 202,-130.7"/>
<polygon fill="#000000" stroke="#000000" points="245.5,-130.7001 253.5,-134.3 249.5,-130.7 253.5,-130.7 253.5,-130.7 253.5,-130.7 249.5,-130.7 253.5,-127.1 245.5,-130.7001 245.5,-130.7001"/>
<ellipse fill="none" stroke="#000000" cx="242.3" cy="-130.7001" rx="3.2" ry="3.2"/>
</g>
</g>
</svg>
