<?xml version="1.0" encoding="UTF-8" standalone="no"?>
<!DOCTYPE svg PUBLIC "-//W3C//DTD SVG 1.1//EN"
 "http://www.w3.org/Graphics/SVG/1.1/DTD/svg11.dtd">
<!-- Generated by graphviz version 2.40.1 (20161225.0304)
 -->
<!-- Title: oneDegreeRelationshipsDiagram Pages: 1 -->
<svg width="625pt" height="605pt"
 viewBox="0.00 0.00 625.00 605.20" xmlns="http://www.w3.org/2000/svg" xmlns:xlink="http://www.w3.org/1999/xlink">
<g id="graph0" class="graph" transform="scale(1 1) rotate(0) translate(4 601.2)">
<title>oneDegreeRelationshipsDiagram</title>
<polygon fill="#ffffff" stroke="transparent" points="-4,4 -4,-601.2 621,-601.2 621,4 -4,4"/>
<text text-anchor="middle" x="72.4936" y="-7.3" font-family="Helvetica,sans-Serif" font-size="11.00" fill="#000000">Generated by SchemaSpy</text>
<!-- notifications_user_remediation_policy -->
<g id="node1" class="node">
<title>notifications_user_remediation_policy</title>
<g id="a_node1"><a xlink:href="../../tables/notifications_user_remediation_policy.html" xlink:title="notifications_user_remediation_policy" target="_top">
<polygon fill="#ffffff" stroke="transparent" points="282,-312.7 282,-468.7 609,-468.7 609,-312.7 282,-312.7"/>
<polygon fill="#f5f5f5" stroke="transparent" points="284.5,-443.7 284.5,-466.7 607.5,-466.7 607.5,-443.7 284.5,-443.7"/>
<polygon fill="none" stroke="#000000" points="284.5,-443.7 284.5,-466.7 607.5,-466.7 607.5,-443.7 284.5,-443.7"/>
<text text-anchor="start" x="289.5" y="-452.8" font-family="Helvetica,sans-Serif" font-weight="bold" font-size="11.00" fill="#000000">notifications_user_remediation_policy</text>
<text text-anchor="start" x="572.5437" y="-451.8" font-family="Helvetica,sans-Serif" font-size="11.00" fill="#000000">[table]</text>
<polygon fill="none" stroke="#000000" points="284.5,-421.7 284.5,-443.7 524.5,-443.7 524.5,-421.7 284.5,-421.7"/>
<image xlink:href="../../images/primaryKeys.png" width="11px" height="12px" preserveAspectRatio="xMinYMin meet" x="289.5" y="-438.7"/>
<text text-anchor="start" x="304.5" y="-428.8" font-family="Helvetica,sans-Serif" font-size="11.00" fill="#000000">id</text>
<polygon fill="none" stroke="#000000" points="524.5,-421.7 524.5,-443.7 607.5,-443.7 607.5,-421.7 524.5,-421.7"/>
<text text-anchor="start" x="527.1783" y="-429.4" font-family="Helvetica,sans-Serif" font-size="11.00" fill="#000000">int unsigned[10]</text>
<polygon fill="#ffffff" stroke="transparent" points="284.5,-399.7 284.5,-421.7 524.5,-421.7 524.5,-399.7 284.5,-399.7"/>
<polygon fill="none" stroke="#000000" points="284.5,-399.7 284.5,-421.7 524.5,-421.7 524.5,-399.7 284.5,-399.7"/>
<image xlink:href="../../images/foreignKeys.png" width="11px" height="12px" preserveAspectRatio="xMinYMin meet" x="289.5" y="-416.7"/>
<text text-anchor="start" x="304.5" y="-406.8" font-family="Helvetica,sans-Serif" font-size="11.00" fill="#000000">users_id</text>
<polygon fill="none" stroke="#000000" points="524.5,-399.7 524.5,-421.7 607.5,-421.7 607.5,-399.7 524.5,-399.7"/>
<text text-anchor="start" x="527.5" y="-407.4" font-family="Helvetica,sans-Serif" font-size="11.00" fill="#000000">varchar[255]</text>
<polygon fill="#ffffff" stroke="transparent" points="284.5,-377.7 284.5,-399.7 524.5,-399.7 524.5,-377.7 284.5,-377.7"/>
<polygon fill="none" stroke="#000000" points="284.5,-377.7 284.5,-399.7 524.5,-399.7 524.5,-377.7 284.5,-377.7"/>
<image xlink:href="../../images/foreignKeys.png" width="11px" height="12px" preserveAspectRatio="xMinYMin meet" x="289.5" y="-394.7"/>
<text text-anchor="start" x="304.5" y="-384.8" font-family="Helvetica,sans-Serif" font-size="11.00" fill="#000000">organization_remediation_policy_id</text>
<polygon fill="none" stroke="#000000" points="524.5,-377.7 524.5,-399.7 607.5,-399.7 607.5,-377.7 524.5,-377.7"/>
<text text-anchor="start" x="527.1783" y="-385.4" font-family="Helvetica,sans-Serif" font-size="11.00" fill="#000000">int unsigned[10]</text>
<polygon fill="#ffffff" stroke="transparent" points="284.5,-355.7 284.5,-377.7 524.5,-377.7 524.5,-355.7 284.5,-355.7"/>
<polygon fill="none" stroke="#000000" points="284.5,-355.7 284.5,-377.7 524.5,-377.7 524.5,-355.7 284.5,-355.7"/>
<image xlink:href="../../images/foreignKeys.png" width="11px" height="12px" preserveAspectRatio="xMinYMin meet" x="289.5" y="-372.7"/>
<text text-anchor="start" x="304.5" y="-362.8" font-family="Helvetica,sans-Serif" font-size="11.00" fill="#000000">applications_id</text>
<polygon fill="none" stroke="#000000" points="524.5,-355.7 524.5,-377.7 607.5,-377.7 607.5,-355.7 524.5,-355.7"/>
<text text-anchor="start" x="527.5" y="-363.4" font-family="Helvetica,sans-Serif" font-size="11.00" fill="#000000">varchar[255]</text>
<polygon fill="none" stroke="#000000" points="284.5,-333.7 284.5,-355.7 524.5,-355.7 524.5,-333.7 284.5,-333.7"/>
<text text-anchor="start" x="304.5" y="-340.8" font-family="Helvetica,sans-Serif" font-size="11.00" fill="#000000">dt_last_sent</text>
<polygon fill="none" stroke="#000000" points="524.5,-333.7 524.5,-355.7 607.5,-355.7 607.5,-333.7 524.5,-333.7"/>
<text text-anchor="start" x="527.5" y="-341.4" font-family="Helvetica,sans-Serif" font-size="11.00" fill="#000000">bigint[19]</text>
<polygon fill="#ffffff" stroke="transparent" points="284.5,-314.7 284.5,-333.7 395.5,-333.7 395.5,-314.7 284.5,-314.7"/>
<polygon fill="none" stroke="#000000" points="284.5,-314.7 284.5,-333.7 395.5,-333.7 395.5,-314.7 284.5,-314.7"/>
<text text-anchor="start" x="287.5" y="-320.8" font-family="Helvetica,sans-Serif" font-size="11.00" fill="#000000">&lt; 3</text>
<polygon fill="#ffffff" stroke="transparent" points="395.5,-314.7 395.5,-333.7 524.5,-333.7 524.5,-314.7 395.5,-314.7"/>
<polygon fill="none" stroke="#000000" points="395.5,-314.7 395.5,-333.7 524.5,-333.7 524.5,-314.7 395.5,-314.7"/>
<text text-anchor="start" x="489.1105" y="-320.8" font-family="Helvetica,sans-Serif" font-size="11.00" fill="#000000">0 rows</text>
<polygon fill="#ffffff" stroke="transparent" points="524.5,-314.7 524.5,-333.7 607.5,-333.7 607.5,-314.7 524.5,-314.7"/>
<polygon fill="none" stroke="#000000" points="524.5,-314.7 524.5,-333.7 607.5,-333.7 607.5,-314.7 524.5,-314.7"/>
<text text-anchor="start" x="588.9053" y="-320.8" font-family="Helvetica,sans-Serif" font-size="11.00" fill="#000000">0 &gt;</text>
<polygon fill="none" stroke="#000000" stroke-width="2" points="283,-313.7 283,-467.7 608,-467.7 608,-313.7 283,-313.7"/>
</a>
</g>
</g>
<!-- applications -->
<g id="node2" class="node">
<title>applications</title>
<g id="a_node2"><a xlink:href="../../tables/applications.html" xlink:title="applications" target="_top">
<polygon fill="#ffffff" stroke="transparent" points="29,-38.2 29,-297.2 212,-297.2 212,-38.2 29,-38.2"/>
<polygon fill="#f5f5f5" stroke="transparent" points="29.5,-273.7 29.5,-296.7 212.5,-296.7 212.5,-273.7 29.5,-273.7"/>
<polygon fill="none" stroke="#000000" points="29.5,-273.7 29.5,-296.7 212.5,-296.7 212.5,-273.7 29.5,-273.7"/>
<text text-anchor="start" x="34.5" y="-282.8" font-family="Helvetica,sans-Serif" font-weight="bold" font-size="11.00" fill="#000000">applications</text>
<text text-anchor="start" x="177.5437" y="-281.8" font-family="Helvetica,sans-Serif" font-size="11.00" fill="#000000">[table]</text>
<polygon fill="none" stroke="#000000" points="29.5,-251.7 29.5,-273.7 212.5,-273.7 212.5,-251.7 29.5,-251.7"/>
<image xlink:href="../../images/primaryKeys.png" width="11px" height="12px" preserveAspectRatio="xMinYMin meet" x="34.5" y="-268.7"/>
<text text-anchor="start" x="49.5" y="-258.8" font-family="Helvetica,sans-Serif" font-size="11.00" fill="#000000">application_id</text>
<polygon fill="#ffffff" stroke="transparent" points="29.5,-229.7 29.5,-251.7 212.5,-251.7 212.5,-229.7 29.5,-229.7"/>
<polygon fill="none" stroke="#000000" points="29.5,-229.7 29.5,-251.7 212.5,-251.7 212.5,-229.7 29.5,-229.7"/>
<text text-anchor="start" x="49.5" y="-236.8" font-family="Helvetica,sans-Serif" font-size="11.00" fill="#000000">app_name</text>
<polygon fill="#ffffff" stroke="transparent" points="29.5,-207.7 29.5,-229.7 212.5,-229.7 212.5,-207.7 29.5,-207.7"/>
<polygon fill="none" stroke="#000000" points="29.5,-207.7 29.5,-229.7 212.5,-229.7 212.5,-207.7 29.5,-207.7"/>
<text text-anchor="start" x="49.5" y="-214.8" font-family="Helvetica,sans-Serif" font-size="11.00" fill="#000000">app_short_name</text>
<polygon fill="#ffffff" stroke="transparent" points="29.5,-185.7 29.5,-207.7 212.5,-207.7 212.5,-185.7 29.5,-185.7"/>
<polygon fill="none" stroke="#000000" points="29.5,-185.7 29.5,-207.7 212.5,-207.7 212.5,-185.7 29.5,-185.7"/>
<image xlink:href="../../images/foreignKeys.png" width="11px" height="12px" preserveAspectRatio="xMinYMin meet" x="34.5" y="-202.7"/>
<text text-anchor="start" x="49.5" y="-192.8" font-family="Helvetica,sans-Serif" font-size="11.00" fill="#000000">app_license_fk</text>
<polygon fill="#ffffff" stroke="transparent" points="29.5,-163.7 29.5,-185.7 212.5,-185.7 212.5,-163.7 29.5,-163.7"/>
<polygon fill="none" stroke="#000000" points="29.5,-163.7 29.5,-185.7 212.5,-185.7 212.5,-163.7 29.5,-163.7"/>
<image xlink:href="../../images/foreignKeys.png" width="11px" height="12px" preserveAspectRatio="xMinYMin meet" x="34.5" y="-180.7"/>
<text text-anchor="start" x="49.5" y="-170.8" font-family="Helvetica,sans-Serif" font-size="11.00" fill="#000000">app_parent_fk</text>
<polygon fill="#ffffff" stroke="transparent" points="29.5,-141.7 29.5,-163.7 212.5,-163.7 212.5,-141.7 29.5,-141.7"/>
<polygon fill="none" stroke="#000000" points="29.5,-141.7 29.5,-163.7 212.5,-163.7 212.5,-141.7 29.5,-141.7"/>
<text text-anchor="start" x="49.5" y="-148.8" font-family="Helvetica,sans-Serif" font-size="11.00" fill="#000000">app_display_name</text>
<polygon fill="#ffffff" stroke="transparent" points="29.5,-119.7 29.5,-141.7 212.5,-141.7 212.5,-119.7 29.5,-119.7"/>
<polygon fill="none" stroke="#000000" points="29.5,-119.7 29.5,-141.7 212.5,-141.7 212.5,-119.7 29.5,-119.7"/>
<text text-anchor="start" x="49.5" y="-126.8" font-family="Helvetica,sans-Serif" font-size="11.00" fill="#000000">importance</text>
<polygon fill="#ffffff" stroke="transparent" points="29.5,-97.7 29.5,-119.7 212.5,-119.7 212.5,-97.7 29.5,-97.7"/>
<polygon fill="none" stroke="#000000" points="29.5,-97.7 29.5,-119.7 212.5,-119.7 212.5,-97.7 29.5,-97.7"/>
<image xlink:href="../../images/foreignKeys.png" width="11px" height="12px" preserveAspectRatio="xMinYMin meet" x="34.5" y="-114.7"/>
<text text-anchor="start" x="49.5" y="-104.8" font-family="Helvetica,sans-Serif" font-size="11.00" fill="#000000">organizations_id</text>
<polygon fill="#ffffff" stroke="transparent" points="29.5,-75.7 29.5,-97.7 212.5,-97.7 212.5,-75.7 29.5,-75.7"/>
<polygon fill="none" stroke="#000000" points="29.5,-75.7 29.5,-97.7 212.5,-97.7 212.5,-75.7 29.5,-75.7"/>
<text text-anchor="start" x="49.5" y="-82.8" font-family="Helvetica,sans-Serif" font-size="11.00" fill="#000000">agent_language</text>
<polygon fill="none" stroke="#000000" points="29.5,-56.7 29.5,-75.7 212.5,-75.7 212.5,-56.7 29.5,-56.7"/>
<text text-anchor="start" x="32.5" y="-62.8" font-family="Helvetica,sans-Serif" font-size="11.00" fill="#000000">...</text>
<polygon fill="#ffffff" stroke="transparent" points="29.5,-37.7 29.5,-56.7 98.5,-56.7 98.5,-37.7 29.5,-37.7"/>
<polygon fill="none" stroke="#000000" points="29.5,-37.7 29.5,-56.7 98.5,-56.7 98.5,-37.7 29.5,-37.7"/>
<text text-anchor="start" x="32.5" y="-43.8" font-family="Helvetica,sans-Serif" font-size="11.00" fill="#000000">&lt; 3</text>
<polygon fill="#ffffff" stroke="transparent" points="98.5,-37.7 98.5,-56.7 160.5,-56.7 160.5,-37.7 98.5,-37.7"/>
<polygon fill="none" stroke="#000000" points="98.5,-37.7 98.5,-56.7 160.5,-56.7 160.5,-37.7 98.5,-37.7"/>
<text text-anchor="start" x="125.1105" y="-43.8" font-family="Helvetica,sans-Serif" font-size="11.00" fill="#000000">0 rows</text>
<polygon fill="#ffffff" stroke="transparent" points="160.5,-37.7 160.5,-56.7 212.5,-56.7 212.5,-37.7 160.5,-37.7"/>
<polygon fill="none" stroke="#000000" points="160.5,-37.7 160.5,-56.7 212.5,-56.7 212.5,-37.7 160.5,-37.7"/>
<text text-anchor="start" x="187.7904" y="-43.8" font-family="Helvetica,sans-Serif" font-size="11.00" fill="#000000">57 &gt;</text>
</a>
</g>
</g>
<!-- notifications_user_remediation_policy&#45;&gt;applications -->
<g id="edge1" class="edge">
<title>notifications_user_remediation_policy:w&#45;&gt;applications:e</title>
<path fill="none" stroke="#000000" d="M270.1594,-363.6996C235.4984,-346.6478 263.0086,-262.7 212.5,-262.7"/>
<polygon fill="#000000" stroke="#000000" points="276.6695,-365.0617 283.7627,-370.2237 280.5848,-365.8808 284.5,-366.7 284.5,-366.7 284.5,-366.7 280.5848,-365.8808 285.2373,-363.1763 276.6695,-365.0617 276.6695,-365.0617"/>
<ellipse fill="none" stroke="#000000" cx="273.5374" cy="-364.4063" rx="3.2" ry="3.2"/>
</g>
<!-- organization_remediation_policy -->
<g id="node3" class="node">
<title>organization_remediation_policy</title>
<g id="a_node3"><a xlink:href="../../tables/organization_remediation_policy.html" xlink:title="organization_remediation_policy" target="_top">
<polygon fill="#ffffff" stroke="transparent" points="16.5,-318.2 16.5,-423.2 224.5,-423.2 224.5,-318.2 16.5,-318.2"/>
<polygon fill="#f5f5f5" stroke="transparent" points="16.5,-399.7 16.5,-422.7 224.5,-422.7 224.5,-399.7 16.5,-399.7"/>
<polygon fill="none" stroke="#000000" points="16.5,-399.7 16.5,-422.7 224.5,-422.7 224.5,-399.7 16.5,-399.7"/>
<text text-anchor="start" x="21.5" y="-408.8" font-family="Helvetica,sans-Serif" font-weight="bold" font-size="11.00" fill="#000000">organization_remediation_policy</text>
<text text-anchor="start" x="189.5437" y="-407.8" font-family="Helvetica,sans-Serif" font-size="11.00" fill="#000000">[table]</text>
<polygon fill="none" stroke="#000000" points="16.5,-377.7 16.5,-399.7 224.5,-399.7 224.5,-377.7 16.5,-377.7"/>
<image xlink:href="../../images/primaryKeys.png" width="11px" height="12px" preserveAspectRatio="xMinYMin meet" x="21.5" y="-394.7"/>
<text text-anchor="start" x="36.5" y="-384.8" font-family="Helvetica,sans-Serif" font-size="11.00" fill="#000000">id</text>
<polygon fill="#ffffff" stroke="transparent" points="16.5,-355.7 16.5,-377.7 224.5,-377.7 224.5,-355.7 16.5,-355.7"/>
<polygon fill="none" stroke="#000000" points="16.5,-355.7 16.5,-377.7 224.5,-377.7 224.5,-355.7 16.5,-355.7"/>
<image xlink:href="../../images/foreignKeys.png" width="11px" height="12px" preserveAspectRatio="xMinYMin meet" x="21.5" y="-372.7"/>
<text text-anchor="start" x="36.5" y="-362.8" font-family="Helvetica,sans-Serif" font-size="11.00" fill="#000000">organizations_id</text>
<polygon fill="none" stroke="#000000" points="16.5,-336.7 16.5,-355.7 224.5,-355.7 224.5,-336.7 16.5,-336.7"/>
<text text-anchor="start" x="19.5" y="-342.8" font-family="Helvetica,sans-Serif" font-size="11.00" fill="#000000">...</text>
<polygon fill="#ffffff" stroke="transparent" points="16.5,-317.7 16.5,-336.7 101.5,-336.7 101.5,-317.7 16.5,-317.7"/>
<polygon fill="none" stroke="#000000" points="16.5,-317.7 16.5,-336.7 101.5,-336.7 101.5,-317.7 16.5,-317.7"/>
<text text-anchor="start" x="19.5" y="-323.8" font-family="Helvetica,sans-Serif" font-size="11.00" fill="#000000">&lt; 1</text>
<polygon fill="#ffffff" stroke="transparent" points="101.5,-317.7 101.5,-336.7 171.5,-336.7 171.5,-317.7 101.5,-317.7"/>
<polygon fill="none" stroke="#000000" points="101.5,-317.7 101.5,-336.7 171.5,-336.7 171.5,-317.7 101.5,-317.7"/>
<text text-anchor="start" x="136.1105" y="-323.8" font-family="Helvetica,sans-Serif" font-size="11.00" fill="#000000">0 rows</text>
<polygon fill="#ffffff" stroke="transparent" points="171.5,-317.7 171.5,-336.7 224.5,-336.7 224.5,-317.7 171.5,-317.7"/>
<polygon fill="none" stroke="#000000" points="171.5,-317.7 171.5,-336.7 224.5,-336.7 224.5,-317.7 171.5,-317.7"/>
<text text-anchor="start" x="205.9053" y="-323.8" font-family="Helvetica,sans-Serif" font-size="11.00" fill="#000000">7 &gt;</text>
</a>
</g>
</g>
<!-- notifications_user_remediation_policy&#45;&gt;organization_remediation_policy -->
<g id="edge2" class="edge">
<title>notifications_user_remediation_policy:w&#45;&gt;organization_remediation_policy:e</title>
<path fill="none" stroke="#000000" d="M269.9193,-388.7C254.1309,-388.7 245.5417,-388.7 224.5,-388.7"/>
<polygon fill="#000000" stroke="#000000" points="276.5,-388.7001 284.5,-392.3 280.5,-388.7 284.5,-388.7 284.5,-388.7 284.5,-388.7 280.5,-388.7 284.5,-385.1 276.5,-388.7001 276.5,-388.7001"/>
<ellipse fill="none" stroke="#000000" cx="273.3" cy="-388.7001" rx="3.2" ry="3.2"/>
</g>
<!-- users -->
<g id="node4" class="node">
<title>users</title>
<g id="a_node4"><a xlink:href="../../tables/users.html" xlink:title="users" target="_top">
<polygon fill="#ffffff" stroke="transparent" points="8,-444.2 8,-593.2 233,-593.2 233,-444.2 8,-444.2"/>
<polygon fill="#f5f5f5" stroke="transparent" points="8.5,-569.7 8.5,-592.7 233.5,-592.7 233.5,-569.7 8.5,-569.7"/>
<polygon fill="none" stroke="#000000" points="8.5,-569.7 8.5,-592.7 233.5,-592.7 233.5,-569.7 8.5,-569.7"/>
<text text-anchor="start" x="13.5" y="-578.8" font-family="Helvetica,sans-Serif" font-weight="bold" font-size="11.00" fill="#000000">users</text>
<text text-anchor="start" x="198.5437" y="-577.8" font-family="Helvetica,sans-Serif" font-size="11.00" fill="#000000">[table]</text>
<polygon fill="none" stroke="#000000" points="8.5,-547.7 8.5,-569.7 233.5,-569.7 233.5,-547.7 8.5,-547.7"/>
<image xlink:href="../../images/primaryKeys.png" width="11px" height="12px" preserveAspectRatio="xMinYMin meet" x="13.5" y="-564.7"/>
<text text-anchor="start" x="28.5" y="-554.8" font-family="Helvetica,sans-Serif" font-size="11.00" fill="#000000">user_id</text>
<polygon fill="#ffffff" stroke="transparent" points="8.5,-525.7 8.5,-547.7 233.5,-547.7 233.5,-525.7 8.5,-525.7"/>
<polygon fill="none" stroke="#000000" points="8.5,-525.7 8.5,-547.7 233.5,-547.7 233.5,-525.7 8.5,-525.7"/>
<text text-anchor="start" x="28.5" y="-532.8" font-family="Helvetica,sans-Serif" font-size="11.00" fill="#000000">user_uid</text>
<polygon fill="#ffffff" stroke="transparent" points="8.5,-503.7 8.5,-525.7 233.5,-525.7 233.5,-503.7 8.5,-503.7"/>
<polygon fill="none" stroke="#000000" points="8.5,-503.7 8.5,-525.7 233.5,-525.7 233.5,-503.7 8.5,-503.7"/>
<image xlink:href="../../images/foreignKeys.png" width="11px" height="12px" preserveAspectRatio="xMinYMin meet" x="13.5" y="-520.7"/>
<text text-anchor="start" x="28.5" y="-510.8" font-family="Helvetica,sans-Serif" font-size="11.00" fill="#000000">default_org</text>
<polygon fill="#ffffff" stroke="transparent" points="8.5,-481.7 8.5,-503.7 233.5,-503.7 233.5,-481.7 8.5,-481.7"/>
<polygon fill="none" stroke="#000000" points="8.5,-481.7 8.5,-503.7 233.5,-503.7 233.5,-481.7 8.5,-481.7"/>
<text text-anchor="start" x="28.5" y="-488.8" font-family="Helvetica,sans-Serif" font-size="11.00" fill="#000000">type</text>
<polygon fill="none" stroke="#000000" points="8.5,-462.7 8.5,-481.7 233.5,-481.7 233.5,-462.7 8.5,-462.7"/>
<text text-anchor="start" x="11.5" y="-468.8" font-family="Helvetica,sans-Serif" font-size="11.00" fill="#000000">...</text>
<polygon fill="#ffffff" stroke="transparent" points="8.5,-443.7 8.5,-462.7 98.5,-462.7 98.5,-443.7 8.5,-443.7"/>
<polygon fill="none" stroke="#000000" points="8.5,-443.7 8.5,-462.7 98.5,-462.7 98.5,-443.7 8.5,-443.7"/>
<text text-anchor="start" x="11.5" y="-449.8" font-family="Helvetica,sans-Serif" font-size="11.00" fill="#000000">&lt; 1</text>
<polygon fill="#ffffff" stroke="transparent" points="98.5,-443.7 98.5,-462.7 171.5,-462.7 171.5,-443.7 98.5,-443.7"/>
<polygon fill="none" stroke="#000000" points="98.5,-443.7 98.5,-462.7 171.5,-462.7 171.5,-443.7 98.5,-443.7"/>
<text text-anchor="start" x="136.1105" y="-449.8" font-family="Helvetica,sans-Serif" font-size="11.00" fill="#000000">6 rows</text>
<polygon fill="#ffffff" stroke="transparent" points="171.5,-443.7 171.5,-462.7 233.5,-462.7 233.5,-443.7 171.5,-443.7"/>
<polygon fill="none" stroke="#000000" points="171.5,-443.7 171.5,-462.7 233.5,-462.7 233.5,-443.7 171.5,-443.7"/>
<text text-anchor="start" x="208.7904" y="-449.8" font-family="Helvetica,sans-Serif" font-size="11.00" fill="#000000">33 &gt;</text>
</a>
</g>
</g>
<!-- notifications_user_remediation_policy&#45;&gt;users -->
<g id="edge3" class="edge">
<title>notifications_user_remediation_policy:w&#45;&gt;users:e</title>
<path fill="none" stroke="#000000" d="M270.1212,-413.6564C228.6199,-434.5155 297.2306,-558.7 233.5,-558.7"/>
<polygon fill="#000000" stroke="#000000" points="276.6639,-412.3112 285.225,-414.2262 280.582,-411.5056 284.5,-410.7 284.5,-410.7 284.5,-410.7 280.582,-411.5056 283.775,-407.1738 276.6639,-412.3112 276.6639,-412.3112"/>
<ellipse fill="none" stroke="#000000" cx="273.5295" cy="-412.9557" rx="3.2" ry="3.2"/>
</g>
</g>
</svg>
