<?xml version="1.0" encoding="UTF-8" standalone="no"?>
<!DOCTYPE svg PUBLIC "-//W3C//DTD SVG 1.1//EN"
 "http://www.w3.org/Graphics/SVG/1.1/DTD/svg11.dtd">
<!-- Generated by graphviz version 2.40.1 (20161225.0304)
 -->
<!-- Title: twoDegreesRelationshipsDiagram Pages: 1 -->
<svg width="481pt" height="333pt"
 viewBox="0.00 0.00 481.00 333.20" xmlns="http://www.w3.org/2000/svg" xmlns:xlink="http://www.w3.org/1999/xlink">
<g id="graph0" class="graph" transform="scale(1 1) rotate(0) translate(4 329.2)">
<title>twoDegreesRelationshipsDiagram</title>
<polygon fill="#ffffff" stroke="transparent" points="-4,4 -4,-329.2 477,-329.2 477,4 -4,4"/>
<text text-anchor="middle" x="72.4936" y="-7.3" font-family="Helvetica,sans-Serif" font-size="11.00" fill="#000000">Generated by SchemaSpy</text>
<!-- onboarding_content_images -->
<g id="node1" class="node">
<title>onboarding_content_images</title>
<g id="a_node1"><a xlink:href="../../tables/onboarding_content_images.html" xlink:title="onboarding_content_images" target="_top">
<polygon fill="#ffffff" stroke="transparent" points="280,-108.7 280,-213.7 465,-213.7 465,-108.7 280,-108.7"/>
<polygon fill="#f5f5f5" stroke="transparent" points="280.5,-190.2 280.5,-213.2 465.5,-213.2 465.5,-190.2 280.5,-190.2"/>
<polygon fill="none" stroke="#000000" points="280.5,-190.2 280.5,-213.2 465.5,-213.2 465.5,-190.2 280.5,-190.2"/>
<text text-anchor="start" x="285.5" y="-199.3" font-family="Helvetica,sans-Serif" font-weight="bold" font-size="11.00" fill="#000000">onboarding_content_images</text>
<text text-anchor="start" x="430.5437" y="-198.3" font-family="Helvetica,sans-Serif" font-size="11.00" fill="#000000">[table]</text>
<polygon fill="none" stroke="#000000" points="280.5,-168.2 280.5,-190.2 465.5,-190.2 465.5,-168.2 280.5,-168.2"/>
<image xlink:href="../../images/primaryKeys.png" width="11px" height="12px" preserveAspectRatio="xMinYMin meet" x="285.5" y="-185.2"/>
<text text-anchor="start" x="300.5" y="-175.3" font-family="Helvetica,sans-Serif" font-size="11.00" fill="#000000">id</text>
<polygon fill="#ffffff" stroke="transparent" points="280.5,-146.2 280.5,-168.2 465.5,-168.2 465.5,-146.2 280.5,-146.2"/>
<polygon fill="none" stroke="#000000" points="280.5,-146.2 280.5,-168.2 465.5,-168.2 465.5,-146.2 280.5,-146.2"/>
<image xlink:href="../../images/foreignKeys.png" width="11px" height="12px" preserveAspectRatio="xMinYMin meet" x="285.5" y="-163.2"/>
<text text-anchor="start" x="300.5" y="-153.3" font-family="Helvetica,sans-Serif" font-size="11.00" fill="#000000">onboarding_content_id</text>
<polygon fill="none" stroke="#000000" points="280.5,-127.2 280.5,-146.2 465.5,-146.2 465.5,-127.2 280.5,-127.2"/>
<text text-anchor="start" x="283.5" y="-133.3" font-family="Helvetica,sans-Serif" font-size="11.00" fill="#000000">...</text>
<polygon fill="#ffffff" stroke="transparent" points="280.5,-108.2 280.5,-127.2 358.5,-127.2 358.5,-108.2 280.5,-108.2"/>
<polygon fill="none" stroke="#000000" points="280.5,-108.2 280.5,-127.2 358.5,-127.2 358.5,-108.2 280.5,-108.2"/>
<text text-anchor="start" x="283.5" y="-114.3" font-family="Helvetica,sans-Serif" font-size="11.00" fill="#000000">&lt; 1</text>
<polygon fill="#ffffff" stroke="transparent" points="358.5,-108.2 358.5,-127.2 424.5,-127.2 424.5,-108.2 358.5,-108.2"/>
<polygon fill="none" stroke="#000000" points="358.5,-108.2 358.5,-127.2 424.5,-127.2 424.5,-108.2 358.5,-108.2"/>
<text text-anchor="start" x="389.1105" y="-114.3" font-family="Helvetica,sans-Serif" font-size="11.00" fill="#000000">0 rows</text>
<polygon fill="#ffffff" stroke="transparent" points="424.5,-108.2 424.5,-127.2 465.5,-127.2 465.5,-108.2 424.5,-108.2"/>
<polygon fill="none" stroke="#000000" points="424.5,-108.2 424.5,-127.2 465.5,-127.2 465.5,-108.2 424.5,-108.2"/>
<text text-anchor="start" x="456.3862" y="-114.3" font-family="Helvetica,sans-Serif" font-size="11.00" fill="#000000"> &#160;</text>
</a>
</g>
</g>
<!-- onboarding_content -->
<g id="node2" class="node">
<title>onboarding_content</title>
<g id="a_node2"><a xlink:href="../../tables/onboarding_content.html" xlink:title="onboarding_content" target="_top">
<polygon fill="#ffffff" stroke="transparent" points="8,-38.2 8,-216.2 231,-216.2 231,-38.2 8,-38.2"/>
<polygon fill="#f5f5f5" stroke="transparent" points="10.5,-191.2 10.5,-214.2 229.5,-214.2 229.5,-191.2 10.5,-191.2"/>
<polygon fill="none" stroke="#000000" points="10.5,-191.2 10.5,-214.2 229.5,-214.2 229.5,-191.2 10.5,-191.2"/>
<text text-anchor="start" x="15.5" y="-200.3" font-family="Helvetica,sans-Serif" font-weight="bold" font-size="11.00" fill="#000000">onboarding_content</text>
<text text-anchor="start" x="194.5437" y="-199.3" font-family="Helvetica,sans-Serif" font-size="11.00" fill="#000000">[table]</text>
<polygon fill="none" stroke="#000000" points="10.5,-169.2 10.5,-191.2 146.5,-191.2 146.5,-169.2 10.5,-169.2"/>
<image xlink:href="../../images/primaryKeys.png" width="11px" height="12px" preserveAspectRatio="xMinYMin meet" x="15.5" y="-186.2"/>
<text text-anchor="start" x="30.5" y="-176.3" font-family="Helvetica,sans-Serif" font-size="11.00" fill="#000000">id</text>
<polygon fill="none" stroke="#000000" points="146.5,-169.2 146.5,-191.2 229.5,-191.2 229.5,-169.2 146.5,-169.2"/>
<text text-anchor="start" x="149.1783" y="-176.9" font-family="Helvetica,sans-Serif" font-size="11.00" fill="#000000">int unsigned[10]</text>
<polygon fill="#ffffff" stroke="transparent" points="10.5,-147.2 10.5,-169.2 146.5,-169.2 146.5,-147.2 10.5,-147.2"/>
<polygon fill="none" stroke="#000000" points="10.5,-147.2 10.5,-169.2 146.5,-169.2 146.5,-147.2 10.5,-147.2"/>
<text text-anchor="start" x="30.5" y="-154.3" font-family="Helvetica,sans-Serif" font-size="11.00" fill="#000000">uid</text>
<polygon fill="none" stroke="#000000" points="146.5,-147.2 146.5,-169.2 229.5,-169.2 229.5,-147.2 146.5,-147.2"/>
<text text-anchor="start" x="149.5" y="-154.9" font-family="Helvetica,sans-Serif" font-size="11.00" fill="#000000">varchar[100]</text>
<polygon fill="none" stroke="#000000" points="10.5,-125.2 10.5,-147.2 146.5,-147.2 146.5,-125.2 10.5,-125.2"/>
<text text-anchor="start" x="30.5" y="-132.3" font-family="Helvetica,sans-Serif" font-size="11.00" fill="#000000">title</text>
<polygon fill="none" stroke="#000000" points="146.5,-125.2 146.5,-147.2 229.5,-147.2 229.5,-125.2 146.5,-125.2"/>
<text text-anchor="start" x="149.5" y="-132.9" font-family="Helvetica,sans-Serif" font-size="11.00" fill="#000000">varchar[100]</text>
<polygon fill="none" stroke="#000000" points="10.5,-103.2 10.5,-125.2 146.5,-125.2 146.5,-103.2 10.5,-103.2"/>
<text text-anchor="start" x="30.5" y="-110.3" font-family="Helvetica,sans-Serif" font-size="11.00" fill="#000000">content</text>
<polygon fill="none" stroke="#000000" points="146.5,-103.2 146.5,-125.2 229.5,-125.2 229.5,-103.2 146.5,-103.2"/>
<text text-anchor="start" x="149.5" y="-110.9" font-family="Helvetica,sans-Serif" font-size="11.00" fill="#000000">text[65535]</text>
<polygon fill="none" stroke="#000000" points="10.5,-81.2 10.5,-103.2 146.5,-103.2 146.5,-81.2 10.5,-81.2"/>
<text text-anchor="start" x="30.5" y="-88.3" font-family="Helvetica,sans-Serif" font-size="11.00" fill="#000000">side_panel</text>
<polygon fill="none" stroke="#000000" points="146.5,-81.2 146.5,-103.2 229.5,-103.2 229.5,-81.2 146.5,-81.2"/>
<text text-anchor="start" x="149.5" y="-88.9" font-family="Helvetica,sans-Serif" font-size="11.00" fill="#000000">bit[1]</text>
<polygon fill="none" stroke="#000000" points="10.5,-59.2 10.5,-81.2 146.5,-81.2 146.5,-59.2 10.5,-59.2"/>
<text text-anchor="start" x="30.5" y="-66.3" font-family="Helvetica,sans-Serif" font-size="11.00" fill="#000000">is_whats_new</text>
<polygon fill="none" stroke="#000000" points="146.5,-59.2 146.5,-81.2 229.5,-81.2 229.5,-59.2 146.5,-59.2"/>
<text text-anchor="start" x="149.5" y="-66.9" font-family="Helvetica,sans-Serif" font-size="11.00" fill="#000000">bit[1]</text>
<polygon fill="#ffffff" stroke="transparent" points="10.5,-40.2 10.5,-59.2 69.5,-59.2 69.5,-40.2 10.5,-40.2"/>
<polygon fill="none" stroke="#000000" points="10.5,-40.2 10.5,-59.2 69.5,-59.2 69.5,-40.2 10.5,-40.2"/>
<text text-anchor="start" x="13.5" y="-46.3" font-family="Helvetica,sans-Serif" font-size="11.00" fill="#000000">&lt; 0</text>
<polygon fill="#ffffff" stroke="transparent" points="69.5,-40.2 69.5,-59.2 146.5,-59.2 146.5,-40.2 69.5,-40.2"/>
<polygon fill="none" stroke="#000000" points="69.5,-40.2 69.5,-59.2 146.5,-59.2 146.5,-40.2 69.5,-40.2"/>
<text text-anchor="start" x="111.1105" y="-46.3" font-family="Helvetica,sans-Serif" font-size="11.00" fill="#000000">0 rows</text>
<polygon fill="#ffffff" stroke="transparent" points="146.5,-40.2 146.5,-59.2 229.5,-59.2 229.5,-40.2 146.5,-40.2"/>
<polygon fill="none" stroke="#000000" points="146.5,-40.2 146.5,-59.2 229.5,-59.2 229.5,-40.2 146.5,-40.2"/>
<text text-anchor="start" x="210.9053" y="-46.3" font-family="Helvetica,sans-Serif" font-size="11.00" fill="#000000">2 &gt;</text>
<polygon fill="none" stroke="#000000" stroke-width="2" points="9,-39.2 9,-215.2 230,-215.2 230,-39.2 9,-39.2"/>
</a>
</g>
</g>
<!-- onboarding_content_images&#45;&gt;onboarding_content -->
<g id="edge1" class="edge">
<title>onboarding_content_images:w&#45;&gt;onboarding_content:e</title>
<path fill="none" stroke="#000000" d="M266.2976,-160.3981C253.7436,-166.7178 248.5373,-180.2 229.5,-180.2"/>
<polygon fill="#000000" stroke="#000000" points="272.6954,-158.9574 281.2909,-160.7121 276.5977,-158.0787 280.5,-157.2 280.5,-157.2 280.5,-157.2 276.5977,-158.0787 279.7091,-153.6879 272.6954,-158.9574 272.6954,-158.9574"/>
<ellipse fill="none" stroke="#000000" cx="269.5736" cy="-159.6604" rx="3.2" ry="3.2"/>
</g>
<!-- onboarding_content_viewed -->
<g id="node3" class="node">
<title>onboarding_content_viewed</title>
<g id="a_node3"><a xlink:href="../../tables/onboarding_content_viewed.html" xlink:title="onboarding_content_viewed" target="_top">
<polygon fill="#ffffff" stroke="transparent" points="281,-235.2 281,-321.2 464,-321.2 464,-235.2 281,-235.2"/>
<polygon fill="#f5f5f5" stroke="transparent" points="281.5,-298.2 281.5,-321.2 464.5,-321.2 464.5,-298.2 281.5,-298.2"/>
<polygon fill="none" stroke="#000000" points="281.5,-298.2 281.5,-321.2 464.5,-321.2 464.5,-298.2 281.5,-298.2"/>
<text text-anchor="start" x="286.5" y="-307.3" font-family="Helvetica,sans-Serif" font-weight="bold" font-size="11.00" fill="#000000">onboarding_content_viewed</text>
<text text-anchor="start" x="429.5437" y="-306.3" font-family="Helvetica,sans-Serif" font-size="11.00" fill="#000000">[table]</text>
<polygon fill="none" stroke="#000000" points="281.5,-276.2 281.5,-298.2 464.5,-298.2 464.5,-276.2 281.5,-276.2"/>
<image xlink:href="../../images/primaryKeys.png" width="11px" height="12px" preserveAspectRatio="xMinYMin meet" x="286.5" y="-293.2"/>
<text text-anchor="start" x="301.5" y="-283.3" font-family="Helvetica,sans-Serif" font-size="11.00" fill="#000000">user_uid</text>
<polygon fill="none" stroke="#000000" points="281.5,-254.2 281.5,-276.2 464.5,-276.2 464.5,-254.2 281.5,-254.2"/>
<image xlink:href="../../images/primaryKeys.png" width="11px" height="12px" preserveAspectRatio="xMinYMin meet" x="286.5" y="-271.2"/>
<text text-anchor="start" x="301.5" y="-261.3" font-family="Helvetica,sans-Serif" font-size="11.00" fill="#000000">onboarding_content_id</text>
<polygon fill="#ffffff" stroke="transparent" points="281.5,-235.2 281.5,-254.2 358.5,-254.2 358.5,-235.2 281.5,-235.2"/>
<polygon fill="none" stroke="#000000" points="281.5,-235.2 281.5,-254.2 358.5,-254.2 358.5,-235.2 281.5,-235.2"/>
<text text-anchor="start" x="284.5" y="-241.3" font-family="Helvetica,sans-Serif" font-size="11.00" fill="#000000">&lt; 2</text>
<polygon fill="#ffffff" stroke="transparent" points="358.5,-235.2 358.5,-254.2 424.5,-254.2 424.5,-235.2 358.5,-235.2"/>
<polygon fill="none" stroke="#000000" points="358.5,-235.2 358.5,-254.2 424.5,-254.2 424.5,-235.2 358.5,-235.2"/>
<text text-anchor="start" x="389.1105" y="-241.3" font-family="Helvetica,sans-Serif" font-size="11.00" fill="#000000">0 rows</text>
<polygon fill="#ffffff" stroke="transparent" points="424.5,-235.2 424.5,-254.2 464.5,-254.2 464.5,-235.2 424.5,-235.2"/>
<polygon fill="none" stroke="#000000" points="424.5,-235.2 424.5,-254.2 464.5,-254.2 464.5,-235.2 424.5,-235.2"/>
<text text-anchor="start" x="455.3862" y="-241.3" font-family="Helvetica,sans-Serif" font-size="11.00" fill="#000000"> &#160;</text>
</a>
</g>
</g>
<!-- onboarding_content_viewed&#45;&gt;onboarding_content -->
<g id="edge2" class="edge">
<title>onboarding_content_viewed:w&#45;&gt;onboarding_content:e</title>
<path fill="none" stroke="#000000" d="M267.4566,-260.868C245.7026,-243.5466 267.7316,-180.2 229.5,-180.2"/>
<polygon fill="#000000" stroke="#000000" points="273.8554,-262.8418 280.4388,-268.64 277.6777,-264.0209 281.5,-265.2 281.5,-265.2 281.5,-265.2 277.6777,-264.0209 282.5612,-261.76 273.8554,-262.8418 273.8554,-262.8418"/>
<ellipse fill="none" stroke="#000000" cx="270.7976" cy="-261.8985" rx="3.2" ry="3.2"/>
</g>
<!-- users -->
<g id="node4" class="node">
<title>users</title>
<g id="a_node4"><a xlink:href="../../tables/users.html" xlink:title="users" target="_top">
<polygon fill="#ffffff" stroke="transparent" points="76.5,-259.7 76.5,-320.7 162.5,-320.7 162.5,-259.7 76.5,-259.7"/>
<polygon fill="#f5f5f5" stroke="transparent" points="76.5,-297.2 76.5,-320.2 162.5,-320.2 162.5,-297.2 76.5,-297.2"/>
<polygon fill="none" stroke="#000000" points="76.5,-297.2 76.5,-320.2 162.5,-320.2 162.5,-297.2 76.5,-297.2"/>
<text text-anchor="start" x="81.5" y="-306.3" font-family="Helvetica,sans-Serif" font-weight="bold" font-size="11.00" fill="#000000">users</text>
<text text-anchor="start" x="127.5437" y="-305.3" font-family="Helvetica,sans-Serif" font-size="11.00" fill="#000000">[table]</text>
<polygon fill="none" stroke="#000000" points="76.5,-278.2 76.5,-297.2 162.5,-297.2 162.5,-278.2 76.5,-278.2"/>
<text text-anchor="start" x="79.5" y="-284.3" font-family="Helvetica,sans-Serif" font-size="11.00" fill="#000000">...</text>
<polygon fill="#ffffff" stroke="transparent" points="76.5,-259.2 76.5,-278.2 97.5,-278.2 97.5,-259.2 76.5,-259.2"/>
<polygon fill="none" stroke="#000000" points="76.5,-259.2 76.5,-278.2 97.5,-278.2 97.5,-259.2 76.5,-259.2"/>
<text text-anchor="start" x="79.2027" y="-265.3" font-family="Helvetica,sans-Serif" font-size="11.00" fill="#000000">&lt; 1</text>
<polygon fill="#ffffff" stroke="transparent" points="97.5,-259.2 97.5,-278.2 135.5,-278.2 135.5,-259.2 97.5,-259.2"/>
<polygon fill="none" stroke="#000000" points="97.5,-259.2 97.5,-278.2 135.5,-278.2 135.5,-259.2 97.5,-259.2"/>
<text text-anchor="start" x="100.3053" y="-265.3" font-family="Helvetica,sans-Serif" font-size="11.00" fill="#000000">8 rows</text>
<polygon fill="#ffffff" stroke="transparent" points="135.5,-259.2 135.5,-278.2 162.5,-278.2 162.5,-259.2 135.5,-259.2"/>
<polygon fill="none" stroke="#000000" points="135.5,-259.2 135.5,-278.2 162.5,-278.2 162.5,-259.2 135.5,-259.2"/>
<text text-anchor="start" x="138.1452" y="-265.3" font-family="Helvetica,sans-Serif" font-size="11.00" fill="#000000">37 &gt;</text>
</a>
</g>
</g>
<!-- onboarding_content_viewed&#45;&gt;users -->
<g id="edge3" class="edge">
<title>onboarding_content_viewed:w&#45;&gt;users:e</title>
<path fill="none" stroke="#000000" d="M267.0662,-287.2C225.6504,-287.2 210.224,-287.2 162.5,-287.2"/>
<polygon fill="#000000" stroke="#000000" points="273.5,-287.2001 281.5,-290.8 277.5,-287.2 281.5,-287.2 281.5,-287.2 281.5,-287.2 277.5,-287.2 281.5,-283.6 273.5,-287.2001 273.5,-287.2001"/>
<ellipse fill="none" stroke="#000000" cx="270.3" cy="-287.2001" rx="3.2" ry="3.2"/>
</g>
</g>
</svg>
