<?xml version="1.0" encoding="UTF-8" standalone="no"?>
<!DOCTYPE svg PUBLIC "-//W3C//DTD SVG 1.1//EN"
 "http://www.w3.org/Graphics/SVG/1.1/DTD/svg11.dtd">
<!-- Generated by graphviz version 2.40.1 (20161225.0304)
 -->
<!-- Title: oneDegreeRelationshipsDiagram Pages: 1 -->
<svg width="485pt" height="179pt"
 viewBox="0.00 0.00 485.00 178.70" xmlns="http://www.w3.org/2000/svg" xmlns:xlink="http://www.w3.org/1999/xlink">
<g id="graph0" class="graph" transform="scale(1 1) rotate(0) translate(4 174.7)">
<title>oneDegreeRelationshipsDiagram</title>
<polygon fill="#ffffff" stroke="transparent" points="-4,4 -4,-174.7 481,-174.7 481,4 -4,4"/>
<text text-anchor="middle" x="72.4936" y="-7.3" font-family="Helvetica,sans-Serif" font-size="11.00" fill="#000000">Generated by SchemaSpy</text>
<!-- onboarding_content_images -->
<g id="node1" class="node">
<title>onboarding_content_images</title>
<g id="a_node1"><a xlink:href="../../tables/onboarding_content_images.html" xlink:title="onboarding_content_images" target="_top">
<polygon fill="#ffffff" stroke="transparent" points="197,-54.7 197,-166.7 469,-166.7 469,-54.7 197,-54.7"/>
<polygon fill="#f5f5f5" stroke="transparent" points="199,-141.7 199,-164.7 467,-164.7 467,-141.7 199,-141.7"/>
<polygon fill="none" stroke="#000000" points="199,-141.7 199,-164.7 467,-164.7 467,-141.7 199,-141.7"/>
<text text-anchor="start" x="204" y="-150.8" font-family="Helvetica,sans-Serif" font-weight="bold" font-size="11.00" fill="#000000">onboarding_content_images</text>
<text text-anchor="start" x="432.0437" y="-149.8" font-family="Helvetica,sans-Serif" font-size="11.00" fill="#000000">[table]</text>
<polygon fill="none" stroke="#000000" points="199,-119.7 199,-141.7 384,-141.7 384,-119.7 199,-119.7"/>
<image xlink:href="../../images/primaryKeys.png" width="11px" height="12px" preserveAspectRatio="xMinYMin meet" x="204" y="-136.7"/>
<text text-anchor="start" x="219" y="-126.8" font-family="Helvetica,sans-Serif" font-size="11.00" fill="#000000">id</text>
<polygon fill="none" stroke="#000000" points="384,-119.7 384,-141.7 467,-141.7 467,-119.7 384,-119.7"/>
<text text-anchor="start" x="386.6783" y="-127.4" font-family="Helvetica,sans-Serif" font-size="11.00" fill="#000000">int unsigned[10]</text>
<polygon fill="#ffffff" stroke="transparent" points="199,-97.7 199,-119.7 384,-119.7 384,-97.7 199,-97.7"/>
<polygon fill="none" stroke="#000000" points="199,-97.7 199,-119.7 384,-119.7 384,-97.7 199,-97.7"/>
<image xlink:href="../../images/foreignKeys.png" width="11px" height="12px" preserveAspectRatio="xMinYMin meet" x="204" y="-114.7"/>
<text text-anchor="start" x="219" y="-104.8" font-family="Helvetica,sans-Serif" font-size="11.00" fill="#000000">onboarding_content_id</text>
<polygon fill="none" stroke="#000000" points="384,-97.7 384,-119.7 467,-119.7 467,-97.7 384,-97.7"/>
<text text-anchor="start" x="386.6783" y="-105.4" font-family="Helvetica,sans-Serif" font-size="11.00" fill="#000000">int unsigned[10]</text>
<polygon fill="none" stroke="#000000" points="199,-75.7 199,-97.7 384,-97.7 384,-75.7 199,-75.7"/>
<text text-anchor="start" x="219" y="-82.8" font-family="Helvetica,sans-Serif" font-size="11.00" fill="#000000">image_name</text>
<polygon fill="none" stroke="#000000" points="384,-75.7 384,-97.7 467,-97.7 467,-75.7 384,-75.7"/>
<text text-anchor="start" x="387" y="-83.4" font-family="Helvetica,sans-Serif" font-size="11.00" fill="#000000">varchar[255]</text>
<polygon fill="#ffffff" stroke="transparent" points="199,-56.7 199,-75.7 283,-75.7 283,-56.7 199,-56.7"/>
<polygon fill="none" stroke="#000000" points="199,-56.7 199,-75.7 283,-75.7 283,-56.7 199,-56.7"/>
<text text-anchor="start" x="202" y="-62.8" font-family="Helvetica,sans-Serif" font-size="11.00" fill="#000000">&lt; 1</text>
<polygon fill="#ffffff" stroke="transparent" points="283,-56.7 283,-75.7 384,-75.7 384,-56.7 283,-56.7"/>
<polygon fill="none" stroke="#000000" points="283,-56.7 283,-75.7 384,-75.7 384,-56.7 283,-56.7"/>
<text text-anchor="start" x="348.6105" y="-62.8" font-family="Helvetica,sans-Serif" font-size="11.00" fill="#000000">0 rows</text>
<polygon fill="#ffffff" stroke="transparent" points="384,-56.7 384,-75.7 467,-75.7 467,-56.7 384,-56.7"/>
<polygon fill="none" stroke="#000000" points="384,-56.7 384,-75.7 467,-75.7 467,-56.7 384,-56.7"/>
<text text-anchor="start" x="448.4053" y="-62.8" font-family="Helvetica,sans-Serif" font-size="11.00" fill="#000000">0 &gt;</text>
<polygon fill="none" stroke="#000000" stroke-width="2" points="198,-55.7 198,-165.7 468,-165.7 468,-55.7 198,-55.7"/>
</a>
</g>
</g>
<!-- onboarding_content -->
<g id="node2" class="node">
<title>onboarding_content</title>
<g id="a_node2"><a xlink:href="../../tables/onboarding_content.html" xlink:title="onboarding_content" target="_top">
<polygon fill="#ffffff" stroke="transparent" points="8,-38.2 8,-143.2 148,-143.2 148,-38.2 8,-38.2"/>
<polygon fill="#f5f5f5" stroke="transparent" points="8,-119.7 8,-142.7 148,-142.7 148,-119.7 8,-119.7"/>
<polygon fill="none" stroke="#000000" points="8,-119.7 8,-142.7 148,-142.7 148,-119.7 8,-119.7"/>
<text text-anchor="start" x="12.8948" y="-128.8" font-family="Helvetica,sans-Serif" font-weight="bold" font-size="11.00" fill="#000000">onboarding_content</text>
<text text-anchor="start" x="113.5219" y="-127.8" font-family="Helvetica,sans-Serif" font-size="11.00" fill="#000000">[table]</text>
<polygon fill="none" stroke="#000000" points="8,-97.7 8,-119.7 148,-119.7 148,-97.7 8,-97.7"/>
<image xlink:href="../../images/primaryKeys.png" width="11px" height="12px" preserveAspectRatio="xMinYMin meet" x="13" y="-114.7"/>
<text text-anchor="start" x="30" y="-104.8" font-family="Helvetica,sans-Serif" font-size="11.00" fill="#000000">id</text>
<polygon fill="#ffffff" stroke="transparent" points="8,-75.7 8,-97.7 148,-97.7 148,-75.7 8,-75.7"/>
<polygon fill="none" stroke="#000000" points="8,-75.7 8,-97.7 148,-97.7 148,-75.7 8,-75.7"/>
<text text-anchor="start" x="30" y="-82.8" font-family="Helvetica,sans-Serif" font-size="11.00" fill="#000000">uid</text>
<polygon fill="none" stroke="#000000" points="8,-56.7 8,-75.7 148,-75.7 148,-56.7 8,-56.7"/>
<text text-anchor="start" x="11" y="-62.8" font-family="Helvetica,sans-Serif" font-size="11.00" fill="#000000">...</text>
<polygon fill="#ffffff" stroke="transparent" points="8,-37.7 8,-56.7 54,-56.7 54,-37.7 8,-37.7"/>
<polygon fill="none" stroke="#000000" points="8,-37.7 8,-56.7 54,-56.7 54,-37.7 8,-37.7"/>
<text text-anchor="start" x="11" y="-43.8" font-family="Helvetica,sans-Serif" font-size="11.00" fill="#000000"> &#160;</text>
<polygon fill="#ffffff" stroke="transparent" points="54,-37.7 54,-56.7 109,-56.7 109,-37.7 54,-37.7"/>
<polygon fill="none" stroke="#000000" points="54,-37.7 54,-56.7 109,-56.7 109,-37.7 54,-37.7"/>
<text text-anchor="start" x="73.6105" y="-43.8" font-family="Helvetica,sans-Serif" font-size="11.00" fill="#000000">0 rows</text>
<polygon fill="#ffffff" stroke="transparent" points="109,-37.7 109,-56.7 148,-56.7 148,-37.7 109,-37.7"/>
<polygon fill="none" stroke="#000000" points="109,-37.7 109,-56.7 148,-56.7 148,-37.7 109,-37.7"/>
<text text-anchor="start" x="129.4053" y="-43.8" font-family="Helvetica,sans-Serif" font-size="11.00" fill="#000000">2 &gt;</text>
</a>
</g>
</g>
<!-- onboarding_content_images&#45;&gt;onboarding_content -->
<g id="edge1" class="edge">
<title>onboarding_content_images:w&#45;&gt;onboarding_content:e</title>
<path fill="none" stroke="#000000" d="M184.276,-108.7C172.2815,-108.7 164.8229,-108.7 148,-108.7"/>
<polygon fill="#000000" stroke="#000000" points="191,-108.7001 199,-112.3 195,-108.7 199,-108.7 199,-108.7 199,-108.7 195,-108.7 199,-105.1 191,-108.7001 191,-108.7001"/>
<ellipse fill="none" stroke="#000000" cx="187.8" cy="-108.7001" rx="3.2" ry="3.2"/>
</g>
</g>
</svg>
