digraph "oneDegreeRelationshipsDiagram" {
  graph [
    rankdir="RL"
    bgcolor="#ffffff"
    label="\nGenerated by SchemaSpy"
    labeljust="l"
    nodesep="0.18"
    ranksep="0.46"
    fontname="Helvetica"
    fontsize="11"
    ration="compress"
  ];
  node [
    fontname="Helvetica"
    fontsize="11"
    shape="plaintext"
  ];
  edge [
    arrowsize="0.8"
  ];
  "org_user_access_settings":"organizations_id":w -> "organizations":"id":e [arrowhead=none dir=back arrowtail=teeodot];
  "org_user_access_settings" [
   label=<
    <TABLE BORDER="2" CELLBORDER="1" CELLSPACING="0" BGCOLOR="#ffffff">
      <TR><TD COLSPAN="4"  BGCOLOR="#f5f5f5"><TABLE BORDER="0" CELLSPACING="0"><TR><TD ALIGN="LEFT"><B>org_user_access_settings</B></TD><TD ALIGN="RIGHT">[table]</TD></TR></TABLE></TD></TR>
      <TR><TD PORT="organizations_id" COLSPAN="2" ALIGN="LEFT"><TABLE BORDER="0" CELLSPACING="0" ALIGN="LEFT"><TR ALIGN="LEFT"><TD ALIGN="LEFT" FIXEDSIZE="TRUE" WIDTH="15" HEIGHT="16"><IMG SRC="../../images/primaryKeys.png"/></TD><TD ALIGN="LEFT" FIXEDSIZE="TRUE" WIDTH="150" HEIGHT="16">organizations_id</TD></TR></TABLE></TD><TD PORT="organizations_id.type" ALIGN="LEFT">int unsigned[10]</TD></TR>
      <TR><TD PORT="user_access" COLSPAN="2" ALIGN="LEFT"><TABLE BORDER="0" CELLSPACING="0" ALIGN="LEFT"><TR ALIGN="LEFT"><TD ALIGN="LEFT" FIXEDSIZE="TRUE" WIDTH="15" HEIGHT="16"></TD><TD ALIGN="LEFT" FIXEDSIZE="TRUE" WIDTH="150" HEIGHT="16">user_access</TD></TR></TABLE></TD><TD PORT="user_access.type" ALIGN="LEFT">bit[1]</TD></TR>
      <TR><TD PORT="api_only" COLSPAN="2" ALIGN="LEFT"><TABLE BORDER="0" CELLSPACING="0" ALIGN="LEFT"><TR ALIGN="LEFT"><TD ALIGN="LEFT" FIXEDSIZE="TRUE" WIDTH="15" HEIGHT="16"></TD><TD ALIGN="LEFT" FIXEDSIZE="TRUE" WIDTH="150" HEIGHT="16">api_only</TD></TR></TABLE></TD><TD PORT="api_only.type" ALIGN="LEFT">bit[1]</TD></TR>
      <TR><TD PORT="enable_protect" COLSPAN="2" ALIGN="LEFT"><TABLE BORDER="0" CELLSPACING="0" ALIGN="LEFT"><TR ALIGN="LEFT"><TD ALIGN="LEFT" FIXEDSIZE="TRUE" WIDTH="15" HEIGHT="16"></TD><TD ALIGN="LEFT" FIXEDSIZE="TRUE" WIDTH="150" HEIGHT="16">enable_protect</TD></TR></TABLE></TD><TD PORT="enable_protect.type" ALIGN="LEFT">bit[1]</TD></TR>
      <TR><TD ALIGN="LEFT" BGCOLOR="#ffffff">&lt; 1</TD><TD ALIGN="RIGHT" BGCOLOR="#ffffff">3 rows</TD><TD ALIGN="RIGHT" BGCOLOR="#ffffff">0 &gt;</TD></TR>
    </TABLE>>
    URL="../../tables/org_user_access_settings.html"
    target="_top"
    tooltip="org_user_access_settings"
  ];
  "organizations" [
   label=<
    <TABLE BORDER="0" CELLBORDER="1" CELLSPACING="0" BGCOLOR="#ffffff">
      <TR><TD COLSPAN="3"  BGCOLOR="#f5f5f5"><TABLE BORDER="0" CELLSPACING="0"><TR><TD ALIGN="LEFT"><B>organizations</B></TD><TD ALIGN="RIGHT">[table]</TD></TR></TABLE></TD></TR>
      <TR><TD PORT="name" COLSPAN="3" BGCOLOR="#ffffff" ALIGN="LEFT"><TABLE BORDER="0" CELLSPACING="0" ALIGN="LEFT"><TR ALIGN="LEFT"><TD ALIGN="LEFT" FIXEDSIZE="TRUE" WIDTH="15" HEIGHT="16"></TD><TD ALIGN="LEFT" FIXEDSIZE="TRUE" WIDTH="237" HEIGHT="16">name</TD></TR></TABLE></TD></TR>
      <TR><TD PORT="configKey_fk" COLSPAN="3" BGCOLOR="#ffffff" ALIGN="LEFT"><TABLE BORDER="0" CELLSPACING="0" ALIGN="LEFT"><TR ALIGN="LEFT"><TD ALIGN="LEFT" FIXEDSIZE="TRUE" WIDTH="15" HEIGHT="16"><IMG SRC="../../images/foreignKeys.png"/></TD><TD ALIGN="LEFT" FIXEDSIZE="TRUE" WIDTH="237" HEIGHT="16">configKey_fk</TD></TR></TABLE></TD></TR>
      <TR><TD PORT="passwordPolicy_fk" COLSPAN="3" BGCOLOR="#ffffff" ALIGN="LEFT"><TABLE BORDER="0" CELLSPACING="0" ALIGN="LEFT"><TR ALIGN="LEFT"><TD ALIGN="LEFT" FIXEDSIZE="TRUE" WIDTH="15" HEIGHT="16"><IMG SRC="../../images/foreignKeys.png"/></TD><TD ALIGN="LEFT" FIXEDSIZE="TRUE" WIDTH="237" HEIGHT="16">passwordPolicy_fk</TD></TR></TABLE></TD></TR>
      <TR><TD PORT="report_settings_fk" COLSPAN="3" BGCOLOR="#ffffff" ALIGN="LEFT"><TABLE BORDER="0" CELLSPACING="0" ALIGN="LEFT"><TR ALIGN="LEFT"><TD ALIGN="LEFT" FIXEDSIZE="TRUE" WIDTH="15" HEIGHT="16"><IMG SRC="../../images/foreignKeys.png"/></TD><TD ALIGN="LEFT" FIXEDSIZE="TRUE" WIDTH="237" HEIGHT="16">report_settings_fk</TD></TR></TABLE></TD></TR>
      <TR><TD PORT="id" COLSPAN="3" ALIGN="LEFT"><TABLE BORDER="0" CELLSPACING="0" ALIGN="LEFT"><TR ALIGN="LEFT"><TD ALIGN="LEFT" FIXEDSIZE="TRUE" WIDTH="15" HEIGHT="16"><IMG SRC="../../images/primaryKeys.png"/></TD><TD ALIGN="LEFT" FIXEDSIZE="TRUE" WIDTH="237" HEIGHT="16">id</TD></TR></TABLE></TD></TR>
      <TR><TD PORT="uuid" COLSPAN="3" BGCOLOR="#ffffff" ALIGN="LEFT"><TABLE BORDER="0" CELLSPACING="0" ALIGN="LEFT"><TR ALIGN="LEFT"><TD ALIGN="LEFT" FIXEDSIZE="TRUE" WIDTH="15" HEIGHT="16"></TD><TD ALIGN="LEFT" FIXEDSIZE="TRUE" WIDTH="237" HEIGHT="16">uuid</TD></TR></TABLE></TD></TR>
      <TR><TD PORT="saml_idp_config_fk" COLSPAN="3" BGCOLOR="#ffffff" ALIGN="LEFT"><TABLE BORDER="0" CELLSPACING="0" ALIGN="LEFT"><TR ALIGN="LEFT"><TD ALIGN="LEFT" FIXEDSIZE="TRUE" WIDTH="15" HEIGHT="16"><IMG SRC="../../images/foreignKeys.png"/></TD><TD ALIGN="LEFT" FIXEDSIZE="TRUE" WIDTH="237" HEIGHT="16">saml_idp_config_fk</TD></TR></TABLE></TD></TR>
      <TR><TD PORT="elipses" COLSPAN="3" ALIGN="LEFT">...</TD></TR>
      <TR><TD ALIGN="LEFT" BGCOLOR="#ffffff">&lt; 4</TD><TD ALIGN="RIGHT" BGCOLOR="#ffffff">3 rows</TD><TD ALIGN="RIGHT" BGCOLOR="#ffffff">81 &gt;</TD></TR>
    </TABLE>>
    URL="../../tables/organizations.html"
    target="_top"
    tooltip="organizations"
  ];
}
