<?xml version="1.0" encoding="UTF-8" standalone="no"?>
<!DOCTYPE svg PUBLIC "-//W3C//DTD SVG 1.1//EN"
 "http://www.w3.org/Graphics/SVG/1.1/DTD/svg11.dtd">
<!-- Generated by graphviz version 2.40.1 (20161225.0304)
 -->
<!-- Title: oneDegreeRelationshipsDiagram Pages: 1 -->
<svg width="753pt" height="429pt"
 viewBox="0.00 0.00 753.00 428.70" xmlns="http://www.w3.org/2000/svg" xmlns:xlink="http://www.w3.org/1999/xlink">
<g id="graph0" class="graph" transform="scale(1 1) rotate(0) translate(4 424.7)">
<title>oneDegreeRelationshipsDiagram</title>
<polygon fill="#ffffff" stroke="transparent" points="-4,4 -4,-424.7 749,-424.7 749,4 -4,4"/>
<text text-anchor="middle" x="72.4936" y="-7.3" font-family="Helvetica,sans-Serif" font-size="11.00" fill="#000000">Generated by SchemaSpy</text>
<!-- org_rule_references -->
<g id="node1" class="node">
<title>org_rule_references</title>
<g id="a_node1"><a xlink:href="../../tables/org_rule_references.html" xlink:title="org_rule_references" target="_top">
<polygon fill="#ffffff" stroke="transparent" points="596,-310.2 596,-415.2 737,-415.2 737,-310.2 596,-310.2"/>
<polygon fill="#f5f5f5" stroke="transparent" points="596.5,-391.7 596.5,-414.7 737.5,-414.7 737.5,-391.7 596.5,-391.7"/>
<polygon fill="none" stroke="#000000" points="596.5,-391.7 596.5,-414.7 737.5,-414.7 737.5,-391.7 596.5,-391.7"/>
<text text-anchor="start" x="601.2954" y="-400.8" font-family="Helvetica,sans-Serif" font-weight="bold" font-size="11.00" fill="#000000">org_rule_references</text>
<text text-anchor="start" x="703.0219" y="-399.8" font-family="Helvetica,sans-Serif" font-size="11.00" fill="#000000">[table]</text>
<polygon fill="none" stroke="#000000" points="596.5,-369.7 596.5,-391.7 737.5,-391.7 737.5,-369.7 596.5,-369.7"/>
<image xlink:href="../../images/primaryKeys.png" width="11px" height="12px" preserveAspectRatio="xMinYMin meet" x="601.5" y="-386.7"/>
<text text-anchor="start" x="616.5" y="-376.8" font-family="Helvetica,sans-Serif" font-size="11.00" fill="#000000">org_rule_id</text>
<polygon fill="none" stroke="#000000" points="596.5,-347.7 596.5,-369.7 737.5,-369.7 737.5,-347.7 596.5,-347.7"/>
<image xlink:href="../../images/primaryKeys.png" width="11px" height="12px" preserveAspectRatio="xMinYMin meet" x="601.5" y="-364.7"/>
<text text-anchor="start" x="616.5" y="-354.8" font-family="Helvetica,sans-Serif" font-size="11.00" fill="#000000">rule_reference_index</text>
<polygon fill="none" stroke="#000000" points="596.5,-328.7 596.5,-347.7 737.5,-347.7 737.5,-328.7 596.5,-328.7"/>
<text text-anchor="start" x="599.5" y="-334.8" font-family="Helvetica,sans-Serif" font-size="11.00" fill="#000000">...</text>
<polygon fill="#ffffff" stroke="transparent" points="596.5,-309.7 596.5,-328.7 652.5,-328.7 652.5,-309.7 596.5,-309.7"/>
<polygon fill="none" stroke="#000000" points="596.5,-309.7 596.5,-328.7 652.5,-328.7 652.5,-309.7 596.5,-309.7"/>
<text text-anchor="start" x="599.5" y="-315.8" font-family="Helvetica,sans-Serif" font-size="11.00" fill="#000000">&lt; 1</text>
<polygon fill="#ffffff" stroke="transparent" points="652.5,-309.7 652.5,-328.7 707.5,-328.7 707.5,-309.7 652.5,-309.7"/>
<polygon fill="none" stroke="#000000" points="652.5,-309.7 652.5,-328.7 707.5,-328.7 707.5,-309.7 652.5,-309.7"/>
<text text-anchor="start" x="672.1105" y="-315.8" font-family="Helvetica,sans-Serif" font-size="11.00" fill="#000000">0 rows</text>
<polygon fill="#ffffff" stroke="transparent" points="707.5,-309.7 707.5,-328.7 737.5,-328.7 737.5,-309.7 707.5,-309.7"/>
<polygon fill="none" stroke="#000000" points="707.5,-309.7 707.5,-328.7 737.5,-328.7 737.5,-309.7 707.5,-309.7"/>
<text text-anchor="start" x="728.3862" y="-315.8" font-family="Helvetica,sans-Serif" font-size="11.00" fill="#000000"> &#160;</text>
</a>
</g>
</g>
<!-- org_rules -->
<g id="node2" class="node">
<title>org_rules</title>
<g id="a_node2"><a xlink:href="../../tables/org_rules.html" xlink:title="org_rules" target="_top">
<polygon fill="#ffffff" stroke="transparent" points="315,-194.7 315,-416.7 547,-416.7 547,-194.7 315,-194.7"/>
<polygon fill="#f5f5f5" stroke="transparent" points="317,-391.7 317,-414.7 545,-414.7 545,-391.7 317,-391.7"/>
<polygon fill="none" stroke="#000000" points="317,-391.7 317,-414.7 545,-414.7 545,-391.7 317,-391.7"/>
<text text-anchor="start" x="322" y="-400.8" font-family="Helvetica,sans-Serif" font-weight="bold" font-size="11.00" fill="#000000">org_rules</text>
<text text-anchor="start" x="510.0437" y="-399.8" font-family="Helvetica,sans-Serif" font-size="11.00" fill="#000000">[table]</text>
<polygon fill="none" stroke="#000000" points="317,-369.7 317,-391.7 434,-391.7 434,-369.7 317,-369.7"/>
<image xlink:href="../../images/primaryKeys.png" width="11px" height="12px" preserveAspectRatio="xMinYMin meet" x="322" y="-386.7"/>
<text text-anchor="start" x="337" y="-376.8" font-family="Helvetica,sans-Serif" font-size="11.00" fill="#000000">org_rule_id</text>
<polygon fill="none" stroke="#000000" points="434,-369.7 434,-391.7 545,-391.7 545,-369.7 434,-369.7"/>
<text text-anchor="start" x="437" y="-377.4" font-family="Helvetica,sans-Serif" font-size="11.00" fill="#000000">bigint[19]</text>
<polygon fill="none" stroke="#000000" points="317,-347.7 317,-369.7 434,-369.7 434,-347.7 317,-347.7"/>
<text text-anchor="start" x="337" y="-354.8" font-family="Helvetica,sans-Serif" font-size="11.00" fill="#000000">impact</text>
<polygon fill="none" stroke="#000000" points="434,-347.7 434,-369.7 545,-369.7 545,-347.7 434,-347.7"/>
<text text-anchor="start" x="437" y="-355.4" font-family="Helvetica,sans-Serif" font-size="11.00" fill="#000000">varchar[255]</text>
<polygon fill="none" stroke="#000000" points="317,-325.7 317,-347.7 434,-347.7 434,-325.7 317,-325.7"/>
<text text-anchor="start" x="337" y="-332.8" font-family="Helvetica,sans-Serif" font-size="11.00" fill="#000000">likelihood</text>
<polygon fill="none" stroke="#000000" points="434,-325.7 434,-347.7 545,-347.7 545,-325.7 434,-325.7"/>
<text text-anchor="start" x="437" y="-333.4" font-family="Helvetica,sans-Serif" font-size="11.00" fill="#000000">varchar[255]</text>
<polygon fill="none" stroke="#000000" points="317,-303.7 317,-325.7 434,-325.7 434,-303.7 317,-303.7"/>
<text text-anchor="start" x="337" y="-310.8" font-family="Helvetica,sans-Serif" font-size="11.00" fill="#000000">confidenceLevel</text>
<polygon fill="none" stroke="#000000" points="434,-303.7 434,-325.7 545,-325.7 545,-303.7 434,-303.7"/>
<text text-anchor="start" x="437" y="-311.4" font-family="Helvetica,sans-Serif" font-size="11.00" fill="#000000">int[10]</text>
<polygon fill="none" stroke="#000000" points="317,-281.7 317,-303.7 434,-303.7 434,-281.7 317,-281.7"/>
<text text-anchor="start" x="337" y="-288.8" font-family="Helvetica,sans-Serif" font-size="11.00" fill="#000000">recommendation</text>
<polygon fill="none" stroke="#000000" points="434,-281.7 434,-303.7 545,-303.7 545,-281.7 434,-281.7"/>
<text text-anchor="start" x="436.6115" y="-289.4" font-family="Helvetica,sans-Serif" font-size="11.00" fill="#000000">longtext[2147483647]</text>
<polygon fill="none" stroke="#000000" points="317,-259.7 317,-281.7 434,-281.7 434,-259.7 317,-259.7"/>
<text text-anchor="start" x="337" y="-266.8" font-family="Helvetica,sans-Serif" font-size="11.00" fill="#000000">risk</text>
<polygon fill="none" stroke="#000000" points="434,-259.7 434,-281.7 545,-281.7 545,-259.7 434,-259.7"/>
<text text-anchor="start" x="436.6115" y="-267.4" font-family="Helvetica,sans-Serif" font-size="11.00" fill="#000000">longtext[2147483647]</text>
<polygon fill="#ffffff" stroke="transparent" points="317,-237.7 317,-259.7 434,-259.7 434,-237.7 317,-237.7"/>
<polygon fill="none" stroke="#000000" points="317,-237.7 317,-259.7 434,-259.7 434,-237.7 317,-237.7"/>
<image xlink:href="../../images/foreignKeys.png" width="11px" height="12px" preserveAspectRatio="xMinYMin meet" x="322" y="-254.7"/>
<text text-anchor="start" x="337" y="-244.8" font-family="Helvetica,sans-Serif" font-size="11.00" fill="#000000">rule_fk</text>
<polygon fill="none" stroke="#000000" points="434,-237.7 434,-259.7 545,-259.7 545,-237.7 434,-237.7"/>
<text text-anchor="start" x="437" y="-245.4" font-family="Helvetica,sans-Serif" font-size="11.00" fill="#000000">varchar[255]</text>
<polygon fill="#ffffff" stroke="transparent" points="317,-215.7 317,-237.7 434,-237.7 434,-215.7 317,-215.7"/>
<polygon fill="none" stroke="#000000" points="317,-215.7 317,-237.7 434,-237.7 434,-215.7 317,-215.7"/>
<image xlink:href="../../images/foreignKeys.png" width="11px" height="12px" preserveAspectRatio="xMinYMin meet" x="322" y="-232.7"/>
<text text-anchor="start" x="337" y="-222.8" font-family="Helvetica,sans-Serif" font-size="11.00" fill="#000000">organizations_id</text>
<polygon fill="none" stroke="#000000" points="434,-215.7 434,-237.7 545,-237.7 545,-215.7 434,-215.7"/>
<text text-anchor="start" x="437" y="-223.4" font-family="Helvetica,sans-Serif" font-size="11.00" fill="#000000">int unsigned[10]</text>
<polygon fill="#ffffff" stroke="transparent" points="317,-196.7 317,-215.7 367,-215.7 367,-196.7 317,-196.7"/>
<polygon fill="none" stroke="#000000" points="317,-196.7 317,-215.7 367,-215.7 367,-196.7 317,-196.7"/>
<text text-anchor="start" x="320" y="-202.8" font-family="Helvetica,sans-Serif" font-size="11.00" fill="#000000">&lt; 2</text>
<polygon fill="#ffffff" stroke="transparent" points="367,-196.7 367,-215.7 434,-215.7 434,-196.7 367,-196.7"/>
<polygon fill="none" stroke="#000000" points="367,-196.7 367,-215.7 434,-215.7 434,-196.7 367,-196.7"/>
<text text-anchor="start" x="398.6105" y="-202.8" font-family="Helvetica,sans-Serif" font-size="11.00" fill="#000000">0 rows</text>
<polygon fill="#ffffff" stroke="transparent" points="434,-196.7 434,-215.7 545,-215.7 545,-196.7 434,-196.7"/>
<polygon fill="none" stroke="#000000" points="434,-196.7 434,-215.7 545,-215.7 545,-196.7 434,-196.7"/>
<text text-anchor="start" x="526.4053" y="-202.8" font-family="Helvetica,sans-Serif" font-size="11.00" fill="#000000">1 &gt;</text>
<polygon fill="none" stroke="#000000" stroke-width="2" points="316,-195.7 316,-415.7 546,-415.7 546,-195.7 316,-195.7"/>
</a>
</g>
</g>
<!-- org_rule_references&#45;&gt;org_rules -->
<g id="edge1" class="edge">
<title>org_rule_references:w&#45;&gt;org_rules:e</title>
<path fill="none" stroke="#000000" d="M582.0156,-380.7C569.6771,-380.7 562.1667,-380.7 545,-380.7"/>
<polygon fill="#000000" stroke="#000000" points="588.5,-380.7001 596.5,-384.3 592.5,-380.7 596.5,-380.7 596.5,-380.7 596.5,-380.7 592.5,-380.7 596.5,-377.1 588.5,-380.7001 588.5,-380.7001"/>
<ellipse fill="none" stroke="#000000" cx="585.3" cy="-380.7001" rx="3.2" ry="3.2"/>
</g>
<!-- organizations -->
<g id="node3" class="node">
<title>organizations</title>
<g id="a_node3"><a xlink:href="../../tables/organizations.html" xlink:title="organizations" target="_top">
<polygon fill="#ffffff" stroke="transparent" points="8,-38.2 8,-253.2 266,-253.2 266,-38.2 8,-38.2"/>
<polygon fill="#f5f5f5" stroke="transparent" points="8,-229.7 8,-252.7 266,-252.7 266,-229.7 8,-229.7"/>
<polygon fill="none" stroke="#000000" points="8,-229.7 8,-252.7 266,-252.7 266,-229.7 8,-229.7"/>
<text text-anchor="start" x="13" y="-238.8" font-family="Helvetica,sans-Serif" font-weight="bold" font-size="11.00" fill="#000000">organizations</text>
<text text-anchor="start" x="231.0437" y="-237.8" font-family="Helvetica,sans-Serif" font-size="11.00" fill="#000000">[table]</text>
<polygon fill="#ffffff" stroke="transparent" points="8,-207.7 8,-229.7 266,-229.7 266,-207.7 8,-207.7"/>
<polygon fill="none" stroke="#000000" points="8,-207.7 8,-229.7 266,-229.7 266,-207.7 8,-207.7"/>
<text text-anchor="start" x="28" y="-214.8" font-family="Helvetica,sans-Serif" font-size="11.00" fill="#000000">name</text>
<polygon fill="#ffffff" stroke="transparent" points="8,-185.7 8,-207.7 266,-207.7 266,-185.7 8,-185.7"/>
<polygon fill="none" stroke="#000000" points="8,-185.7 8,-207.7 266,-207.7 266,-185.7 8,-185.7"/>
<image xlink:href="../../images/foreignKeys.png" width="11px" height="12px" preserveAspectRatio="xMinYMin meet" x="13" y="-202.7"/>
<text text-anchor="start" x="28" y="-192.8" font-family="Helvetica,sans-Serif" font-size="11.00" fill="#000000">configKey_fk</text>
<polygon fill="#ffffff" stroke="transparent" points="8,-163.7 8,-185.7 266,-185.7 266,-163.7 8,-163.7"/>
<polygon fill="none" stroke="#000000" points="8,-163.7 8,-185.7 266,-185.7 266,-163.7 8,-163.7"/>
<image xlink:href="../../images/foreignKeys.png" width="11px" height="12px" preserveAspectRatio="xMinYMin meet" x="13" y="-180.7"/>
<text text-anchor="start" x="28" y="-170.8" font-family="Helvetica,sans-Serif" font-size="11.00" fill="#000000">passwordPolicy_fk</text>
<polygon fill="#ffffff" stroke="transparent" points="8,-141.7 8,-163.7 266,-163.7 266,-141.7 8,-141.7"/>
<polygon fill="none" stroke="#000000" points="8,-141.7 8,-163.7 266,-163.7 266,-141.7 8,-141.7"/>
<image xlink:href="../../images/foreignKeys.png" width="11px" height="12px" preserveAspectRatio="xMinYMin meet" x="13" y="-158.7"/>
<text text-anchor="start" x="28" y="-148.8" font-family="Helvetica,sans-Serif" font-size="11.00" fill="#000000">report_settings_fk</text>
<polygon fill="none" stroke="#000000" points="8,-119.7 8,-141.7 266,-141.7 266,-119.7 8,-119.7"/>
<image xlink:href="../../images/primaryKeys.png" width="11px" height="12px" preserveAspectRatio="xMinYMin meet" x="13" y="-136.7"/>
<text text-anchor="start" x="28" y="-126.8" font-family="Helvetica,sans-Serif" font-size="11.00" fill="#000000">id</text>
<polygon fill="#ffffff" stroke="transparent" points="8,-97.7 8,-119.7 266,-119.7 266,-97.7 8,-97.7"/>
<polygon fill="none" stroke="#000000" points="8,-97.7 8,-119.7 266,-119.7 266,-97.7 8,-97.7"/>
<text text-anchor="start" x="28" y="-104.8" font-family="Helvetica,sans-Serif" font-size="11.00" fill="#000000">uuid</text>
<polygon fill="#ffffff" stroke="transparent" points="8,-75.7 8,-97.7 266,-97.7 266,-75.7 8,-75.7"/>
<polygon fill="none" stroke="#000000" points="8,-75.7 8,-97.7 266,-97.7 266,-75.7 8,-75.7"/>
<image xlink:href="../../images/foreignKeys.png" width="11px" height="12px" preserveAspectRatio="xMinYMin meet" x="13" y="-92.7"/>
<text text-anchor="start" x="28" y="-82.8" font-family="Helvetica,sans-Serif" font-size="11.00" fill="#000000">saml_idp_config_fk</text>
<polygon fill="none" stroke="#000000" points="8,-56.7 8,-75.7 266,-75.7 266,-56.7 8,-56.7"/>
<text text-anchor="start" x="11" y="-62.8" font-family="Helvetica,sans-Serif" font-size="11.00" fill="#000000">...</text>
<polygon fill="#ffffff" stroke="transparent" points="8,-37.7 8,-56.7 115,-56.7 115,-37.7 8,-37.7"/>
<polygon fill="none" stroke="#000000" points="8,-37.7 8,-56.7 115,-56.7 115,-37.7 8,-37.7"/>
<text text-anchor="start" x="11" y="-43.8" font-family="Helvetica,sans-Serif" font-size="11.00" fill="#000000">&lt; 4</text>
<polygon fill="#ffffff" stroke="transparent" points="115,-37.7 115,-56.7 196,-56.7 196,-37.7 115,-37.7"/>
<polygon fill="none" stroke="#000000" points="115,-37.7 115,-56.7 196,-56.7 196,-37.7 115,-37.7"/>
<text text-anchor="start" x="160.6105" y="-43.8" font-family="Helvetica,sans-Serif" font-size="11.00" fill="#000000">3 rows</text>
<polygon fill="#ffffff" stroke="transparent" points="196,-37.7 196,-56.7 266,-56.7 266,-37.7 196,-37.7"/>
<polygon fill="none" stroke="#000000" points="196,-37.7 196,-56.7 266,-56.7 266,-37.7 196,-37.7"/>
<text text-anchor="start" x="241.2904" y="-43.8" font-family="Helvetica,sans-Serif" font-size="11.00" fill="#000000">81 &gt;</text>
</a>
</g>
</g>
<!-- org_rules&#45;&gt;organizations -->
<g id="edge2" class="edge">
<title>org_rules:w&#45;&gt;organizations:e</title>
<path fill="none" stroke="#000000" d="M302.9189,-222.575C278.6253,-204.2 308.2746,-130.7 266,-130.7"/>
<polygon fill="#000000" stroke="#000000" points="309.3226,-224.4509 315.9879,-230.1548 313.1613,-225.5755 317,-226.7 317,-226.7 317,-226.7 313.1613,-225.5755 318.0121,-223.2452 309.3226,-224.4509 309.3226,-224.4509"/>
<ellipse fill="none" stroke="#000000" cx="306.2517" cy="-223.5513" rx="3.2" ry="3.2"/>
</g>
<!-- rules -->
<g id="node4" class="node">
<title>rules</title>
<g id="a_node4"><a xlink:href="../../tables/rules.html" xlink:title="rules" target="_top">
<polygon fill="#ffffff" stroke="transparent" points="73.5,-274.2 73.5,-379.2 200.5,-379.2 200.5,-274.2 73.5,-274.2"/>
<polygon fill="#f5f5f5" stroke="transparent" points="74,-355.7 74,-378.7 201,-378.7 201,-355.7 74,-355.7"/>
<polygon fill="none" stroke="#000000" points="74,-355.7 74,-378.7 201,-378.7 201,-355.7 74,-355.7"/>
<text text-anchor="start" x="79" y="-364.8" font-family="Helvetica,sans-Serif" font-weight="bold" font-size="11.00" fill="#000000">rules</text>
<text text-anchor="start" x="166.0437" y="-363.8" font-family="Helvetica,sans-Serif" font-size="11.00" fill="#000000">[table]</text>
<polygon fill="none" stroke="#000000" points="74,-333.7 74,-355.7 201,-355.7 201,-333.7 74,-333.7"/>
<image xlink:href="../../images/primaryKeys.png" width="11px" height="12px" preserveAspectRatio="xMinYMin meet" x="79" y="-350.7"/>
<text text-anchor="start" x="94" y="-340.8" font-family="Helvetica,sans-Serif" font-size="11.00" fill="#000000">name</text>
<polygon fill="#ffffff" stroke="transparent" points="74,-311.7 74,-333.7 201,-333.7 201,-311.7 74,-311.7"/>
<polygon fill="none" stroke="#000000" points="74,-311.7 74,-333.7 201,-333.7 201,-311.7 74,-311.7"/>
<text text-anchor="start" x="94" y="-318.8" font-family="Helvetica,sans-Serif" font-size="11.00" fill="#000000">title</text>
<polygon fill="none" stroke="#000000" points="74,-292.7 74,-311.7 201,-311.7 201,-292.7 74,-292.7"/>
<text text-anchor="start" x="77" y="-298.8" font-family="Helvetica,sans-Serif" font-size="11.00" fill="#000000">...</text>
<polygon fill="#ffffff" stroke="transparent" points="74,-273.7 74,-292.7 108,-292.7 108,-273.7 74,-273.7"/>
<polygon fill="none" stroke="#000000" points="74,-273.7 74,-292.7 108,-292.7 108,-273.7 74,-273.7"/>
<text text-anchor="start" x="77" y="-279.8" font-family="Helvetica,sans-Serif" font-size="11.00" fill="#000000"> &#160;</text>
<polygon fill="#ffffff" stroke="transparent" points="108,-273.7 108,-292.7 163,-292.7 163,-273.7 108,-273.7"/>
<polygon fill="none" stroke="#000000" points="108,-273.7 108,-292.7 163,-292.7 163,-273.7 108,-273.7"/>
<text text-anchor="start" x="121.4956" y="-279.8" font-family="Helvetica,sans-Serif" font-size="11.00" fill="#000000">82 rows</text>
<polygon fill="#ffffff" stroke="transparent" points="163,-273.7 163,-292.7 201,-292.7 201,-273.7 163,-273.7"/>
<polygon fill="none" stroke="#000000" points="163,-273.7 163,-292.7 201,-292.7 201,-273.7 163,-273.7"/>
<text text-anchor="start" x="176.2904" y="-279.8" font-family="Helvetica,sans-Serif" font-size="11.00" fill="#000000">16 &gt;</text>
</a>
</g>
</g>
<!-- org_rules&#45;&gt;rules -->
<g id="edge3" class="edge">
<title>org_rules:w&#45;&gt;rules:e</title>
<path fill="none" stroke="#000000" d="M302.4669,-250.4482C252.393,-263.4594 262.5621,-344.7 201,-344.7"/>
<polygon fill="#000000" stroke="#000000" points="309.0573,-249.6555 317.43,-252.2742 313.0286,-249.1777 317,-248.7 317,-248.7 317,-248.7 313.0286,-249.1777 316.57,-245.1258 309.0573,-249.6555 309.0573,-249.6555"/>
<ellipse fill="none" stroke="#000000" cx="305.8802" cy="-250.0377" rx="3.2" ry="3.2"/>
</g>
</g>
</svg>
