<?xml version="1.0" encoding="UTF-8" standalone="no"?>
<!DOCTYPE svg PUBLIC "-//W3C//DTD SVG 1.1//EN"
 "http://www.w3.org/Graphics/SVG/1.1/DTD/svg11.dtd">
<!-- Generated by graphviz version 2.40.1 (20161225.0304)
 -->
<!-- Title: twoDegreesRelationshipsDiagram Pages: 1 -->
<svg width="559pt" height="193pt"
 viewBox="0.00 0.00 559.00 193.20" xmlns="http://www.w3.org/2000/svg" xmlns:xlink="http://www.w3.org/1999/xlink">
<g id="graph0" class="graph" transform="scale(1 1) rotate(0) translate(4 189.2)">
<title>twoDegreesRelationshipsDiagram</title>
<polygon fill="#ffffff" stroke="transparent" points="-4,4 -4,-189.2 555,-189.2 555,4 -4,4"/>
<text text-anchor="middle" x="72.4936" y="-7.3" font-family="Helvetica,sans-Serif" font-size="11.00" fill="#000000">Generated by SchemaSpy</text>
<!-- org_rule_references -->
<g id="node1" class="node">
<title>org_rule_references</title>
<g id="a_node1"><a xlink:href="../../tables/org_rule_references.html" xlink:title="org_rule_references" target="_top">
<polygon fill="#ffffff" stroke="transparent" points="331,-63.7 331,-175.7 543,-175.7 543,-63.7 331,-63.7"/>
<polygon fill="#f5f5f5" stroke="transparent" points="333,-150.7 333,-173.7 541,-173.7 541,-150.7 333,-150.7"/>
<polygon fill="none" stroke="#000000" points="333,-150.7 333,-173.7 541,-173.7 541,-150.7 333,-150.7"/>
<text text-anchor="start" x="338" y="-159.8" font-family="Helvetica,sans-Serif" font-weight="bold" font-size="11.00" fill="#000000">org_rule_references</text>
<text text-anchor="start" x="506.0437" y="-158.8" font-family="Helvetica,sans-Serif" font-size="11.00" fill="#000000">[table]</text>
<polygon fill="none" stroke="#000000" points="333,-128.7 333,-150.7 474,-150.7 474,-128.7 333,-128.7"/>
<image xlink:href="../../images/primaryKeys.png" width="11px" height="12px" preserveAspectRatio="xMinYMin meet" x="338" y="-145.7"/>
<text text-anchor="start" x="353" y="-135.8" font-family="Helvetica,sans-Serif" font-size="11.00" fill="#000000">org_rule_id</text>
<polygon fill="none" stroke="#000000" points="474,-128.7 474,-150.7 541,-150.7 541,-128.7 474,-128.7"/>
<text text-anchor="start" x="477" y="-136.4" font-family="Helvetica,sans-Serif" font-size="11.00" fill="#000000">bigint[19]</text>
<polygon fill="none" stroke="#000000" points="333,-106.7 333,-128.7 474,-128.7 474,-106.7 333,-106.7"/>
<text text-anchor="start" x="353" y="-113.8" font-family="Helvetica,sans-Serif" font-size="11.00" fill="#000000">reference</text>
<polygon fill="none" stroke="#000000" points="474,-106.7 474,-128.7 541,-128.7 541,-106.7 474,-106.7"/>
<text text-anchor="start" x="476.9365" y="-114.4" font-family="Helvetica,sans-Serif" font-size="11.00" fill="#000000">varchar[255]</text>
<polygon fill="none" stroke="#000000" points="333,-84.7 333,-106.7 474,-106.7 474,-84.7 333,-84.7"/>
<image xlink:href="../../images/primaryKeys.png" width="11px" height="12px" preserveAspectRatio="xMinYMin meet" x="338" y="-101.7"/>
<text text-anchor="start" x="353" y="-91.8" font-family="Helvetica,sans-Serif" font-size="11.00" fill="#000000">rule_reference_index</text>
<polygon fill="none" stroke="#000000" points="474,-84.7 474,-106.7 541,-106.7 541,-84.7 474,-84.7"/>
<text text-anchor="start" x="477" y="-92.4" font-family="Helvetica,sans-Serif" font-size="11.00" fill="#000000">int[10]</text>
<polygon fill="#ffffff" stroke="transparent" points="333,-65.7 333,-84.7 395,-84.7 395,-65.7 333,-65.7"/>
<polygon fill="none" stroke="#000000" points="333,-65.7 333,-84.7 395,-84.7 395,-65.7 333,-65.7"/>
<text text-anchor="start" x="336" y="-71.8" font-family="Helvetica,sans-Serif" font-size="11.00" fill="#000000">&lt; 1</text>
<polygon fill="#ffffff" stroke="transparent" points="395,-65.7 395,-84.7 474,-84.7 474,-65.7 395,-65.7"/>
<polygon fill="none" stroke="#000000" points="395,-65.7 395,-84.7 474,-84.7 474,-65.7 395,-65.7"/>
<text text-anchor="start" x="438.6105" y="-71.8" font-family="Helvetica,sans-Serif" font-size="11.00" fill="#000000">0 rows</text>
<polygon fill="#ffffff" stroke="transparent" points="474,-65.7 474,-84.7 541,-84.7 541,-65.7 474,-65.7"/>
<polygon fill="none" stroke="#000000" points="474,-65.7 474,-84.7 541,-84.7 541,-65.7 474,-65.7"/>
<text text-anchor="start" x="522.4053" y="-71.8" font-family="Helvetica,sans-Serif" font-size="11.00" fill="#000000">0 &gt;</text>
<polygon fill="none" stroke="#000000" stroke-width="2" points="332,-64.7 332,-174.7 542,-174.7 542,-64.7 332,-64.7"/>
</a>
</g>
</g>
<!-- org_rules -->
<g id="node2" class="node">
<title>org_rules</title>
<g id="a_node2"><a xlink:href="../../tables/org_rules.html" xlink:title="org_rules" target="_top">
<polygon fill="#ffffff" stroke="transparent" points="165,-47.2 165,-174.2 282,-174.2 282,-47.2 165,-47.2"/>
<polygon fill="#f5f5f5" stroke="transparent" points="165.5,-150.7 165.5,-173.7 282.5,-173.7 282.5,-150.7 165.5,-150.7"/>
<polygon fill="none" stroke="#000000" points="165.5,-150.7 165.5,-173.7 282.5,-173.7 282.5,-150.7 165.5,-150.7"/>
<text text-anchor="start" x="170.5" y="-159.8" font-family="Helvetica,sans-Serif" font-weight="bold" font-size="11.00" fill="#000000">org_rules</text>
<text text-anchor="start" x="247.5437" y="-158.8" font-family="Helvetica,sans-Serif" font-size="11.00" fill="#000000">[table]</text>
<polygon fill="none" stroke="#000000" points="165.5,-128.7 165.5,-150.7 282.5,-150.7 282.5,-128.7 165.5,-128.7"/>
<image xlink:href="../../images/primaryKeys.png" width="11px" height="12px" preserveAspectRatio="xMinYMin meet" x="170.5" y="-145.7"/>
<text text-anchor="start" x="185.5" y="-135.8" font-family="Helvetica,sans-Serif" font-size="11.00" fill="#000000">org_rule_id</text>
<polygon fill="#ffffff" stroke="transparent" points="165.5,-106.7 165.5,-128.7 282.5,-128.7 282.5,-106.7 165.5,-106.7"/>
<polygon fill="none" stroke="#000000" points="165.5,-106.7 165.5,-128.7 282.5,-128.7 282.5,-106.7 165.5,-106.7"/>
<image xlink:href="../../images/foreignKeys.png" width="11px" height="12px" preserveAspectRatio="xMinYMin meet" x="170.5" y="-123.7"/>
<text text-anchor="start" x="185.5" y="-113.8" font-family="Helvetica,sans-Serif" font-size="11.00" fill="#000000">rule_fk</text>
<polygon fill="#ffffff" stroke="transparent" points="165.5,-84.7 165.5,-106.7 282.5,-106.7 282.5,-84.7 165.5,-84.7"/>
<polygon fill="none" stroke="#000000" points="165.5,-84.7 165.5,-106.7 282.5,-106.7 282.5,-84.7 165.5,-84.7"/>
<image xlink:href="../../images/foreignKeys.png" width="11px" height="12px" preserveAspectRatio="xMinYMin meet" x="170.5" y="-101.7"/>
<text text-anchor="start" x="185.5" y="-91.8" font-family="Helvetica,sans-Serif" font-size="11.00" fill="#000000">organizations_id</text>
<polygon fill="none" stroke="#000000" points="165.5,-65.7 165.5,-84.7 282.5,-84.7 282.5,-65.7 165.5,-65.7"/>
<text text-anchor="start" x="168.5" y="-71.8" font-family="Helvetica,sans-Serif" font-size="11.00" fill="#000000">...</text>
<polygon fill="#ffffff" stroke="transparent" points="165.5,-46.7 165.5,-65.7 204.5,-65.7 204.5,-46.7 165.5,-46.7"/>
<polygon fill="none" stroke="#000000" points="165.5,-46.7 165.5,-65.7 204.5,-65.7 204.5,-46.7 165.5,-46.7"/>
<text text-anchor="start" x="168.5" y="-52.8" font-family="Helvetica,sans-Serif" font-size="11.00" fill="#000000">&lt; 2</text>
<polygon fill="#ffffff" stroke="transparent" points="204.5,-46.7 204.5,-65.7 251.5,-65.7 251.5,-46.7 204.5,-46.7"/>
<polygon fill="none" stroke="#000000" points="204.5,-46.7 204.5,-65.7 251.5,-65.7 251.5,-46.7 204.5,-46.7"/>
<text text-anchor="start" x="216.1105" y="-52.8" font-family="Helvetica,sans-Serif" font-size="11.00" fill="#000000">0 rows</text>
<polygon fill="#ffffff" stroke="transparent" points="251.5,-46.7 251.5,-65.7 282.5,-65.7 282.5,-46.7 251.5,-46.7"/>
<polygon fill="none" stroke="#000000" points="251.5,-46.7 251.5,-65.7 282.5,-65.7 282.5,-46.7 251.5,-46.7"/>
<text text-anchor="start" x="263.9053" y="-52.8" font-family="Helvetica,sans-Serif" font-size="11.00" fill="#000000">1 &gt;</text>
</a>
</g>
</g>
<!-- org_rule_references&#45;&gt;org_rules -->
<g id="edge1" class="edge">
<title>org_rule_references:w&#45;&gt;org_rules:e</title>
<path fill="none" stroke="#000000" d="M318.4203,-139.7C306.5435,-139.7 299.158,-139.7 282.5,-139.7"/>
<polygon fill="#000000" stroke="#000000" points="325,-139.7001 333,-143.3 329,-139.7 333,-139.7 333,-139.7 333,-139.7 329,-139.7 333,-136.1 325,-139.7001 325,-139.7001"/>
<ellipse fill="none" stroke="#000000" cx="321.8" cy="-139.7001" rx="3.2" ry="3.2"/>
</g>
<!-- organizations -->
<g id="node3" class="node">
<title>organizations</title>
<g id="a_node3"><a xlink:href="../../tables/organizations.html" xlink:title="organizations" target="_top">
<polygon fill="#ffffff" stroke="transparent" points="8,-38.2 8,-99.2 116,-99.2 116,-38.2 8,-38.2"/>
<polygon fill="#f5f5f5" stroke="transparent" points="8,-75.7 8,-98.7 116,-98.7 116,-75.7 8,-75.7"/>
<polygon fill="none" stroke="#000000" points="8,-75.7 8,-98.7 116,-98.7 116,-75.7 8,-75.7"/>
<text text-anchor="start" x="12.7976" y="-84.8" font-family="Helvetica,sans-Serif" font-weight="bold" font-size="11.00" fill="#000000">organizations</text>
<text text-anchor="start" x="81.5219" y="-83.8" font-family="Helvetica,sans-Serif" font-size="11.00" fill="#000000">[table]</text>
<polygon fill="none" stroke="#000000" points="8,-56.7 8,-75.7 116,-75.7 116,-56.7 8,-56.7"/>
<text text-anchor="start" x="11" y="-62.8" font-family="Helvetica,sans-Serif" font-size="11.00" fill="#000000">...</text>
<polygon fill="#ffffff" stroke="transparent" points="8,-37.7 8,-56.7 40,-56.7 40,-37.7 8,-37.7"/>
<polygon fill="none" stroke="#000000" points="8,-37.7 8,-56.7 40,-56.7 40,-37.7 8,-37.7"/>
<text text-anchor="start" x="11" y="-43.8" font-family="Helvetica,sans-Serif" font-size="11.00" fill="#000000">&lt; 4</text>
<polygon fill="#ffffff" stroke="transparent" points="40,-37.7 40,-56.7 83,-56.7 83,-37.7 40,-37.7"/>
<polygon fill="none" stroke="#000000" points="40,-37.7 40,-56.7 83,-56.7 83,-37.7 40,-37.7"/>
<text text-anchor="start" x="47.6105" y="-43.8" font-family="Helvetica,sans-Serif" font-size="11.00" fill="#000000">3 rows</text>
<polygon fill="#ffffff" stroke="transparent" points="83,-37.7 83,-56.7 116,-56.7 116,-37.7 83,-37.7"/>
<polygon fill="none" stroke="#000000" points="83,-37.7 83,-56.7 116,-56.7 116,-37.7 83,-37.7"/>
<text text-anchor="start" x="91.2904" y="-43.8" font-family="Helvetica,sans-Serif" font-size="11.00" fill="#000000">81 &gt;</text>
</a>
</g>
</g>
<!-- org_rules&#45;&gt;organizations -->
<g id="edge2" class="edge">
<title>org_rules:w&#45;&gt;organizations:e</title>
<path fill="none" stroke="#000000" d="M151.633,-91.778C139.238,-83.6462 135.8967,-65.7 116,-65.7"/>
<polygon fill="#000000" stroke="#000000" points="157.802,-93.5227 164.5202,-99.1641 161.651,-94.6114 165.5,-95.7 165.5,-95.7 165.5,-95.7 161.651,-94.6114 166.4798,-92.2359 157.802,-93.5227 157.802,-93.5227"/>
<ellipse fill="none" stroke="#000000" cx="154.7228" cy="-92.6518" rx="3.2" ry="3.2"/>
</g>
<!-- rules -->
<g id="node4" class="node">
<title>rules</title>
<g id="a_node4"><a xlink:href="../../tables/rules.html" xlink:title="rules" target="_top">
<polygon fill="#ffffff" stroke="transparent" points="20.5,-120.2 20.5,-181.2 103.5,-181.2 103.5,-120.2 20.5,-120.2"/>
<polygon fill="#f5f5f5" stroke="transparent" points="21,-157.7 21,-180.7 104,-180.7 104,-157.7 21,-157.7"/>
<polygon fill="none" stroke="#000000" points="21,-157.7 21,-180.7 104,-180.7 104,-157.7 21,-157.7"/>
<text text-anchor="start" x="26" y="-166.8" font-family="Helvetica,sans-Serif" font-weight="bold" font-size="11.00" fill="#000000">rules</text>
<text text-anchor="start" x="69.0437" y="-165.8" font-family="Helvetica,sans-Serif" font-size="11.00" fill="#000000">[table]</text>
<polygon fill="none" stroke="#000000" points="21,-138.7 21,-157.7 104,-157.7 104,-138.7 21,-138.7"/>
<text text-anchor="start" x="24" y="-144.8" font-family="Helvetica,sans-Serif" font-size="11.00" fill="#000000">...</text>
<polygon fill="#ffffff" stroke="transparent" points="21,-119.7 21,-138.7 33,-138.7 33,-119.7 21,-119.7"/>
<polygon fill="none" stroke="#000000" points="21,-119.7 21,-138.7 33,-138.7 33,-119.7 21,-119.7"/>
<text text-anchor="start" x="23.9431" y="-125.8" font-family="Helvetica,sans-Serif" font-size="11.00" fill="#000000"> &#160;</text>
<polygon fill="#ffffff" stroke="transparent" points="33,-119.7 33,-138.7 77,-138.7 77,-119.7 33,-119.7"/>
<polygon fill="none" stroke="#000000" points="33,-119.7 33,-138.7 77,-138.7 77,-119.7 33,-119.7"/>
<text text-anchor="start" x="35.7478" y="-125.8" font-family="Helvetica,sans-Serif" font-size="11.00" fill="#000000">82 rows</text>
<polygon fill="#ffffff" stroke="transparent" points="77,-119.7 77,-138.7 104,-138.7 104,-119.7 77,-119.7"/>
<polygon fill="none" stroke="#000000" points="77,-119.7 77,-138.7 104,-138.7 104,-119.7 77,-119.7"/>
<text text-anchor="start" x="79.6452" y="-125.8" font-family="Helvetica,sans-Serif" font-size="11.00" fill="#000000">16 &gt;</text>
</a>
</g>
</g>
<!-- org_rules&#45;&gt;rules -->
<g id="edge3" class="edge">
<title>org_rules:w&#45;&gt;rules:e</title>
<path fill="none" stroke="#000000" d="M151.1374,-120.4686C133.7891,-127.8953 128.7097,-147.7 104,-147.7"/>
<polygon fill="#000000" stroke="#000000" points="157.6446,-119.2143 166.1814,-121.2349 161.5723,-118.4571 165.5,-117.7 165.5,-117.7 165.5,-117.7 161.5723,-118.4571 164.8186,-114.1651 157.6446,-119.2143 157.6446,-119.2143"/>
<ellipse fill="none" stroke="#000000" cx="154.5025" cy="-119.82" rx="3.2" ry="3.2"/>
</g>
</g>
</svg>
