<?xml version="1.0" encoding="UTF-8" standalone="no"?>
<!DOCTYPE svg PUBLIC "-//W3C//DTD SVG 1.1//EN"
 "http://www.w3.org/Graphics/SVG/1.1/DTD/svg11.dtd">
<!-- Generated by graphviz version 2.40.1 (20161225.0304)
 -->
<!-- Title: oneDegreeRelationshipsDiagram Pages: 1 -->
<svg width="974pt" height="667pt"
 viewBox="0.00 0.00 974.00 666.70" xmlns="http://www.w3.org/2000/svg" xmlns:xlink="http://www.w3.org/1999/xlink">
<g id="graph0" class="graph" transform="scale(1 1) rotate(0) translate(4 662.7)">
<title>oneDegreeRelationshipsDiagram</title>
<polygon fill="#ffffff" stroke="transparent" points="-4,4 -4,-662.7 970,-662.7 970,4 -4,4"/>
<text text-anchor="middle" x="72.4936" y="-7.3" font-family="Helvetica,sans-Serif" font-size="11.00" fill="#000000">Generated by SchemaSpy</text>
<!-- organization_server_default_syslog -->
<g id="node1" class="node">
<title>organization_server_default_syslog</title>
<g id="a_node1"><a xlink:href="../../tables/organization_server_default_syslog.html" xlink:title="organization_server_default_syslog" target="_top">
<polygon fill="#ffffff" stroke="transparent" points="715,-505.7 715,-610.7 958,-610.7 958,-505.7 715,-505.7"/>
<polygon fill="#f5f5f5" stroke="transparent" points="715.5,-587.2 715.5,-610.2 958.5,-610.2 958.5,-587.2 715.5,-587.2"/>
<polygon fill="none" stroke="#000000" points="715.5,-587.2 715.5,-610.2 958.5,-610.2 958.5,-587.2 715.5,-587.2"/>
<text text-anchor="start" x="720.5" y="-596.3" font-family="Helvetica,sans-Serif" font-weight="bold" font-size="11.00" fill="#000000">organization_server_default_syslog</text>
<text text-anchor="start" x="923.5437" y="-595.3" font-family="Helvetica,sans-Serif" font-size="11.00" fill="#000000">[table]</text>
<polygon fill="none" stroke="#000000" points="715.5,-565.2 715.5,-587.2 958.5,-587.2 958.5,-565.2 715.5,-565.2"/>
<image xlink:href="../../images/primaryKeys.png" width="11px" height="12px" preserveAspectRatio="xMinYMin meet" x="720.5" y="-582.2"/>
<text text-anchor="start" x="735.5" y="-572.3" font-family="Helvetica,sans-Serif" font-size="11.00" fill="#000000">organization_server_default_syslog_id</text>
<polygon fill="#ffffff" stroke="transparent" points="715.5,-543.2 715.5,-565.2 958.5,-565.2 958.5,-543.2 715.5,-543.2"/>
<polygon fill="none" stroke="#000000" points="715.5,-543.2 715.5,-565.2 958.5,-565.2 958.5,-543.2 715.5,-543.2"/>
<image xlink:href="../../images/foreignKeys.png" width="11px" height="12px" preserveAspectRatio="xMinYMin meet" x="720.5" y="-560.2"/>
<text text-anchor="start" x="735.5" y="-550.3" font-family="Helvetica,sans-Serif" font-size="11.00" fill="#000000">organization_server_defaults_id</text>
<polygon fill="none" stroke="#000000" points="715.5,-524.2 715.5,-543.2 958.5,-543.2 958.5,-524.2 715.5,-524.2"/>
<text text-anchor="start" x="718.5" y="-530.3" font-family="Helvetica,sans-Serif" font-size="11.00" fill="#000000">...</text>
<polygon fill="#ffffff" stroke="transparent" points="715.5,-505.2 715.5,-524.2 817.5,-524.2 817.5,-505.2 715.5,-505.2"/>
<polygon fill="none" stroke="#000000" points="715.5,-505.2 715.5,-524.2 817.5,-524.2 817.5,-505.2 715.5,-505.2"/>
<text text-anchor="start" x="718.5" y="-511.3" font-family="Helvetica,sans-Serif" font-size="11.00" fill="#000000">&lt; 1</text>
<polygon fill="#ffffff" stroke="transparent" points="817.5,-505.2 817.5,-524.2 896.5,-524.2 896.5,-505.2 817.5,-505.2"/>
<polygon fill="none" stroke="#000000" points="817.5,-505.2 817.5,-524.2 896.5,-524.2 896.5,-505.2 817.5,-505.2"/>
<text text-anchor="start" x="861.1105" y="-511.3" font-family="Helvetica,sans-Serif" font-size="11.00" fill="#000000">0 rows</text>
<polygon fill="#ffffff" stroke="transparent" points="896.5,-505.2 896.5,-524.2 958.5,-524.2 958.5,-505.2 896.5,-505.2"/>
<polygon fill="none" stroke="#000000" points="896.5,-505.2 896.5,-524.2 958.5,-524.2 958.5,-505.2 896.5,-505.2"/>
<text text-anchor="start" x="939.9053" y="-511.3" font-family="Helvetica,sans-Serif" font-size="11.00" fill="#000000">1 &gt;</text>
</a>
</g>
</g>
<!-- organization_server_defaults -->
<g id="node2" class="node">
<title>organization_server_defaults</title>
<g id="a_node2"><a xlink:href="../../tables/organization_server_defaults.html" xlink:title="organization_server_defaults" target="_top">
<polygon fill="#ffffff" stroke="transparent" points="315,-38.2 315,-590.2 666,-590.2 666,-38.2 315,-38.2"/>
<polygon fill="#f5f5f5" stroke="transparent" points="317.5,-565.2 317.5,-588.2 664.5,-588.2 664.5,-565.2 317.5,-565.2"/>
<polygon fill="none" stroke="#000000" points="317.5,-565.2 317.5,-588.2 664.5,-588.2 664.5,-565.2 317.5,-565.2"/>
<text text-anchor="start" x="322.5" y="-574.3" font-family="Helvetica,sans-Serif" font-weight="bold" font-size="11.00" fill="#000000">organization_server_defaults</text>
<text text-anchor="start" x="629.5437" y="-573.3" font-family="Helvetica,sans-Serif" font-size="11.00" fill="#000000">[table]</text>
<polygon fill="none" stroke="#000000" points="317.5,-543.2 317.5,-565.2 581.5,-565.2 581.5,-543.2 317.5,-543.2"/>
<image xlink:href="../../images/primaryKeys.png" width="11px" height="12px" preserveAspectRatio="xMinYMin meet" x="322.5" y="-560.2"/>
<text text-anchor="start" x="337.5" y="-550.3" font-family="Helvetica,sans-Serif" font-size="11.00" fill="#000000">id</text>
<polygon fill="none" stroke="#000000" points="581.5,-543.2 581.5,-565.2 664.5,-565.2 664.5,-543.2 581.5,-543.2"/>
<text text-anchor="start" x="584.1783" y="-550.9" font-family="Helvetica,sans-Serif" font-size="11.00" fill="#000000">int unsigned[10]</text>
<polygon fill="#ffffff" stroke="transparent" points="317.5,-521.2 317.5,-543.2 581.5,-543.2 581.5,-521.2 317.5,-521.2"/>
<polygon fill="none" stroke="#000000" points="317.5,-521.2 317.5,-543.2 581.5,-543.2 581.5,-521.2 317.5,-521.2"/>
<image xlink:href="../../images/foreignKeys.png" width="11px" height="12px" preserveAspectRatio="xMinYMin meet" x="322.5" y="-538.2"/>
<text text-anchor="start" x="337.5" y="-528.3" font-family="Helvetica,sans-Serif" font-size="11.00" fill="#000000">organizations_id</text>
<polygon fill="none" stroke="#000000" points="581.5,-521.2 581.5,-543.2 664.5,-543.2 664.5,-521.2 581.5,-521.2"/>
<text text-anchor="start" x="584.1783" y="-528.9" font-family="Helvetica,sans-Serif" font-size="11.00" fill="#000000">int unsigned[10]</text>
<polygon fill="none" stroke="#000000" points="317.5,-499.2 317.5,-521.2 581.5,-521.2 581.5,-499.2 317.5,-499.2"/>
<text text-anchor="start" x="337.5" y="-506.3" font-family="Helvetica,sans-Serif" font-size="11.00" fill="#000000">environment</text>
<polygon fill="none" stroke="#000000" points="581.5,-499.2 581.5,-521.2 664.5,-521.2 664.5,-499.2 581.5,-499.2"/>
<text text-anchor="start" x="584.5" y="-506.9" font-family="Helvetica,sans-Serif" font-size="11.00" fill="#000000">varchar[255]</text>
<polygon fill="none" stroke="#000000" points="317.5,-477.2 317.5,-499.2 581.5,-499.2 581.5,-477.2 317.5,-477.2"/>
<text text-anchor="start" x="337.5" y="-484.3" font-family="Helvetica,sans-Serif" font-size="11.00" fill="#000000">assess</text>
<polygon fill="none" stroke="#000000" points="581.5,-477.2 581.5,-499.2 664.5,-499.2 664.5,-477.2 581.5,-477.2"/>
<text text-anchor="start" x="584.5" y="-484.9" font-family="Helvetica,sans-Serif" font-size="11.00" fill="#000000">bit[1]</text>
<polygon fill="none" stroke="#000000" points="317.5,-455.2 317.5,-477.2 581.5,-477.2 581.5,-455.2 317.5,-455.2"/>
<text text-anchor="start" x="337.5" y="-462.3" font-family="Helvetica,sans-Serif" font-size="11.00" fill="#000000">defend</text>
<polygon fill="none" stroke="#000000" points="581.5,-455.2 581.5,-477.2 664.5,-477.2 664.5,-455.2 581.5,-455.2"/>
<text text-anchor="start" x="584.5" y="-462.9" font-family="Helvetica,sans-Serif" font-size="11.00" fill="#000000">bit[1]</text>
<polygon fill="none" stroke="#000000" points="317.5,-433.2 317.5,-455.2 581.5,-455.2 581.5,-433.2 317.5,-433.2"/>
<text text-anchor="start" x="337.5" y="-440.3" font-family="Helvetica,sans-Serif" font-size="11.00" fill="#000000">log_level</text>
<polygon fill="none" stroke="#000000" points="581.5,-433.2 581.5,-455.2 664.5,-455.2 664.5,-433.2 581.5,-433.2"/>
<text text-anchor="start" x="584.5" y="-440.9" font-family="Helvetica,sans-Serif" font-size="11.00" fill="#000000">varchar[10]</text>
<polygon fill="none" stroke="#000000" points="317.5,-411.2 317.5,-433.2 581.5,-433.2 581.5,-411.2 317.5,-411.2"/>
<text text-anchor="start" x="337.5" y="-418.3" font-family="Helvetica,sans-Serif" font-size="11.00" fill="#000000">capture_stacktraces</text>
<polygon fill="none" stroke="#000000" points="581.5,-411.2 581.5,-433.2 664.5,-433.2 664.5,-411.2 581.5,-411.2"/>
<text text-anchor="start" x="584.5" y="-418.9" font-family="Helvetica,sans-Serif" font-size="11.00" fill="#000000">varchar[45]</text>
<polygon fill="none" stroke="#000000" points="317.5,-389.2 317.5,-411.2 581.5,-411.2 581.5,-389.2 317.5,-389.2"/>
<text text-anchor="start" x="337.5" y="-396.3" font-family="Helvetica,sans-Serif" font-size="11.00" fill="#000000">sampling_enabled</text>
<polygon fill="none" stroke="#000000" points="581.5,-389.2 581.5,-411.2 664.5,-411.2 664.5,-389.2 581.5,-389.2"/>
<text text-anchor="start" x="584.5" y="-396.9" font-family="Helvetica,sans-Serif" font-size="11.00" fill="#000000">bit[1]</text>
<polygon fill="none" stroke="#000000" points="317.5,-367.2 317.5,-389.2 581.5,-389.2 581.5,-367.2 317.5,-367.2"/>
<text text-anchor="start" x="337.5" y="-374.3" font-family="Helvetica,sans-Serif" font-size="11.00" fill="#000000">sampling_baseline</text>
<polygon fill="none" stroke="#000000" points="581.5,-367.2 581.5,-389.2 664.5,-389.2 664.5,-367.2 581.5,-367.2"/>
<text text-anchor="start" x="584.5" y="-374.9" font-family="Helvetica,sans-Serif" font-size="11.00" fill="#000000">int[10]</text>
<polygon fill="none" stroke="#000000" points="317.5,-345.2 317.5,-367.2 581.5,-367.2 581.5,-345.2 317.5,-345.2"/>
<text text-anchor="start" x="337.5" y="-352.3" font-family="Helvetica,sans-Serif" font-size="11.00" fill="#000000">sampling_frequency</text>
<polygon fill="none" stroke="#000000" points="581.5,-345.2 581.5,-367.2 664.5,-367.2 664.5,-345.2 581.5,-345.2"/>
<text text-anchor="start" x="584.5" y="-352.9" font-family="Helvetica,sans-Serif" font-size="11.00" fill="#000000">int[10]</text>
<polygon fill="none" stroke="#000000" points="317.5,-323.2 317.5,-345.2 581.5,-345.2 581.5,-323.2 317.5,-323.2"/>
<text text-anchor="start" x="337.5" y="-330.3" font-family="Helvetica,sans-Serif" font-size="11.00" fill="#000000">sampling_window</text>
<polygon fill="none" stroke="#000000" points="581.5,-323.2 581.5,-345.2 664.5,-345.2 664.5,-323.2 581.5,-323.2"/>
<text text-anchor="start" x="584.5" y="-330.9" font-family="Helvetica,sans-Serif" font-size="11.00" fill="#000000">int[10]</text>
<polygon fill="none" stroke="#000000" points="317.5,-301.2 317.5,-323.2 581.5,-323.2 581.5,-301.2 317.5,-301.2"/>
<text text-anchor="start" x="337.5" y="-308.3" font-family="Helvetica,sans-Serif" font-size="11.00" fill="#000000">bot_protection_enabled</text>
<polygon fill="none" stroke="#000000" points="581.5,-301.2 581.5,-323.2 664.5,-323.2 664.5,-301.2 581.5,-301.2"/>
<text text-anchor="start" x="584.5" y="-308.9" font-family="Helvetica,sans-Serif" font-size="11.00" fill="#000000">bit[1]</text>
<polygon fill="none" stroke="#000000" points="317.5,-279.2 317.5,-301.2 581.5,-301.2 581.5,-279.2 317.5,-279.2"/>
<text text-anchor="start" x="337.5" y="-286.3" font-family="Helvetica,sans-Serif" font-size="11.00" fill="#000000">syslog_enabled</text>
<polygon fill="none" stroke="#000000" points="581.5,-279.2 581.5,-301.2 664.5,-301.2 664.5,-279.2 581.5,-279.2"/>
<text text-anchor="start" x="584.5" y="-286.9" font-family="Helvetica,sans-Serif" font-size="11.00" fill="#000000">bit[1]</text>
<polygon fill="none" stroke="#000000" points="317.5,-257.2 317.5,-279.2 581.5,-279.2 581.5,-257.2 317.5,-257.2"/>
<text text-anchor="start" x="337.5" y="-264.3" font-family="Helvetica,sans-Serif" font-size="11.00" fill="#000000">syslog_ip_address</text>
<polygon fill="none" stroke="#000000" points="581.5,-257.2 581.5,-279.2 664.5,-279.2 664.5,-257.2 581.5,-257.2"/>
<text text-anchor="start" x="584.5" y="-264.9" font-family="Helvetica,sans-Serif" font-size="11.00" fill="#000000">varchar[255]</text>
<polygon fill="none" stroke="#000000" points="317.5,-235.2 317.5,-257.2 581.5,-257.2 581.5,-235.2 317.5,-235.2"/>
<text text-anchor="start" x="337.5" y="-242.3" font-family="Helvetica,sans-Serif" font-size="11.00" fill="#000000">syslog_port_number</text>
<polygon fill="none" stroke="#000000" points="581.5,-235.2 581.5,-257.2 664.5,-257.2 664.5,-235.2 581.5,-235.2"/>
<text text-anchor="start" x="584.5" y="-242.9" font-family="Helvetica,sans-Serif" font-size="11.00" fill="#000000">int[10]</text>
<polygon fill="none" stroke="#000000" points="317.5,-213.2 317.5,-235.2 581.5,-235.2 581.5,-213.2 317.5,-213.2"/>
<text text-anchor="start" x="337.5" y="-220.3" font-family="Helvetica,sans-Serif" font-size="11.00" fill="#000000">syslog_facility_code</text>
<polygon fill="none" stroke="#000000" points="581.5,-213.2 581.5,-235.2 664.5,-235.2 664.5,-213.2 581.5,-213.2"/>
<text text-anchor="start" x="584.5" y="-220.9" font-family="Helvetica,sans-Serif" font-size="11.00" fill="#000000">tinyint[3]</text>
<polygon fill="none" stroke="#000000" points="317.5,-191.2 317.5,-213.2 581.5,-213.2 581.5,-191.2 317.5,-191.2"/>
<text text-anchor="start" x="337.5" y="-198.3" font-family="Helvetica,sans-Serif" font-size="11.00" fill="#000000">syslog_connection_type_string</text>
<polygon fill="none" stroke="#000000" points="581.5,-191.2 581.5,-213.2 664.5,-213.2 664.5,-191.2 581.5,-191.2"/>
<text text-anchor="start" x="584.5" y="-198.9" font-family="Helvetica,sans-Serif" font-size="11.00" fill="#000000">varchar[255]</text>
<polygon fill="none" stroke="#000000" points="317.5,-169.2 317.5,-191.2 581.5,-191.2 581.5,-169.2 317.5,-169.2"/>
<text text-anchor="start" x="337.5" y="-176.3" font-family="Helvetica,sans-Serif" font-size="11.00" fill="#000000">syslog_severity_exploited_string</text>
<polygon fill="none" stroke="#000000" points="581.5,-169.2 581.5,-191.2 664.5,-191.2 664.5,-169.2 581.5,-169.2"/>
<text text-anchor="start" x="584.5" y="-176.9" font-family="Helvetica,sans-Serif" font-size="11.00" fill="#000000">varchar[255]</text>
<polygon fill="none" stroke="#000000" points="317.5,-147.2 317.5,-169.2 581.5,-169.2 581.5,-147.2 317.5,-147.2"/>
<text text-anchor="start" x="337.5" y="-154.3" font-family="Helvetica,sans-Serif" font-size="11.00" fill="#000000">syslog_severity_blocked_string</text>
<polygon fill="none" stroke="#000000" points="581.5,-147.2 581.5,-169.2 664.5,-169.2 664.5,-147.2 581.5,-147.2"/>
<text text-anchor="start" x="584.5" y="-154.9" font-family="Helvetica,sans-Serif" font-size="11.00" fill="#000000">varchar[255]</text>
<polygon fill="none" stroke="#000000" points="317.5,-125.2 317.5,-147.2 581.5,-147.2 581.5,-125.2 317.5,-125.2"/>
<text text-anchor="start" x="337.5" y="-132.3" font-family="Helvetica,sans-Serif" font-size="11.00" fill="#000000">syslog_severity_probed_string</text>
<polygon fill="none" stroke="#000000" points="581.5,-125.2 581.5,-147.2 664.5,-147.2 664.5,-125.2 581.5,-125.2"/>
<text text-anchor="start" x="584.5" y="-132.9" font-family="Helvetica,sans-Serif" font-size="11.00" fill="#000000">varchar[255]</text>
<polygon fill="none" stroke="#000000" points="317.5,-103.2 317.5,-125.2 581.5,-125.2 581.5,-103.2 317.5,-103.2"/>
<text text-anchor="start" x="337.5" y="-110.3" font-family="Helvetica,sans-Serif" font-size="11.00" fill="#000000">auto_license_protection</text>
<polygon fill="none" stroke="#000000" points="581.5,-103.2 581.5,-125.2 664.5,-125.2 664.5,-103.2 581.5,-103.2"/>
<text text-anchor="start" x="584.5" y="-110.9" font-family="Helvetica,sans-Serif" font-size="11.00" fill="#000000">bit[1]</text>
<polygon fill="none" stroke="#000000" points="317.5,-81.2 317.5,-103.2 581.5,-103.2 581.5,-81.2 317.5,-81.2"/>
<text text-anchor="start" x="337.5" y="-88.3" font-family="Helvetica,sans-Serif" font-size="11.00" fill="#000000">syslog_severity_blocked_perimeter_string</text>
<polygon fill="none" stroke="#000000" points="581.5,-81.2 581.5,-103.2 664.5,-103.2 664.5,-81.2 581.5,-81.2"/>
<text text-anchor="start" x="584.5" y="-88.9" font-family="Helvetica,sans-Serif" font-size="11.00" fill="#000000">varchar[255]</text>
<polygon fill="none" stroke="#000000" points="317.5,-59.2 317.5,-81.2 581.5,-81.2 581.5,-59.2 317.5,-59.2"/>
<text text-anchor="start" x="337.5" y="-66.3" font-family="Helvetica,sans-Serif" font-size="11.00" fill="#000000">syslog_severity_probed_perimeter_string</text>
<polygon fill="none" stroke="#000000" points="581.5,-59.2 581.5,-81.2 664.5,-81.2 664.5,-59.2 581.5,-59.2"/>
<text text-anchor="start" x="584.5" y="-66.9" font-family="Helvetica,sans-Serif" font-size="11.00" fill="#000000">varchar[255]</text>
<polygon fill="#ffffff" stroke="transparent" points="317.5,-40.2 317.5,-59.2 440.5,-59.2 440.5,-40.2 317.5,-40.2"/>
<polygon fill="none" stroke="#000000" points="317.5,-40.2 317.5,-59.2 440.5,-59.2 440.5,-40.2 317.5,-40.2"/>
<text text-anchor="start" x="320.5" y="-46.3" font-family="Helvetica,sans-Serif" font-size="11.00" fill="#000000">&lt; 1</text>
<polygon fill="#ffffff" stroke="transparent" points="440.5,-40.2 440.5,-59.2 581.5,-59.2 581.5,-40.2 440.5,-40.2"/>
<polygon fill="none" stroke="#000000" points="440.5,-40.2 440.5,-59.2 581.5,-59.2 581.5,-40.2 440.5,-40.2"/>
<text text-anchor="start" x="546.1105" y="-46.3" font-family="Helvetica,sans-Serif" font-size="11.00" fill="#000000">9 rows</text>
<polygon fill="#ffffff" stroke="transparent" points="581.5,-40.2 581.5,-59.2 664.5,-59.2 664.5,-40.2 581.5,-40.2"/>
<polygon fill="none" stroke="#000000" points="581.5,-40.2 581.5,-59.2 664.5,-59.2 664.5,-40.2 581.5,-40.2"/>
<text text-anchor="start" x="645.9053" y="-46.3" font-family="Helvetica,sans-Serif" font-size="11.00" fill="#000000">1 &gt;</text>
<polygon fill="none" stroke="#000000" stroke-width="2" points="316,-39.2 316,-589.2 665,-589.2 665,-39.2 316,-39.2"/>
</a>
</g>
</g>
<!-- organization_server_default_syslog&#45;&gt;organization_server_defaults -->
<g id="edge1" class="edge">
<title>organization_server_default_syslog:w&#45;&gt;organization_server_defaults:e</title>
<path fill="none" stroke="#000000" d="M704.7307,-554.2C690.248,-554.2 683.0938,-554.2 664.5,-554.2"/>
<polygon fill="#000000" stroke="#000000" points="714.7,-550.2 714.7,-558.2 713.1,-558.2 713.1,-550.2 714.7,-550.2"/>
<polyline fill="none" stroke="#000000" points="715.5,-554.2 711.5,-554.2 "/>
<ellipse fill="none" stroke="#000000" cx="708.3" cy="-554.2001" rx="3.2" ry="3.2"/>
</g>
<!-- organizations -->
<g id="node3" class="node">
<title>organizations</title>
<g id="a_node3"><a xlink:href="../../tables/organizations.html" xlink:title="organizations" target="_top">
<polygon fill="#ffffff" stroke="transparent" points="8,-439.7 8,-654.7 266,-654.7 266,-439.7 8,-439.7"/>
<polygon fill="#f5f5f5" stroke="transparent" points="8,-631.2 8,-654.2 266,-654.2 266,-631.2 8,-631.2"/>
<polygon fill="none" stroke="#000000" points="8,-631.2 8,-654.2 266,-654.2 266,-631.2 8,-631.2"/>
<text text-anchor="start" x="13" y="-640.3" font-family="Helvetica,sans-Serif" font-weight="bold" font-size="11.00" fill="#000000">organizations</text>
<text text-anchor="start" x="231.0437" y="-639.3" font-family="Helvetica,sans-Serif" font-size="11.00" fill="#000000">[table]</text>
<polygon fill="#ffffff" stroke="transparent" points="8,-609.2 8,-631.2 266,-631.2 266,-609.2 8,-609.2"/>
<polygon fill="none" stroke="#000000" points="8,-609.2 8,-631.2 266,-631.2 266,-609.2 8,-609.2"/>
<text text-anchor="start" x="28" y="-616.3" font-family="Helvetica,sans-Serif" font-size="11.00" fill="#000000">name</text>
<polygon fill="#ffffff" stroke="transparent" points="8,-587.2 8,-609.2 266,-609.2 266,-587.2 8,-587.2"/>
<polygon fill="none" stroke="#000000" points="8,-587.2 8,-609.2 266,-609.2 266,-587.2 8,-587.2"/>
<image xlink:href="../../images/foreignKeys.png" width="11px" height="12px" preserveAspectRatio="xMinYMin meet" x="13" y="-604.2"/>
<text text-anchor="start" x="28" y="-594.3" font-family="Helvetica,sans-Serif" font-size="11.00" fill="#000000">configKey_fk</text>
<polygon fill="#ffffff" stroke="transparent" points="8,-565.2 8,-587.2 266,-587.2 266,-565.2 8,-565.2"/>
<polygon fill="none" stroke="#000000" points="8,-565.2 8,-587.2 266,-587.2 266,-565.2 8,-565.2"/>
<image xlink:href="../../images/foreignKeys.png" width="11px" height="12px" preserveAspectRatio="xMinYMin meet" x="13" y="-582.2"/>
<text text-anchor="start" x="28" y="-572.3" font-family="Helvetica,sans-Serif" font-size="11.00" fill="#000000">passwordPolicy_fk</text>
<polygon fill="#ffffff" stroke="transparent" points="8,-543.2 8,-565.2 266,-565.2 266,-543.2 8,-543.2"/>
<polygon fill="none" stroke="#000000" points="8,-543.2 8,-565.2 266,-565.2 266,-543.2 8,-543.2"/>
<image xlink:href="../../images/foreignKeys.png" width="11px" height="12px" preserveAspectRatio="xMinYMin meet" x="13" y="-560.2"/>
<text text-anchor="start" x="28" y="-550.3" font-family="Helvetica,sans-Serif" font-size="11.00" fill="#000000">report_settings_fk</text>
<polygon fill="none" stroke="#000000" points="8,-521.2 8,-543.2 266,-543.2 266,-521.2 8,-521.2"/>
<image xlink:href="../../images/primaryKeys.png" width="11px" height="12px" preserveAspectRatio="xMinYMin meet" x="13" y="-538.2"/>
<text text-anchor="start" x="28" y="-528.3" font-family="Helvetica,sans-Serif" font-size="11.00" fill="#000000">id</text>
<polygon fill="#ffffff" stroke="transparent" points="8,-499.2 8,-521.2 266,-521.2 266,-499.2 8,-499.2"/>
<polygon fill="none" stroke="#000000" points="8,-499.2 8,-521.2 266,-521.2 266,-499.2 8,-499.2"/>
<text text-anchor="start" x="28" y="-506.3" font-family="Helvetica,sans-Serif" font-size="11.00" fill="#000000">uuid</text>
<polygon fill="#ffffff" stroke="transparent" points="8,-477.2 8,-499.2 266,-499.2 266,-477.2 8,-477.2"/>
<polygon fill="none" stroke="#000000" points="8,-477.2 8,-499.2 266,-499.2 266,-477.2 8,-477.2"/>
<image xlink:href="../../images/foreignKeys.png" width="11px" height="12px" preserveAspectRatio="xMinYMin meet" x="13" y="-494.2"/>
<text text-anchor="start" x="28" y="-484.3" font-family="Helvetica,sans-Serif" font-size="11.00" fill="#000000">saml_idp_config_fk</text>
<polygon fill="none" stroke="#000000" points="8,-458.2 8,-477.2 266,-477.2 266,-458.2 8,-458.2"/>
<text text-anchor="start" x="11" y="-464.3" font-family="Helvetica,sans-Serif" font-size="11.00" fill="#000000">...</text>
<polygon fill="#ffffff" stroke="transparent" points="8,-439.2 8,-458.2 115,-458.2 115,-439.2 8,-439.2"/>
<polygon fill="none" stroke="#000000" points="8,-439.2 8,-458.2 115,-458.2 115,-439.2 8,-439.2"/>
<text text-anchor="start" x="11" y="-445.3" font-family="Helvetica,sans-Serif" font-size="11.00" fill="#000000">&lt; 4</text>
<polygon fill="#ffffff" stroke="transparent" points="115,-439.2 115,-458.2 196,-458.2 196,-439.2 115,-439.2"/>
<polygon fill="none" stroke="#000000" points="115,-439.2 115,-458.2 196,-458.2 196,-439.2 115,-439.2"/>
<text text-anchor="start" x="160.6105" y="-445.3" font-family="Helvetica,sans-Serif" font-size="11.00" fill="#000000">3 rows</text>
<polygon fill="#ffffff" stroke="transparent" points="196,-439.2 196,-458.2 266,-458.2 266,-439.2 196,-439.2"/>
<polygon fill="none" stroke="#000000" points="196,-439.2 196,-458.2 266,-458.2 266,-439.2 196,-439.2"/>
<text text-anchor="start" x="241.2904" y="-445.3" font-family="Helvetica,sans-Serif" font-size="11.00" fill="#000000">81 &gt;</text>
</a>
</g>
</g>
<!-- organization_server_defaults&#45;&gt;organizations -->
<g id="edge2" class="edge">
<title>organization_server_defaults:w&#45;&gt;organizations:e</title>
<path fill="none" stroke="#000000" d="M303.0156,-532.2C290.6771,-532.2 283.1667,-532.2 266,-532.2"/>
<polygon fill="#000000" stroke="#000000" points="309.5,-532.2001 317.5,-535.8 313.5,-532.2 317.5,-532.2 317.5,-532.2 317.5,-532.2 313.5,-532.2 317.5,-528.6 309.5,-532.2001 309.5,-532.2001"/>
<ellipse fill="none" stroke="#000000" cx="306.3" cy="-532.2001" rx="3.2" ry="3.2"/>
</g>
</g>
</svg>
