<?xml version="1.0" encoding="UTF-8" standalone="no"?>
<!DOCTYPE svg PUBLIC "-//W3C//DTD SVG 1.1//EN"
 "http://www.w3.org/Graphics/SVG/1.1/DTD/svg11.dtd">
<!-- Generated by graphviz version 2.40.1 (20161225.0304)
 -->
<!-- Title: oneDegreeRelationshipsDiagram Pages: 1 -->
<svg width="667pt" height="265pt"
 viewBox="0.00 0.00 667.00 265.20" xmlns="http://www.w3.org/2000/svg" xmlns:xlink="http://www.w3.org/1999/xlink">
<g id="graph0" class="graph" transform="scale(1 1) rotate(0) translate(4 261.2)">
<title>oneDegreeRelationshipsDiagram</title>
<polygon fill="#ffffff" stroke="transparent" points="-4,4 -4,-261.2 663,-261.2 663,4 -4,4"/>
<text text-anchor="middle" x="72.4936" y="-7.3" font-family="Helvetica,sans-Serif" font-size="11.00" fill="#000000">Generated by SchemaSpy</text>
<!-- organization_approval_workflow_status -->
<g id="node1" class="node">
<title>organization_approval_workflow_status</title>
<g id="a_node1"><a xlink:href="../../tables/organization_approval_workflow_status.html" xlink:title="organization_approval_workflow_status" target="_top">
<polygon fill="#ffffff" stroke="transparent" points="315,-76.7 315,-166.7 651,-166.7 651,-76.7 315,-76.7"/>
<polygon fill="#f5f5f5" stroke="transparent" points="317,-141.7 317,-164.7 649,-164.7 649,-141.7 317,-141.7"/>
<polygon fill="none" stroke="#000000" points="317,-141.7 317,-164.7 649,-164.7 649,-141.7 317,-141.7"/>
<text text-anchor="start" x="322" y="-150.8" font-family="Helvetica,sans-Serif" font-weight="bold" font-size="11.00" fill="#000000">organization_approval_workflow_status</text>
<text text-anchor="start" x="614.0437" y="-149.8" font-family="Helvetica,sans-Serif" font-size="11.00" fill="#000000">[table]</text>
<polygon fill="none" stroke="#000000" points="317,-119.7 317,-141.7 566,-141.7 566,-119.7 317,-119.7"/>
<image xlink:href="../../images/primaryKeys.png" width="11px" height="12px" preserveAspectRatio="xMinYMin meet" x="322" y="-136.7"/>
<text text-anchor="start" x="337" y="-126.8" font-family="Helvetica,sans-Serif" font-size="11.00" fill="#000000">organizations_id</text>
<polygon fill="none" stroke="#000000" points="566,-119.7 566,-141.7 649,-141.7 649,-119.7 566,-119.7"/>
<text text-anchor="start" x="568.6783" y="-127.4" font-family="Helvetica,sans-Serif" font-size="11.00" fill="#000000">int unsigned[10]</text>
<polygon fill="none" stroke="#000000" points="317,-97.7 317,-119.7 566,-119.7 566,-97.7 317,-97.7"/>
<image xlink:href="../../images/primaryKeys.png" width="11px" height="12px" preserveAspectRatio="xMinYMin meet" x="322" y="-114.7"/>
<text text-anchor="start" x="337" y="-104.8" font-family="Helvetica,sans-Serif" font-size="11.00" fill="#000000">vulnerability_status</text>
<polygon fill="none" stroke="#000000" points="566,-97.7 566,-119.7 649,-119.7 649,-97.7 566,-97.7"/>
<text text-anchor="start" x="569" y="-105.4" font-family="Helvetica,sans-Serif" font-size="11.00" fill="#000000">varchar[255]</text>
<polygon fill="#ffffff" stroke="transparent" points="317,-78.7 317,-97.7 433,-97.7 433,-78.7 317,-78.7"/>
<polygon fill="none" stroke="#000000" points="317,-78.7 317,-97.7 433,-97.7 433,-78.7 317,-78.7"/>
<text text-anchor="start" x="320" y="-84.8" font-family="Helvetica,sans-Serif" font-size="11.00" fill="#000000">&lt; 1</text>
<polygon fill="#ffffff" stroke="transparent" points="433,-78.7 433,-97.7 566,-97.7 566,-78.7 433,-78.7"/>
<polygon fill="none" stroke="#000000" points="433,-78.7 433,-97.7 566,-97.7 566,-78.7 433,-78.7"/>
<text text-anchor="start" x="530.6105" y="-84.8" font-family="Helvetica,sans-Serif" font-size="11.00" fill="#000000">0 rows</text>
<polygon fill="#ffffff" stroke="transparent" points="566,-78.7 566,-97.7 649,-97.7 649,-78.7 566,-78.7"/>
<polygon fill="none" stroke="#000000" points="566,-78.7 566,-97.7 649,-97.7 649,-78.7 566,-78.7"/>
<text text-anchor="start" x="630.4053" y="-84.8" font-family="Helvetica,sans-Serif" font-size="11.00" fill="#000000">0 &gt;</text>
<polygon fill="none" stroke="#000000" stroke-width="2" points="316,-77.7 316,-165.7 650,-165.7 650,-77.7 316,-77.7"/>
</a>
</g>
</g>
<!-- organizations -->
<g id="node2" class="node">
<title>organizations</title>
<g id="a_node2"><a xlink:href="../../tables/organizations.html" xlink:title="organizations" target="_top">
<polygon fill="#ffffff" stroke="transparent" points="8,-38.2 8,-253.2 266,-253.2 266,-38.2 8,-38.2"/>
<polygon fill="#f5f5f5" stroke="transparent" points="8,-229.7 8,-252.7 266,-252.7 266,-229.7 8,-229.7"/>
<polygon fill="none" stroke="#000000" points="8,-229.7 8,-252.7 266,-252.7 266,-229.7 8,-229.7"/>
<text text-anchor="start" x="13" y="-238.8" font-family="Helvetica,sans-Serif" font-weight="bold" font-size="11.00" fill="#000000">organizations</text>
<text text-anchor="start" x="231.0437" y="-237.8" font-family="Helvetica,sans-Serif" font-size="11.00" fill="#000000">[table]</text>
<polygon fill="#ffffff" stroke="transparent" points="8,-207.7 8,-229.7 266,-229.7 266,-207.7 8,-207.7"/>
<polygon fill="none" stroke="#000000" points="8,-207.7 8,-229.7 266,-229.7 266,-207.7 8,-207.7"/>
<text text-anchor="start" x="28" y="-214.8" font-family="Helvetica,sans-Serif" font-size="11.00" fill="#000000">name</text>
<polygon fill="#ffffff" stroke="transparent" points="8,-185.7 8,-207.7 266,-207.7 266,-185.7 8,-185.7"/>
<polygon fill="none" stroke="#000000" points="8,-185.7 8,-207.7 266,-207.7 266,-185.7 8,-185.7"/>
<image xlink:href="../../images/foreignKeys.png" width="11px" height="12px" preserveAspectRatio="xMinYMin meet" x="13" y="-202.7"/>
<text text-anchor="start" x="28" y="-192.8" font-family="Helvetica,sans-Serif" font-size="11.00" fill="#000000">configKey_fk</text>
<polygon fill="#ffffff" stroke="transparent" points="8,-163.7 8,-185.7 266,-185.7 266,-163.7 8,-163.7"/>
<polygon fill="none" stroke="#000000" points="8,-163.7 8,-185.7 266,-185.7 266,-163.7 8,-163.7"/>
<image xlink:href="../../images/foreignKeys.png" width="11px" height="12px" preserveAspectRatio="xMinYMin meet" x="13" y="-180.7"/>
<text text-anchor="start" x="28" y="-170.8" font-family="Helvetica,sans-Serif" font-size="11.00" fill="#000000">passwordPolicy_fk</text>
<polygon fill="#ffffff" stroke="transparent" points="8,-141.7 8,-163.7 266,-163.7 266,-141.7 8,-141.7"/>
<polygon fill="none" stroke="#000000" points="8,-141.7 8,-163.7 266,-163.7 266,-141.7 8,-141.7"/>
<image xlink:href="../../images/foreignKeys.png" width="11px" height="12px" preserveAspectRatio="xMinYMin meet" x="13" y="-158.7"/>
<text text-anchor="start" x="28" y="-148.8" font-family="Helvetica,sans-Serif" font-size="11.00" fill="#000000">report_settings_fk</text>
<polygon fill="none" stroke="#000000" points="8,-119.7 8,-141.7 266,-141.7 266,-119.7 8,-119.7"/>
<image xlink:href="../../images/primaryKeys.png" width="11px" height="12px" preserveAspectRatio="xMinYMin meet" x="13" y="-136.7"/>
<text text-anchor="start" x="28" y="-126.8" font-family="Helvetica,sans-Serif" font-size="11.00" fill="#000000">id</text>
<polygon fill="#ffffff" stroke="transparent" points="8,-97.7 8,-119.7 266,-119.7 266,-97.7 8,-97.7"/>
<polygon fill="none" stroke="#000000" points="8,-97.7 8,-119.7 266,-119.7 266,-97.7 8,-97.7"/>
<text text-anchor="start" x="28" y="-104.8" font-family="Helvetica,sans-Serif" font-size="11.00" fill="#000000">uuid</text>
<polygon fill="#ffffff" stroke="transparent" points="8,-75.7 8,-97.7 266,-97.7 266,-75.7 8,-75.7"/>
<polygon fill="none" stroke="#000000" points="8,-75.7 8,-97.7 266,-97.7 266,-75.7 8,-75.7"/>
<image xlink:href="../../images/foreignKeys.png" width="11px" height="12px" preserveAspectRatio="xMinYMin meet" x="13" y="-92.7"/>
<text text-anchor="start" x="28" y="-82.8" font-family="Helvetica,sans-Serif" font-size="11.00" fill="#000000">saml_idp_config_fk</text>
<polygon fill="none" stroke="#000000" points="8,-56.7 8,-75.7 266,-75.7 266,-56.7 8,-56.7"/>
<text text-anchor="start" x="11" y="-62.8" font-family="Helvetica,sans-Serif" font-size="11.00" fill="#000000">...</text>
<polygon fill="#ffffff" stroke="transparent" points="8,-37.7 8,-56.7 115,-56.7 115,-37.7 8,-37.7"/>
<polygon fill="none" stroke="#000000" points="8,-37.7 8,-56.7 115,-56.7 115,-37.7 8,-37.7"/>
<text text-anchor="start" x="11" y="-43.8" font-family="Helvetica,sans-Serif" font-size="11.00" fill="#000000">&lt; 4</text>
<polygon fill="#ffffff" stroke="transparent" points="115,-37.7 115,-56.7 196,-56.7 196,-37.7 115,-37.7"/>
<polygon fill="none" stroke="#000000" points="115,-37.7 115,-56.7 196,-56.7 196,-37.7 115,-37.7"/>
<text text-anchor="start" x="160.6105" y="-43.8" font-family="Helvetica,sans-Serif" font-size="11.00" fill="#000000">3 rows</text>
<polygon fill="#ffffff" stroke="transparent" points="196,-37.7 196,-56.7 266,-56.7 266,-37.7 196,-37.7"/>
<polygon fill="none" stroke="#000000" points="196,-37.7 196,-56.7 266,-56.7 266,-37.7 196,-37.7"/>
<text text-anchor="start" x="241.2904" y="-43.8" font-family="Helvetica,sans-Serif" font-size="11.00" fill="#000000">81 &gt;</text>
</a>
</g>
</g>
<!-- organization_approval_workflow_status&#45;&gt;organizations -->
<g id="edge1" class="edge">
<title>organization_approval_workflow_status:w&#45;&gt;organizations:e</title>
<path fill="none" stroke="#000000" d="M302.276,-130.7C290.2815,-130.7 282.8229,-130.7 266,-130.7"/>
<polygon fill="#000000" stroke="#000000" points="309,-130.7001 317,-134.3 313,-130.7 317,-130.7 317,-130.7 317,-130.7 313,-130.7 317,-127.1 309,-130.7001 309,-130.7001"/>
<ellipse fill="none" stroke="#000000" cx="305.8" cy="-130.7001" rx="3.2" ry="3.2"/>
</g>
</g>
</svg>
