digraph "twoDegreesRelationshipsDiagram" {
  graph [
    rankdir="RL"
    bgcolor="#ffffff"
    label="\nGenerated by SchemaSpy"
    labeljust="l"
    nodesep="0.18"
    ranksep="0.46"
    fontname="Helvetica"
    fontsize="11"
    ration="compress"
  ];
  node [
    fontname="Helvetica"
    fontsize="11"
    shape="plaintext"
  ];
  edge [
    arrowsize="0.8"
  ];
  "notifications_messages":"elipses":w -> "organization_remediation_policy":"id":e [arrowhead=none dir=back arrowtail=crowodot];
  "notifications_messages":"elipses":w -> "organizations":"elipses":e [arrowhead=none dir=back arrowtail=crowodot];
  "notifications_user_remediation_policy":"elipses":w -> "organization_remediation_policy":"id":e [arrowhead=none dir=back arrowtail=crowodot];
  "organization_remediation_policy":"organizations_id":w -> "organizations":"elipses":e [arrowhead=none dir=back arrowtail=crowodot];
  "organization_remediation_policy_application_importance":"elipses":w -> "organization_remediation_policy":"id":e [arrowhead=none dir=back arrowtail=crowodot];
  "organization_remediation_policy_applications":"elipses":w -> "organization_remediation_policy":"id":e [arrowhead=none dir=back arrowtail=crowodot];
  "organization_remediation_policy_rule_severity":"organization_remediation_policy_id":w -> "organization_remediation_policy":"id":e [arrowhead=none dir=back arrowtail=crowodot];
  "organization_remediation_policy_rules":"elipses":w -> "organization_remediation_policy":"id":e [arrowhead=none dir=back arrowtail=crowodot];
  "organization_remediation_policy_server_environments":"elipses":w -> "organization_remediation_policy":"id":e [arrowhead=none dir=back arrowtail=crowodot];
  "notifications_messages" [
   label=<
    <TABLE BORDER="0" CELLBORDER="1" CELLSPACING="0" BGCOLOR="#ffffff">
      <TR><TD COLSPAN="3"  BGCOLOR="#f5f5f5"><TABLE BORDER="0" CELLSPACING="0"><TR><TD ALIGN="LEFT"><B>notifications_messages</B></TD><TD ALIGN="RIGHT">[table]</TD></TR></TABLE></TD></TR>
      <TR><TD PORT="elipses" COLSPAN="3" ALIGN="LEFT">...</TD></TR>
      <TR><TD ALIGN="LEFT" BGCOLOR="#ffffff">&lt; 9</TD><TD ALIGN="RIGHT" BGCOLOR="#ffffff">0 rows</TD><TD ALIGN="RIGHT" BGCOLOR="#ffffff">4 &gt;</TD></TR>
    </TABLE>>
    URL="../../tables/notifications_messages.html"
    target="_top"
    tooltip="notifications_messages"
  ];
  "notifications_user_remediation_policy" [
   label=<
    <TABLE BORDER="0" CELLBORDER="1" CELLSPACING="0" BGCOLOR="#ffffff">
      <TR><TD COLSPAN="3"  BGCOLOR="#f5f5f5"><TABLE BORDER="0" CELLSPACING="0"><TR><TD ALIGN="LEFT"><B>notifications_user_remediation_policy</B></TD><TD ALIGN="RIGHT">[table]</TD></TR></TABLE></TD></TR>
      <TR><TD PORT="elipses" COLSPAN="3" ALIGN="LEFT">...</TD></TR>
      <TR><TD ALIGN="LEFT" BGCOLOR="#ffffff">&lt; 3</TD><TD ALIGN="RIGHT" BGCOLOR="#ffffff">0 rows</TD><TD ALIGN="RIGHT" BGCOLOR="#ffffff">  </TD></TR>
    </TABLE>>
    URL="../../tables/notifications_user_remediation_policy.html"
    target="_top"
    tooltip="notifications_user_remediation_policy"
  ];
  "organization_remediation_policy" [
   label=<
    <TABLE BORDER="0" CELLBORDER="1" CELLSPACING="0" BGCOLOR="#ffffff">
      <TR><TD COLSPAN="3"  BGCOLOR="#f5f5f5"><TABLE BORDER="0" CELLSPACING="0"><TR><TD ALIGN="LEFT"><B>organization_remediation_policy</B></TD><TD ALIGN="RIGHT">[table]</TD></TR></TABLE></TD></TR>
      <TR><TD PORT="id" COLSPAN="3" ALIGN="LEFT"><TABLE BORDER="0" CELLSPACING="0" ALIGN="LEFT"><TR ALIGN="LEFT"><TD ALIGN="LEFT" FIXEDSIZE="TRUE" WIDTH="15" HEIGHT="16"><IMG SRC="../../images/primaryKeys.png"/></TD><TD ALIGN="LEFT" FIXEDSIZE="TRUE" WIDTH="187" HEIGHT="16">id</TD></TR></TABLE></TD></TR>
      <TR><TD PORT="organizations_id" COLSPAN="3" BGCOLOR="#ffffff" ALIGN="LEFT"><TABLE BORDER="0" CELLSPACING="0" ALIGN="LEFT"><TR ALIGN="LEFT"><TD ALIGN="LEFT" FIXEDSIZE="TRUE" WIDTH="15" HEIGHT="16"><IMG SRC="../../images/foreignKeys.png"/></TD><TD ALIGN="LEFT" FIXEDSIZE="TRUE" WIDTH="187" HEIGHT="16">organizations_id</TD></TR></TABLE></TD></TR>
      <TR><TD PORT="elipses" COLSPAN="3" ALIGN="LEFT">...</TD></TR>
      <TR><TD ALIGN="LEFT" BGCOLOR="#ffffff">&lt; 1</TD><TD ALIGN="RIGHT" BGCOLOR="#ffffff">0 rows</TD><TD ALIGN="RIGHT" BGCOLOR="#ffffff">7 &gt;</TD></TR>
    </TABLE>>
    URL="../../tables/organization_remediation_policy.html"
    target="_top"
    tooltip="organization_remediation_policy"
  ];
  "organization_remediation_policy_application_importance" [
   label=<
    <TABLE BORDER="0" CELLBORDER="1" CELLSPACING="0" BGCOLOR="#ffffff">
      <TR><TD COLSPAN="3"  BGCOLOR="#f5f5f5"><TABLE BORDER="0" CELLSPACING="0"><TR><TD ALIGN="LEFT"><B>organization_remediation_policy_application_importance</B></TD><TD ALIGN="RIGHT">[table]</TD></TR></TABLE></TD></TR>
      <TR><TD PORT="elipses" COLSPAN="3" ALIGN="LEFT">...</TD></TR>
      <TR><TD ALIGN="LEFT" BGCOLOR="#ffffff">&lt; 1</TD><TD ALIGN="RIGHT" BGCOLOR="#ffffff">0 rows</TD><TD ALIGN="RIGHT" BGCOLOR="#ffffff">  </TD></TR>
    </TABLE>>
    URL="../../tables/organization_remediation_policy_application_importance.html"
    target="_top"
    tooltip="organization_remediation_policy_application_importance"
  ];
  "organization_remediation_policy_applications" [
   label=<
    <TABLE BORDER="0" CELLBORDER="1" CELLSPACING="0" BGCOLOR="#ffffff">
      <TR><TD COLSPAN="3"  BGCOLOR="#f5f5f5"><TABLE BORDER="0" CELLSPACING="0"><TR><TD ALIGN="LEFT"><B>organization_remediation_policy_applications</B></TD><TD ALIGN="RIGHT">[table]</TD></TR></TABLE></TD></TR>
      <TR><TD PORT="elipses" COLSPAN="3" ALIGN="LEFT">...</TD></TR>
      <TR><TD ALIGN="LEFT" BGCOLOR="#ffffff">&lt; 2</TD><TD ALIGN="RIGHT" BGCOLOR="#ffffff">0 rows</TD><TD ALIGN="RIGHT" BGCOLOR="#ffffff">  </TD></TR>
    </TABLE>>
    URL="../../tables/organization_remediation_policy_applications.html"
    target="_top"
    tooltip="organization_remediation_policy_applications"
  ];
  "organization_remediation_policy_rule_severity" [
   label=<
    <TABLE BORDER="2" CELLBORDER="1" CELLSPACING="0" BGCOLOR="#ffffff">
      <TR><TD COLSPAN="4"  BGCOLOR="#f5f5f5"><TABLE BORDER="0" CELLSPACING="0"><TR><TD ALIGN="LEFT"><B>organization_remediation_policy_rule_severity</B></TD><TD ALIGN="RIGHT">[table]</TD></TR></TABLE></TD></TR>
      <TR><TD PORT="organization_remediation_policy_id" COLSPAN="2" ALIGN="LEFT"><TABLE BORDER="0" CELLSPACING="0" ALIGN="LEFT"><TR ALIGN="LEFT"><TD ALIGN="LEFT" FIXEDSIZE="TRUE" WIDTH="15" HEIGHT="16"><IMG SRC="../../images/primaryKeys.png"/></TD><TD ALIGN="LEFT" FIXEDSIZE="TRUE" WIDTH="268" HEIGHT="16">organization_remediation_policy_id</TD></TR></TABLE></TD><TD PORT="organization_remediation_policy_id.type" ALIGN="LEFT">int unsigned[10]</TD></TR>
      <TR><TD PORT="rule_severity" COLSPAN="2" ALIGN="LEFT"><TABLE BORDER="0" CELLSPACING="0" ALIGN="LEFT"><TR ALIGN="LEFT"><TD ALIGN="LEFT" FIXEDSIZE="TRUE" WIDTH="15" HEIGHT="16"><IMG SRC="../../images/primaryKeys.png"/></TD><TD ALIGN="LEFT" FIXEDSIZE="TRUE" WIDTH="268" HEIGHT="16">rule_severity</TD></TR></TABLE></TD><TD PORT="rule_severity.type" ALIGN="LEFT">tinyint[3]</TD></TR>
      <TR><TD ALIGN="LEFT" BGCOLOR="#ffffff">&lt; 1</TD><TD ALIGN="RIGHT" BGCOLOR="#ffffff">0 rows</TD><TD ALIGN="RIGHT" BGCOLOR="#ffffff">0 &gt;</TD></TR>
    </TABLE>>
    URL="../../tables/organization_remediation_policy_rule_severity.html"
    target="_top"
    tooltip="organization_remediation_policy_rule_severity"
  ];
  "organization_remediation_policy_rules" [
   label=<
    <TABLE BORDER="0" CELLBORDER="1" CELLSPACING="0" BGCOLOR="#ffffff">
      <TR><TD COLSPAN="3"  BGCOLOR="#f5f5f5"><TABLE BORDER="0" CELLSPACING="0"><TR><TD ALIGN="LEFT"><B>organization_remediation_policy_rules</B></TD><TD ALIGN="RIGHT">[table]</TD></TR></TABLE></TD></TR>
      <TR><TD PORT="elipses" COLSPAN="3" ALIGN="LEFT">...</TD></TR>
      <TR><TD ALIGN="LEFT" BGCOLOR="#ffffff">&lt; 2</TD><TD ALIGN="RIGHT" BGCOLOR="#ffffff">0 rows</TD><TD ALIGN="RIGHT" BGCOLOR="#ffffff">  </TD></TR>
    </TABLE>>
    URL="../../tables/organization_remediation_policy_rules.html"
    target="_top"
    tooltip="organization_remediation_policy_rules"
  ];
  "organization_remediation_policy_server_environments" [
   label=<
    <TABLE BORDER="0" CELLBORDER="1" CELLSPACING="0" BGCOLOR="#ffffff">
      <TR><TD COLSPAN="3"  BGCOLOR="#f5f5f5"><TABLE BORDER="0" CELLSPACING="0"><TR><TD ALIGN="LEFT"><B>organization_remediation_policy_server_environments</B></TD><TD ALIGN="RIGHT">[table]</TD></TR></TABLE></TD></TR>
      <TR><TD PORT="elipses" COLSPAN="3" ALIGN="LEFT">...</TD></TR>
      <TR><TD ALIGN="LEFT" BGCOLOR="#ffffff">&lt; 1</TD><TD ALIGN="RIGHT" BGCOLOR="#ffffff">0 rows</TD><TD ALIGN="RIGHT" BGCOLOR="#ffffff">  </TD></TR>
    </TABLE>>
    URL="../../tables/organization_remediation_policy_server_environments.html"
    target="_top"
    tooltip="organization_remediation_policy_server_environments"
  ];
  "organizations" [
   label=<
    <TABLE BORDER="0" CELLBORDER="1" CELLSPACING="0" BGCOLOR="#ffffff">
      <TR><TD COLSPAN="3"  BGCOLOR="#f5f5f5"><TABLE BORDER="0" CELLSPACING="0"><TR><TD ALIGN="LEFT"><B>organizations</B></TD><TD ALIGN="RIGHT">[table]</TD></TR></TABLE></TD></TR>
      <TR><TD PORT="elipses" COLSPAN="3" ALIGN="LEFT">...</TD></TR>
      <TR><TD ALIGN="LEFT" BGCOLOR="#ffffff">&lt; 4</TD><TD ALIGN="RIGHT" BGCOLOR="#ffffff">3 rows</TD><TD ALIGN="RIGHT" BGCOLOR="#ffffff">81 &gt;</TD></TR>
    </TABLE>>
    URL="../../tables/organizations.html"
    target="_top"
    tooltip="organizations"
  ];
}
