<?xml version="1.0" encoding="UTF-8" standalone="no"?>
<!DOCTYPE svg PUBLIC "-//W3C//DTD SVG 1.1//EN"
 "http://www.w3.org/Graphics/SVG/1.1/DTD/svg11.dtd">
<!-- Generated by graphviz version 2.40.1 (20161225.0304)
 -->
<!-- Title: twoDegreesRelationshipsDiagram Pages: 1 -->
<svg width="798pt" height="1522pt"
 viewBox="0.00 0.00 798.00 1522.20" xmlns="http://www.w3.org/2000/svg" xmlns:xlink="http://www.w3.org/1999/xlink">
<g id="graph0" class="graph" transform="scale(1 1) rotate(0) translate(4 1518.2)">
<title>twoDegreesRelationshipsDiagram</title>
<polygon fill="#ffffff" stroke="transparent" points="-4,4 -4,-1518.2 794,-1518.2 794,4 -4,4"/>
<text text-anchor="middle" x="72.4936" y="-7.3" font-family="Helvetica,sans-Serif" font-size="11.00" fill="#000000">Generated by SchemaSpy</text>
<!-- app_assess_rules_env_configs -->
<g id="node1" class="node">
<title>app_assess_rules_env_configs</title>
<g id="a_node1"><a xlink:href="../../tables/app_assess_rules_env_configs.html" xlink:title="app_assess_rules_env_configs" target="_top">
<polygon fill="#ffffff" stroke="transparent" points="195.5,-202.2 195.5,-263.2 391.5,-263.2 391.5,-202.2 195.5,-202.2"/>
<polygon fill="#f5f5f5" stroke="transparent" points="195.5,-239.7 195.5,-262.7 391.5,-262.7 391.5,-239.7 195.5,-239.7"/>
<polygon fill="none" stroke="#000000" points="195.5,-239.7 195.5,-262.7 391.5,-262.7 391.5,-239.7 195.5,-239.7"/>
<text text-anchor="start" x="200.2805" y="-248.8" font-family="Helvetica,sans-Serif" font-weight="bold" font-size="11.00" fill="#000000">app_assess_rules_env_configs</text>
<text text-anchor="start" x="357.0219" y="-247.8" font-family="Helvetica,sans-Serif" font-size="11.00" fill="#000000">[table]</text>
<polygon fill="none" stroke="#000000" points="195.5,-220.7 195.5,-239.7 391.5,-239.7 391.5,-220.7 195.5,-220.7"/>
<text text-anchor="start" x="198.5" y="-226.8" font-family="Helvetica,sans-Serif" font-size="11.00" fill="#000000">...</text>
<polygon fill="#ffffff" stroke="transparent" points="195.5,-201.7 195.5,-220.7 278.5,-220.7 278.5,-201.7 195.5,-201.7"/>
<polygon fill="none" stroke="#000000" points="195.5,-201.7 195.5,-220.7 278.5,-220.7 278.5,-201.7 195.5,-201.7"/>
<text text-anchor="start" x="198.5" y="-207.8" font-family="Helvetica,sans-Serif" font-size="11.00" fill="#000000">&lt; 2</text>
<polygon fill="#ffffff" stroke="transparent" points="278.5,-201.7 278.5,-220.7 347.5,-220.7 347.5,-201.7 278.5,-201.7"/>
<polygon fill="none" stroke="#000000" points="278.5,-201.7 278.5,-220.7 347.5,-220.7 347.5,-201.7 278.5,-201.7"/>
<text text-anchor="start" x="312.1105" y="-207.8" font-family="Helvetica,sans-Serif" font-size="11.00" fill="#000000">0 rows</text>
<polygon fill="#ffffff" stroke="transparent" points="347.5,-201.7 347.5,-220.7 391.5,-220.7 391.5,-201.7 347.5,-201.7"/>
<polygon fill="none" stroke="#000000" points="347.5,-201.7 347.5,-220.7 391.5,-220.7 391.5,-201.7 347.5,-201.7"/>
<text text-anchor="start" x="382.3862" y="-207.8" font-family="Helvetica,sans-Serif" font-size="11.00" fill="#000000"> &#160;</text>
</a>
</g>
</g>
<!-- rules -->
<g id="node2" class="node">
<title>rules</title>
<g id="a_node2"><a xlink:href="../../tables/rules.html" xlink:title="rules" target="_top">
<polygon fill="#ffffff" stroke="transparent" points="8,-556.2 8,-661.2 135,-661.2 135,-556.2 8,-556.2"/>
<polygon fill="#f5f5f5" stroke="transparent" points="8.5,-637.7 8.5,-660.7 135.5,-660.7 135.5,-637.7 8.5,-637.7"/>
<polygon fill="none" stroke="#000000" points="8.5,-637.7 8.5,-660.7 135.5,-660.7 135.5,-637.7 8.5,-637.7"/>
<text text-anchor="start" x="13.5" y="-646.8" font-family="Helvetica,sans-Serif" font-weight="bold" font-size="11.00" fill="#000000">rules</text>
<text text-anchor="start" x="100.5437" y="-645.8" font-family="Helvetica,sans-Serif" font-size="11.00" fill="#000000">[table]</text>
<polygon fill="none" stroke="#000000" points="8.5,-615.7 8.5,-637.7 135.5,-637.7 135.5,-615.7 8.5,-615.7"/>
<image xlink:href="../../images/primaryKeys.png" width="11px" height="12px" preserveAspectRatio="xMinYMin meet" x="13.5" y="-632.7"/>
<text text-anchor="start" x="28.5" y="-622.8" font-family="Helvetica,sans-Serif" font-size="11.00" fill="#000000">name</text>
<polygon fill="#ffffff" stroke="transparent" points="8.5,-593.7 8.5,-615.7 135.5,-615.7 135.5,-593.7 8.5,-593.7"/>
<polygon fill="none" stroke="#000000" points="8.5,-593.7 8.5,-615.7 135.5,-615.7 135.5,-593.7 8.5,-593.7"/>
<text text-anchor="start" x="28.5" y="-600.8" font-family="Helvetica,sans-Serif" font-size="11.00" fill="#000000">title</text>
<polygon fill="none" stroke="#000000" points="8.5,-574.7 8.5,-593.7 135.5,-593.7 135.5,-574.7 8.5,-574.7"/>
<text text-anchor="start" x="11.5" y="-580.8" font-family="Helvetica,sans-Serif" font-size="11.00" fill="#000000">...</text>
<polygon fill="#ffffff" stroke="transparent" points="8.5,-555.7 8.5,-574.7 42.5,-574.7 42.5,-555.7 8.5,-555.7"/>
<polygon fill="none" stroke="#000000" points="8.5,-555.7 8.5,-574.7 42.5,-574.7 42.5,-555.7 8.5,-555.7"/>
<text text-anchor="start" x="11.5" y="-561.8" font-family="Helvetica,sans-Serif" font-size="11.00" fill="#000000"> &#160;</text>
<polygon fill="#ffffff" stroke="transparent" points="42.5,-555.7 42.5,-574.7 97.5,-574.7 97.5,-555.7 42.5,-555.7"/>
<polygon fill="none" stroke="#000000" points="42.5,-555.7 42.5,-574.7 97.5,-574.7 97.5,-555.7 42.5,-555.7"/>
<text text-anchor="start" x="55.9956" y="-561.8" font-family="Helvetica,sans-Serif" font-size="11.00" fill="#000000">82 rows</text>
<polygon fill="#ffffff" stroke="transparent" points="97.5,-555.7 97.5,-574.7 135.5,-574.7 135.5,-555.7 97.5,-555.7"/>
<polygon fill="none" stroke="#000000" points="97.5,-555.7 97.5,-574.7 135.5,-574.7 135.5,-555.7 97.5,-555.7"/>
<text text-anchor="start" x="110.7904" y="-561.8" font-family="Helvetica,sans-Serif" font-size="11.00" fill="#000000">16 &gt;</text>
</a>
</g>
</g>
<!-- app_assess_rules_env_configs&#45;&gt;rules -->
<g id="edge1" class="edge">
<title>app_assess_rules_env_configs:w&#45;&gt;rules:e</title>
<path fill="none" stroke="#000000" d="M181.485,-233.8899C119.8579,-276.3188 219.3219,-626.7 135.5,-626.7"/>
<polygon fill="#000000" stroke="#000000" points="187.8352,-231.9915 196.5312,-233.1492 191.6676,-230.8457 195.5,-229.7 195.5,-229.7 195.5,-229.7 191.6676,-230.8457 194.4688,-226.2508 187.8352,-231.9915 187.8352,-231.9915"/>
<ellipse fill="none" stroke="#000000" cx="184.7693" cy="-232.9081" rx="3.2" ry="3.2"/>
</g>
<!-- app_compliance_policy_rules -->
<g id="node3" class="node">
<title>app_compliance_policy_rules</title>
<g id="a_node3"><a xlink:href="../../tables/app_compliance_policy_rules.html" xlink:title="app_compliance_policy_rules" target="_top">
<polygon fill="#ffffff" stroke="transparent" points="200,-120.2 200,-181.2 387,-181.2 387,-120.2 200,-120.2"/>
<polygon fill="#f5f5f5" stroke="transparent" points="200.5,-157.7 200.5,-180.7 387.5,-180.7 387.5,-157.7 200.5,-157.7"/>
<polygon fill="none" stroke="#000000" points="200.5,-157.7 200.5,-180.7 387.5,-180.7 387.5,-157.7 200.5,-157.7"/>
<text text-anchor="start" x="205.3741" y="-166.8" font-family="Helvetica,sans-Serif" font-weight="bold" font-size="11.00" fill="#000000">app_compliance_policy_rules</text>
<text text-anchor="start" x="353.0219" y="-165.8" font-family="Helvetica,sans-Serif" font-size="11.00" fill="#000000">[table]</text>
<polygon fill="none" stroke="#000000" points="200.5,-138.7 200.5,-157.7 387.5,-157.7 387.5,-138.7 200.5,-138.7"/>
<text text-anchor="start" x="203.5" y="-144.8" font-family="Helvetica,sans-Serif" font-size="11.00" fill="#000000">...</text>
<polygon fill="#ffffff" stroke="transparent" points="200.5,-119.7 200.5,-138.7 268.5,-138.7 268.5,-119.7 200.5,-119.7"/>
<polygon fill="none" stroke="#000000" points="200.5,-119.7 200.5,-138.7 268.5,-138.7 268.5,-119.7 200.5,-119.7"/>
<text text-anchor="start" x="203.5" y="-125.8" font-family="Helvetica,sans-Serif" font-size="11.00" fill="#000000">&lt; 2</text>
<polygon fill="#ffffff" stroke="transparent" points="268.5,-119.7 268.5,-138.7 351.5,-138.7 351.5,-119.7 268.5,-119.7"/>
<polygon fill="none" stroke="#000000" points="268.5,-119.7 268.5,-138.7 351.5,-138.7 351.5,-119.7 268.5,-119.7"/>
<text text-anchor="start" x="294.7089" y="-125.8" font-family="Helvetica,sans-Serif" font-size="11.00" fill="#000000">1,005 rows</text>
<polygon fill="#ffffff" stroke="transparent" points="351.5,-119.7 351.5,-138.7 387.5,-138.7 387.5,-119.7 351.5,-119.7"/>
<polygon fill="none" stroke="#000000" points="351.5,-119.7 351.5,-138.7 387.5,-138.7 387.5,-119.7 351.5,-119.7"/>
<text text-anchor="start" x="378.3862" y="-125.8" font-family="Helvetica,sans-Serif" font-size="11.00" fill="#000000"> &#160;</text>
</a>
</g>
</g>
<!-- app_compliance_policy_rules&#45;&gt;rules -->
<g id="edge2" class="edge">
<title>app_compliance_policy_rules:w&#45;&gt;rules:e</title>
<path fill="none" stroke="#000000" d="M186.9121,-152.7939C179.7927,-160.6735 180.7094,-176.5001 176,-191.7 161.6339,-238.0678 184.0424,-626.7 135.5,-626.7"/>
<polygon fill="#000000" stroke="#000000" points="193.0091,-150.5083 201.7637,-151.0709 196.7545,-149.1041 200.5,-147.7 200.5,-147.7 200.5,-147.7 196.7545,-149.1041 199.2363,-144.3291 193.0091,-150.5083 193.0091,-150.5083"/>
<ellipse fill="none" stroke="#000000" cx="190.0127" cy="-151.6316" rx="3.2" ry="3.2"/>
</g>
<!-- bugtracker_autocreate_rule_config -->
<g id="node4" class="node">
<title>bugtracker_autocreate_rule_config</title>
<g id="a_node4"><a xlink:href="../../tables/bugtracker_autocreate_rule_config.html" xlink:title="bugtracker_autocreate_rule_config" target="_top">
<polygon fill="#ffffff" stroke="transparent" points="187.5,-38.2 187.5,-99.2 399.5,-99.2 399.5,-38.2 187.5,-38.2"/>
<polygon fill="#f5f5f5" stroke="transparent" points="187.5,-75.7 187.5,-98.7 399.5,-98.7 399.5,-75.7 187.5,-75.7"/>
<polygon fill="none" stroke="#000000" points="187.5,-75.7 187.5,-98.7 399.5,-98.7 399.5,-75.7 187.5,-75.7"/>
<text text-anchor="start" x="192.03" y="-84.8" font-family="Helvetica,sans-Serif" font-weight="bold" font-size="11.00" fill="#000000">bugtracker_autocreate_rule_config</text>
<text text-anchor="start" x="365.0219" y="-83.8" font-family="Helvetica,sans-Serif" font-size="11.00" fill="#000000">[table]</text>
<polygon fill="none" stroke="#000000" points="187.5,-56.7 187.5,-75.7 399.5,-75.7 399.5,-56.7 187.5,-56.7"/>
<text text-anchor="start" x="190.5" y="-62.8" font-family="Helvetica,sans-Serif" font-size="11.00" fill="#000000">...</text>
<polygon fill="#ffffff" stroke="transparent" points="187.5,-37.7 187.5,-56.7 278.5,-56.7 278.5,-37.7 187.5,-37.7"/>
<polygon fill="none" stroke="#000000" points="187.5,-37.7 187.5,-56.7 278.5,-56.7 278.5,-37.7 187.5,-37.7"/>
<text text-anchor="start" x="190.5" y="-43.8" font-family="Helvetica,sans-Serif" font-size="11.00" fill="#000000">&lt; 2</text>
<polygon fill="#ffffff" stroke="transparent" points="278.5,-37.7 278.5,-56.7 351.5,-56.7 351.5,-37.7 278.5,-37.7"/>
<polygon fill="none" stroke="#000000" points="278.5,-37.7 278.5,-56.7 351.5,-56.7 351.5,-37.7 278.5,-37.7"/>
<text text-anchor="start" x="316.1105" y="-43.8" font-family="Helvetica,sans-Serif" font-size="11.00" fill="#000000">0 rows</text>
<polygon fill="#ffffff" stroke="transparent" points="351.5,-37.7 351.5,-56.7 399.5,-56.7 399.5,-37.7 351.5,-37.7"/>
<polygon fill="none" stroke="#000000" points="351.5,-37.7 351.5,-56.7 399.5,-56.7 399.5,-37.7 351.5,-37.7"/>
<text text-anchor="start" x="390.3862" y="-43.8" font-family="Helvetica,sans-Serif" font-size="11.00" fill="#000000"> &#160;</text>
</a>
</g>
</g>
<!-- bugtracker_autocreate_rule_config&#45;&gt;rules -->
<g id="edge3" class="edge">
<title>bugtracker_autocreate_rule_config:w&#45;&gt;rules:e</title>
<path fill="none" stroke="#000000" d="M175.6947,-74.512C135.0172,-145.8832 193.4544,-626.7 135.5,-626.7"/>
<polygon fill="#000000" stroke="#000000" points="181.0891,-70.4854 189.6534,-68.5849 184.2945,-68.0927 187.5,-65.7 187.5,-65.7 187.5,-65.7 184.2945,-68.0927 185.3466,-62.8151 181.0891,-70.4854 181.0891,-70.4854"/>
<ellipse fill="none" stroke="#000000" cx="178.5247" cy="-72.3996" rx="3.2" ry="3.2"/>
</g>
<!-- compliance_report_category_rules -->
<g id="node5" class="node">
<title>compliance_report_category_rules</title>
<g id="a_node5"><a xlink:href="../../tables/compliance_report_category_rules.html" xlink:title="compliance_report_category_rules" target="_top">
<polygon fill="#ffffff" stroke="transparent" points="188,-914.2 188,-975.2 399,-975.2 399,-914.2 188,-914.2"/>
<polygon fill="#f5f5f5" stroke="transparent" points="188.5,-951.7 188.5,-974.7 399.5,-974.7 399.5,-951.7 188.5,-951.7"/>
<polygon fill="none" stroke="#000000" points="188.5,-951.7 188.5,-974.7 399.5,-974.7 399.5,-951.7 188.5,-951.7"/>
<text text-anchor="start" x="193.1504" y="-960.8" font-family="Helvetica,sans-Serif" font-weight="bold" font-size="11.00" fill="#000000">compliance_report_category_rules</text>
<text text-anchor="start" x="365.0219" y="-959.8" font-family="Helvetica,sans-Serif" font-size="11.00" fill="#000000">[table]</text>
<polygon fill="none" stroke="#000000" points="188.5,-932.7 188.5,-951.7 399.5,-951.7 399.5,-932.7 188.5,-932.7"/>
<text text-anchor="start" x="191.5" y="-938.8" font-family="Helvetica,sans-Serif" font-size="11.00" fill="#000000">...</text>
<polygon fill="#ffffff" stroke="transparent" points="188.5,-913.7 188.5,-932.7 273.5,-932.7 273.5,-913.7 188.5,-913.7"/>
<polygon fill="none" stroke="#000000" points="188.5,-913.7 188.5,-932.7 273.5,-932.7 273.5,-913.7 188.5,-913.7"/>
<text text-anchor="start" x="191.5" y="-919.8" font-family="Helvetica,sans-Serif" font-size="11.00" fill="#000000">&lt; 2</text>
<polygon fill="#ffffff" stroke="transparent" points="273.5,-913.7 273.5,-932.7 355.5,-932.7 355.5,-913.7 273.5,-913.7"/>
<polygon fill="none" stroke="#000000" points="273.5,-913.7 273.5,-932.7 355.5,-932.7 355.5,-913.7 273.5,-913.7"/>
<text text-anchor="start" x="307.8807" y="-919.8" font-family="Helvetica,sans-Serif" font-size="11.00" fill="#000000">470 rows</text>
<polygon fill="#ffffff" stroke="transparent" points="355.5,-913.7 355.5,-932.7 399.5,-932.7 399.5,-913.7 355.5,-913.7"/>
<polygon fill="none" stroke="#000000" points="355.5,-913.7 355.5,-932.7 399.5,-932.7 399.5,-913.7 355.5,-913.7"/>
<text text-anchor="start" x="390.3862" y="-919.8" font-family="Helvetica,sans-Serif" font-size="11.00" fill="#000000"> &#160;</text>
</a>
</g>
</g>
<!-- compliance_report_category_rules&#45;&gt;rules -->
<g id="edge4" class="edge">
<title>compliance_report_category_rules:w&#45;&gt;rules:e</title>
<path fill="none" stroke="#000000" d="M174.9219,-936.4954C130.1417,-895.5394 201.0769,-626.7 135.5,-626.7"/>
<polygon fill="#000000" stroke="#000000" points="181.03,-938.8366 187.2115,-945.0615 184.765,-940.2683 188.5,-941.7 188.5,-941.7 188.5,-941.7 184.765,-940.2683 189.7885,-938.3385 181.03,-938.8366 181.03,-938.8366"/>
<ellipse fill="none" stroke="#000000" cx="178.0419" cy="-937.6913" rx="3.2" ry="3.2"/>
</g>
<!-- disabled_rules -->
<g id="node6" class="node">
<title>disabled_rules</title>
<g id="a_node6"><a xlink:href="../../tables/disabled_rules.html" xlink:title="disabled_rules" target="_top">
<polygon fill="#ffffff" stroke="transparent" points="237,-832.2 237,-893.2 350,-893.2 350,-832.2 237,-832.2"/>
<polygon fill="#f5f5f5" stroke="transparent" points="237.5,-869.7 237.5,-892.7 350.5,-892.7 350.5,-869.7 237.5,-869.7"/>
<polygon fill="none" stroke="#000000" points="237.5,-869.7 237.5,-892.7 350.5,-892.7 350.5,-869.7 237.5,-869.7"/>
<text text-anchor="start" x="242.0481" y="-878.8" font-family="Helvetica,sans-Serif" font-weight="bold" font-size="11.00" fill="#000000">disabled_rules</text>
<text text-anchor="start" x="316.0219" y="-877.8" font-family="Helvetica,sans-Serif" font-size="11.00" fill="#000000">[table]</text>
<polygon fill="none" stroke="#000000" points="237.5,-850.7 237.5,-869.7 350.5,-869.7 350.5,-850.7 237.5,-850.7"/>
<text text-anchor="start" x="240.5" y="-856.8" font-family="Helvetica,sans-Serif" font-size="11.00" fill="#000000">...</text>
<polygon fill="#ffffff" stroke="transparent" points="237.5,-831.7 237.5,-850.7 279.5,-850.7 279.5,-831.7 237.5,-831.7"/>
<polygon fill="none" stroke="#000000" points="237.5,-831.7 237.5,-850.7 279.5,-850.7 279.5,-831.7 237.5,-831.7"/>
<text text-anchor="start" x="240.5" y="-837.8" font-family="Helvetica,sans-Serif" font-size="11.00" fill="#000000">&lt; 2</text>
<polygon fill="#ffffff" stroke="transparent" points="279.5,-831.7 279.5,-850.7 327.5,-850.7 327.5,-831.7 279.5,-831.7"/>
<polygon fill="none" stroke="#000000" points="279.5,-831.7 279.5,-850.7 327.5,-850.7 327.5,-831.7 279.5,-831.7"/>
<text text-anchor="start" x="292.1105" y="-837.8" font-family="Helvetica,sans-Serif" font-size="11.00" fill="#000000">0 rows</text>
<polygon fill="#ffffff" stroke="transparent" points="327.5,-831.7 327.5,-850.7 350.5,-850.7 350.5,-831.7 327.5,-831.7"/>
<polygon fill="none" stroke="#000000" points="327.5,-831.7 327.5,-850.7 350.5,-850.7 350.5,-831.7 327.5,-831.7"/>
<text text-anchor="start" x="341.3862" y="-837.8" font-family="Helvetica,sans-Serif" font-size="11.00" fill="#000000"> &#160;</text>
</a>
</g>
</g>
<!-- disabled_rules&#45;&gt;rules -->
<g id="edge5" class="edge">
<title>disabled_rules:w&#45;&gt;rules:e</title>
<path fill="none" stroke="#000000" d="M222.9674,-858.6971C201.4846,-855.3621 191.3377,-843.5957 176,-821.7 125.2155,-749.2014 224.0162,-626.7 135.5,-626.7"/>
<polygon fill="#000000" stroke="#000000" points="229.519,-859.1492 237.2521,-863.2915 233.5095,-859.4246 237.5,-859.7 237.5,-859.7 237.5,-859.7 233.5095,-859.4246 237.7479,-856.1085 229.519,-859.1492 229.519,-859.1492"/>
<ellipse fill="none" stroke="#000000" cx="226.3266" cy="-858.9288" rx="3.2" ry="3.2"/>
</g>
<!-- job_outcome_policy_rule -->
<g id="node7" class="node">
<title>job_outcome_policy_rule</title>
<g id="a_node7"><a xlink:href="../../tables/job_outcome_policy_rule.html" xlink:title="job_outcome_policy_rule" target="_top">
<polygon fill="#ffffff" stroke="transparent" points="211.5,-750.2 211.5,-811.2 375.5,-811.2 375.5,-750.2 211.5,-750.2"/>
<polygon fill="#f5f5f5" stroke="transparent" points="211.5,-787.7 211.5,-810.7 375.5,-810.7 375.5,-787.7 211.5,-787.7"/>
<polygon fill="none" stroke="#000000" points="211.5,-787.7 211.5,-810.7 375.5,-810.7 375.5,-787.7 211.5,-787.7"/>
<text text-anchor="start" x="216.181" y="-796.8" font-family="Helvetica,sans-Serif" font-weight="bold" font-size="11.00" fill="#000000">job_outcome_policy_rule</text>
<text text-anchor="start" x="341.0219" y="-795.8" font-family="Helvetica,sans-Serif" font-size="11.00" fill="#000000">[table]</text>
<polygon fill="none" stroke="#000000" points="211.5,-768.7 211.5,-787.7 375.5,-787.7 375.5,-768.7 211.5,-768.7"/>
<text text-anchor="start" x="214.5" y="-774.8" font-family="Helvetica,sans-Serif" font-size="11.00" fill="#000000">...</text>
<polygon fill="#ffffff" stroke="transparent" points="211.5,-749.7 211.5,-768.7 278.5,-768.7 278.5,-749.7 211.5,-749.7"/>
<polygon fill="none" stroke="#000000" points="211.5,-749.7 211.5,-768.7 278.5,-768.7 278.5,-749.7 211.5,-749.7"/>
<text text-anchor="start" x="214.5" y="-755.8" font-family="Helvetica,sans-Serif" font-size="11.00" fill="#000000">&lt; 2</text>
<polygon fill="#ffffff" stroke="transparent" points="278.5,-749.7 278.5,-768.7 339.5,-768.7 339.5,-749.7 278.5,-749.7"/>
<polygon fill="none" stroke="#000000" points="278.5,-749.7 278.5,-768.7 339.5,-768.7 339.5,-749.7 278.5,-749.7"/>
<text text-anchor="start" x="304.1105" y="-755.8" font-family="Helvetica,sans-Serif" font-size="11.00" fill="#000000">0 rows</text>
<polygon fill="#ffffff" stroke="transparent" points="339.5,-749.7 339.5,-768.7 375.5,-768.7 375.5,-749.7 339.5,-749.7"/>
<polygon fill="none" stroke="#000000" points="339.5,-749.7 339.5,-768.7 375.5,-768.7 375.5,-749.7 339.5,-749.7"/>
<text text-anchor="start" x="366.3862" y="-755.8" font-family="Helvetica,sans-Serif" font-size="11.00" fill="#000000"> &#160;</text>
</a>
</g>
</g>
<!-- job_outcome_policy_rule&#45;&gt;rules -->
<g id="edge6" class="edge">
<title>job_outcome_policy_rule:w&#45;&gt;rules:e</title>
<path fill="none" stroke="#000000" d="M197.118,-775.3282C146.5685,-756.1177 205.0559,-626.7 135.5,-626.7"/>
<polygon fill="#000000" stroke="#000000" points="203.6066,-776.3982 210.9142,-781.252 207.5533,-777.0491 211.5,-777.7 211.5,-777.7 211.5,-777.7 207.5533,-777.0491 212.0858,-774.148 203.6066,-776.3982 203.6066,-776.3982"/>
<ellipse fill="none" stroke="#000000" cx="200.4493" cy="-775.8775" rx="3.2" ry="3.2"/>
</g>
<!-- notifications_messages -->
<g id="node8" class="node">
<title>notifications_messages</title>
<g id="a_node8"><a xlink:href="../../tables/notifications_messages.html" xlink:title="notifications_messages" target="_top">
<polygon fill="#ffffff" stroke="transparent" points="538.5,-1449.2 538.5,-1510.2 695.5,-1510.2 695.5,-1449.2 538.5,-1449.2"/>
<polygon fill="#f5f5f5" stroke="transparent" points="539,-1486.7 539,-1509.7 696,-1509.7 696,-1486.7 539,-1486.7"/>
<polygon fill="none" stroke="#000000" points="539,-1486.7 539,-1509.7 696,-1509.7 696,-1486.7 539,-1486.7"/>
<text text-anchor="start" x="543.8479" y="-1495.8" font-family="Helvetica,sans-Serif" font-weight="bold" font-size="11.00" fill="#000000">notifications_messages</text>
<text text-anchor="start" x="661.5219" y="-1494.8" font-family="Helvetica,sans-Serif" font-size="11.00" fill="#000000">[table]</text>
<polygon fill="none" stroke="#000000" points="539,-1467.7 539,-1486.7 696,-1486.7 696,-1467.7 539,-1467.7"/>
<text text-anchor="start" x="542" y="-1473.8" font-family="Helvetica,sans-Serif" font-size="11.00" fill="#000000">...</text>
<polygon fill="#ffffff" stroke="transparent" points="539,-1448.7 539,-1467.7 598,-1467.7 598,-1448.7 539,-1448.7"/>
<polygon fill="none" stroke="#000000" points="539,-1448.7 539,-1467.7 598,-1467.7 598,-1448.7 539,-1448.7"/>
<text text-anchor="start" x="542" y="-1454.8" font-family="Helvetica,sans-Serif" font-size="11.00" fill="#000000">&lt; 9</text>
<polygon fill="#ffffff" stroke="transparent" points="598,-1448.7 598,-1467.7 655,-1467.7 655,-1448.7 598,-1448.7"/>
<polygon fill="none" stroke="#000000" points="598,-1448.7 598,-1467.7 655,-1467.7 655,-1448.7 598,-1448.7"/>
<text text-anchor="start" x="619.6105" y="-1454.8" font-family="Helvetica,sans-Serif" font-size="11.00" fill="#000000">0 rows</text>
<polygon fill="#ffffff" stroke="transparent" points="655,-1448.7 655,-1467.7 696,-1467.7 696,-1448.7 655,-1448.7"/>
<polygon fill="none" stroke="#000000" points="655,-1448.7 655,-1467.7 696,-1467.7 696,-1448.7 655,-1448.7"/>
<text text-anchor="start" x="677.4053" y="-1454.8" font-family="Helvetica,sans-Serif" font-size="11.00" fill="#000000">4 &gt;</text>
</a>
</g>
</g>
<!-- organization_remediation_policy -->
<g id="node9" class="node">
<title>organization_remediation_policy</title>
<g id="a_node9"><a xlink:href="../../tables/organization_remediation_policy.html" xlink:title="organization_remediation_policy" target="_top">
<polygon fill="#ffffff" stroke="transparent" points="189.5,-1242.2 189.5,-1347.2 397.5,-1347.2 397.5,-1242.2 189.5,-1242.2"/>
<polygon fill="#f5f5f5" stroke="transparent" points="189.5,-1323.7 189.5,-1346.7 397.5,-1346.7 397.5,-1323.7 189.5,-1323.7"/>
<polygon fill="none" stroke="#000000" points="189.5,-1323.7 189.5,-1346.7 397.5,-1346.7 397.5,-1323.7 189.5,-1323.7"/>
<text text-anchor="start" x="194.5" y="-1332.8" font-family="Helvetica,sans-Serif" font-weight="bold" font-size="11.00" fill="#000000">organization_remediation_policy</text>
<text text-anchor="start" x="362.5437" y="-1331.8" font-family="Helvetica,sans-Serif" font-size="11.00" fill="#000000">[table]</text>
<polygon fill="none" stroke="#000000" points="189.5,-1301.7 189.5,-1323.7 397.5,-1323.7 397.5,-1301.7 189.5,-1301.7"/>
<image xlink:href="../../images/primaryKeys.png" width="11px" height="12px" preserveAspectRatio="xMinYMin meet" x="194.5" y="-1318.7"/>
<text text-anchor="start" x="209.5" y="-1308.8" font-family="Helvetica,sans-Serif" font-size="11.00" fill="#000000">id</text>
<polygon fill="#ffffff" stroke="transparent" points="189.5,-1279.7 189.5,-1301.7 397.5,-1301.7 397.5,-1279.7 189.5,-1279.7"/>
<polygon fill="none" stroke="#000000" points="189.5,-1279.7 189.5,-1301.7 397.5,-1301.7 397.5,-1279.7 189.5,-1279.7"/>
<image xlink:href="../../images/foreignKeys.png" width="11px" height="12px" preserveAspectRatio="xMinYMin meet" x="194.5" y="-1296.7"/>
<text text-anchor="start" x="209.5" y="-1286.8" font-family="Helvetica,sans-Serif" font-size="11.00" fill="#000000">organizations_id</text>
<polygon fill="none" stroke="#000000" points="189.5,-1260.7 189.5,-1279.7 397.5,-1279.7 397.5,-1260.7 189.5,-1260.7"/>
<text text-anchor="start" x="192.5" y="-1266.8" font-family="Helvetica,sans-Serif" font-size="11.00" fill="#000000">...</text>
<polygon fill="#ffffff" stroke="transparent" points="189.5,-1241.7 189.5,-1260.7 274.5,-1260.7 274.5,-1241.7 189.5,-1241.7"/>
<polygon fill="none" stroke="#000000" points="189.5,-1241.7 189.5,-1260.7 274.5,-1260.7 274.5,-1241.7 189.5,-1241.7"/>
<text text-anchor="start" x="192.5" y="-1247.8" font-family="Helvetica,sans-Serif" font-size="11.00" fill="#000000">&lt; 1</text>
<polygon fill="#ffffff" stroke="transparent" points="274.5,-1241.7 274.5,-1260.7 344.5,-1260.7 344.5,-1241.7 274.5,-1241.7"/>
<polygon fill="none" stroke="#000000" points="274.5,-1241.7 274.5,-1260.7 344.5,-1260.7 344.5,-1241.7 274.5,-1241.7"/>
<text text-anchor="start" x="309.1105" y="-1247.8" font-family="Helvetica,sans-Serif" font-size="11.00" fill="#000000">0 rows</text>
<polygon fill="#ffffff" stroke="transparent" points="344.5,-1241.7 344.5,-1260.7 397.5,-1260.7 397.5,-1241.7 344.5,-1241.7"/>
<polygon fill="none" stroke="#000000" points="344.5,-1241.7 344.5,-1260.7 397.5,-1260.7 397.5,-1241.7 344.5,-1241.7"/>
<text text-anchor="start" x="378.9053" y="-1247.8" font-family="Helvetica,sans-Serif" font-size="11.00" fill="#000000">7 &gt;</text>
</a>
</g>
</g>
<!-- notifications_messages&#45;&gt;organization_remediation_policy -->
<g id="edge7" class="edge">
<title>notifications_messages:w&#45;&gt;organization_remediation_policy:e</title>
<path fill="none" stroke="#000000" d="M524.5504,-1476.4599C489.3125,-1475.1247 472.1259,-1467.5947 444,-1438.7 402.3644,-1395.9263 457.1918,-1312.7 397.5,-1312.7"/>
<polygon fill="#000000" stroke="#000000" points="531.0011,-1476.5671 538.9402,-1480.2995 535.0006,-1476.6335 539,-1476.7 539,-1476.7 539,-1476.7 535.0006,-1476.6335 539.0598,-1473.1005 531.0011,-1476.5671 531.0011,-1476.5671"/>
<ellipse fill="none" stroke="#000000" cx="527.8015" cy="-1476.5139" rx="3.2" ry="3.2"/>
</g>
<!-- organizations -->
<g id="node10" class="node">
<title>organizations</title>
<g id="a_node10"><a xlink:href="../../tables/organizations.html" xlink:title="organizations" target="_top">
<polygon fill="#ffffff" stroke="transparent" points="17.5,-1160.2 17.5,-1221.2 125.5,-1221.2 125.5,-1160.2 17.5,-1160.2"/>
<polygon fill="#f5f5f5" stroke="transparent" points="17.5,-1197.7 17.5,-1220.7 125.5,-1220.7 125.5,-1197.7 17.5,-1197.7"/>
<polygon fill="none" stroke="#000000" points="17.5,-1197.7 17.5,-1220.7 125.5,-1220.7 125.5,-1197.7 17.5,-1197.7"/>
<text text-anchor="start" x="22.2976" y="-1206.8" font-family="Helvetica,sans-Serif" font-weight="bold" font-size="11.00" fill="#000000">organizations</text>
<text text-anchor="start" x="91.0219" y="-1205.8" font-family="Helvetica,sans-Serif" font-size="11.00" fill="#000000">[table]</text>
<polygon fill="none" stroke="#000000" points="17.5,-1178.7 17.5,-1197.7 125.5,-1197.7 125.5,-1178.7 17.5,-1178.7"/>
<text text-anchor="start" x="20.5" y="-1184.8" font-family="Helvetica,sans-Serif" font-size="11.00" fill="#000000">...</text>
<polygon fill="#ffffff" stroke="transparent" points="17.5,-1159.7 17.5,-1178.7 49.5,-1178.7 49.5,-1159.7 17.5,-1159.7"/>
<polygon fill="none" stroke="#000000" points="17.5,-1159.7 17.5,-1178.7 49.5,-1178.7 49.5,-1159.7 17.5,-1159.7"/>
<text text-anchor="start" x="20.5" y="-1165.8" font-family="Helvetica,sans-Serif" font-size="11.00" fill="#000000">&lt; 4</text>
<polygon fill="#ffffff" stroke="transparent" points="49.5,-1159.7 49.5,-1178.7 92.5,-1178.7 92.5,-1159.7 49.5,-1159.7"/>
<polygon fill="none" stroke="#000000" points="49.5,-1159.7 49.5,-1178.7 92.5,-1178.7 92.5,-1159.7 49.5,-1159.7"/>
<text text-anchor="start" x="57.1105" y="-1165.8" font-family="Helvetica,sans-Serif" font-size="11.00" fill="#000000">3 rows</text>
<polygon fill="#ffffff" stroke="transparent" points="92.5,-1159.7 92.5,-1178.7 125.5,-1178.7 125.5,-1159.7 92.5,-1159.7"/>
<polygon fill="none" stroke="#000000" points="92.5,-1159.7 92.5,-1178.7 125.5,-1178.7 125.5,-1159.7 92.5,-1159.7"/>
<text text-anchor="start" x="100.7904" y="-1165.8" font-family="Helvetica,sans-Serif" font-size="11.00" fill="#000000">81 &gt;</text>
</a>
</g>
</g>
<!-- notifications_messages&#45;&gt;organizations -->
<g id="edge8" class="edge">
<title>notifications_messages:w&#45;&gt;organizations:e</title>
<path fill="none" stroke="#000000" d="M524.3188,-1476.7038C364.7951,-1476.7528 290.8918,-1475.8579 176,-1357.7 121.0532,-1301.1912 204.3187,-1187.7 125.5,-1187.7"/>
<polygon fill="#000000" stroke="#000000" points="531,-1476.7021 539.001,-1480.3 535,-1476.7011 539,-1476.7 539,-1476.7 539,-1476.7 535,-1476.7011 538.999,-1473.1 531,-1476.7021 531,-1476.7021"/>
<ellipse fill="none" stroke="#000000" cx="527.8" cy="-1476.703" rx="3.2" ry="3.2"/>
</g>
<!-- organization_remediation_policy&#45;&gt;organizations -->
<g id="edge14" class="edge">
<title>organization_remediation_policy:w&#45;&gt;organizations:e</title>
<path fill="none" stroke="#000000" d="M175.0658,-1287.273C144.0154,-1269.4009 173.5004,-1187.7 125.5,-1187.7"/>
<polygon fill="#000000" stroke="#000000" points="181.7164,-1288.852 188.6684,-1294.2026 185.6082,-1289.776 189.5,-1290.7 189.5,-1290.7 189.5,-1290.7 185.6082,-1289.776 190.3316,-1287.1974 181.7164,-1288.852 181.7164,-1288.852"/>
<ellipse fill="none" stroke="#000000" cx="178.6029" cy="-1288.1127" rx="3.2" ry="3.2"/>
</g>
<!-- notifications_user_remediation_policy -->
<g id="node11" class="node">
<title>notifications_user_remediation_policy</title>
<g id="a_node11"><a xlink:href="../../tables/notifications_user_remediation_policy.html" xlink:title="notifications_user_remediation_policy" target="_top">
<polygon fill="#ffffff" stroke="transparent" points="504,-1285.2 504,-1346.2 730,-1346.2 730,-1285.2 504,-1285.2"/>
<polygon fill="#f5f5f5" stroke="transparent" points="504,-1322.7 504,-1345.7 730,-1345.7 730,-1322.7 504,-1322.7"/>
<polygon fill="none" stroke="#000000" points="504,-1322.7 504,-1345.7 730,-1345.7 730,-1322.7 504,-1322.7"/>
<text text-anchor="start" x="508.8161" y="-1331.8" font-family="Helvetica,sans-Serif" font-weight="bold" font-size="11.00" fill="#000000">notifications_user_remediation_policy</text>
<text text-anchor="start" x="695.5219" y="-1330.8" font-family="Helvetica,sans-Serif" font-size="11.00" fill="#000000">[table]</text>
<polygon fill="none" stroke="#000000" points="504,-1303.7 504,-1322.7 730,-1322.7 730,-1303.7 504,-1303.7"/>
<text text-anchor="start" x="507" y="-1309.8" font-family="Helvetica,sans-Serif" font-size="11.00" fill="#000000">...</text>
<polygon fill="#ffffff" stroke="transparent" points="504,-1284.7 504,-1303.7 602,-1303.7 602,-1284.7 504,-1284.7"/>
<polygon fill="none" stroke="#000000" points="504,-1284.7 504,-1303.7 602,-1303.7 602,-1284.7 504,-1284.7"/>
<text text-anchor="start" x="507" y="-1290.8" font-family="Helvetica,sans-Serif" font-size="11.00" fill="#000000">&lt; 3</text>
<polygon fill="#ffffff" stroke="transparent" points="602,-1284.7 602,-1303.7 679,-1303.7 679,-1284.7 602,-1284.7"/>
<polygon fill="none" stroke="#000000" points="602,-1284.7 602,-1303.7 679,-1303.7 679,-1284.7 602,-1284.7"/>
<text text-anchor="start" x="643.6105" y="-1290.8" font-family="Helvetica,sans-Serif" font-size="11.00" fill="#000000">0 rows</text>
<polygon fill="#ffffff" stroke="transparent" points="679,-1284.7 679,-1303.7 730,-1303.7 730,-1284.7 679,-1284.7"/>
<polygon fill="none" stroke="#000000" points="679,-1284.7 679,-1303.7 730,-1303.7 730,-1284.7 679,-1284.7"/>
<text text-anchor="start" x="720.8862" y="-1290.8" font-family="Helvetica,sans-Serif" font-size="11.00" fill="#000000"> &#160;</text>
</a>
</g>
</g>
<!-- notifications_user_remediation_policy&#45;&gt;organization_remediation_policy -->
<g id="edge9" class="edge">
<title>notifications_user_remediation_policy:w&#45;&gt;organization_remediation_policy:e</title>
<path fill="none" stroke="#000000" d="M489.1775,-1312.7C453.5301,-1312.7 439.4714,-1312.7 397.5,-1312.7"/>
<polygon fill="#000000" stroke="#000000" points="496,-1312.7001 504,-1316.3 500,-1312.7 504,-1312.7 504,-1312.7 504,-1312.7 500,-1312.7 504,-1309.1 496,-1312.7001 496,-1312.7001"/>
<ellipse fill="none" stroke="#000000" cx="492.8" cy="-1312.7001" rx="3.2" ry="3.2"/>
</g>
<!-- org_rules -->
<g id="node12" class="node">
<title>org_rules</title>
<g id="a_node12"><a xlink:href="../../tables/org_rules.html" xlink:title="org_rules" target="_top">
<polygon fill="#ffffff" stroke="transparent" points="249.5,-1078.2 249.5,-1139.2 337.5,-1139.2 337.5,-1078.2 249.5,-1078.2"/>
<polygon fill="#f5f5f5" stroke="transparent" points="249.5,-1115.7 249.5,-1138.7 337.5,-1138.7 337.5,-1115.7 249.5,-1115.7"/>
<polygon fill="none" stroke="#000000" points="249.5,-1115.7 249.5,-1138.7 337.5,-1138.7 337.5,-1115.7 249.5,-1115.7"/>
<text text-anchor="start" x="254.0804" y="-1124.8" font-family="Helvetica,sans-Serif" font-weight="bold" font-size="11.00" fill="#000000">org_rules</text>
<text text-anchor="start" x="303.0219" y="-1123.8" font-family="Helvetica,sans-Serif" font-size="11.00" fill="#000000">[table]</text>
<polygon fill="none" stroke="#000000" points="249.5,-1096.7 249.5,-1115.7 337.5,-1115.7 337.5,-1096.7 249.5,-1096.7"/>
<text text-anchor="start" x="252.5" y="-1102.8" font-family="Helvetica,sans-Serif" font-size="11.00" fill="#000000">...</text>
<polygon fill="#ffffff" stroke="transparent" points="249.5,-1077.7 249.5,-1096.7 274.5,-1096.7 274.5,-1077.7 249.5,-1077.7"/>
<polygon fill="none" stroke="#000000" points="249.5,-1077.7 249.5,-1096.7 274.5,-1096.7 274.5,-1077.7 249.5,-1077.7"/>
<text text-anchor="start" x="252.5" y="-1083.8" font-family="Helvetica,sans-Serif" font-size="11.00" fill="#000000">&lt; 2</text>
<polygon fill="#ffffff" stroke="transparent" points="274.5,-1077.7 274.5,-1096.7 314.5,-1096.7 314.5,-1077.7 274.5,-1077.7"/>
<polygon fill="none" stroke="#000000" points="274.5,-1077.7 274.5,-1096.7 314.5,-1096.7 314.5,-1077.7 274.5,-1077.7"/>
<text text-anchor="start" x="279.1105" y="-1083.8" font-family="Helvetica,sans-Serif" font-size="11.00" fill="#000000">0 rows</text>
<polygon fill="#ffffff" stroke="transparent" points="314.5,-1077.7 314.5,-1096.7 337.5,-1096.7 337.5,-1077.7 314.5,-1077.7"/>
<polygon fill="none" stroke="#000000" points="314.5,-1077.7 314.5,-1096.7 337.5,-1096.7 337.5,-1077.7 314.5,-1077.7"/>
<text text-anchor="start" x="318.9053" y="-1083.8" font-family="Helvetica,sans-Serif" font-size="11.00" fill="#000000">1 &gt;</text>
</a>
</g>
</g>
<!-- org_rules&#45;&gt;rules -->
<g id="edge11" class="edge">
<title>org_rules:w&#45;&gt;rules:e</title>
<path fill="none" stroke="#000000" d="M234.7698,-1105.1834C207.9559,-1103.0525 193.5708,-1093.795 176,-1067.7 148.5171,-1026.8841 184.7062,-626.7 135.5,-626.7"/>
<polygon fill="#000000" stroke="#000000" points="241.5049,-1105.4196 249.3738,-1109.2978 245.5025,-1105.5598 249.5,-1105.7 249.5,-1105.7 249.5,-1105.7 245.5025,-1105.5598 249.6262,-1102.1022 241.5049,-1105.4196 241.5049,-1105.4196"/>
<ellipse fill="none" stroke="#000000" cx="238.3069" cy="-1105.3074" rx="3.2" ry="3.2"/>
</g>
<!-- org_rules&#45;&gt;organizations -->
<g id="edge10" class="edge">
<title>org_rules:w&#45;&gt;organizations:e</title>
<path fill="none" stroke="#000000" d="M234.9501,-1107.0523C209.7379,-1112.244 203.0229,-1131.5184 176,-1149.7 152.695,-1165.3801 153.5889,-1187.7 125.5,-1187.7"/>
<polygon fill="#000000" stroke="#000000" points="241.5343,-1106.4404 249.8332,-1109.2846 245.5172,-1106.0702 249.5,-1105.7 249.5,-1105.7 249.5,-1105.7 245.5172,-1106.0702 249.1668,-1102.1154 241.5343,-1106.4404 241.5343,-1106.4404"/>
<ellipse fill="none" stroke="#000000" cx="238.3481" cy="-1106.7366" rx="3.2" ry="3.2"/>
</g>
<!-- org_rules_severities -->
<g id="node13" class="node">
<title>org_rules_severities</title>
<g id="a_node13"><a xlink:href="../../tables/org_rules_severities.html" xlink:title="org_rules_severities" target="_top">
<polygon fill="#ffffff" stroke="transparent" points="223,-996.2 223,-1057.2 364,-1057.2 364,-996.2 223,-996.2"/>
<polygon fill="#f5f5f5" stroke="transparent" points="223.5,-1033.7 223.5,-1056.7 364.5,-1056.7 364.5,-1033.7 223.5,-1033.7"/>
<polygon fill="none" stroke="#000000" points="223.5,-1033.7 223.5,-1056.7 364.5,-1056.7 364.5,-1033.7 223.5,-1033.7"/>
<text text-anchor="start" x="228.3003" y="-1042.8" font-family="Helvetica,sans-Serif" font-weight="bold" font-size="11.00" fill="#000000">org_rules_severities</text>
<text text-anchor="start" x="330.0219" y="-1041.8" font-family="Helvetica,sans-Serif" font-size="11.00" fill="#000000">[table]</text>
<polygon fill="none" stroke="#000000" points="223.5,-1014.7 223.5,-1033.7 364.5,-1033.7 364.5,-1014.7 223.5,-1014.7"/>
<text text-anchor="start" x="226.5" y="-1020.8" font-family="Helvetica,sans-Serif" font-size="11.00" fill="#000000">...</text>
<polygon fill="#ffffff" stroke="transparent" points="223.5,-995.7 223.5,-1014.7 273.5,-1014.7 273.5,-995.7 223.5,-995.7"/>
<polygon fill="none" stroke="#000000" points="223.5,-995.7 223.5,-1014.7 273.5,-1014.7 273.5,-995.7 223.5,-995.7"/>
<text text-anchor="start" x="226.5" y="-1001.8" font-family="Helvetica,sans-Serif" font-size="11.00" fill="#000000">&lt; 2</text>
<polygon fill="#ffffff" stroke="transparent" points="273.5,-995.7 273.5,-1014.7 337.5,-1014.7 337.5,-995.7 273.5,-995.7"/>
<polygon fill="none" stroke="#000000" points="273.5,-995.7 273.5,-1014.7 337.5,-1014.7 337.5,-995.7 273.5,-995.7"/>
<text text-anchor="start" x="289.8807" y="-1001.8" font-family="Helvetica,sans-Serif" font-size="11.00" fill="#000000">246 rows</text>
<polygon fill="#ffffff" stroke="transparent" points="337.5,-995.7 337.5,-1014.7 364.5,-1014.7 364.5,-995.7 337.5,-995.7"/>
<polygon fill="none" stroke="#000000" points="337.5,-995.7 337.5,-1014.7 364.5,-1014.7 364.5,-995.7 337.5,-995.7"/>
<text text-anchor="start" x="355.3862" y="-1001.8" font-family="Helvetica,sans-Serif" font-size="11.00" fill="#000000"> &#160;</text>
</a>
</g>
</g>
<!-- org_rules_severities&#45;&gt;rules -->
<g id="edge13" class="edge">
<title>org_rules_severities:w&#45;&gt;rules:e</title>
<path fill="none" stroke="#000000" d="M208.7748,-1021.8341C193.0894,-1017.2394 186.3059,-1004.3781 176,-985.7 137.2145,-915.4065 215.7838,-626.7 135.5,-626.7"/>
<polygon fill="#000000" stroke="#000000" points="215.5635,-1022.6943 223.0474,-1027.2714 219.5317,-1023.1971 223.5,-1023.7 223.5,-1023.7 223.5,-1023.7 219.5317,-1023.1971 223.9526,-1020.1286 215.5635,-1022.6943 215.5635,-1022.6943"/>
<ellipse fill="none" stroke="#000000" cx="212.3888" cy="-1022.292" rx="3.2" ry="3.2"/>
</g>
<!-- org_rules_severities&#45;&gt;organizations -->
<g id="edge12" class="edge">
<title>org_rules_severities:w&#45;&gt;organizations:e</title>
<path fill="none" stroke="#000000" d="M208.9096,-1026.0839C193.2338,-1032.1291 189.1552,-1048.9172 176,-1067.7 142.8052,-1115.0952 183.3636,-1187.7 125.5,-1187.7"/>
<polygon fill="#000000" stroke="#000000" points="215.6047,-1024.99 224.0805,-1027.2529 219.5523,-1024.345 223.5,-1023.7 223.5,-1023.7 223.5,-1023.7 219.5523,-1024.345 222.9195,-1020.1471 215.6047,-1024.99 215.6047,-1024.99"/>
<ellipse fill="none" stroke="#000000" cx="212.4466" cy="-1025.506" rx="3.2" ry="3.2"/>
</g>
<!-- organization_remediation_policy_application_importance -->
<g id="node14" class="node">
<title>organization_remediation_policy_application_importance</title>
<g id="a_node14"><a xlink:href="../../tables/organization_remediation_policy_application_importance.html" xlink:title="organization_remediation_policy_application_importance" target="_top">
<polygon fill="#ffffff" stroke="transparent" points="457.5,-1203.2 457.5,-1264.2 776.5,-1264.2 776.5,-1203.2 457.5,-1203.2"/>
<polygon fill="#f5f5f5" stroke="transparent" points="458,-1240.7 458,-1263.7 777,-1263.7 777,-1240.7 458,-1240.7"/>
<polygon fill="none" stroke="#000000" points="458,-1240.7 458,-1263.7 777,-1263.7 777,-1240.7 458,-1240.7"/>
<text text-anchor="start" x="462.5535" y="-1249.8" font-family="Helvetica,sans-Serif" font-weight="bold" font-size="11.00" fill="#000000">organization_remediation_policy_application_importance</text>
<text text-anchor="start" x="742.5219" y="-1248.8" font-family="Helvetica,sans-Serif" font-size="11.00" fill="#000000">[table]</text>
<polygon fill="none" stroke="#000000" points="458,-1221.7 458,-1240.7 777,-1240.7 777,-1221.7 458,-1221.7"/>
<text text-anchor="start" x="461" y="-1227.8" font-family="Helvetica,sans-Serif" font-size="11.00" fill="#000000">...</text>
<polygon fill="#ffffff" stroke="transparent" points="458,-1202.7 458,-1221.7 603,-1221.7 603,-1202.7 458,-1202.7"/>
<polygon fill="none" stroke="#000000" points="458,-1202.7 458,-1221.7 603,-1221.7 603,-1202.7 458,-1202.7"/>
<text text-anchor="start" x="461" y="-1208.8" font-family="Helvetica,sans-Serif" font-size="11.00" fill="#000000">&lt; 1</text>
<polygon fill="#ffffff" stroke="transparent" points="603,-1202.7 603,-1221.7 703,-1221.7 703,-1202.7 603,-1202.7"/>
<polygon fill="none" stroke="#000000" points="603,-1202.7 603,-1221.7 703,-1221.7 703,-1202.7 603,-1202.7"/>
<text text-anchor="start" x="667.6105" y="-1208.8" font-family="Helvetica,sans-Serif" font-size="11.00" fill="#000000">0 rows</text>
<polygon fill="#ffffff" stroke="transparent" points="703,-1202.7 703,-1221.7 777,-1221.7 777,-1202.7 703,-1202.7"/>
<polygon fill="none" stroke="#000000" points="703,-1202.7 703,-1221.7 777,-1221.7 777,-1202.7 703,-1202.7"/>
<text text-anchor="start" x="767.8862" y="-1208.8" font-family="Helvetica,sans-Serif" font-size="11.00" fill="#000000"> &#160;</text>
</a>
</g>
</g>
<!-- organization_remediation_policy_application_importance&#45;&gt;organization_remediation_policy -->
<g id="edge15" class="edge">
<title>organization_remediation_policy_application_importance:w&#45;&gt;organization_remediation_policy:e</title>
<path fill="none" stroke="#000000" d="M443.9198,-1234.4364C419.2124,-1250.478 436.9521,-1312.7 397.5,-1312.7"/>
<polygon fill="#000000" stroke="#000000" points="450.2676,-1232.752 458.9234,-1234.1796 454.1338,-1231.726 458,-1230.7 458,-1230.7 458,-1230.7 454.1338,-1231.726 457.0766,-1227.2204 450.2676,-1232.752 450.2676,-1232.752"/>
<ellipse fill="none" stroke="#000000" cx="447.1747" cy="-1233.5728" rx="3.2" ry="3.2"/>
</g>
<!-- organization_remediation_policy_applications -->
<g id="node15" class="node">
<title>organization_remediation_policy_applications</title>
<g id="a_node15"><a xlink:href="../../tables/organization_remediation_policy_applications.html" xlink:title="organization_remediation_policy_applications" target="_top">
<polygon fill="#ffffff" stroke="transparent" points="485,-1121.2 485,-1182.2 749,-1182.2 749,-1121.2 485,-1121.2"/>
<polygon fill="#f5f5f5" stroke="transparent" points="485,-1158.7 485,-1181.7 749,-1181.7 749,-1158.7 485,-1158.7"/>
<polygon fill="none" stroke="#000000" points="485,-1158.7 485,-1181.7 749,-1181.7 749,-1158.7 485,-1158.7"/>
<text text-anchor="start" x="489.559" y="-1167.8" font-family="Helvetica,sans-Serif" font-weight="bold" font-size="11.00" fill="#000000">organization_remediation_policy_applications</text>
<text text-anchor="start" x="714.5219" y="-1166.8" font-family="Helvetica,sans-Serif" font-size="11.00" fill="#000000">[table]</text>
<polygon fill="none" stroke="#000000" points="485,-1139.7 485,-1158.7 749,-1158.7 749,-1139.7 485,-1139.7"/>
<text text-anchor="start" x="488" y="-1145.8" font-family="Helvetica,sans-Serif" font-size="11.00" fill="#000000">...</text>
<polygon fill="#ffffff" stroke="transparent" points="485,-1120.7 485,-1139.7 602,-1139.7 602,-1120.7 485,-1120.7"/>
<polygon fill="none" stroke="#000000" points="485,-1120.7 485,-1139.7 602,-1139.7 602,-1120.7 485,-1120.7"/>
<text text-anchor="start" x="488" y="-1126.8" font-family="Helvetica,sans-Serif" font-size="11.00" fill="#000000">&lt; 2</text>
<polygon fill="#ffffff" stroke="transparent" points="602,-1120.7 602,-1139.7 688,-1139.7 688,-1120.7 602,-1120.7"/>
<polygon fill="none" stroke="#000000" points="602,-1120.7 602,-1139.7 688,-1139.7 688,-1120.7 602,-1120.7"/>
<text text-anchor="start" x="652.6105" y="-1126.8" font-family="Helvetica,sans-Serif" font-size="11.00" fill="#000000">0 rows</text>
<polygon fill="#ffffff" stroke="transparent" points="688,-1120.7 688,-1139.7 749,-1139.7 749,-1120.7 688,-1120.7"/>
<polygon fill="none" stroke="#000000" points="688,-1120.7 688,-1139.7 749,-1139.7 749,-1120.7 688,-1120.7"/>
<text text-anchor="start" x="739.8862" y="-1126.8" font-family="Helvetica,sans-Serif" font-size="11.00" fill="#000000"> &#160;</text>
</a>
</g>
</g>
<!-- organization_remediation_policy_applications&#45;&gt;organization_remediation_policy -->
<g id="edge16" class="edge">
<title>organization_remediation_policy_applications:w&#45;&gt;organization_remediation_policy:e</title>
<path fill="none" stroke="#000000" d="M470.569,-1150.7736C412.0019,-1169.758 474.6283,-1312.7 397.5,-1312.7"/>
<polygon fill="#000000" stroke="#000000" points="477.0813,-1149.8379 485.512,-1152.2634 481.0407,-1149.2689 485,-1148.7 485,-1148.7 485,-1148.7 481.0407,-1149.2689 484.488,-1145.1366 477.0813,-1149.8379 477.0813,-1149.8379"/>
<ellipse fill="none" stroke="#000000" cx="473.9139" cy="-1150.293" rx="3.2" ry="3.2"/>
</g>
<!-- organization_remediation_policy_rule_severity -->
<g id="node16" class="node">
<title>organization_remediation_policy_rule_severity</title>
<g id="a_node16"><a xlink:href="../../tables/organization_remediation_policy_rule_severity.html" xlink:title="organization_remediation_policy_rule_severity" target="_top">
<polygon fill="#ffffff" stroke="transparent" points="482.5,-1039.2 482.5,-1100.2 751.5,-1100.2 751.5,-1039.2 482.5,-1039.2"/>
<polygon fill="#f5f5f5" stroke="transparent" points="483,-1076.7 483,-1099.7 752,-1099.7 752,-1076.7 483,-1076.7"/>
<polygon fill="none" stroke="#000000" points="483,-1076.7 483,-1099.7 752,-1099.7 752,-1076.7 483,-1076.7"/>
<text text-anchor="start" x="487.925" y="-1085.8" font-family="Helvetica,sans-Serif" font-weight="bold" font-size="11.00" fill="#000000">organization_remediation_policy_rule_severity</text>
<text text-anchor="start" x="717.5219" y="-1084.8" font-family="Helvetica,sans-Serif" font-size="11.00" fill="#000000">[table]</text>
<polygon fill="none" stroke="#000000" points="483,-1057.7 483,-1076.7 752,-1076.7 752,-1057.7 483,-1057.7"/>
<text text-anchor="start" x="486" y="-1063.8" font-family="Helvetica,sans-Serif" font-size="11.00" fill="#000000">...</text>
<polygon fill="#ffffff" stroke="transparent" points="483,-1038.7 483,-1057.7 603,-1057.7 603,-1038.7 483,-1038.7"/>
<polygon fill="none" stroke="#000000" points="483,-1038.7 483,-1057.7 603,-1057.7 603,-1038.7 483,-1038.7"/>
<text text-anchor="start" x="486" y="-1044.8" font-family="Helvetica,sans-Serif" font-size="11.00" fill="#000000">&lt; 1</text>
<polygon fill="#ffffff" stroke="transparent" points="603,-1038.7 603,-1057.7 690,-1057.7 690,-1038.7 603,-1038.7"/>
<polygon fill="none" stroke="#000000" points="603,-1038.7 603,-1057.7 690,-1057.7 690,-1038.7 603,-1038.7"/>
<text text-anchor="start" x="654.6105" y="-1044.8" font-family="Helvetica,sans-Serif" font-size="11.00" fill="#000000">0 rows</text>
<polygon fill="#ffffff" stroke="transparent" points="690,-1038.7 690,-1057.7 752,-1057.7 752,-1038.7 690,-1038.7"/>
<polygon fill="none" stroke="#000000" points="690,-1038.7 690,-1057.7 752,-1057.7 752,-1038.7 690,-1038.7"/>
<text text-anchor="start" x="742.8862" y="-1044.8" font-family="Helvetica,sans-Serif" font-size="11.00" fill="#000000"> &#160;</text>
</a>
</g>
</g>
<!-- organization_remediation_policy_rule_severity&#45;&gt;organization_remediation_policy -->
<g id="edge17" class="edge">
<title>organization_remediation_policy_rule_severity:w&#45;&gt;organization_remediation_policy:e</title>
<path fill="none" stroke="#000000" d="M468.7019,-1069.6855C455.8924,-1076.2377 453.2567,-1092.7332 444,-1110.7 401.8065,-1192.5955 489.6258,-1312.7 397.5,-1312.7"/>
<polygon fill="#000000" stroke="#000000" points="475.1689,-1068.3352 483.7358,-1070.224 479.0844,-1067.5176 483,-1066.7 483,-1066.7 483,-1066.7 479.0844,-1067.5176 482.2642,-1063.176 475.1689,-1068.3352 475.1689,-1068.3352"/>
<ellipse fill="none" stroke="#000000" cx="472.0364" cy="-1068.9893" rx="3.2" ry="3.2"/>
</g>
<!-- organization_remediation_policy_rules -->
<g id="node17" class="node">
<title>organization_remediation_policy_rules</title>
<g id="a_node17"><a xlink:href="../../tables/organization_remediation_policy_rules.html" xlink:title="organization_remediation_policy_rules" target="_top">
<polygon fill="#ffffff" stroke="transparent" points="452,-810.7 452,-900.7 782,-900.7 782,-810.7 452,-810.7"/>
<polygon fill="#f5f5f5" stroke="transparent" points="454,-875.7 454,-898.7 780,-898.7 780,-875.7 454,-875.7"/>
<polygon fill="none" stroke="#000000" points="454,-875.7 454,-898.7 780,-898.7 780,-875.7 454,-875.7"/>
<text text-anchor="start" x="459" y="-884.8" font-family="Helvetica,sans-Serif" font-weight="bold" font-size="11.00" fill="#000000">organization_remediation_policy_rules</text>
<text text-anchor="start" x="745.0437" y="-883.8" font-family="Helvetica,sans-Serif" font-size="11.00" fill="#000000">[table]</text>
<polygon fill="none" stroke="#000000" points="454,-853.7 454,-875.7 697,-875.7 697,-853.7 454,-853.7"/>
<image xlink:href="../../images/primaryKeys.png" width="11px" height="12px" preserveAspectRatio="xMinYMin meet" x="459" y="-870.7"/>
<text text-anchor="start" x="474" y="-860.8" font-family="Helvetica,sans-Serif" font-size="11.00" fill="#000000">organization_remediation_policy_id</text>
<polygon fill="none" stroke="#000000" points="697,-853.7 697,-875.7 780,-875.7 780,-853.7 697,-853.7"/>
<text text-anchor="start" x="699.6783" y="-861.4" font-family="Helvetica,sans-Serif" font-size="11.00" fill="#000000">int unsigned[10]</text>
<polygon fill="none" stroke="#000000" points="454,-831.7 454,-853.7 697,-853.7 697,-831.7 454,-831.7"/>
<image xlink:href="../../images/primaryKeys.png" width="11px" height="12px" preserveAspectRatio="xMinYMin meet" x="459" y="-848.7"/>
<text text-anchor="start" x="474" y="-838.8" font-family="Helvetica,sans-Serif" font-size="11.00" fill="#000000">rules_id</text>
<polygon fill="none" stroke="#000000" points="697,-831.7 697,-853.7 780,-853.7 780,-831.7 697,-831.7"/>
<text text-anchor="start" x="700" y="-839.4" font-family="Helvetica,sans-Serif" font-size="11.00" fill="#000000">varchar[255]</text>
<polygon fill="#ffffff" stroke="transparent" points="454,-812.7 454,-831.7 567,-831.7 567,-812.7 454,-812.7"/>
<polygon fill="none" stroke="#000000" points="454,-812.7 454,-831.7 567,-831.7 567,-812.7 454,-812.7"/>
<text text-anchor="start" x="457" y="-818.8" font-family="Helvetica,sans-Serif" font-size="11.00" fill="#000000">&lt; 2</text>
<polygon fill="#ffffff" stroke="transparent" points="567,-812.7 567,-831.7 697,-831.7 697,-812.7 567,-812.7"/>
<polygon fill="none" stroke="#000000" points="567,-812.7 567,-831.7 697,-831.7 697,-812.7 567,-812.7"/>
<text text-anchor="start" x="661.6105" y="-818.8" font-family="Helvetica,sans-Serif" font-size="11.00" fill="#000000">0 rows</text>
<polygon fill="#ffffff" stroke="transparent" points="697,-812.7 697,-831.7 780,-831.7 780,-812.7 697,-812.7"/>
<polygon fill="none" stroke="#000000" points="697,-812.7 697,-831.7 780,-831.7 780,-812.7 697,-812.7"/>
<text text-anchor="start" x="761.4053" y="-818.8" font-family="Helvetica,sans-Serif" font-size="11.00" fill="#000000">0 &gt;</text>
<polygon fill="none" stroke="#000000" stroke-width="2" points="453,-811.7 453,-899.7 781,-899.7 781,-811.7 453,-811.7"/>
</a>
</g>
</g>
<!-- organization_remediation_policy_rules&#45;&gt;rules -->
<g id="edge19" class="edge">
<title>organization_remediation_policy_rules:w&#45;&gt;rules:e</title>
<path fill="none" stroke="#000000" d="M439.8705,-839.6908C414.3219,-825.6298 445.7893,-765.9801 411,-739.7 327.0718,-676.3 261.4613,-773.0178 176,-711.7 141.9994,-687.3049 177.3469,-626.7 135.5,-626.7"/>
<polygon fill="#000000" stroke="#000000" points="446.1755,-841.0335 453.2501,-846.221 450.0877,-841.8668 454,-842.7 454,-842.7 454,-842.7 450.0877,-841.8668 454.7499,-839.179 446.1755,-841.0335 446.1755,-841.0335"/>
<ellipse fill="none" stroke="#000000" cx="443.0457" cy="-840.367" rx="3.2" ry="3.2"/>
</g>
<!-- organization_remediation_policy_rules&#45;&gt;organization_remediation_policy -->
<g id="edge18" class="edge">
<title>organization_remediation_policy_rules:w&#45;&gt;organization_remediation_policy:e</title>
<path fill="none" stroke="#000000" d="M439.6513,-868.573C368.6951,-912.3602 492.3566,-1312.7 397.5,-1312.7"/>
<polygon fill="#000000" stroke="#000000" points="446.2764,-866.7848 454.9382,-868.1756 450.1382,-865.7424 454,-864.7 454,-864.7 454,-864.7 450.1382,-865.7424 453.0618,-861.2244 446.2764,-866.7848 446.2764,-866.7848"/>
<ellipse fill="none" stroke="#000000" cx="443.187" cy="-867.6187" rx="3.2" ry="3.2"/>
</g>
<!-- organization_remediation_policy_server_environments -->
<g id="node18" class="node">
<title>organization_remediation_policy_server_environments</title>
<g id="a_node18"><a xlink:href="../../tables/organization_remediation_policy_server_environments.html" xlink:title="organization_remediation_policy_server_environments" target="_top">
<polygon fill="#ffffff" stroke="transparent" points="462.5,-1367.2 462.5,-1428.2 771.5,-1428.2 771.5,-1367.2 462.5,-1367.2"/>
<polygon fill="#f5f5f5" stroke="transparent" points="463,-1404.7 463,-1427.7 772,-1427.7 772,-1404.7 463,-1404.7"/>
<polygon fill="none" stroke="#000000" points="463,-1404.7 463,-1427.7 772,-1427.7 772,-1404.7 463,-1404.7"/>
<text text-anchor="start" x="467.7537" y="-1413.8" font-family="Helvetica,sans-Serif" font-weight="bold" font-size="11.00" fill="#000000">organization_remediation_policy_server_environments</text>
<text text-anchor="start" x="737.5219" y="-1412.8" font-family="Helvetica,sans-Serif" font-size="11.00" fill="#000000">[table]</text>
<polygon fill="none" stroke="#000000" points="463,-1385.7 463,-1404.7 772,-1404.7 772,-1385.7 463,-1385.7"/>
<text text-anchor="start" x="466" y="-1391.8" font-family="Helvetica,sans-Serif" font-size="11.00" fill="#000000">...</text>
<polygon fill="#ffffff" stroke="transparent" points="463,-1366.7 463,-1385.7 603,-1385.7 603,-1366.7 463,-1366.7"/>
<polygon fill="none" stroke="#000000" points="463,-1366.7 463,-1385.7 603,-1385.7 603,-1366.7 463,-1366.7"/>
<text text-anchor="start" x="466" y="-1372.8" font-family="Helvetica,sans-Serif" font-size="11.00" fill="#000000">&lt; 1</text>
<polygon fill="#ffffff" stroke="transparent" points="603,-1366.7 603,-1385.7 700,-1385.7 700,-1366.7 603,-1366.7"/>
<polygon fill="none" stroke="#000000" points="603,-1366.7 603,-1385.7 700,-1385.7 700,-1366.7 603,-1366.7"/>
<text text-anchor="start" x="664.6105" y="-1372.8" font-family="Helvetica,sans-Serif" font-size="11.00" fill="#000000">0 rows</text>
<polygon fill="#ffffff" stroke="transparent" points="700,-1366.7 700,-1385.7 772,-1385.7 772,-1366.7 700,-1366.7"/>
<polygon fill="none" stroke="#000000" points="700,-1366.7 700,-1385.7 772,-1385.7 772,-1366.7 700,-1366.7"/>
<text text-anchor="start" x="762.8862" y="-1372.8" font-family="Helvetica,sans-Serif" font-size="11.00" fill="#000000"> &#160;</text>
</a>
</g>
</g>
<!-- organization_remediation_policy_server_environments&#45;&gt;organization_remediation_policy -->
<g id="edge20" class="edge">
<title>organization_remediation_policy_server_environments:w&#45;&gt;organization_remediation_policy:e</title>
<path fill="none" stroke="#000000" d="M448.7068,-1391.1766C422.14,-1375.4813 438.3134,-1312.7 397.5,-1312.7"/>
<polygon fill="#000000" stroke="#000000" points="455.2325,-1392.7852 462.1383,-1398.1954 459.1163,-1393.7426 463,-1394.7 463,-1394.7 463,-1394.7 459.1163,-1393.7426 463.8617,-1391.2046 455.2325,-1392.7852 455.2325,-1392.7852"/>
<ellipse fill="none" stroke="#000000" cx="452.1255" cy="-1392.0193" rx="3.2" ry="3.2"/>
</g>
<!-- rule_references -->
<g id="node19" class="node">
<title>rule_references</title>
<g id="a_node19"><a xlink:href="../../tables/rule_references.html" xlink:title="rule_references" target="_top">
<polygon fill="#ffffff" stroke="transparent" points="234,-640.2 234,-701.2 353,-701.2 353,-640.2 234,-640.2"/>
<polygon fill="#f5f5f5" stroke="transparent" points="234.5,-677.7 234.5,-700.7 353.5,-700.7 353.5,-677.7 234.5,-677.7"/>
<polygon fill="none" stroke="#000000" points="234.5,-677.7 234.5,-700.7 353.5,-700.7 353.5,-677.7 234.5,-677.7"/>
<text text-anchor="start" x="239.2987" y="-686.8" font-family="Helvetica,sans-Serif" font-weight="bold" font-size="11.00" fill="#000000">rule_references</text>
<text text-anchor="start" x="319.0219" y="-685.8" font-family="Helvetica,sans-Serif" font-size="11.00" fill="#000000">[table]</text>
<polygon fill="none" stroke="#000000" points="234.5,-658.7 234.5,-677.7 353.5,-677.7 353.5,-658.7 234.5,-658.7"/>
<text text-anchor="start" x="237.5" y="-664.8" font-family="Helvetica,sans-Serif" font-size="11.00" fill="#000000">...</text>
<polygon fill="#ffffff" stroke="transparent" points="234.5,-639.7 234.5,-658.7 276.5,-658.7 276.5,-639.7 234.5,-639.7"/>
<polygon fill="none" stroke="#000000" points="234.5,-639.7 234.5,-658.7 276.5,-658.7 276.5,-639.7 234.5,-639.7"/>
<text text-anchor="start" x="237.5" y="-645.8" font-family="Helvetica,sans-Serif" font-size="11.00" fill="#000000">&lt; 1</text>
<polygon fill="#ffffff" stroke="transparent" points="276.5,-639.7 276.5,-658.7 330.5,-658.7 330.5,-639.7 276.5,-639.7"/>
<polygon fill="none" stroke="#000000" points="276.5,-639.7 276.5,-658.7 330.5,-658.7 330.5,-639.7 276.5,-639.7"/>
<text text-anchor="start" x="288.9956" y="-645.8" font-family="Helvetica,sans-Serif" font-size="11.00" fill="#000000">86 rows</text>
<polygon fill="#ffffff" stroke="transparent" points="330.5,-639.7 330.5,-658.7 353.5,-658.7 353.5,-639.7 330.5,-639.7"/>
<polygon fill="none" stroke="#000000" points="330.5,-639.7 330.5,-658.7 353.5,-658.7 353.5,-639.7 330.5,-639.7"/>
<text text-anchor="start" x="344.3862" y="-645.8" font-family="Helvetica,sans-Serif" font-size="11.00" fill="#000000"> &#160;</text>
</a>
</g>
</g>
<!-- rule_references&#45;&gt;rules -->
<g id="edge21" class="edge">
<title>rule_references:w&#45;&gt;rules:e</title>
<path fill="none" stroke="#000000" d="M219.8767,-666.2408C185.4629,-658.9371 177.7291,-626.7 135.5,-626.7"/>
<polygon fill="#000000" stroke="#000000" points="226.5395,-666.9056 234.1425,-671.2822 230.5198,-667.3028 234.5,-667.7 234.5,-667.7 234.5,-667.7 230.5198,-667.3028 234.8575,-664.1178 226.5395,-666.9056 226.5395,-666.9056"/>
<ellipse fill="none" stroke="#000000" cx="223.3553" cy="-666.5878" rx="3.2" ry="3.2"/>
</g>
<!-- rules_environments -->
<g id="node20" class="node">
<title>rules_environments</title>
<g id="a_node20"><a xlink:href="../../tables/rules_environments.html" xlink:title="rules_environments" target="_top">
<polygon fill="#ffffff" stroke="transparent" points="224.5,-1160.2 224.5,-1221.2 362.5,-1221.2 362.5,-1160.2 224.5,-1160.2"/>
<polygon fill="#f5f5f5" stroke="transparent" points="224.5,-1197.7 224.5,-1220.7 362.5,-1220.7 362.5,-1197.7 224.5,-1197.7"/>
<polygon fill="none" stroke="#000000" points="224.5,-1197.7 224.5,-1220.7 362.5,-1220.7 362.5,-1197.7 224.5,-1197.7"/>
<text text-anchor="start" x="229.0208" y="-1206.8" font-family="Helvetica,sans-Serif" font-weight="bold" font-size="11.00" fill="#000000">rules_environments</text>
<text text-anchor="start" x="328.0219" y="-1205.8" font-family="Helvetica,sans-Serif" font-size="11.00" fill="#000000">[table]</text>
<polygon fill="none" stroke="#000000" points="224.5,-1178.7 224.5,-1197.7 362.5,-1197.7 362.5,-1178.7 224.5,-1178.7"/>
<text text-anchor="start" x="227.5" y="-1184.8" font-family="Helvetica,sans-Serif" font-size="11.00" fill="#000000">...</text>
<polygon fill="#ffffff" stroke="transparent" points="224.5,-1159.7 224.5,-1178.7 272.5,-1178.7 272.5,-1159.7 224.5,-1159.7"/>
<polygon fill="none" stroke="#000000" points="224.5,-1159.7 224.5,-1178.7 272.5,-1178.7 272.5,-1159.7 224.5,-1159.7"/>
<text text-anchor="start" x="227.5" y="-1165.8" font-family="Helvetica,sans-Serif" font-size="11.00" fill="#000000">&lt; 2</text>
<polygon fill="#ffffff" stroke="transparent" points="272.5,-1159.7 272.5,-1178.7 336.5,-1178.7 336.5,-1159.7 272.5,-1159.7"/>
<polygon fill="none" stroke="#000000" points="272.5,-1159.7 272.5,-1178.7 336.5,-1178.7 336.5,-1159.7 272.5,-1159.7"/>
<text text-anchor="start" x="288.8807" y="-1165.8" font-family="Helvetica,sans-Serif" font-size="11.00" fill="#000000">738 rows</text>
<polygon fill="#ffffff" stroke="transparent" points="336.5,-1159.7 336.5,-1178.7 362.5,-1178.7 362.5,-1159.7 336.5,-1159.7"/>
<polygon fill="none" stroke="#000000" points="336.5,-1159.7 336.5,-1178.7 362.5,-1178.7 362.5,-1159.7 336.5,-1159.7"/>
<text text-anchor="start" x="353.3862" y="-1165.8" font-family="Helvetica,sans-Serif" font-size="11.00" fill="#000000"> &#160;</text>
</a>
</g>
</g>
<!-- rules_environments&#45;&gt;rules -->
<g id="edge23" class="edge">
<title>rules_environments:w&#45;&gt;rules:e</title>
<path fill="none" stroke="#000000" d="M209.9885,-1186.0143C193.5946,-1181.645 186.3032,-1168.936 176,-1149.7 148.4801,-1098.3209 193.7851,-626.7 135.5,-626.7"/>
<polygon fill="#000000" stroke="#000000" points="216.5534,-1186.7769 224.0846,-1191.276 220.5267,-1187.2384 224.5,-1187.7 224.5,-1187.7 224.5,-1187.7 220.5267,-1187.2384 224.9154,-1184.124 216.5534,-1186.7769 216.5534,-1186.7769"/>
<ellipse fill="none" stroke="#000000" cx="213.3748" cy="-1186.4076" rx="3.2" ry="3.2"/>
</g>
<!-- rules_environments&#45;&gt;organizations -->
<g id="edge22" class="edge">
<title>rules_environments:w&#45;&gt;organizations:e</title>
<path fill="none" stroke="#000000" d="M209.8501,-1187.7C177.352,-1187.7 164.1719,-1187.7 125.5,-1187.7"/>
<polygon fill="#000000" stroke="#000000" points="216.5,-1187.7001 224.5,-1191.3 220.5,-1187.7 224.5,-1187.7 224.5,-1187.7 224.5,-1187.7 220.5,-1187.7 224.5,-1184.1 216.5,-1187.7001 216.5,-1187.7001"/>
<ellipse fill="none" stroke="#000000" cx="213.3" cy="-1187.7001" rx="3.2" ry="3.2"/>
</g>
<!-- rules_exclusions_assessment_rules -->
<g id="node21" class="node">
<title>rules_exclusions_assessment_rules</title>
<g id="a_node21"><a xlink:href="../../tables/rules_exclusions_assessment_rules.html" xlink:title="rules_exclusions_assessment_rules" target="_top">
<polygon fill="#ffffff" stroke="transparent" points="184,-558.2 184,-619.2 403,-619.2 403,-558.2 184,-558.2"/>
<polygon fill="#f5f5f5" stroke="transparent" points="184.5,-595.7 184.5,-618.7 403.5,-618.7 403.5,-595.7 184.5,-595.7"/>
<polygon fill="none" stroke="#000000" points="184.5,-595.7 184.5,-618.7 403.5,-618.7 403.5,-595.7 184.5,-595.7"/>
<text text-anchor="start" x="189.4852" y="-604.8" font-family="Helvetica,sans-Serif" font-weight="bold" font-size="11.00" fill="#000000">rules_exclusions_assessment_rules</text>
<text text-anchor="start" x="369.0219" y="-603.8" font-family="Helvetica,sans-Serif" font-size="11.00" fill="#000000">[table]</text>
<polygon fill="none" stroke="#000000" points="184.5,-576.7 184.5,-595.7 403.5,-595.7 403.5,-576.7 184.5,-576.7"/>
<text text-anchor="start" x="187.5" y="-582.8" font-family="Helvetica,sans-Serif" font-size="11.00" fill="#000000">...</text>
<polygon fill="#ffffff" stroke="transparent" points="184.5,-557.7 184.5,-576.7 279.5,-576.7 279.5,-557.7 184.5,-557.7"/>
<polygon fill="none" stroke="#000000" points="184.5,-557.7 184.5,-576.7 279.5,-576.7 279.5,-557.7 184.5,-557.7"/>
<text text-anchor="start" x="187.5" y="-563.8" font-family="Helvetica,sans-Serif" font-size="11.00" fill="#000000">&lt; 2</text>
<polygon fill="#ffffff" stroke="transparent" points="279.5,-557.7 279.5,-576.7 354.5,-576.7 354.5,-557.7 279.5,-557.7"/>
<polygon fill="none" stroke="#000000" points="279.5,-557.7 279.5,-576.7 354.5,-576.7 354.5,-557.7 279.5,-557.7"/>
<text text-anchor="start" x="319.1105" y="-563.8" font-family="Helvetica,sans-Serif" font-size="11.00" fill="#000000">0 rows</text>
<polygon fill="#ffffff" stroke="transparent" points="354.5,-557.7 354.5,-576.7 403.5,-576.7 403.5,-557.7 354.5,-557.7"/>
<polygon fill="none" stroke="#000000" points="354.5,-557.7 354.5,-576.7 403.5,-576.7 403.5,-557.7 354.5,-557.7"/>
<text text-anchor="start" x="394.3862" y="-563.8" font-family="Helvetica,sans-Serif" font-size="11.00" fill="#000000"> &#160;</text>
</a>
</g>
</g>
<!-- rules_exclusions_assessment_rules&#45;&gt;rules -->
<g id="edge24" class="edge">
<title>rules_exclusions_assessment_rules:w&#45;&gt;rules:e</title>
<path fill="none" stroke="#000000" d="M170.6819,-590.4032C157.7811,-601.1726 157.9061,-626.7 135.5,-626.7"/>
<polygon fill="#000000" stroke="#000000" points="176.9267,-588.2778 185.66,-589.108 180.7133,-586.9889 184.5,-585.7 184.5,-585.7 184.5,-585.7 180.7133,-586.9889 183.34,-582.292 176.9267,-588.2778 176.9267,-588.2778"/>
<ellipse fill="none" stroke="#000000" cx="173.8973" cy="-589.3089" rx="3.2" ry="3.2"/>
</g>
<!-- rules_languages -->
<g id="node22" class="node">
<title>rules_languages</title>
<g id="a_node22"><a xlink:href="../../tables/rules_languages.html" xlink:title="rules_languages" target="_top">
<polygon fill="#ffffff" stroke="transparent" points="232,-476.2 232,-537.2 355,-537.2 355,-476.2 232,-476.2"/>
<polygon fill="#f5f5f5" stroke="transparent" points="232.5,-513.7 232.5,-536.7 355.5,-536.7 355.5,-513.7 232.5,-513.7"/>
<polygon fill="none" stroke="#000000" points="232.5,-513.7 232.5,-536.7 355.5,-536.7 355.5,-513.7 232.5,-513.7"/>
<text text-anchor="start" x="237.1537" y="-522.8" font-family="Helvetica,sans-Serif" font-weight="bold" font-size="11.00" fill="#000000">rules_languages</text>
<text text-anchor="start" x="321.0219" y="-521.8" font-family="Helvetica,sans-Serif" font-size="11.00" fill="#000000">[table]</text>
<polygon fill="none" stroke="#000000" points="232.5,-494.7 232.5,-513.7 355.5,-513.7 355.5,-494.7 232.5,-494.7"/>
<text text-anchor="start" x="235.5" y="-500.8" font-family="Helvetica,sans-Serif" font-size="11.00" fill="#000000">...</text>
<polygon fill="#ffffff" stroke="transparent" points="232.5,-475.7 232.5,-494.7 273.5,-494.7 273.5,-475.7 232.5,-475.7"/>
<polygon fill="none" stroke="#000000" points="232.5,-475.7 232.5,-494.7 273.5,-494.7 273.5,-475.7 232.5,-475.7"/>
<text text-anchor="start" x="235.5" y="-481.8" font-family="Helvetica,sans-Serif" font-size="11.00" fill="#000000">&lt; 1</text>
<polygon fill="#ffffff" stroke="transparent" points="273.5,-475.7 273.5,-494.7 333.5,-494.7 333.5,-475.7 273.5,-475.7"/>
<polygon fill="none" stroke="#000000" points="273.5,-475.7 273.5,-494.7 333.5,-494.7 333.5,-475.7 273.5,-475.7"/>
<text text-anchor="start" x="285.8807" y="-481.8" font-family="Helvetica,sans-Serif" font-size="11.00" fill="#000000">271 rows</text>
<polygon fill="#ffffff" stroke="transparent" points="333.5,-475.7 333.5,-494.7 355.5,-494.7 355.5,-475.7 333.5,-475.7"/>
<polygon fill="none" stroke="#000000" points="333.5,-475.7 333.5,-494.7 355.5,-494.7 355.5,-475.7 333.5,-475.7"/>
<text text-anchor="start" x="346.3862" y="-481.8" font-family="Helvetica,sans-Serif" font-size="11.00" fill="#000000"> &#160;</text>
</a>
</g>
</g>
<!-- rules_languages&#45;&gt;rules -->
<g id="edge25" class="edge">
<title>rules_languages:w&#45;&gt;rules:e</title>
<path fill="none" stroke="#000000" d="M218.0249,-505.4275C198.6416,-510.7048 192.7271,-527.492 176,-547.7 150.8411,-578.0944 174.9562,-626.7 135.5,-626.7"/>
<polygon fill="#000000" stroke="#000000" points="224.5564,-504.6481 232.9266,-507.2746 228.5282,-504.174 232.5,-503.7 232.5,-503.7 232.5,-503.7 228.5282,-504.174 232.0734,-500.1254 224.5564,-504.6481 224.5564,-504.6481"/>
<ellipse fill="none" stroke="#000000" cx="221.3789" cy="-505.0273" rx="3.2" ry="3.2"/>
</g>
<!-- security_controls_rules -->
<g id="node23" class="node">
<title>security_controls_rules</title>
<g id="a_node23"><a xlink:href="../../tables/security_controls_rules.html" xlink:title="security_controls_rules" target="_top">
<polygon fill="#ffffff" stroke="transparent" points="216,-394.2 216,-455.2 371,-455.2 371,-394.2 216,-394.2"/>
<polygon fill="#f5f5f5" stroke="transparent" points="216.5,-431.7 216.5,-454.7 371.5,-454.7 371.5,-431.7 216.5,-431.7"/>
<polygon fill="none" stroke="#000000" points="216.5,-431.7 216.5,-454.7 371.5,-454.7 371.5,-431.7 216.5,-431.7"/>
<text text-anchor="start" x="221.2719" y="-440.8" font-family="Helvetica,sans-Serif" font-weight="bold" font-size="11.00" fill="#000000">security_controls_rules</text>
<text text-anchor="start" x="337.0219" y="-439.8" font-family="Helvetica,sans-Serif" font-size="11.00" fill="#000000">[table]</text>
<polygon fill="none" stroke="#000000" points="216.5,-412.7 216.5,-431.7 371.5,-431.7 371.5,-412.7 216.5,-412.7"/>
<text text-anchor="start" x="219.5" y="-418.8" font-family="Helvetica,sans-Serif" font-size="11.00" fill="#000000">...</text>
<polygon fill="#ffffff" stroke="transparent" points="216.5,-393.7 216.5,-412.7 279.5,-412.7 279.5,-393.7 216.5,-393.7"/>
<polygon fill="none" stroke="#000000" points="216.5,-393.7 216.5,-412.7 279.5,-412.7 279.5,-393.7 216.5,-393.7"/>
<text text-anchor="start" x="219.5" y="-399.8" font-family="Helvetica,sans-Serif" font-size="11.00" fill="#000000">&lt; 2</text>
<polygon fill="#ffffff" stroke="transparent" points="279.5,-393.7 279.5,-412.7 338.5,-412.7 338.5,-393.7 279.5,-393.7"/>
<polygon fill="none" stroke="#000000" points="279.5,-393.7 279.5,-412.7 338.5,-412.7 338.5,-393.7 279.5,-393.7"/>
<text text-anchor="start" x="303.1105" y="-399.8" font-family="Helvetica,sans-Serif" font-size="11.00" fill="#000000">0 rows</text>
<polygon fill="#ffffff" stroke="transparent" points="338.5,-393.7 338.5,-412.7 371.5,-412.7 371.5,-393.7 338.5,-393.7"/>
<polygon fill="none" stroke="#000000" points="338.5,-393.7 338.5,-412.7 371.5,-412.7 371.5,-393.7 338.5,-393.7"/>
<text text-anchor="start" x="362.3862" y="-399.8" font-family="Helvetica,sans-Serif" font-size="11.00" fill="#000000"> &#160;</text>
</a>
</g>
</g>
<!-- security_controls_rules&#45;&gt;rules -->
<g id="edge26" class="edge">
<title>security_controls_rules:w&#45;&gt;rules:e</title>
<path fill="none" stroke="#000000" d="M202.3046,-424.4725C188.8141,-430.8514 185.8678,-447.4301 176,-465.7 140.9356,-530.6206 209.2848,-626.7 135.5,-626.7"/>
<polygon fill="#000000" stroke="#000000" points="208.6484,-423.2336 217.1901,-425.2332 212.5742,-422.4668 216.5,-421.7 216.5,-421.7 216.5,-421.7 212.5742,-422.4668 215.8099,-418.1668 208.6484,-423.2336 208.6484,-423.2336"/>
<ellipse fill="none" stroke="#000000" cx="205.5077" cy="-423.847" rx="3.2" ry="3.2"/>
</g>
<!-- vulnerability_data -->
<g id="node24" class="node">
<title>vulnerability_data</title>
<g id="a_node24"><a xlink:href="../../tables/vulnerability_data.html" xlink:title="vulnerability_data" target="_top">
<polygon fill="#ffffff" stroke="transparent" points="229.5,-312.2 229.5,-373.2 357.5,-373.2 357.5,-312.2 229.5,-312.2"/>
<polygon fill="#f5f5f5" stroke="transparent" points="229.5,-349.7 229.5,-372.7 357.5,-372.7 357.5,-349.7 229.5,-349.7"/>
<polygon fill="none" stroke="#000000" points="229.5,-349.7 229.5,-372.7 357.5,-372.7 357.5,-349.7 229.5,-349.7"/>
<text text-anchor="start" x="234.2133" y="-358.8" font-family="Helvetica,sans-Serif" font-weight="bold" font-size="11.00" fill="#000000">vulnerability_data</text>
<text text-anchor="start" x="323.0219" y="-357.8" font-family="Helvetica,sans-Serif" font-size="11.00" fill="#000000">[table]</text>
<polygon fill="none" stroke="#000000" points="229.5,-330.7 229.5,-349.7 357.5,-349.7 357.5,-330.7 229.5,-330.7"/>
<text text-anchor="start" x="232.5" y="-336.8" font-family="Helvetica,sans-Serif" font-size="11.00" fill="#000000">...</text>
<polygon fill="#ffffff" stroke="transparent" points="229.5,-311.7 229.5,-330.7 271.5,-330.7 271.5,-311.7 229.5,-311.7"/>
<polygon fill="none" stroke="#000000" points="229.5,-311.7 229.5,-330.7 271.5,-330.7 271.5,-311.7 229.5,-311.7"/>
<text text-anchor="start" x="232.5" y="-317.8" font-family="Helvetica,sans-Serif" font-size="11.00" fill="#000000">&lt; 2</text>
<polygon fill="#ffffff" stroke="transparent" points="271.5,-311.7 271.5,-330.7 319.5,-330.7 319.5,-311.7 271.5,-311.7"/>
<polygon fill="none" stroke="#000000" points="271.5,-311.7 271.5,-330.7 319.5,-330.7 319.5,-311.7 271.5,-311.7"/>
<text text-anchor="start" x="284.1105" y="-317.8" font-family="Helvetica,sans-Serif" font-size="11.00" fill="#000000">0 rows</text>
<polygon fill="#ffffff" stroke="transparent" points="319.5,-311.7 319.5,-330.7 357.5,-330.7 357.5,-311.7 319.5,-311.7"/>
<polygon fill="none" stroke="#000000" points="319.5,-311.7 319.5,-330.7 357.5,-330.7 357.5,-311.7 319.5,-311.7"/>
<text text-anchor="start" x="332.7904" y="-317.8" font-family="Helvetica,sans-Serif" font-size="11.00" fill="#000000">11 &gt;</text>
</a>
</g>
</g>
<!-- vulnerability_data&#45;&gt;rules -->
<g id="edge27" class="edge">
<title>vulnerability_data:w&#45;&gt;rules:e</title>
<path fill="none" stroke="#000000" d="M214.9947,-341.3332C195.8241,-346.233 188.6325,-361.832 176,-383.7 148.6162,-431.1039 190.2449,-626.7 135.5,-626.7"/>
<polygon fill="#000000" stroke="#000000" points="221.5502,-340.5952 229.9028,-343.2774 225.5251,-340.1476 229.5,-339.7 229.5,-339.7 229.5,-339.7 225.5251,-340.1476 229.0972,-336.1226 221.5502,-340.5952 221.5502,-340.5952"/>
<ellipse fill="none" stroke="#000000" cx="218.3703" cy="-340.9532" rx="3.2" ry="3.2"/>
</g>
<!-- vulnerability_rule_applications_hash -->
<g id="node25" class="node">
<title>vulnerability_rule_applications_hash</title>
<g id="a_node25"><a xlink:href="../../tables/vulnerability_rule_applications_hash.html" xlink:title="vulnerability_rule_applications_hash" target="_top">
<polygon fill="#ffffff" stroke="transparent" points="507.5,-286.2 507.5,-347.2 726.5,-347.2 726.5,-286.2 507.5,-286.2"/>
<polygon fill="#f5f5f5" stroke="transparent" points="508,-323.7 508,-346.7 727,-346.7 727,-323.7 508,-323.7"/>
<polygon fill="none" stroke="#000000" points="508,-323.7 508,-346.7 727,-346.7 727,-323.7 508,-323.7"/>
<text text-anchor="start" x="512.6761" y="-332.8" font-family="Helvetica,sans-Serif" font-weight="bold" font-size="11.00" fill="#000000">vulnerability_rule_applications_hash</text>
<text text-anchor="start" x="692.5219" y="-331.8" font-family="Helvetica,sans-Serif" font-size="11.00" fill="#000000">[table]</text>
<polygon fill="none" stroke="#000000" points="508,-304.7 508,-323.7 727,-323.7 727,-304.7 508,-304.7"/>
<text text-anchor="start" x="511" y="-310.8" font-family="Helvetica,sans-Serif" font-size="11.00" fill="#000000">...</text>
<polygon fill="#ffffff" stroke="transparent" points="508,-285.7 508,-304.7 603,-304.7 603,-285.7 508,-285.7"/>
<polygon fill="none" stroke="#000000" points="508,-285.7 508,-304.7 603,-304.7 603,-285.7 508,-285.7"/>
<text text-anchor="start" x="511" y="-291.8" font-family="Helvetica,sans-Serif" font-size="11.00" fill="#000000">&lt; 3</text>
<polygon fill="#ffffff" stroke="transparent" points="603,-285.7 603,-304.7 678,-304.7 678,-285.7 603,-285.7"/>
<polygon fill="none" stroke="#000000" points="603,-285.7 603,-304.7 678,-304.7 678,-285.7 603,-285.7"/>
<text text-anchor="start" x="642.6105" y="-291.8" font-family="Helvetica,sans-Serif" font-size="11.00" fill="#000000">0 rows</text>
<polygon fill="#ffffff" stroke="transparent" points="678,-285.7 678,-304.7 727,-304.7 727,-285.7 678,-285.7"/>
<polygon fill="none" stroke="#000000" points="678,-285.7 678,-304.7 727,-304.7 727,-285.7 678,-285.7"/>
<text text-anchor="start" x="717.8862" y="-291.8" font-family="Helvetica,sans-Serif" font-size="11.00" fill="#000000"> &#160;</text>
</a>
</g>
</g>
<!-- vulnerability_rule_applications_hash&#45;&gt;rules -->
<g id="edge28" class="edge">
<title>vulnerability_rule_applications_hash:w&#45;&gt;rules:e</title>
<path fill="none" stroke="#000000" d="M493.4915,-313.0881C410.5313,-306.8375 228.04,-255.7424 176,-301.7 121.4469,-349.8769 208.2808,-626.7 135.5,-626.7"/>
<polygon fill="#000000" stroke="#000000" points="500.0071,-313.3628 507.8483,-317.2968 504.0036,-313.5314 508,-313.7 508,-313.7 508,-313.7 504.0036,-313.5314 508.1517,-310.1032 500.0071,-313.3628 500.0071,-313.3628"/>
<ellipse fill="none" stroke="#000000" cx="496.8099" cy="-313.228" rx="3.2" ry="3.2"/>
</g>
<!-- vulnerability_rule_applications_hash&#45;&gt;vulnerability_data -->
<g id="edge29" class="edge">
<title>vulnerability_rule_applications_hash:w&#45;&gt;vulnerability_data:e</title>
<path fill="none" stroke="#000000" d="M493.3664,-314.1296C437.5663,-317.5101 420.2092,-339.7 357.5,-339.7"/>
<polygon fill="#000000" stroke="#000000" points="500.0034,-313.9348 508.1057,-317.2984 504.0017,-313.8174 508,-313.7 508,-313.7 508,-313.7 504.0017,-313.8174 507.8943,-310.1016 500.0034,-313.9348 500.0034,-313.9348"/>
<ellipse fill="none" stroke="#000000" cx="496.8048" cy="-314.0287" rx="3.2" ry="3.2"/>
</g>
</g>
</svg>
