<?xml version="1.0" encoding="UTF-8" standalone="no"?>
<!DOCTYPE svg PUBLIC "-//W3C//DTD SVG 1.1//EN"
 "http://www.w3.org/Graphics/SVG/1.1/DTD/svg11.dtd">
<!-- Generated by graphviz version 2.40.1 (20161225.0304)
 -->
<!-- Title: oneDegreeRelationshipsDiagram Pages: 1 -->
<svg width="611pt" height="281pt"
 viewBox="0.00 0.00 611.00 281.20" xmlns="http://www.w3.org/2000/svg" xmlns:xlink="http://www.w3.org/1999/xlink">
<g id="graph0" class="graph" transform="scale(1 1) rotate(0) translate(4 277.2)">
<title>oneDegreeRelationshipsDiagram</title>
<polygon fill="#ffffff" stroke="transparent" points="-4,4 -4,-277.2 607,-277.2 607,4 -4,4"/>
<text text-anchor="middle" x="72.4936" y="-7.3" font-family="Helvetica,sans-Serif" font-size="11.00" fill="#000000">Generated by SchemaSpy</text>
<!-- organization_remediation_policy_rules -->
<g id="node1" class="node">
<title>organization_remediation_policy_rules</title>
<g id="a_node1"><a xlink:href="../../tables/organization_remediation_policy_rules.html" xlink:title="organization_remediation_policy_rules" target="_top">
<polygon fill="#ffffff" stroke="transparent" points="265,-128.7 265,-218.7 595,-218.7 595,-128.7 265,-128.7"/>
<polygon fill="#f5f5f5" stroke="transparent" points="267,-193.7 267,-216.7 593,-216.7 593,-193.7 267,-193.7"/>
<polygon fill="none" stroke="#000000" points="267,-193.7 267,-216.7 593,-216.7 593,-193.7 267,-193.7"/>
<text text-anchor="start" x="272" y="-202.8" font-family="Helvetica,sans-Serif" font-weight="bold" font-size="11.00" fill="#000000">organization_remediation_policy_rules</text>
<text text-anchor="start" x="558.0437" y="-201.8" font-family="Helvetica,sans-Serif" font-size="11.00" fill="#000000">[table]</text>
<polygon fill="none" stroke="#000000" points="267,-171.7 267,-193.7 510,-193.7 510,-171.7 267,-171.7"/>
<image xlink:href="../../images/primaryKeys.png" width="11px" height="12px" preserveAspectRatio="xMinYMin meet" x="272" y="-188.7"/>
<text text-anchor="start" x="287" y="-178.8" font-family="Helvetica,sans-Serif" font-size="11.00" fill="#000000">organization_remediation_policy_id</text>
<polygon fill="none" stroke="#000000" points="510,-171.7 510,-193.7 593,-193.7 593,-171.7 510,-171.7"/>
<text text-anchor="start" x="512.6783" y="-179.4" font-family="Helvetica,sans-Serif" font-size="11.00" fill="#000000">int unsigned[10]</text>
<polygon fill="none" stroke="#000000" points="267,-149.7 267,-171.7 510,-171.7 510,-149.7 267,-149.7"/>
<image xlink:href="../../images/primaryKeys.png" width="11px" height="12px" preserveAspectRatio="xMinYMin meet" x="272" y="-166.7"/>
<text text-anchor="start" x="287" y="-156.8" font-family="Helvetica,sans-Serif" font-size="11.00" fill="#000000">rules_id</text>
<polygon fill="none" stroke="#000000" points="510,-149.7 510,-171.7 593,-171.7 593,-149.7 510,-149.7"/>
<text text-anchor="start" x="513" y="-157.4" font-family="Helvetica,sans-Serif" font-size="11.00" fill="#000000">varchar[255]</text>
<polygon fill="#ffffff" stroke="transparent" points="267,-130.7 267,-149.7 380,-149.7 380,-130.7 267,-130.7"/>
<polygon fill="none" stroke="#000000" points="267,-130.7 267,-149.7 380,-149.7 380,-130.7 267,-130.7"/>
<text text-anchor="start" x="270" y="-136.8" font-family="Helvetica,sans-Serif" font-size="11.00" fill="#000000">&lt; 2</text>
<polygon fill="#ffffff" stroke="transparent" points="380,-130.7 380,-149.7 510,-149.7 510,-130.7 380,-130.7"/>
<polygon fill="none" stroke="#000000" points="380,-130.7 380,-149.7 510,-149.7 510,-130.7 380,-130.7"/>
<text text-anchor="start" x="474.6105" y="-136.8" font-family="Helvetica,sans-Serif" font-size="11.00" fill="#000000">0 rows</text>
<polygon fill="#ffffff" stroke="transparent" points="510,-130.7 510,-149.7 593,-149.7 593,-130.7 510,-130.7"/>
<polygon fill="none" stroke="#000000" points="510,-130.7 510,-149.7 593,-149.7 593,-130.7 510,-130.7"/>
<text text-anchor="start" x="574.4053" y="-136.8" font-family="Helvetica,sans-Serif" font-size="11.00" fill="#000000">0 &gt;</text>
<polygon fill="none" stroke="#000000" stroke-width="2" points="266,-129.7 266,-217.7 594,-217.7 594,-129.7 266,-129.7"/>
</a>
</g>
</g>
<!-- organization_remediation_policy -->
<g id="node2" class="node">
<title>organization_remediation_policy</title>
<g id="a_node2"><a xlink:href="../../tables/organization_remediation_policy.html" xlink:title="organization_remediation_policy" target="_top">
<polygon fill="#ffffff" stroke="transparent" points="8,-164.2 8,-269.2 216,-269.2 216,-164.2 8,-164.2"/>
<polygon fill="#f5f5f5" stroke="transparent" points="8,-245.7 8,-268.7 216,-268.7 216,-245.7 8,-245.7"/>
<polygon fill="none" stroke="#000000" points="8,-245.7 8,-268.7 216,-268.7 216,-245.7 8,-245.7"/>
<text text-anchor="start" x="13" y="-254.8" font-family="Helvetica,sans-Serif" font-weight="bold" font-size="11.00" fill="#000000">organization_remediation_policy</text>
<text text-anchor="start" x="181.0437" y="-253.8" font-family="Helvetica,sans-Serif" font-size="11.00" fill="#000000">[table]</text>
<polygon fill="none" stroke="#000000" points="8,-223.7 8,-245.7 216,-245.7 216,-223.7 8,-223.7"/>
<image xlink:href="../../images/primaryKeys.png" width="11px" height="12px" preserveAspectRatio="xMinYMin meet" x="13" y="-240.7"/>
<text text-anchor="start" x="28" y="-230.8" font-family="Helvetica,sans-Serif" font-size="11.00" fill="#000000">id</text>
<polygon fill="#ffffff" stroke="transparent" points="8,-201.7 8,-223.7 216,-223.7 216,-201.7 8,-201.7"/>
<polygon fill="none" stroke="#000000" points="8,-201.7 8,-223.7 216,-223.7 216,-201.7 8,-201.7"/>
<image xlink:href="../../images/foreignKeys.png" width="11px" height="12px" preserveAspectRatio="xMinYMin meet" x="13" y="-218.7"/>
<text text-anchor="start" x="28" y="-208.8" font-family="Helvetica,sans-Serif" font-size="11.00" fill="#000000">organizations_id</text>
<polygon fill="none" stroke="#000000" points="8,-182.7 8,-201.7 216,-201.7 216,-182.7 8,-182.7"/>
<text text-anchor="start" x="11" y="-188.8" font-family="Helvetica,sans-Serif" font-size="11.00" fill="#000000">...</text>
<polygon fill="#ffffff" stroke="transparent" points="8,-163.7 8,-182.7 93,-182.7 93,-163.7 8,-163.7"/>
<polygon fill="none" stroke="#000000" points="8,-163.7 8,-182.7 93,-182.7 93,-163.7 8,-163.7"/>
<text text-anchor="start" x="11" y="-169.8" font-family="Helvetica,sans-Serif" font-size="11.00" fill="#000000">&lt; 1</text>
<polygon fill="#ffffff" stroke="transparent" points="93,-163.7 93,-182.7 163,-182.7 163,-163.7 93,-163.7"/>
<polygon fill="none" stroke="#000000" points="93,-163.7 93,-182.7 163,-182.7 163,-163.7 93,-163.7"/>
<text text-anchor="start" x="127.6105" y="-169.8" font-family="Helvetica,sans-Serif" font-size="11.00" fill="#000000">0 rows</text>
<polygon fill="#ffffff" stroke="transparent" points="163,-163.7 163,-182.7 216,-182.7 216,-163.7 163,-163.7"/>
<polygon fill="none" stroke="#000000" points="163,-163.7 163,-182.7 216,-182.7 216,-163.7 163,-163.7"/>
<text text-anchor="start" x="197.4053" y="-169.8" font-family="Helvetica,sans-Serif" font-size="11.00" fill="#000000">7 &gt;</text>
</a>
</g>
</g>
<!-- organization_remediation_policy_rules&#45;&gt;organization_remediation_policy -->
<g id="edge1" class="edge">
<title>organization_remediation_policy_rules:w&#45;&gt;organization_remediation_policy:e</title>
<path fill="none" stroke="#000000" d="M253.0468,-187.4988C238.161,-200.3719 242.3017,-234.7 216,-234.7"/>
<polygon fill="#000000" stroke="#000000" points="259.4349,-185.3018 268.1708,-186.1043 263.2175,-184.0009 267,-182.7 267,-182.7 267,-182.7 263.2175,-184.0009 265.8292,-179.2957 259.4349,-185.3018 259.4349,-185.3018"/>
<ellipse fill="none" stroke="#000000" cx="256.4089" cy="-186.3426" rx="3.2" ry="3.2"/>
</g>
<!-- rules -->
<g id="node3" class="node">
<title>rules</title>
<g id="a_node3"><a xlink:href="../../tables/rules.html" xlink:title="rules" target="_top">
<polygon fill="#ffffff" stroke="transparent" points="48.5,-38.2 48.5,-143.2 175.5,-143.2 175.5,-38.2 48.5,-38.2"/>
<polygon fill="#f5f5f5" stroke="transparent" points="49,-119.7 49,-142.7 176,-142.7 176,-119.7 49,-119.7"/>
<polygon fill="none" stroke="#000000" points="49,-119.7 49,-142.7 176,-142.7 176,-119.7 49,-119.7"/>
<text text-anchor="start" x="54" y="-128.8" font-family="Helvetica,sans-Serif" font-weight="bold" font-size="11.00" fill="#000000">rules</text>
<text text-anchor="start" x="141.0437" y="-127.8" font-family="Helvetica,sans-Serif" font-size="11.00" fill="#000000">[table]</text>
<polygon fill="none" stroke="#000000" points="49,-97.7 49,-119.7 176,-119.7 176,-97.7 49,-97.7"/>
<image xlink:href="../../images/primaryKeys.png" width="11px" height="12px" preserveAspectRatio="xMinYMin meet" x="54" y="-114.7"/>
<text text-anchor="start" x="69" y="-104.8" font-family="Helvetica,sans-Serif" font-size="11.00" fill="#000000">name</text>
<polygon fill="#ffffff" stroke="transparent" points="49,-75.7 49,-97.7 176,-97.7 176,-75.7 49,-75.7"/>
<polygon fill="none" stroke="#000000" points="49,-75.7 49,-97.7 176,-97.7 176,-75.7 49,-75.7"/>
<text text-anchor="start" x="69" y="-82.8" font-family="Helvetica,sans-Serif" font-size="11.00" fill="#000000">title</text>
<polygon fill="none" stroke="#000000" points="49,-56.7 49,-75.7 176,-75.7 176,-56.7 49,-56.7"/>
<text text-anchor="start" x="52" y="-62.8" font-family="Helvetica,sans-Serif" font-size="11.00" fill="#000000">...</text>
<polygon fill="#ffffff" stroke="transparent" points="49,-37.7 49,-56.7 83,-56.7 83,-37.7 49,-37.7"/>
<polygon fill="none" stroke="#000000" points="49,-37.7 49,-56.7 83,-56.7 83,-37.7 49,-37.7"/>
<text text-anchor="start" x="52" y="-43.8" font-family="Helvetica,sans-Serif" font-size="11.00" fill="#000000"> &#160;</text>
<polygon fill="#ffffff" stroke="transparent" points="83,-37.7 83,-56.7 138,-56.7 138,-37.7 83,-37.7"/>
<polygon fill="none" stroke="#000000" points="83,-37.7 83,-56.7 138,-56.7 138,-37.7 83,-37.7"/>
<text text-anchor="start" x="96.4956" y="-43.8" font-family="Helvetica,sans-Serif" font-size="11.00" fill="#000000">82 rows</text>
<polygon fill="#ffffff" stroke="transparent" points="138,-37.7 138,-56.7 176,-56.7 176,-37.7 138,-37.7"/>
<polygon fill="none" stroke="#000000" points="138,-37.7 138,-56.7 176,-56.7 176,-37.7 138,-37.7"/>
<text text-anchor="start" x="151.2904" y="-43.8" font-family="Helvetica,sans-Serif" font-size="11.00" fill="#000000">16 &gt;</text>
</a>
</g>
</g>
<!-- organization_remediation_policy_rules&#45;&gt;rules -->
<g id="edge2" class="edge">
<title>organization_remediation_policy_rules:w&#45;&gt;rules:e</title>
<path fill="none" stroke="#000000" d="M252.4749,-158.725C220.2558,-149.2266 217.1231,-108.7 176,-108.7"/>
<polygon fill="#000000" stroke="#000000" points="259.0729,-159.6221 266.515,-164.2672 263.0365,-160.1611 267,-160.7 267,-160.7 267,-160.7 263.0365,-160.1611 267.485,-157.1328 259.0729,-159.6221 259.0729,-159.6221"/>
<ellipse fill="none" stroke="#000000" cx="255.9021" cy="-159.191" rx="3.2" ry="3.2"/>
</g>
</g>
</svg>
