<?xml version="1.0" encoding="UTF-8" standalone="no"?>
<!DOCTYPE svg PUBLIC "-//W3C//DTD SVG 1.1//EN"
 "http://www.w3.org/Graphics/SVG/1.1/DTD/svg11.dtd">
<!-- Generated by graphviz version 2.40.1 (20161225.0304)
 -->
<!-- Title: oneDegreeRelationshipsDiagram Pages: 1 -->
<svg width="744pt" height="184pt"
 viewBox="0.00 0.00 744.00 184.20" xmlns="http://www.w3.org/2000/svg" xmlns:xlink="http://www.w3.org/1999/xlink">
<g id="graph0" class="graph" transform="scale(1 1) rotate(0) translate(4 180.2)">
<title>oneDegreeRelationshipsDiagram</title>
<polygon fill="#ffffff" stroke="transparent" points="-4,4 -4,-180.2 740,-180.2 740,4 -4,4"/>
<text text-anchor="middle" x="72.4936" y="-7.3" font-family="Helvetica,sans-Serif" font-size="11.00" fill="#000000">Generated by SchemaSpy</text>
<!-- organization_server_default_syslog_configuration -->
<g id="node1" class="node">
<title>organization_server_default_syslog_configuration</title>
<g id="a_node1"><a xlink:href="../../tables/organization_server_default_syslog_configuration.html" xlink:title="organization_server_default_syslog_configuration" target="_top">
<polygon fill="#ffffff" stroke="transparent" points="300,-38.2 300,-172.2 728,-172.2 728,-38.2 300,-38.2"/>
<polygon fill="#f5f5f5" stroke="transparent" points="302,-147.2 302,-170.2 726,-170.2 726,-147.2 302,-147.2"/>
<polygon fill="none" stroke="#000000" points="302,-147.2 302,-170.2 726,-170.2 726,-147.2 302,-147.2"/>
<text text-anchor="start" x="307" y="-156.3" font-family="Helvetica,sans-Serif" font-weight="bold" font-size="11.00" fill="#000000">organization_server_default_syslog_configuration</text>
<text text-anchor="start" x="691.0437" y="-155.3" font-family="Helvetica,sans-Serif" font-size="11.00" fill="#000000">[table]</text>
<polygon fill="none" stroke="#000000" points="302,-125.2 302,-147.2 628,-147.2 628,-125.2 302,-125.2"/>
<image xlink:href="../../images/primaryKeys.png" width="11px" height="12px" preserveAspectRatio="xMinYMin meet" x="307" y="-142.2"/>
<text text-anchor="start" x="322" y="-132.3" font-family="Helvetica,sans-Serif" font-size="11.00" fill="#000000">organization_server_default_syslog_configuration_id</text>
<polygon fill="none" stroke="#000000" points="628,-125.2 628,-147.2 726,-147.2 726,-125.2 628,-125.2"/>
<text text-anchor="start" x="630.8429" y="-132.9" font-family="Helvetica,sans-Serif" font-size="11.00" fill="#000000">bigint unsigned[20]</text>
<polygon fill="#ffffff" stroke="transparent" points="302,-103.2 302,-125.2 628,-125.2 628,-103.2 302,-103.2"/>
<polygon fill="none" stroke="#000000" points="302,-103.2 302,-125.2 628,-125.2 628,-103.2 302,-103.2"/>
<image xlink:href="../../images/foreignKeys.png" width="11px" height="12px" preserveAspectRatio="xMinYMin meet" x="307" y="-120.2"/>
<text text-anchor="start" x="322" y="-110.3" font-family="Helvetica,sans-Serif" font-size="11.00" fill="#000000">organization_server_default_syslog_id</text>
<polygon fill="none" stroke="#000000" points="628,-103.2 628,-125.2 726,-125.2 726,-103.2 628,-103.2"/>
<text text-anchor="start" x="630.8429" y="-110.9" font-family="Helvetica,sans-Serif" font-size="11.00" fill="#000000">bigint unsigned[20]</text>
<polygon fill="#ffffff" stroke="transparent" points="302,-81.2 302,-103.2 628,-103.2 628,-81.2 302,-81.2"/>
<polygon fill="none" stroke="#000000" points="302,-81.2 302,-103.2 628,-103.2 628,-81.2 302,-81.2"/>
<text text-anchor="start" x="322" y="-88.3" font-family="Helvetica,sans-Serif" font-size="11.00" fill="#000000">attack_status</text>
<polygon fill="none" stroke="#000000" points="628,-81.2 628,-103.2 726,-103.2 726,-81.2 628,-81.2"/>
<text text-anchor="start" x="631" y="-88.9" font-family="Helvetica,sans-Serif" font-size="11.00" fill="#000000">varchar[255]</text>
<polygon fill="none" stroke="#000000" points="302,-59.2 302,-81.2 628,-81.2 628,-59.2 302,-59.2"/>
<text text-anchor="start" x="322" y="-66.3" font-family="Helvetica,sans-Serif" font-size="11.00" fill="#000000">severity</text>
<polygon fill="none" stroke="#000000" points="628,-59.2 628,-81.2 726,-81.2 726,-59.2 628,-59.2"/>
<text text-anchor="start" x="631" y="-66.9" font-family="Helvetica,sans-Serif" font-size="11.00" fill="#000000">varchar[255]</text>
<polygon fill="#ffffff" stroke="transparent" points="302,-40.2 302,-59.2 456,-59.2 456,-40.2 302,-40.2"/>
<polygon fill="none" stroke="#000000" points="302,-40.2 302,-59.2 456,-59.2 456,-40.2 302,-40.2"/>
<text text-anchor="start" x="305" y="-46.3" font-family="Helvetica,sans-Serif" font-size="11.00" fill="#000000">&lt; 1</text>
<polygon fill="#ffffff" stroke="transparent" points="456,-40.2 456,-59.2 628,-59.2 628,-40.2 456,-40.2"/>
<polygon fill="none" stroke="#000000" points="456,-40.2 456,-59.2 628,-59.2 628,-40.2 456,-40.2"/>
<text text-anchor="start" x="592.6105" y="-46.3" font-family="Helvetica,sans-Serif" font-size="11.00" fill="#000000">0 rows</text>
<polygon fill="#ffffff" stroke="transparent" points="628,-40.2 628,-59.2 726,-59.2 726,-40.2 628,-40.2"/>
<polygon fill="none" stroke="#000000" points="628,-40.2 628,-59.2 726,-59.2 726,-40.2 628,-40.2"/>
<text text-anchor="start" x="707.4053" y="-46.3" font-family="Helvetica,sans-Serif" font-size="11.00" fill="#000000">0 &gt;</text>
<polygon fill="none" stroke="#000000" stroke-width="2" points="301,-39.2 301,-171.2 727,-171.2 727,-39.2 301,-39.2"/>
</a>
</g>
</g>
<!-- organization_server_default_syslog -->
<g id="node2" class="node">
<title>organization_server_default_syslog</title>
<g id="a_node2"><a xlink:href="../../tables/organization_server_default_syslog.html" xlink:title="organization_server_default_syslog" target="_top">
<polygon fill="#ffffff" stroke="transparent" points="8,-43.7 8,-148.7 251,-148.7 251,-43.7 8,-43.7"/>
<polygon fill="#f5f5f5" stroke="transparent" points="8.5,-125.2 8.5,-148.2 251.5,-148.2 251.5,-125.2 8.5,-125.2"/>
<polygon fill="none" stroke="#000000" points="8.5,-125.2 8.5,-148.2 251.5,-148.2 251.5,-125.2 8.5,-125.2"/>
<text text-anchor="start" x="13.5" y="-134.3" font-family="Helvetica,sans-Serif" font-weight="bold" font-size="11.00" fill="#000000">organization_server_default_syslog</text>
<text text-anchor="start" x="216.5437" y="-133.3" font-family="Helvetica,sans-Serif" font-size="11.00" fill="#000000">[table]</text>
<polygon fill="none" stroke="#000000" points="8.5,-103.2 8.5,-125.2 251.5,-125.2 251.5,-103.2 8.5,-103.2"/>
<image xlink:href="../../images/primaryKeys.png" width="11px" height="12px" preserveAspectRatio="xMinYMin meet" x="13.5" y="-120.2"/>
<text text-anchor="start" x="28.5" y="-110.3" font-family="Helvetica,sans-Serif" font-size="11.00" fill="#000000">organization_server_default_syslog_id</text>
<polygon fill="#ffffff" stroke="transparent" points="8.5,-81.2 8.5,-103.2 251.5,-103.2 251.5,-81.2 8.5,-81.2"/>
<polygon fill="none" stroke="#000000" points="8.5,-81.2 8.5,-103.2 251.5,-103.2 251.5,-81.2 8.5,-81.2"/>
<image xlink:href="../../images/foreignKeys.png" width="11px" height="12px" preserveAspectRatio="xMinYMin meet" x="13.5" y="-98.2"/>
<text text-anchor="start" x="28.5" y="-88.3" font-family="Helvetica,sans-Serif" font-size="11.00" fill="#000000">organization_server_defaults_id</text>
<polygon fill="none" stroke="#000000" points="8.5,-62.2 8.5,-81.2 251.5,-81.2 251.5,-62.2 8.5,-62.2"/>
<text text-anchor="start" x="11.5" y="-68.3" font-family="Helvetica,sans-Serif" font-size="11.00" fill="#000000">...</text>
<polygon fill="#ffffff" stroke="transparent" points="8.5,-43.2 8.5,-62.2 110.5,-62.2 110.5,-43.2 8.5,-43.2"/>
<polygon fill="none" stroke="#000000" points="8.5,-43.2 8.5,-62.2 110.5,-62.2 110.5,-43.2 8.5,-43.2"/>
<text text-anchor="start" x="11.5" y="-49.3" font-family="Helvetica,sans-Serif" font-size="11.00" fill="#000000">&lt; 1</text>
<polygon fill="#ffffff" stroke="transparent" points="110.5,-43.2 110.5,-62.2 189.5,-62.2 189.5,-43.2 110.5,-43.2"/>
<polygon fill="none" stroke="#000000" points="110.5,-43.2 110.5,-62.2 189.5,-62.2 189.5,-43.2 110.5,-43.2"/>
<text text-anchor="start" x="154.1105" y="-49.3" font-family="Helvetica,sans-Serif" font-size="11.00" fill="#000000">0 rows</text>
<polygon fill="#ffffff" stroke="transparent" points="189.5,-43.2 189.5,-62.2 251.5,-62.2 251.5,-43.2 189.5,-43.2"/>
<polygon fill="none" stroke="#000000" points="189.5,-43.2 189.5,-62.2 251.5,-62.2 251.5,-43.2 189.5,-43.2"/>
<text text-anchor="start" x="232.9053" y="-49.3" font-family="Helvetica,sans-Serif" font-size="11.00" fill="#000000">1 &gt;</text>
</a>
</g>
</g>
<!-- organization_server_default_syslog_configuration&#45;&gt;organization_server_default_syslog -->
<g id="edge1" class="edge">
<title>organization_server_default_syslog_configuration:w&#45;&gt;organization_server_default_syslog:e</title>
<path fill="none" stroke="#000000" d="M287.4203,-114.2C275.5435,-114.2 268.158,-114.2 251.5,-114.2"/>
<polygon fill="#000000" stroke="#000000" points="294,-114.2001 302,-117.8 298,-114.2 302,-114.2 302,-114.2 302,-114.2 298,-114.2 302,-110.6 294,-114.2001 294,-114.2001"/>
<ellipse fill="none" stroke="#000000" cx="290.8" cy="-114.2001" rx="3.2" ry="3.2"/>
</g>
</g>
</svg>
