<?xml version="1.0" encoding="UTF-8" standalone="no"?>
<!DOCTYPE svg PUBLIC "-//W3C//DTD SVG 1.1//EN"
 "http://www.w3.org/Graphics/SVG/1.1/DTD/svg11.dtd">
<!-- Generated by graphviz version 2.40.1 (20161225.0304)
 -->
<!-- Title: oneDegreeRelationshipsDiagram Pages: 1 -->
<svg width="704pt" height="157pt"
 viewBox="0.00 0.00 704.00 156.70" xmlns="http://www.w3.org/2000/svg" xmlns:xlink="http://www.w3.org/1999/xlink">
<g id="graph0" class="graph" transform="scale(1 1) rotate(0) translate(4 152.7)">
<title>oneDegreeRelationshipsDiagram</title>
<polygon fill="#ffffff" stroke="transparent" points="-4,4 -4,-152.7 700,-152.7 700,4 -4,4"/>
<text text-anchor="middle" x="72.4936" y="-7.3" font-family="Helvetica,sans-Serif" font-size="11.00" fill="#000000">Generated by SchemaSpy</text>
<!-- organization_remediation_policy_server_environments -->
<g id="node1" class="node">
<title>organization_remediation_policy_server_environments</title>
<g id="a_node1"><a xlink:href="../../tables/organization_remediation_policy_server_environments.html" xlink:title="organization_remediation_policy_server_environments" target="_top">
<polygon fill="#ffffff" stroke="transparent" points="265,-54.7 265,-144.7 688,-144.7 688,-54.7 265,-54.7"/>
<polygon fill="#f5f5f5" stroke="transparent" points="267.5,-119.7 267.5,-142.7 686.5,-142.7 686.5,-119.7 267.5,-119.7"/>
<polygon fill="none" stroke="#000000" points="267.5,-119.7 267.5,-142.7 686.5,-142.7 686.5,-119.7 267.5,-119.7"/>
<text text-anchor="start" x="272.5" y="-128.8" font-family="Helvetica,sans-Serif" font-weight="bold" font-size="11.00" fill="#000000">organization_remediation_policy_server_environments</text>
<text text-anchor="start" x="651.5437" y="-127.8" font-family="Helvetica,sans-Serif" font-size="11.00" fill="#000000">[table]</text>
<polygon fill="none" stroke="#000000" points="267.5,-97.7 267.5,-119.7 603.5,-119.7 603.5,-97.7 267.5,-97.7"/>
<image xlink:href="../../images/primaryKeys.png" width="11px" height="12px" preserveAspectRatio="xMinYMin meet" x="272.5" y="-114.7"/>
<text text-anchor="start" x="287.5" y="-104.8" font-family="Helvetica,sans-Serif" font-size="11.00" fill="#000000">organization_remediation_policy_id</text>
<polygon fill="none" stroke="#000000" points="603.5,-97.7 603.5,-119.7 686.5,-119.7 686.5,-97.7 603.5,-97.7"/>
<text text-anchor="start" x="606.1783" y="-105.4" font-family="Helvetica,sans-Serif" font-size="11.00" fill="#000000">int unsigned[10]</text>
<polygon fill="none" stroke="#000000" points="267.5,-75.7 267.5,-97.7 603.5,-97.7 603.5,-75.7 267.5,-75.7"/>
<image xlink:href="../../images/primaryKeys.png" width="11px" height="12px" preserveAspectRatio="xMinYMin meet" x="272.5" y="-92.7"/>
<text text-anchor="start" x="287.5" y="-82.8" font-family="Helvetica,sans-Serif" font-size="11.00" fill="#000000">server_environment</text>
<polygon fill="none" stroke="#000000" points="603.5,-75.7 603.5,-97.7 686.5,-97.7 686.5,-75.7 603.5,-75.7"/>
<text text-anchor="start" x="606.5" y="-83.4" font-family="Helvetica,sans-Serif" font-size="11.00" fill="#000000">varchar[50]</text>
<polygon fill="#ffffff" stroke="transparent" points="267.5,-56.7 267.5,-75.7 426.5,-75.7 426.5,-56.7 267.5,-56.7"/>
<polygon fill="none" stroke="#000000" points="267.5,-56.7 267.5,-75.7 426.5,-75.7 426.5,-56.7 267.5,-56.7"/>
<text text-anchor="start" x="270.5" y="-62.8" font-family="Helvetica,sans-Serif" font-size="11.00" fill="#000000">&lt; 1</text>
<polygon fill="#ffffff" stroke="transparent" points="426.5,-56.7 426.5,-75.7 603.5,-75.7 603.5,-56.7 426.5,-56.7"/>
<polygon fill="none" stroke="#000000" points="426.5,-56.7 426.5,-75.7 603.5,-75.7 603.5,-56.7 426.5,-56.7"/>
<text text-anchor="start" x="568.1105" y="-62.8" font-family="Helvetica,sans-Serif" font-size="11.00" fill="#000000">0 rows</text>
<polygon fill="#ffffff" stroke="transparent" points="603.5,-56.7 603.5,-75.7 686.5,-75.7 686.5,-56.7 603.5,-56.7"/>
<polygon fill="none" stroke="#000000" points="603.5,-56.7 603.5,-75.7 686.5,-75.7 686.5,-56.7 603.5,-56.7"/>
<text text-anchor="start" x="667.9053" y="-62.8" font-family="Helvetica,sans-Serif" font-size="11.00" fill="#000000">0 &gt;</text>
<polygon fill="none" stroke="#000000" stroke-width="2" points="266,-55.7 266,-143.7 687,-143.7 687,-55.7 266,-55.7"/>
</a>
</g>
</g>
<!-- organization_remediation_policy -->
<g id="node2" class="node">
<title>organization_remediation_policy</title>
<g id="a_node2"><a xlink:href="../../tables/organization_remediation_policy.html" xlink:title="organization_remediation_policy" target="_top">
<polygon fill="#ffffff" stroke="transparent" points="8,-38.2 8,-143.2 216,-143.2 216,-38.2 8,-38.2"/>
<polygon fill="#f5f5f5" stroke="transparent" points="8,-119.7 8,-142.7 216,-142.7 216,-119.7 8,-119.7"/>
<polygon fill="none" stroke="#000000" points="8,-119.7 8,-142.7 216,-142.7 216,-119.7 8,-119.7"/>
<text text-anchor="start" x="13" y="-128.8" font-family="Helvetica,sans-Serif" font-weight="bold" font-size="11.00" fill="#000000">organization_remediation_policy</text>
<text text-anchor="start" x="181.0437" y="-127.8" font-family="Helvetica,sans-Serif" font-size="11.00" fill="#000000">[table]</text>
<polygon fill="none" stroke="#000000" points="8,-97.7 8,-119.7 216,-119.7 216,-97.7 8,-97.7"/>
<image xlink:href="../../images/primaryKeys.png" width="11px" height="12px" preserveAspectRatio="xMinYMin meet" x="13" y="-114.7"/>
<text text-anchor="start" x="28" y="-104.8" font-family="Helvetica,sans-Serif" font-size="11.00" fill="#000000">id</text>
<polygon fill="#ffffff" stroke="transparent" points="8,-75.7 8,-97.7 216,-97.7 216,-75.7 8,-75.7"/>
<polygon fill="none" stroke="#000000" points="8,-75.7 8,-97.7 216,-97.7 216,-75.7 8,-75.7"/>
<image xlink:href="../../images/foreignKeys.png" width="11px" height="12px" preserveAspectRatio="xMinYMin meet" x="13" y="-92.7"/>
<text text-anchor="start" x="28" y="-82.8" font-family="Helvetica,sans-Serif" font-size="11.00" fill="#000000">organizations_id</text>
<polygon fill="none" stroke="#000000" points="8,-56.7 8,-75.7 216,-75.7 216,-56.7 8,-56.7"/>
<text text-anchor="start" x="11" y="-62.8" font-family="Helvetica,sans-Serif" font-size="11.00" fill="#000000">...</text>
<polygon fill="#ffffff" stroke="transparent" points="8,-37.7 8,-56.7 93,-56.7 93,-37.7 8,-37.7"/>
<polygon fill="none" stroke="#000000" points="8,-37.7 8,-56.7 93,-56.7 93,-37.7 8,-37.7"/>
<text text-anchor="start" x="11" y="-43.8" font-family="Helvetica,sans-Serif" font-size="11.00" fill="#000000">&lt; 1</text>
<polygon fill="#ffffff" stroke="transparent" points="93,-37.7 93,-56.7 163,-56.7 163,-37.7 93,-37.7"/>
<polygon fill="none" stroke="#000000" points="93,-37.7 93,-56.7 163,-56.7 163,-37.7 93,-37.7"/>
<text text-anchor="start" x="127.6105" y="-43.8" font-family="Helvetica,sans-Serif" font-size="11.00" fill="#000000">0 rows</text>
<polygon fill="#ffffff" stroke="transparent" points="163,-37.7 163,-56.7 216,-56.7 216,-37.7 163,-37.7"/>
<polygon fill="none" stroke="#000000" points="163,-37.7 163,-56.7 216,-56.7 216,-37.7 163,-37.7"/>
<text text-anchor="start" x="197.4053" y="-43.8" font-family="Helvetica,sans-Serif" font-size="11.00" fill="#000000">7 &gt;</text>
</a>
</g>
</g>
<!-- organization_remediation_policy_server_environments&#45;&gt;organization_remediation_policy -->
<g id="edge1" class="edge">
<title>organization_remediation_policy_server_environments:w&#45;&gt;organization_remediation_policy:e</title>
<path fill="none" stroke="#000000" d="M253.0156,-108.7C240.6771,-108.7 233.1667,-108.7 216,-108.7"/>
<polygon fill="#000000" stroke="#000000" points="259.5,-108.7001 267.5,-112.3 263.5,-108.7 267.5,-108.7 267.5,-108.7 267.5,-108.7 263.5,-108.7 267.5,-105.1 259.5,-108.7001 259.5,-108.7001"/>
<ellipse fill="none" stroke="#000000" cx="256.3" cy="-108.7001" rx="3.2" ry="3.2"/>
</g>
</g>
</svg>
