<?xml version="1.0" encoding="UTF-8" standalone="no"?>
<!DOCTYPE svg PUBLIC "-//W3C//DTD SVG 1.1//EN"
 "http://www.w3.org/Graphics/SVG/1.1/DTD/svg11.dtd">
<!-- Generated by graphviz version 2.40.1 (20161225.0304)
 -->
<!-- Title: oneDegreeRelationshipsDiagram Pages: 1 -->
<svg width="702pt" height="293pt"
 viewBox="0.00 0.00 702.00 292.70" xmlns="http://www.w3.org/2000/svg" xmlns:xlink="http://www.w3.org/1999/xlink">
<g id="graph0" class="graph" transform="scale(1 1) rotate(0) translate(4 288.7)">
<title>oneDegreeRelationshipsDiagram</title>
<polygon fill="#ffffff" stroke="transparent" points="-4,4 -4,-288.7 698,-288.7 698,4 -4,4"/>
<text text-anchor="middle" x="72.4936" y="-7.3" font-family="Helvetica,sans-Serif" font-size="11.00" fill="#000000">Generated by SchemaSpy</text>
<!-- organization_libraries_versions_requirements -->
<g id="node1" class="node">
<title>organization_libraries_versions_requirements</title>
<g id="a_node1"><a xlink:href="../../tables/organization_libraries_versions_requirements.html" xlink:title="organization_libraries_versions_requirements" target="_top">
<polygon fill="#ffffff" stroke="transparent" points="315,-38.2 315,-216.2 686,-216.2 686,-38.2 315,-38.2"/>
<polygon fill="#f5f5f5" stroke="transparent" points="317.5,-191.2 317.5,-214.2 684.5,-214.2 684.5,-191.2 317.5,-191.2"/>
<polygon fill="none" stroke="#000000" points="317.5,-191.2 317.5,-214.2 684.5,-214.2 684.5,-191.2 317.5,-191.2"/>
<text text-anchor="start" x="322.5" y="-200.3" font-family="Helvetica,sans-Serif" font-weight="bold" font-size="11.00" fill="#000000">organization_libraries_versions_requirements</text>
<text text-anchor="start" x="649.5437" y="-199.3" font-family="Helvetica,sans-Serif" font-size="11.00" fill="#000000">[table]</text>
<polygon fill="none" stroke="#000000" points="317.5,-169.2 317.5,-191.2 601.5,-191.2 601.5,-169.2 317.5,-169.2"/>
<image xlink:href="../../images/primaryKeys.png" width="11px" height="12px" preserveAspectRatio="xMinYMin meet" x="322.5" y="-186.2"/>
<text text-anchor="start" x="337.5" y="-176.3" font-family="Helvetica,sans-Serif" font-size="11.00" fill="#000000">id</text>
<polygon fill="none" stroke="#000000" points="601.5,-169.2 601.5,-191.2 684.5,-191.2 684.5,-169.2 601.5,-169.2"/>
<text text-anchor="start" x="604.1783" y="-176.9" font-family="Helvetica,sans-Serif" font-size="11.00" fill="#000000">int unsigned[10]</text>
<polygon fill="#ffffff" stroke="transparent" points="317.5,-147.2 317.5,-169.2 601.5,-169.2 601.5,-147.2 317.5,-147.2"/>
<polygon fill="none" stroke="#000000" points="317.5,-147.2 317.5,-169.2 601.5,-169.2 601.5,-147.2 317.5,-147.2"/>
<image xlink:href="../../images/foreignKeys.png" width="11px" height="12px" preserveAspectRatio="xMinYMin meet" x="322.5" y="-164.2"/>
<text text-anchor="start" x="337.5" y="-154.3" font-family="Helvetica,sans-Serif" font-size="11.00" fill="#000000">organizations_id</text>
<polygon fill="none" stroke="#000000" points="601.5,-147.2 601.5,-169.2 684.5,-169.2 684.5,-147.2 601.5,-147.2"/>
<text text-anchor="start" x="604.1783" y="-154.9" font-family="Helvetica,sans-Serif" font-size="11.00" fill="#000000">int unsigned[10]</text>
<polygon fill="#ffffff" stroke="transparent" points="317.5,-125.2 317.5,-147.2 601.5,-147.2 601.5,-125.2 317.5,-125.2"/>
<polygon fill="none" stroke="#000000" points="317.5,-125.2 317.5,-147.2 601.5,-147.2 601.5,-125.2 317.5,-125.2"/>
<text text-anchor="start" x="337.5" y="-132.3" font-family="Helvetica,sans-Serif" font-size="11.00" fill="#000000">sha1</text>
<polygon fill="none" stroke="#000000" points="601.5,-125.2 601.5,-147.2 684.5,-147.2 684.5,-125.2 601.5,-125.2"/>
<text text-anchor="start" x="604.5" y="-132.9" font-family="Helvetica,sans-Serif" font-size="11.00" fill="#000000">varchar[255]</text>
<polygon fill="none" stroke="#000000" points="317.5,-103.2 317.5,-125.2 601.5,-125.2 601.5,-103.2 317.5,-103.2"/>
<text text-anchor="start" x="337.5" y="-110.3" font-family="Helvetica,sans-Serif" font-size="11.00" fill="#000000">library_name</text>
<polygon fill="none" stroke="#000000" points="601.5,-103.2 601.5,-125.2 684.5,-125.2 684.5,-103.2 601.5,-103.2"/>
<text text-anchor="start" x="604.5" y="-110.9" font-family="Helvetica,sans-Serif" font-size="11.00" fill="#000000">varchar[255]</text>
<polygon fill="none" stroke="#000000" points="317.5,-81.2 317.5,-103.2 601.5,-103.2 601.5,-81.2 317.5,-81.2"/>
<text text-anchor="start" x="337.5" y="-88.3" font-family="Helvetica,sans-Serif" font-size="11.00" fill="#000000">versions_behind</text>
<polygon fill="none" stroke="#000000" points="601.5,-81.2 601.5,-103.2 684.5,-103.2 684.5,-81.2 601.5,-81.2"/>
<text text-anchor="start" x="604.5" y="-88.9" font-family="Helvetica,sans-Serif" font-size="11.00" fill="#000000">int[10]</text>
<polygon fill="#ffffff" stroke="transparent" points="317.5,-59.2 317.5,-81.2 601.5,-81.2 601.5,-59.2 317.5,-59.2"/>
<polygon fill="none" stroke="#000000" points="317.5,-59.2 317.5,-81.2 601.5,-81.2 601.5,-59.2 317.5,-59.2"/>
<text text-anchor="start" x="337.5" y="-66.3" font-family="Helvetica,sans-Serif" font-size="11.00" fill="#000000">agent_language</text>
<polygon fill="none" stroke="#000000" points="601.5,-59.2 601.5,-81.2 684.5,-81.2 684.5,-59.2 601.5,-59.2"/>
<text text-anchor="start" x="604.5" y="-66.9" font-family="Helvetica,sans-Serif" font-size="11.00" fill="#000000">varchar[20]</text>
<polygon fill="#ffffff" stroke="transparent" points="317.5,-40.2 317.5,-59.2 450.5,-59.2 450.5,-40.2 317.5,-40.2"/>
<polygon fill="none" stroke="#000000" points="317.5,-40.2 317.5,-59.2 450.5,-59.2 450.5,-40.2 317.5,-40.2"/>
<text text-anchor="start" x="320.5" y="-46.3" font-family="Helvetica,sans-Serif" font-size="11.00" fill="#000000">&lt; 1</text>
<polygon fill="#ffffff" stroke="transparent" points="450.5,-40.2 450.5,-59.2 601.5,-59.2 601.5,-40.2 450.5,-40.2"/>
<polygon fill="none" stroke="#000000" points="450.5,-40.2 450.5,-59.2 601.5,-59.2 601.5,-40.2 450.5,-40.2"/>
<text text-anchor="start" x="566.1105" y="-46.3" font-family="Helvetica,sans-Serif" font-size="11.00" fill="#000000">0 rows</text>
<polygon fill="#ffffff" stroke="transparent" points="601.5,-40.2 601.5,-59.2 684.5,-59.2 684.5,-40.2 601.5,-40.2"/>
<polygon fill="none" stroke="#000000" points="601.5,-40.2 601.5,-59.2 684.5,-59.2 684.5,-40.2 601.5,-40.2"/>
<text text-anchor="start" x="665.9053" y="-46.3" font-family="Helvetica,sans-Serif" font-size="11.00" fill="#000000">0 &gt;</text>
<polygon fill="none" stroke="#000000" stroke-width="2" points="316,-39.2 316,-215.2 685,-215.2 685,-39.2 316,-39.2"/>
</a>
</g>
</g>
<!-- organizations -->
<g id="node2" class="node">
<title>organizations</title>
<g id="a_node2"><a xlink:href="../../tables/organizations.html" xlink:title="organizations" target="_top">
<polygon fill="#ffffff" stroke="transparent" points="8,-65.7 8,-280.7 266,-280.7 266,-65.7 8,-65.7"/>
<polygon fill="#f5f5f5" stroke="transparent" points="8,-257.2 8,-280.2 266,-280.2 266,-257.2 8,-257.2"/>
<polygon fill="none" stroke="#000000" points="8,-257.2 8,-280.2 266,-280.2 266,-257.2 8,-257.2"/>
<text text-anchor="start" x="13" y="-266.3" font-family="Helvetica,sans-Serif" font-weight="bold" font-size="11.00" fill="#000000">organizations</text>
<text text-anchor="start" x="231.0437" y="-265.3" font-family="Helvetica,sans-Serif" font-size="11.00" fill="#000000">[table]</text>
<polygon fill="#ffffff" stroke="transparent" points="8,-235.2 8,-257.2 266,-257.2 266,-235.2 8,-235.2"/>
<polygon fill="none" stroke="#000000" points="8,-235.2 8,-257.2 266,-257.2 266,-235.2 8,-235.2"/>
<text text-anchor="start" x="28" y="-242.3" font-family="Helvetica,sans-Serif" font-size="11.00" fill="#000000">name</text>
<polygon fill="#ffffff" stroke="transparent" points="8,-213.2 8,-235.2 266,-235.2 266,-213.2 8,-213.2"/>
<polygon fill="none" stroke="#000000" points="8,-213.2 8,-235.2 266,-235.2 266,-213.2 8,-213.2"/>
<image xlink:href="../../images/foreignKeys.png" width="11px" height="12px" preserveAspectRatio="xMinYMin meet" x="13" y="-230.2"/>
<text text-anchor="start" x="28" y="-220.3" font-family="Helvetica,sans-Serif" font-size="11.00" fill="#000000">configKey_fk</text>
<polygon fill="#ffffff" stroke="transparent" points="8,-191.2 8,-213.2 266,-213.2 266,-191.2 8,-191.2"/>
<polygon fill="none" stroke="#000000" points="8,-191.2 8,-213.2 266,-213.2 266,-191.2 8,-191.2"/>
<image xlink:href="../../images/foreignKeys.png" width="11px" height="12px" preserveAspectRatio="xMinYMin meet" x="13" y="-208.2"/>
<text text-anchor="start" x="28" y="-198.3" font-family="Helvetica,sans-Serif" font-size="11.00" fill="#000000">passwordPolicy_fk</text>
<polygon fill="#ffffff" stroke="transparent" points="8,-169.2 8,-191.2 266,-191.2 266,-169.2 8,-169.2"/>
<polygon fill="none" stroke="#000000" points="8,-169.2 8,-191.2 266,-191.2 266,-169.2 8,-169.2"/>
<image xlink:href="../../images/foreignKeys.png" width="11px" height="12px" preserveAspectRatio="xMinYMin meet" x="13" y="-186.2"/>
<text text-anchor="start" x="28" y="-176.3" font-family="Helvetica,sans-Serif" font-size="11.00" fill="#000000">report_settings_fk</text>
<polygon fill="none" stroke="#000000" points="8,-147.2 8,-169.2 266,-169.2 266,-147.2 8,-147.2"/>
<image xlink:href="../../images/primaryKeys.png" width="11px" height="12px" preserveAspectRatio="xMinYMin meet" x="13" y="-164.2"/>
<text text-anchor="start" x="28" y="-154.3" font-family="Helvetica,sans-Serif" font-size="11.00" fill="#000000">id</text>
<polygon fill="#ffffff" stroke="transparent" points="8,-125.2 8,-147.2 266,-147.2 266,-125.2 8,-125.2"/>
<polygon fill="none" stroke="#000000" points="8,-125.2 8,-147.2 266,-147.2 266,-125.2 8,-125.2"/>
<text text-anchor="start" x="28" y="-132.3" font-family="Helvetica,sans-Serif" font-size="11.00" fill="#000000">uuid</text>
<polygon fill="#ffffff" stroke="transparent" points="8,-103.2 8,-125.2 266,-125.2 266,-103.2 8,-103.2"/>
<polygon fill="none" stroke="#000000" points="8,-103.2 8,-125.2 266,-125.2 266,-103.2 8,-103.2"/>
<image xlink:href="../../images/foreignKeys.png" width="11px" height="12px" preserveAspectRatio="xMinYMin meet" x="13" y="-120.2"/>
<text text-anchor="start" x="28" y="-110.3" font-family="Helvetica,sans-Serif" font-size="11.00" fill="#000000">saml_idp_config_fk</text>
<polygon fill="none" stroke="#000000" points="8,-84.2 8,-103.2 266,-103.2 266,-84.2 8,-84.2"/>
<text text-anchor="start" x="11" y="-90.3" font-family="Helvetica,sans-Serif" font-size="11.00" fill="#000000">...</text>
<polygon fill="#ffffff" stroke="transparent" points="8,-65.2 8,-84.2 115,-84.2 115,-65.2 8,-65.2"/>
<polygon fill="none" stroke="#000000" points="8,-65.2 8,-84.2 115,-84.2 115,-65.2 8,-65.2"/>
<text text-anchor="start" x="11" y="-71.3" font-family="Helvetica,sans-Serif" font-size="11.00" fill="#000000">&lt; 4</text>
<polygon fill="#ffffff" stroke="transparent" points="115,-65.2 115,-84.2 196,-84.2 196,-65.2 115,-65.2"/>
<polygon fill="none" stroke="#000000" points="115,-65.2 115,-84.2 196,-84.2 196,-65.2 115,-65.2"/>
<text text-anchor="start" x="160.6105" y="-71.3" font-family="Helvetica,sans-Serif" font-size="11.00" fill="#000000">3 rows</text>
<polygon fill="#ffffff" stroke="transparent" points="196,-65.2 196,-84.2 266,-84.2 266,-65.2 196,-65.2"/>
<polygon fill="none" stroke="#000000" points="196,-65.2 196,-84.2 266,-84.2 266,-65.2 196,-65.2"/>
<text text-anchor="start" x="241.2904" y="-71.3" font-family="Helvetica,sans-Serif" font-size="11.00" fill="#000000">81 &gt;</text>
</a>
</g>
</g>
<!-- organization_libraries_versions_requirements&#45;&gt;organizations -->
<g id="edge1" class="edge">
<title>organization_libraries_versions_requirements:w&#45;&gt;organizations:e</title>
<path fill="none" stroke="#000000" d="M303.0156,-158.2C290.6771,-158.2 283.1667,-158.2 266,-158.2"/>
<polygon fill="#000000" stroke="#000000" points="309.5,-158.2001 317.5,-161.8 313.5,-158.2 317.5,-158.2 317.5,-158.2 317.5,-158.2 313.5,-158.2 317.5,-154.6 309.5,-158.2001 309.5,-158.2001"/>
<ellipse fill="none" stroke="#000000" cx="306.3" cy="-158.2001" rx="3.2" ry="3.2"/>
</g>
</g>
</svg>
