<?xml version="1.0" encoding="UTF-8" standalone="no"?>
<!DOCTYPE svg PUBLIC "-//W3C//DTD SVG 1.1//EN"
 "http://www.w3.org/Graphics/SVG/1.1/DTD/svg11.dtd">
<!-- Generated by graphviz version 2.40.1 (20161225.0304)
 -->
<!-- Title: twoDegreesRelationshipsDiagram Pages: 1 -->
<svg width="861pt" height="633pt"
 viewBox="0.00 0.00 861.00 632.70" xmlns="http://www.w3.org/2000/svg" xmlns:xlink="http://www.w3.org/1999/xlink">
<g id="graph0" class="graph" transform="scale(1 1) rotate(0) translate(4 628.7)">
<title>twoDegreesRelationshipsDiagram</title>
<polygon fill="#ffffff" stroke="transparent" points="-4,4 -4,-628.7 857,-628.7 857,4 -4,4"/>
<text text-anchor="middle" x="72.4936" y="-7.3" font-family="Helvetica,sans-Serif" font-size="11.00" fill="#000000">Generated by SchemaSpy</text>
<!-- notifications_messages -->
<g id="node1" class="node">
<title>notifications_messages</title>
<g id="a_node1"><a xlink:href="../../tables/notifications_messages.html" xlink:title="notifications_messages" target="_top">
<polygon fill="#ffffff" stroke="transparent" points="555,-559.7 555,-620.7 712,-620.7 712,-559.7 555,-559.7"/>
<polygon fill="#f5f5f5" stroke="transparent" points="555.5,-597.2 555.5,-620.2 712.5,-620.2 712.5,-597.2 555.5,-597.2"/>
<polygon fill="none" stroke="#000000" points="555.5,-597.2 555.5,-620.2 712.5,-620.2 712.5,-597.2 555.5,-597.2"/>
<text text-anchor="start" x="560.3479" y="-606.3" font-family="Helvetica,sans-Serif" font-weight="bold" font-size="11.00" fill="#000000">notifications_messages</text>
<text text-anchor="start" x="678.0219" y="-605.3" font-family="Helvetica,sans-Serif" font-size="11.00" fill="#000000">[table]</text>
<polygon fill="none" stroke="#000000" points="555.5,-578.2 555.5,-597.2 712.5,-597.2 712.5,-578.2 555.5,-578.2"/>
<text text-anchor="start" x="558.5" y="-584.3" font-family="Helvetica,sans-Serif" font-size="11.00" fill="#000000">...</text>
<polygon fill="#ffffff" stroke="transparent" points="555.5,-559.2 555.5,-578.2 614.5,-578.2 614.5,-559.2 555.5,-559.2"/>
<polygon fill="none" stroke="#000000" points="555.5,-559.2 555.5,-578.2 614.5,-578.2 614.5,-559.2 555.5,-559.2"/>
<text text-anchor="start" x="558.5" y="-565.3" font-family="Helvetica,sans-Serif" font-size="11.00" fill="#000000">&lt; 9</text>
<polygon fill="#ffffff" stroke="transparent" points="614.5,-559.2 614.5,-578.2 671.5,-578.2 671.5,-559.2 614.5,-559.2"/>
<polygon fill="none" stroke="#000000" points="614.5,-559.2 614.5,-578.2 671.5,-578.2 671.5,-559.2 614.5,-559.2"/>
<text text-anchor="start" x="636.1105" y="-565.3" font-family="Helvetica,sans-Serif" font-size="11.00" fill="#000000">0 rows</text>
<polygon fill="#ffffff" stroke="transparent" points="671.5,-559.2 671.5,-578.2 712.5,-578.2 712.5,-559.2 671.5,-559.2"/>
<polygon fill="none" stroke="#000000" points="671.5,-559.2 671.5,-578.2 712.5,-578.2 712.5,-559.2 671.5,-559.2"/>
<text text-anchor="start" x="693.9053" y="-565.3" font-family="Helvetica,sans-Serif" font-size="11.00" fill="#000000">4 &gt;</text>
</a>
</g>
</g>
<!-- organization_remediation_policy -->
<g id="node2" class="node">
<title>organization_remediation_policy</title>
<g id="a_node2"><a xlink:href="../../tables/organization_remediation_policy.html" xlink:title="organization_remediation_policy" target="_top">
<polygon fill="#ffffff" stroke="transparent" points="165,-311.7 165,-416.7 373,-416.7 373,-311.7 165,-311.7"/>
<polygon fill="#f5f5f5" stroke="transparent" points="165,-393.2 165,-416.2 373,-416.2 373,-393.2 165,-393.2"/>
<polygon fill="none" stroke="#000000" points="165,-393.2 165,-416.2 373,-416.2 373,-393.2 165,-393.2"/>
<text text-anchor="start" x="170" y="-402.3" font-family="Helvetica,sans-Serif" font-weight="bold" font-size="11.00" fill="#000000">organization_remediation_policy</text>
<text text-anchor="start" x="338.0437" y="-401.3" font-family="Helvetica,sans-Serif" font-size="11.00" fill="#000000">[table]</text>
<polygon fill="none" stroke="#000000" points="165,-371.2 165,-393.2 373,-393.2 373,-371.2 165,-371.2"/>
<image xlink:href="../../images/primaryKeys.png" width="11px" height="12px" preserveAspectRatio="xMinYMin meet" x="170" y="-388.2"/>
<text text-anchor="start" x="185" y="-378.3" font-family="Helvetica,sans-Serif" font-size="11.00" fill="#000000">id</text>
<polygon fill="#ffffff" stroke="transparent" points="165,-349.2 165,-371.2 373,-371.2 373,-349.2 165,-349.2"/>
<polygon fill="none" stroke="#000000" points="165,-349.2 165,-371.2 373,-371.2 373,-349.2 165,-349.2"/>
<image xlink:href="../../images/foreignKeys.png" width="11px" height="12px" preserveAspectRatio="xMinYMin meet" x="170" y="-366.2"/>
<text text-anchor="start" x="185" y="-356.3" font-family="Helvetica,sans-Serif" font-size="11.00" fill="#000000">organizations_id</text>
<polygon fill="none" stroke="#000000" points="165,-330.2 165,-349.2 373,-349.2 373,-330.2 165,-330.2"/>
<text text-anchor="start" x="168" y="-336.3" font-family="Helvetica,sans-Serif" font-size="11.00" fill="#000000">...</text>
<polygon fill="#ffffff" stroke="transparent" points="165,-311.2 165,-330.2 250,-330.2 250,-311.2 165,-311.2"/>
<polygon fill="none" stroke="#000000" points="165,-311.2 165,-330.2 250,-330.2 250,-311.2 165,-311.2"/>
<text text-anchor="start" x="168" y="-317.3" font-family="Helvetica,sans-Serif" font-size="11.00" fill="#000000">&lt; 1</text>
<polygon fill="#ffffff" stroke="transparent" points="250,-311.2 250,-330.2 320,-330.2 320,-311.2 250,-311.2"/>
<polygon fill="none" stroke="#000000" points="250,-311.2 250,-330.2 320,-330.2 320,-311.2 250,-311.2"/>
<text text-anchor="start" x="284.6105" y="-317.3" font-family="Helvetica,sans-Serif" font-size="11.00" fill="#000000">0 rows</text>
<polygon fill="#ffffff" stroke="transparent" points="320,-311.2 320,-330.2 373,-330.2 373,-311.2 320,-311.2"/>
<polygon fill="none" stroke="#000000" points="320,-311.2 320,-330.2 373,-330.2 373,-311.2 320,-311.2"/>
<text text-anchor="start" x="354.4053" y="-317.3" font-family="Helvetica,sans-Serif" font-size="11.00" fill="#000000">7 &gt;</text>
</a>
</g>
</g>
<!-- notifications_messages&#45;&gt;organization_remediation_policy -->
<g id="edge1" class="edge">
<title>notifications_messages:w&#45;&gt;organization_remediation_policy:e</title>
<path fill="none" stroke="#000000" d="M540.8425,-587.326C485.4746,-588.1981 455.9864,-592.1038 414,-549.2 360.5456,-494.5776 449.4264,-382.2 373,-382.2"/>
<polygon fill="#000000" stroke="#000000" points="547.5003,-587.2688 555.531,-590.7999 551.5001,-587.2344 555.5,-587.2 555.5,-587.2 555.5,-587.2 551.5001,-587.2344 555.469,-583.6001 547.5003,-587.2688 547.5003,-587.2688"/>
<ellipse fill="none" stroke="#000000" cx="544.3004" cy="-587.2964" rx="3.2" ry="3.2"/>
</g>
<!-- organizations -->
<g id="node3" class="node">
<title>organizations</title>
<g id="a_node3"><a xlink:href="../../tables/organizations.html" xlink:title="organizations" target="_top">
<polygon fill="#ffffff" stroke="transparent" points="8,-419.7 8,-480.7 116,-480.7 116,-419.7 8,-419.7"/>
<polygon fill="#f5f5f5" stroke="transparent" points="8,-457.2 8,-480.2 116,-480.2 116,-457.2 8,-457.2"/>
<polygon fill="none" stroke="#000000" points="8,-457.2 8,-480.2 116,-480.2 116,-457.2 8,-457.2"/>
<text text-anchor="start" x="12.7976" y="-466.3" font-family="Helvetica,sans-Serif" font-weight="bold" font-size="11.00" fill="#000000">organizations</text>
<text text-anchor="start" x="81.5219" y="-465.3" font-family="Helvetica,sans-Serif" font-size="11.00" fill="#000000">[table]</text>
<polygon fill="none" stroke="#000000" points="8,-438.2 8,-457.2 116,-457.2 116,-438.2 8,-438.2"/>
<text text-anchor="start" x="11" y="-444.3" font-family="Helvetica,sans-Serif" font-size="11.00" fill="#000000">...</text>
<polygon fill="#ffffff" stroke="transparent" points="8,-419.2 8,-438.2 40,-438.2 40,-419.2 8,-419.2"/>
<polygon fill="none" stroke="#000000" points="8,-419.2 8,-438.2 40,-438.2 40,-419.2 8,-419.2"/>
<text text-anchor="start" x="11" y="-425.3" font-family="Helvetica,sans-Serif" font-size="11.00" fill="#000000">&lt; 4</text>
<polygon fill="#ffffff" stroke="transparent" points="40,-419.2 40,-438.2 83,-438.2 83,-419.2 40,-419.2"/>
<polygon fill="none" stroke="#000000" points="40,-419.2 40,-438.2 83,-438.2 83,-419.2 40,-419.2"/>
<text text-anchor="start" x="47.6105" y="-425.3" font-family="Helvetica,sans-Serif" font-size="11.00" fill="#000000">3 rows</text>
<polygon fill="#ffffff" stroke="transparent" points="83,-419.2 83,-438.2 116,-438.2 116,-419.2 83,-419.2"/>
<polygon fill="none" stroke="#000000" points="83,-419.2 83,-438.2 116,-438.2 116,-419.2 83,-419.2"/>
<text text-anchor="start" x="91.2904" y="-425.3" font-family="Helvetica,sans-Serif" font-size="11.00" fill="#000000">81 &gt;</text>
</a>
</g>
</g>
<!-- notifications_messages&#45;&gt;organizations -->
<g id="edge2" class="edge">
<title>notifications_messages:w&#45;&gt;organizations:e</title>
<path fill="none" stroke="#000000" d="M541.0819,-586.9634C348.9841,-580.5809 316.0993,-447.2 116,-447.2"/>
<polygon fill="#000000" stroke="#000000" points="547.5011,-587.0687 555.4409,-590.7995 551.5005,-587.1343 555.5,-587.2 555.5,-587.2 555.5,-587.2 551.5005,-587.1343 555.5591,-583.6005 547.5011,-587.0687 547.5011,-587.0687"/>
<ellipse fill="none" stroke="#000000" cx="544.3015" cy="-587.0162" rx="3.2" ry="3.2"/>
</g>
<!-- organization_remediation_policy&#45;&gt;organizations -->
<g id="edge4" class="edge">
<title>organization_remediation_policy:w&#45;&gt;organizations:e</title>
<path fill="none" stroke="#000000" d="M151.086,-364.634C129.9203,-382.3629 154.3105,-447.2 116,-447.2"/>
<polygon fill="#000000" stroke="#000000" points="157.3777,-362.629 166.0931,-363.6301 161.1888,-361.4145 165,-360.2 165,-360.2 165,-360.2 161.1888,-361.4145 163.9069,-356.7699 157.3777,-362.629 157.3777,-362.629"/>
<ellipse fill="none" stroke="#000000" cx="154.3287" cy="-363.6007" rx="3.2" ry="3.2"/>
</g>
<!-- notifications_user_remediation_policy -->
<g id="node4" class="node">
<title>notifications_user_remediation_policy</title>
<g id="a_node4"><a xlink:href="../../tables/notifications_user_remediation_policy.html" xlink:title="notifications_user_remediation_policy" target="_top">
<polygon fill="#ffffff" stroke="transparent" points="520.5,-477.7 520.5,-538.7 746.5,-538.7 746.5,-477.7 520.5,-477.7"/>
<polygon fill="#f5f5f5" stroke="transparent" points="520.5,-515.2 520.5,-538.2 746.5,-538.2 746.5,-515.2 520.5,-515.2"/>
<polygon fill="none" stroke="#000000" points="520.5,-515.2 520.5,-538.2 746.5,-538.2 746.5,-515.2 520.5,-515.2"/>
<text text-anchor="start" x="525.3161" y="-524.3" font-family="Helvetica,sans-Serif" font-weight="bold" font-size="11.00" fill="#000000">notifications_user_remediation_policy</text>
<text text-anchor="start" x="712.0219" y="-523.3" font-family="Helvetica,sans-Serif" font-size="11.00" fill="#000000">[table]</text>
<polygon fill="none" stroke="#000000" points="520.5,-496.2 520.5,-515.2 746.5,-515.2 746.5,-496.2 520.5,-496.2"/>
<text text-anchor="start" x="523.5" y="-502.3" font-family="Helvetica,sans-Serif" font-size="11.00" fill="#000000">...</text>
<polygon fill="#ffffff" stroke="transparent" points="520.5,-477.2 520.5,-496.2 618.5,-496.2 618.5,-477.2 520.5,-477.2"/>
<polygon fill="none" stroke="#000000" points="520.5,-477.2 520.5,-496.2 618.5,-496.2 618.5,-477.2 520.5,-477.2"/>
<text text-anchor="start" x="523.5" y="-483.3" font-family="Helvetica,sans-Serif" font-size="11.00" fill="#000000">&lt; 3</text>
<polygon fill="#ffffff" stroke="transparent" points="618.5,-477.2 618.5,-496.2 695.5,-496.2 695.5,-477.2 618.5,-477.2"/>
<polygon fill="none" stroke="#000000" points="618.5,-477.2 618.5,-496.2 695.5,-496.2 695.5,-477.2 618.5,-477.2"/>
<text text-anchor="start" x="660.1105" y="-483.3" font-family="Helvetica,sans-Serif" font-size="11.00" fill="#000000">0 rows</text>
<polygon fill="#ffffff" stroke="transparent" points="695.5,-477.2 695.5,-496.2 746.5,-496.2 746.5,-477.2 695.5,-477.2"/>
<polygon fill="none" stroke="#000000" points="695.5,-477.2 695.5,-496.2 746.5,-496.2 746.5,-477.2 695.5,-477.2"/>
<text text-anchor="start" x="737.3862" y="-483.3" font-family="Helvetica,sans-Serif" font-size="11.00" fill="#000000"> &#160;</text>
</a>
</g>
</g>
<!-- notifications_user_remediation_policy&#45;&gt;organization_remediation_policy -->
<g id="edge3" class="edge">
<title>notifications_user_remediation_policy:w&#45;&gt;organization_remediation_policy:e</title>
<path fill="none" stroke="#000000" d="M505.8469,-505.0308C466.1402,-503.9745 447.5114,-497.3137 414,-467.2 382.8025,-439.1656 414.9429,-382.2 373,-382.2"/>
<polygon fill="#000000" stroke="#000000" points="512.5005,-505.1076 520.4584,-508.7998 516.5003,-505.1538 520.5,-505.2 520.5,-505.2 520.5,-505.2 516.5003,-505.1538 520.5416,-501.6002 512.5005,-505.1076 512.5005,-505.1076"/>
<ellipse fill="none" stroke="#000000" cx="509.3007" cy="-505.0706" rx="3.2" ry="3.2"/>
</g>
<!-- organization_remediation_policy_application_importance -->
<g id="node5" class="node">
<title>organization_remediation_policy_application_importance</title>
<g id="a_node5"><a xlink:href="../../tables/organization_remediation_policy_application_importance.html" xlink:title="organization_remediation_policy_application_importance" target="_top">
<polygon fill="#ffffff" stroke="transparent" points="474,-395.7 474,-456.7 793,-456.7 793,-395.7 474,-395.7"/>
<polygon fill="#f5f5f5" stroke="transparent" points="474.5,-433.2 474.5,-456.2 793.5,-456.2 793.5,-433.2 474.5,-433.2"/>
<polygon fill="none" stroke="#000000" points="474.5,-433.2 474.5,-456.2 793.5,-456.2 793.5,-433.2 474.5,-433.2"/>
<text text-anchor="start" x="479.0535" y="-442.3" font-family="Helvetica,sans-Serif" font-weight="bold" font-size="11.00" fill="#000000">organization_remediation_policy_application_importance</text>
<text text-anchor="start" x="759.0219" y="-441.3" font-family="Helvetica,sans-Serif" font-size="11.00" fill="#000000">[table]</text>
<polygon fill="none" stroke="#000000" points="474.5,-414.2 474.5,-433.2 793.5,-433.2 793.5,-414.2 474.5,-414.2"/>
<text text-anchor="start" x="477.5" y="-420.3" font-family="Helvetica,sans-Serif" font-size="11.00" fill="#000000">...</text>
<polygon fill="#ffffff" stroke="transparent" points="474.5,-395.2 474.5,-414.2 619.5,-414.2 619.5,-395.2 474.5,-395.2"/>
<polygon fill="none" stroke="#000000" points="474.5,-395.2 474.5,-414.2 619.5,-414.2 619.5,-395.2 474.5,-395.2"/>
<text text-anchor="start" x="477.5" y="-401.3" font-family="Helvetica,sans-Serif" font-size="11.00" fill="#000000">&lt; 1</text>
<polygon fill="#ffffff" stroke="transparent" points="619.5,-395.2 619.5,-414.2 719.5,-414.2 719.5,-395.2 619.5,-395.2"/>
<polygon fill="none" stroke="#000000" points="619.5,-395.2 619.5,-414.2 719.5,-414.2 719.5,-395.2 619.5,-395.2"/>
<text text-anchor="start" x="684.1105" y="-401.3" font-family="Helvetica,sans-Serif" font-size="11.00" fill="#000000">0 rows</text>
<polygon fill="#ffffff" stroke="transparent" points="719.5,-395.2 719.5,-414.2 793.5,-414.2 793.5,-395.2 719.5,-395.2"/>
<polygon fill="none" stroke="#000000" points="719.5,-395.2 719.5,-414.2 793.5,-414.2 793.5,-395.2 719.5,-395.2"/>
<text text-anchor="start" x="784.3862" y="-401.3" font-family="Helvetica,sans-Serif" font-size="11.00" fill="#000000"> &#160;</text>
</a>
</g>
</g>
<!-- organization_remediation_policy_application_importance&#45;&gt;organization_remediation_policy -->
<g id="edge5" class="edge">
<title>organization_remediation_policy_application_importance:w&#45;&gt;organization_remediation_policy:e</title>
<path fill="none" stroke="#000000" d="M460.0151,-421.8359C424.398,-414.7217 416.3311,-382.2 373,-382.2"/>
<polygon fill="#000000" stroke="#000000" points="466.5352,-422.4499 474.1624,-426.7841 470.5176,-422.8249 474.5,-423.2 474.5,-423.2 474.5,-423.2 470.5176,-422.8249 474.8376,-419.6159 466.5352,-422.4499 466.5352,-422.4499"/>
<ellipse fill="none" stroke="#000000" cx="463.3493" cy="-422.1498" rx="3.2" ry="3.2"/>
</g>
<!-- organization_remediation_policy_applications -->
<g id="node6" class="node">
<title>organization_remediation_policy_applications</title>
<g id="a_node6"><a xlink:href="../../tables/organization_remediation_policy_applications.html" xlink:title="organization_remediation_policy_applications" target="_top">
<polygon fill="#ffffff" stroke="transparent" points="501.5,-313.7 501.5,-374.7 765.5,-374.7 765.5,-313.7 501.5,-313.7"/>
<polygon fill="#f5f5f5" stroke="transparent" points="501.5,-351.2 501.5,-374.2 765.5,-374.2 765.5,-351.2 501.5,-351.2"/>
<polygon fill="none" stroke="#000000" points="501.5,-351.2 501.5,-374.2 765.5,-374.2 765.5,-351.2 501.5,-351.2"/>
<text text-anchor="start" x="506.059" y="-360.3" font-family="Helvetica,sans-Serif" font-weight="bold" font-size="11.00" fill="#000000">organization_remediation_policy_applications</text>
<text text-anchor="start" x="731.0219" y="-359.3" font-family="Helvetica,sans-Serif" font-size="11.00" fill="#000000">[table]</text>
<polygon fill="none" stroke="#000000" points="501.5,-332.2 501.5,-351.2 765.5,-351.2 765.5,-332.2 501.5,-332.2"/>
<text text-anchor="start" x="504.5" y="-338.3" font-family="Helvetica,sans-Serif" font-size="11.00" fill="#000000">...</text>
<polygon fill="#ffffff" stroke="transparent" points="501.5,-313.2 501.5,-332.2 618.5,-332.2 618.5,-313.2 501.5,-313.2"/>
<polygon fill="none" stroke="#000000" points="501.5,-313.2 501.5,-332.2 618.5,-332.2 618.5,-313.2 501.5,-313.2"/>
<text text-anchor="start" x="504.5" y="-319.3" font-family="Helvetica,sans-Serif" font-size="11.00" fill="#000000">&lt; 2</text>
<polygon fill="#ffffff" stroke="transparent" points="618.5,-313.2 618.5,-332.2 704.5,-332.2 704.5,-313.2 618.5,-313.2"/>
<polygon fill="none" stroke="#000000" points="618.5,-313.2 618.5,-332.2 704.5,-332.2 704.5,-313.2 618.5,-313.2"/>
<text text-anchor="start" x="669.1105" y="-319.3" font-family="Helvetica,sans-Serif" font-size="11.00" fill="#000000">0 rows</text>
<polygon fill="#ffffff" stroke="transparent" points="704.5,-313.2 704.5,-332.2 765.5,-332.2 765.5,-313.2 704.5,-313.2"/>
<polygon fill="none" stroke="#000000" points="704.5,-313.2 704.5,-332.2 765.5,-332.2 765.5,-313.2 704.5,-313.2"/>
<text text-anchor="start" x="756.3862" y="-319.3" font-family="Helvetica,sans-Serif" font-size="11.00" fill="#000000"> &#160;</text>
</a>
</g>
</g>
<!-- organization_remediation_policy_applications&#45;&gt;organization_remediation_policy -->
<g id="edge6" class="edge">
<title>organization_remediation_policy_applications:w&#45;&gt;organization_remediation_policy:e</title>
<path fill="none" stroke="#000000" d="M487.1171,-342.0563C439.6942,-347.9441 427.796,-382.2 373,-382.2"/>
<polygon fill="#000000" stroke="#000000" points="493.5141,-341.6755 501.714,-344.7936 497.5071,-341.4378 501.5,-341.2 501.5,-341.2 501.5,-341.2 497.5071,-341.4378 501.286,-337.6064 493.5141,-341.6755 493.5141,-341.6755"/>
<ellipse fill="none" stroke="#000000" cx="490.3198" cy="-341.8657" rx="3.2" ry="3.2"/>
</g>
<!-- organization_remediation_policy_rule_severity -->
<g id="node7" class="node">
<title>organization_remediation_policy_rule_severity</title>
<g id="a_node7"><a xlink:href="../../tables/organization_remediation_policy_rule_severity.html" xlink:title="organization_remediation_policy_rule_severity" target="_top">
<polygon fill="#ffffff" stroke="transparent" points="499,-231.7 499,-292.7 768,-292.7 768,-231.7 499,-231.7"/>
<polygon fill="#f5f5f5" stroke="transparent" points="499.5,-269.2 499.5,-292.2 768.5,-292.2 768.5,-269.2 499.5,-269.2"/>
<polygon fill="none" stroke="#000000" points="499.5,-269.2 499.5,-292.2 768.5,-292.2 768.5,-269.2 499.5,-269.2"/>
<text text-anchor="start" x="504.425" y="-278.3" font-family="Helvetica,sans-Serif" font-weight="bold" font-size="11.00" fill="#000000">organization_remediation_policy_rule_severity</text>
<text text-anchor="start" x="734.0219" y="-277.3" font-family="Helvetica,sans-Serif" font-size="11.00" fill="#000000">[table]</text>
<polygon fill="none" stroke="#000000" points="499.5,-250.2 499.5,-269.2 768.5,-269.2 768.5,-250.2 499.5,-250.2"/>
<text text-anchor="start" x="502.5" y="-256.3" font-family="Helvetica,sans-Serif" font-size="11.00" fill="#000000">...</text>
<polygon fill="#ffffff" stroke="transparent" points="499.5,-231.2 499.5,-250.2 619.5,-250.2 619.5,-231.2 499.5,-231.2"/>
<polygon fill="none" stroke="#000000" points="499.5,-231.2 499.5,-250.2 619.5,-250.2 619.5,-231.2 499.5,-231.2"/>
<text text-anchor="start" x="502.5" y="-237.3" font-family="Helvetica,sans-Serif" font-size="11.00" fill="#000000">&lt; 1</text>
<polygon fill="#ffffff" stroke="transparent" points="619.5,-231.2 619.5,-250.2 706.5,-250.2 706.5,-231.2 619.5,-231.2"/>
<polygon fill="none" stroke="#000000" points="619.5,-231.2 619.5,-250.2 706.5,-250.2 706.5,-231.2 619.5,-231.2"/>
<text text-anchor="start" x="671.1105" y="-237.3" font-family="Helvetica,sans-Serif" font-size="11.00" fill="#000000">0 rows</text>
<polygon fill="#ffffff" stroke="transparent" points="706.5,-231.2 706.5,-250.2 768.5,-250.2 768.5,-231.2 706.5,-231.2"/>
<polygon fill="none" stroke="#000000" points="706.5,-231.2 706.5,-250.2 768.5,-250.2 768.5,-231.2 706.5,-231.2"/>
<text text-anchor="start" x="759.3862" y="-237.3" font-family="Helvetica,sans-Serif" font-size="11.00" fill="#000000"> &#160;</text>
</a>
</g>
</g>
<!-- organization_remediation_policy_rule_severity&#45;&gt;organization_remediation_policy -->
<g id="edge7" class="edge">
<title>organization_remediation_policy_rule_severity:w&#45;&gt;organization_remediation_policy:e</title>
<path fill="none" stroke="#000000" d="M484.7977,-259.8533C453.3626,-262.9134 440.4875,-276.8037 414,-303.2 385.9801,-331.1235 412.5581,-382.2 373,-382.2"/>
<polygon fill="#000000" stroke="#000000" points="491.5079,-259.5552 499.6598,-262.7965 495.5039,-259.3776 499.5,-259.2 499.5,-259.2 499.5,-259.2 495.5039,-259.3776 499.3402,-255.6035 491.5079,-259.5552 491.5079,-259.5552"/>
<ellipse fill="none" stroke="#000000" cx="488.311" cy="-259.6973" rx="3.2" ry="3.2"/>
</g>
<!-- organization_remediation_policy_rules -->
<g id="node8" class="node">
<title>organization_remediation_policy_rules</title>
<g id="a_node8"><a xlink:href="../../tables/organization_remediation_policy_rules.html" xlink:title="organization_remediation_policy_rules" target="_top">
<polygon fill="#ffffff" stroke="transparent" points="518.5,-149.7 518.5,-210.7 748.5,-210.7 748.5,-149.7 518.5,-149.7"/>
<polygon fill="#f5f5f5" stroke="transparent" points="518.5,-187.2 518.5,-210.2 748.5,-210.2 748.5,-187.2 518.5,-187.2"/>
<polygon fill="none" stroke="#000000" points="518.5,-187.2 518.5,-210.2 748.5,-210.2 748.5,-187.2 518.5,-187.2"/>
<text text-anchor="start" x="523.1772" y="-196.3" font-family="Helvetica,sans-Serif" font-weight="bold" font-size="11.00" fill="#000000">organization_remediation_policy_rules</text>
<text text-anchor="start" x="714.0219" y="-195.3" font-family="Helvetica,sans-Serif" font-size="11.00" fill="#000000">[table]</text>
<polygon fill="none" stroke="#000000" points="518.5,-168.2 518.5,-187.2 748.5,-187.2 748.5,-168.2 518.5,-168.2"/>
<text text-anchor="start" x="521.5" y="-174.3" font-family="Helvetica,sans-Serif" font-size="11.00" fill="#000000">...</text>
<polygon fill="#ffffff" stroke="transparent" points="518.5,-149.2 518.5,-168.2 618.5,-168.2 618.5,-149.2 518.5,-149.2"/>
<polygon fill="none" stroke="#000000" points="518.5,-149.2 518.5,-168.2 618.5,-168.2 618.5,-149.2 518.5,-149.2"/>
<text text-anchor="start" x="521.5" y="-155.3" font-family="Helvetica,sans-Serif" font-size="11.00" fill="#000000">&lt; 2</text>
<polygon fill="#ffffff" stroke="transparent" points="618.5,-149.2 618.5,-168.2 696.5,-168.2 696.5,-149.2 618.5,-149.2"/>
<polygon fill="none" stroke="#000000" points="618.5,-149.2 618.5,-168.2 696.5,-168.2 696.5,-149.2 618.5,-149.2"/>
<text text-anchor="start" x="661.1105" y="-155.3" font-family="Helvetica,sans-Serif" font-size="11.00" fill="#000000">0 rows</text>
<polygon fill="#ffffff" stroke="transparent" points="696.5,-149.2 696.5,-168.2 748.5,-168.2 748.5,-149.2 696.5,-149.2"/>
<polygon fill="none" stroke="#000000" points="696.5,-149.2 696.5,-168.2 748.5,-168.2 748.5,-149.2 696.5,-149.2"/>
<text text-anchor="start" x="739.3862" y="-155.3" font-family="Helvetica,sans-Serif" font-size="11.00" fill="#000000"> &#160;</text>
</a>
</g>
</g>
<!-- organization_remediation_policy_rules&#45;&gt;organization_remediation_policy -->
<g id="edge8" class="edge">
<title>organization_remediation_policy_rules:w&#45;&gt;organization_remediation_policy:e</title>
<path fill="none" stroke="#000000" d="M504.0055,-177.4076C463.6745,-178.7142 443.5401,-186.8889 414,-221.2 365.8234,-277.1576 446.8393,-382.2 373,-382.2"/>
<polygon fill="#000000" stroke="#000000" points="510.5008,-177.3146 518.5516,-180.7996 514.5004,-177.2573 518.5,-177.2 518.5,-177.2 518.5,-177.2 514.5004,-177.2573 518.4484,-173.6004 510.5008,-177.3146 510.5008,-177.3146"/>
<ellipse fill="none" stroke="#000000" cx="507.3011" cy="-177.3605" rx="3.2" ry="3.2"/>
</g>
<!-- organization_remediation_policy_server_environments -->
<g id="node9" class="node">
<title>organization_remediation_policy_server_environments</title>
<g id="a_node9"><a xlink:href="../../tables/organization_remediation_policy_server_environments.html" xlink:title="organization_remediation_policy_server_environments" target="_top">
<polygon fill="#ffffff" stroke="transparent" points="422,-38.2 422,-128.2 845,-128.2 845,-38.2 422,-38.2"/>
<polygon fill="#f5f5f5" stroke="transparent" points="424.5,-103.2 424.5,-126.2 843.5,-126.2 843.5,-103.2 424.5,-103.2"/>
<polygon fill="none" stroke="#000000" points="424.5,-103.2 424.5,-126.2 843.5,-126.2 843.5,-103.2 424.5,-103.2"/>
<text text-anchor="start" x="429.5" y="-112.3" font-family="Helvetica,sans-Serif" font-weight="bold" font-size="11.00" fill="#000000">organization_remediation_policy_server_environments</text>
<text text-anchor="start" x="808.5437" y="-111.3" font-family="Helvetica,sans-Serif" font-size="11.00" fill="#000000">[table]</text>
<polygon fill="none" stroke="#000000" points="424.5,-81.2 424.5,-103.2 760.5,-103.2 760.5,-81.2 424.5,-81.2"/>
<image xlink:href="../../images/primaryKeys.png" width="11px" height="12px" preserveAspectRatio="xMinYMin meet" x="429.5" y="-98.2"/>
<text text-anchor="start" x="444.5" y="-88.3" font-family="Helvetica,sans-Serif" font-size="11.00" fill="#000000">organization_remediation_policy_id</text>
<polygon fill="none" stroke="#000000" points="760.5,-81.2 760.5,-103.2 843.5,-103.2 843.5,-81.2 760.5,-81.2"/>
<text text-anchor="start" x="763.1783" y="-88.9" font-family="Helvetica,sans-Serif" font-size="11.00" fill="#000000">int unsigned[10]</text>
<polygon fill="none" stroke="#000000" points="424.5,-59.2 424.5,-81.2 760.5,-81.2 760.5,-59.2 424.5,-59.2"/>
<image xlink:href="../../images/primaryKeys.png" width="11px" height="12px" preserveAspectRatio="xMinYMin meet" x="429.5" y="-76.2"/>
<text text-anchor="start" x="444.5" y="-66.3" font-family="Helvetica,sans-Serif" font-size="11.00" fill="#000000">server_environment</text>
<polygon fill="none" stroke="#000000" points="760.5,-59.2 760.5,-81.2 843.5,-81.2 843.5,-59.2 760.5,-59.2"/>
<text text-anchor="start" x="763.5" y="-66.9" font-family="Helvetica,sans-Serif" font-size="11.00" fill="#000000">varchar[50]</text>
<polygon fill="#ffffff" stroke="transparent" points="424.5,-40.2 424.5,-59.2 583.5,-59.2 583.5,-40.2 424.5,-40.2"/>
<polygon fill="none" stroke="#000000" points="424.5,-40.2 424.5,-59.2 583.5,-59.2 583.5,-40.2 424.5,-40.2"/>
<text text-anchor="start" x="427.5" y="-46.3" font-family="Helvetica,sans-Serif" font-size="11.00" fill="#000000">&lt; 1</text>
<polygon fill="#ffffff" stroke="transparent" points="583.5,-40.2 583.5,-59.2 760.5,-59.2 760.5,-40.2 583.5,-40.2"/>
<polygon fill="none" stroke="#000000" points="583.5,-40.2 583.5,-59.2 760.5,-59.2 760.5,-40.2 583.5,-40.2"/>
<text text-anchor="start" x="725.1105" y="-46.3" font-family="Helvetica,sans-Serif" font-size="11.00" fill="#000000">0 rows</text>
<polygon fill="#ffffff" stroke="transparent" points="760.5,-40.2 760.5,-59.2 843.5,-59.2 843.5,-40.2 760.5,-40.2"/>
<polygon fill="none" stroke="#000000" points="760.5,-40.2 760.5,-59.2 843.5,-59.2 843.5,-40.2 760.5,-40.2"/>
<text text-anchor="start" x="824.9053" y="-46.3" font-family="Helvetica,sans-Serif" font-size="11.00" fill="#000000">0 &gt;</text>
<polygon fill="none" stroke="#000000" stroke-width="2" points="423,-39.2 423,-127.2 844,-127.2 844,-39.2 423,-39.2"/>
</a>
</g>
</g>
<!-- organization_remediation_policy_server_environments&#45;&gt;organization_remediation_policy -->
<g id="edge9" class="edge">
<title>organization_remediation_policy_server_environments:w&#45;&gt;organization_remediation_policy:e</title>
<path fill="none" stroke="#000000" d="M411.1569,-97.7342C371.0999,-137.8267 433.0836,-382.2 373,-382.2"/>
<polygon fill="#000000" stroke="#000000" points="417.1104,-95.2649 425.8792,-95.5253 420.8052,-93.7325 424.5,-92.2 424.5,-92.2 424.5,-92.2 420.8052,-93.7325 423.1208,-88.8747 417.1104,-95.2649 417.1104,-95.2649"/>
<ellipse fill="none" stroke="#000000" cx="414.1545" cy="-96.4909" rx="3.2" ry="3.2"/>
</g>
</g>
</svg>
