<?xml version="1.0" encoding="UTF-8" standalone="no"?>
<!DOCTYPE svg PUBLIC "-//W3C//DTD SVG 1.1//EN"
 "http://www.w3.org/Graphics/SVG/1.1/DTD/svg11.dtd">
<!-- Generated by graphviz version 2.40.1 (20161225.0304)
 -->
<!-- Title: oneDegreeRelationshipsDiagram Pages: 1 -->
<svg width="610pt" height="469pt"
 viewBox="0.00 0.00 610.00 468.70" xmlns="http://www.w3.org/2000/svg" xmlns:xlink="http://www.w3.org/1999/xlink">
<g id="graph0" class="graph" transform="scale(1 1) rotate(0) translate(4 464.7)">
<title>oneDegreeRelationshipsDiagram</title>
<polygon fill="#ffffff" stroke="transparent" points="-4,4 -4,-464.7 606,-464.7 606,4 -4,4"/>
<text text-anchor="middle" x="72.4936" y="-7.3" font-family="Helvetica,sans-Serif" font-size="11.00" fill="#000000">Generated by SchemaSpy</text>
<!-- organizations -->
<g id="node1" class="node">
<title>organizations</title>
<g id="a_node1"><a xlink:href="../../tables/organizations.html" xlink:title="organizations" target="_top">
<polygon fill="#ffffff" stroke="transparent" points="336,-241.7 336,-456.7 594,-456.7 594,-241.7 336,-241.7"/>
<polygon fill="#f5f5f5" stroke="transparent" points="336,-433.2 336,-456.2 594,-456.2 594,-433.2 336,-433.2"/>
<polygon fill="none" stroke="#000000" points="336,-433.2 336,-456.2 594,-456.2 594,-433.2 336,-433.2"/>
<text text-anchor="start" x="341" y="-442.3" font-family="Helvetica,sans-Serif" font-weight="bold" font-size="11.00" fill="#000000">organizations</text>
<text text-anchor="start" x="559.0437" y="-441.3" font-family="Helvetica,sans-Serif" font-size="11.00" fill="#000000">[table]</text>
<polygon fill="#ffffff" stroke="transparent" points="336,-411.2 336,-433.2 594,-433.2 594,-411.2 336,-411.2"/>
<polygon fill="none" stroke="#000000" points="336,-411.2 336,-433.2 594,-433.2 594,-411.2 336,-411.2"/>
<text text-anchor="start" x="356" y="-418.3" font-family="Helvetica,sans-Serif" font-size="11.00" fill="#000000">name</text>
<polygon fill="#ffffff" stroke="transparent" points="336,-389.2 336,-411.2 594,-411.2 594,-389.2 336,-389.2"/>
<polygon fill="none" stroke="#000000" points="336,-389.2 336,-411.2 594,-411.2 594,-389.2 336,-389.2"/>
<image xlink:href="../../images/foreignKeys.png" width="11px" height="12px" preserveAspectRatio="xMinYMin meet" x="341" y="-406.2"/>
<text text-anchor="start" x="356" y="-396.3" font-family="Helvetica,sans-Serif" font-size="11.00" fill="#000000">configKey_fk</text>
<polygon fill="#ffffff" stroke="transparent" points="336,-367.2 336,-389.2 594,-389.2 594,-367.2 336,-367.2"/>
<polygon fill="none" stroke="#000000" points="336,-367.2 336,-389.2 594,-389.2 594,-367.2 336,-367.2"/>
<image xlink:href="../../images/foreignKeys.png" width="11px" height="12px" preserveAspectRatio="xMinYMin meet" x="341" y="-384.2"/>
<text text-anchor="start" x="356" y="-374.3" font-family="Helvetica,sans-Serif" font-size="11.00" fill="#000000">passwordPolicy_fk</text>
<polygon fill="#ffffff" stroke="transparent" points="336,-345.2 336,-367.2 594,-367.2 594,-345.2 336,-345.2"/>
<polygon fill="none" stroke="#000000" points="336,-345.2 336,-367.2 594,-367.2 594,-345.2 336,-345.2"/>
<image xlink:href="../../images/foreignKeys.png" width="11px" height="12px" preserveAspectRatio="xMinYMin meet" x="341" y="-362.2"/>
<text text-anchor="start" x="356" y="-352.3" font-family="Helvetica,sans-Serif" font-size="11.00" fill="#000000">report_settings_fk</text>
<polygon fill="none" stroke="#000000" points="336,-323.2 336,-345.2 594,-345.2 594,-323.2 336,-323.2"/>
<image xlink:href="../../images/primaryKeys.png" width="11px" height="12px" preserveAspectRatio="xMinYMin meet" x="341" y="-340.2"/>
<text text-anchor="start" x="356" y="-330.3" font-family="Helvetica,sans-Serif" font-size="11.00" fill="#000000">id</text>
<polygon fill="#ffffff" stroke="transparent" points="336,-301.2 336,-323.2 594,-323.2 594,-301.2 336,-301.2"/>
<polygon fill="none" stroke="#000000" points="336,-301.2 336,-323.2 594,-323.2 594,-301.2 336,-301.2"/>
<text text-anchor="start" x="356" y="-308.3" font-family="Helvetica,sans-Serif" font-size="11.00" fill="#000000">uuid</text>
<polygon fill="#ffffff" stroke="transparent" points="336,-279.2 336,-301.2 594,-301.2 594,-279.2 336,-279.2"/>
<polygon fill="none" stroke="#000000" points="336,-279.2 336,-301.2 594,-301.2 594,-279.2 336,-279.2"/>
<image xlink:href="../../images/foreignKeys.png" width="11px" height="12px" preserveAspectRatio="xMinYMin meet" x="341" y="-296.2"/>
<text text-anchor="start" x="356" y="-286.3" font-family="Helvetica,sans-Serif" font-size="11.00" fill="#000000">saml_idp_config_fk</text>
<polygon fill="none" stroke="#000000" points="336,-260.2 336,-279.2 594,-279.2 594,-260.2 336,-260.2"/>
<text text-anchor="start" x="339" y="-266.3" font-family="Helvetica,sans-Serif" font-size="11.00" fill="#000000">...</text>
<polygon fill="#ffffff" stroke="transparent" points="336,-241.2 336,-260.2 443,-260.2 443,-241.2 336,-241.2"/>
<polygon fill="none" stroke="#000000" points="336,-241.2 336,-260.2 443,-260.2 443,-241.2 336,-241.2"/>
<text text-anchor="start" x="339" y="-247.3" font-family="Helvetica,sans-Serif" font-size="11.00" fill="#000000">&lt; 4</text>
<polygon fill="#ffffff" stroke="transparent" points="443,-241.2 443,-260.2 524,-260.2 524,-241.2 443,-241.2"/>
<polygon fill="none" stroke="#000000" points="443,-241.2 443,-260.2 524,-260.2 524,-241.2 443,-241.2"/>
<text text-anchor="start" x="488.6105" y="-247.3" font-family="Helvetica,sans-Serif" font-size="11.00" fill="#000000">3 rows</text>
<polygon fill="#ffffff" stroke="transparent" points="524,-241.2 524,-260.2 594,-260.2 594,-241.2 524,-241.2"/>
<polygon fill="none" stroke="#000000" points="524,-241.2 524,-260.2 594,-260.2 594,-241.2 524,-241.2"/>
<text text-anchor="start" x="569.2904" y="-247.3" font-family="Helvetica,sans-Serif" font-size="11.00" fill="#000000">81 &gt;</text>
</a>
</g>
</g>
<!-- password_policy -->
<g id="node2" class="node">
<title>password_policy</title>
<g id="a_node2"><a xlink:href="../../tables/password_policy.html" xlink:title="password_policy" target="_top">
<polygon fill="#ffffff" stroke="transparent" points="8,-38.2 8,-414.2 287,-414.2 287,-38.2 8,-38.2"/>
<polygon fill="#f5f5f5" stroke="transparent" points="10.5,-389.2 10.5,-412.2 285.5,-412.2 285.5,-389.2 10.5,-389.2"/>
<polygon fill="none" stroke="#000000" points="10.5,-389.2 10.5,-412.2 285.5,-412.2 285.5,-389.2 10.5,-389.2"/>
<text text-anchor="start" x="15.5" y="-398.3" font-family="Helvetica,sans-Serif" font-weight="bold" font-size="11.00" fill="#000000">password_policy</text>
<text text-anchor="start" x="250.5437" y="-397.3" font-family="Helvetica,sans-Serif" font-size="11.00" fill="#000000">[table]</text>
<polygon fill="none" stroke="#000000" points="10.5,-367.2 10.5,-389.2 235.5,-389.2 235.5,-367.2 10.5,-367.2"/>
<image xlink:href="../../images/primaryKeys.png" width="11px" height="12px" preserveAspectRatio="xMinYMin meet" x="15.5" y="-384.2"/>
<text text-anchor="start" x="30.5" y="-374.3" font-family="Helvetica,sans-Serif" font-size="11.00" fill="#000000">password_policy_id</text>
<polygon fill="none" stroke="#000000" points="235.5,-367.2 235.5,-389.2 285.5,-389.2 285.5,-367.2 235.5,-367.2"/>
<text text-anchor="start" x="238.1865" y="-374.9" font-family="Helvetica,sans-Serif" font-size="11.00" fill="#000000">bigint[19]</text>
<polygon fill="none" stroke="#000000" points="10.5,-345.2 10.5,-367.2 235.5,-367.2 235.5,-345.2 10.5,-345.2"/>
<text text-anchor="start" x="30.5" y="-352.3" font-family="Helvetica,sans-Serif" font-size="11.00" fill="#000000">password_check_min_change_time</text>
<polygon fill="none" stroke="#000000" points="235.5,-345.2 235.5,-367.2 285.5,-367.2 285.5,-345.2 235.5,-345.2"/>
<text text-anchor="start" x="238.5" y="-352.9" font-family="Helvetica,sans-Serif" font-size="11.00" fill="#000000">bit[1]</text>
<polygon fill="none" stroke="#000000" points="10.5,-323.2 10.5,-345.2 235.5,-345.2 235.5,-323.2 10.5,-323.2"/>
<text text-anchor="start" x="30.5" y="-330.3" font-family="Helvetica,sans-Serif" font-size="11.00" fill="#000000">password_check_diff_chars</text>
<polygon fill="none" stroke="#000000" points="235.5,-323.2 235.5,-345.2 285.5,-345.2 285.5,-323.2 235.5,-323.2"/>
<text text-anchor="start" x="238.5" y="-330.9" font-family="Helvetica,sans-Serif" font-size="11.00" fill="#000000">bit[1]</text>
<polygon fill="none" stroke="#000000" points="10.5,-301.2 10.5,-323.2 235.5,-323.2 235.5,-301.2 10.5,-301.2"/>
<text text-anchor="start" x="30.5" y="-308.3" font-family="Helvetica,sans-Serif" font-size="11.00" fill="#000000">lock_unused_accounts</text>
<polygon fill="none" stroke="#000000" points="235.5,-301.2 235.5,-323.2 285.5,-323.2 285.5,-301.2 235.5,-301.2"/>
<text text-anchor="start" x="238.5" y="-308.9" font-family="Helvetica,sans-Serif" font-size="11.00" fill="#000000">int[10]</text>
<polygon fill="none" stroke="#000000" points="10.5,-279.2 10.5,-301.2 235.5,-301.2 235.5,-279.2 10.5,-279.2"/>
<text text-anchor="start" x="30.5" y="-286.3" font-family="Helvetica,sans-Serif" font-size="11.00" fill="#000000">min_length</text>
<polygon fill="none" stroke="#000000" points="235.5,-279.2 235.5,-301.2 285.5,-301.2 285.5,-279.2 235.5,-279.2"/>
<text text-anchor="start" x="238.5" y="-286.9" font-family="Helvetica,sans-Serif" font-size="11.00" fill="#000000">int[10]</text>
<polygon fill="none" stroke="#000000" points="10.5,-257.2 10.5,-279.2 235.5,-279.2 235.5,-257.2 10.5,-257.2"/>
<text text-anchor="start" x="30.5" y="-264.3" font-family="Helvetica,sans-Serif" font-size="11.00" fill="#000000">min_lower</text>
<polygon fill="none" stroke="#000000" points="235.5,-257.2 235.5,-279.2 285.5,-279.2 285.5,-257.2 235.5,-257.2"/>
<text text-anchor="start" x="238.5" y="-264.9" font-family="Helvetica,sans-Serif" font-size="11.00" fill="#000000">int[10]</text>
<polygon fill="none" stroke="#000000" points="10.5,-235.2 10.5,-257.2 235.5,-257.2 235.5,-235.2 10.5,-235.2"/>
<text text-anchor="start" x="30.5" y="-242.3" font-family="Helvetica,sans-Serif" font-size="11.00" fill="#000000">min_numbers</text>
<polygon fill="none" stroke="#000000" points="235.5,-235.2 235.5,-257.2 285.5,-257.2 285.5,-235.2 235.5,-235.2"/>
<text text-anchor="start" x="238.5" y="-242.9" font-family="Helvetica,sans-Serif" font-size="11.00" fill="#000000">int[10]</text>
<polygon fill="none" stroke="#000000" points="10.5,-213.2 10.5,-235.2 235.5,-235.2 235.5,-213.2 10.5,-213.2"/>
<text text-anchor="start" x="30.5" y="-220.3" font-family="Helvetica,sans-Serif" font-size="11.00" fill="#000000">min_symbols</text>
<polygon fill="none" stroke="#000000" points="235.5,-213.2 235.5,-235.2 285.5,-235.2 285.5,-213.2 235.5,-213.2"/>
<text text-anchor="start" x="238.5" y="-220.9" font-family="Helvetica,sans-Serif" font-size="11.00" fill="#000000">int[10]</text>
<polygon fill="none" stroke="#000000" points="10.5,-191.2 10.5,-213.2 235.5,-213.2 235.5,-191.2 10.5,-191.2"/>
<text text-anchor="start" x="30.5" y="-198.3" font-family="Helvetica,sans-Serif" font-size="11.00" fill="#000000">min_upper</text>
<polygon fill="none" stroke="#000000" points="235.5,-191.2 235.5,-213.2 285.5,-213.2 285.5,-191.2 235.5,-191.2"/>
<text text-anchor="start" x="238.5" y="-198.9" font-family="Helvetica,sans-Serif" font-size="11.00" fill="#000000">int[10]</text>
<polygon fill="none" stroke="#000000" points="10.5,-169.2 10.5,-191.2 235.5,-191.2 235.5,-169.2 10.5,-169.2"/>
<text text-anchor="start" x="30.5" y="-176.3" font-family="Helvetica,sans-Serif" font-size="11.00" fill="#000000">password_min_change_time</text>
<polygon fill="none" stroke="#000000" points="235.5,-169.2 235.5,-191.2 285.5,-191.2 285.5,-169.2 235.5,-169.2"/>
<text text-anchor="start" x="238.5" y="-176.9" font-family="Helvetica,sans-Serif" font-size="11.00" fill="#000000">int[10]</text>
<polygon fill="none" stroke="#000000" points="10.5,-147.2 10.5,-169.2 235.5,-169.2 235.5,-147.2 10.5,-147.2"/>
<text text-anchor="start" x="30.5" y="-154.3" font-family="Helvetica,sans-Serif" font-size="11.00" fill="#000000">password_min_diff_chars</text>
<polygon fill="none" stroke="#000000" points="235.5,-147.2 235.5,-169.2 285.5,-169.2 285.5,-147.2 235.5,-147.2"/>
<text text-anchor="start" x="238.5" y="-154.9" font-family="Helvetica,sans-Serif" font-size="11.00" fill="#000000">int[10]</text>
<polygon fill="none" stroke="#000000" points="10.5,-125.2 10.5,-147.2 235.5,-147.2 235.5,-125.2 10.5,-125.2"/>
<text text-anchor="start" x="30.5" y="-132.3" font-family="Helvetica,sans-Serif" font-size="11.00" fill="#000000">password_expiration_days</text>
<polygon fill="none" stroke="#000000" points="235.5,-125.2 235.5,-147.2 285.5,-147.2 285.5,-125.2 235.5,-125.2"/>
<text text-anchor="start" x="238.5" y="-132.9" font-family="Helvetica,sans-Serif" font-size="11.00" fill="#000000">int[10]</text>
<polygon fill="none" stroke="#000000" points="10.5,-103.2 10.5,-125.2 235.5,-125.2 235.5,-103.2 10.5,-103.2"/>
<text text-anchor="start" x="30.5" y="-110.3" font-family="Helvetica,sans-Serif" font-size="11.00" fill="#000000">password_history</text>
<polygon fill="none" stroke="#000000" points="235.5,-103.2 235.5,-125.2 285.5,-125.2 285.5,-103.2 235.5,-103.2"/>
<text text-anchor="start" x="238.5" y="-110.9" font-family="Helvetica,sans-Serif" font-size="11.00" fill="#000000">bit[1]</text>
<polygon fill="none" stroke="#000000" points="10.5,-81.2 10.5,-103.2 235.5,-103.2 235.5,-81.2 10.5,-81.2"/>
<text text-anchor="start" x="30.5" y="-88.3" font-family="Helvetica,sans-Serif" font-size="11.00" fill="#000000">passwords_retained</text>
<polygon fill="none" stroke="#000000" points="235.5,-81.2 235.5,-103.2 285.5,-103.2 285.5,-81.2 235.5,-81.2"/>
<text text-anchor="start" x="238.5" y="-88.9" font-family="Helvetica,sans-Serif" font-size="11.00" fill="#000000">int[10]</text>
<polygon fill="none" stroke="#000000" points="10.5,-59.2 10.5,-81.2 235.5,-81.2 235.5,-59.2 10.5,-59.2"/>
<text text-anchor="start" x="30.5" y="-66.3" font-family="Helvetica,sans-Serif" font-size="11.00" fill="#000000">max_failed_login_attempts</text>
<polygon fill="none" stroke="#000000" points="235.5,-59.2 235.5,-81.2 285.5,-81.2 285.5,-59.2 235.5,-59.2"/>
<text text-anchor="start" x="238.5" y="-66.9" font-family="Helvetica,sans-Serif" font-size="11.00" fill="#000000">int[10]</text>
<polygon fill="#ffffff" stroke="transparent" points="10.5,-40.2 10.5,-59.2 114.5,-59.2 114.5,-40.2 10.5,-40.2"/>
<polygon fill="none" stroke="#000000" points="10.5,-40.2 10.5,-59.2 114.5,-59.2 114.5,-40.2 10.5,-40.2"/>
<text text-anchor="start" x="13.5" y="-46.3" font-family="Helvetica,sans-Serif" font-size="11.00" fill="#000000">&lt; 0</text>
<polygon fill="#ffffff" stroke="transparent" points="114.5,-40.2 114.5,-59.2 235.5,-59.2 235.5,-40.2 114.5,-40.2"/>
<polygon fill="none" stroke="#000000" points="114.5,-40.2 114.5,-59.2 235.5,-59.2 235.5,-40.2 114.5,-40.2"/>
<text text-anchor="start" x="200.1105" y="-46.3" font-family="Helvetica,sans-Serif" font-size="11.00" fill="#000000">3 rows</text>
<polygon fill="#ffffff" stroke="transparent" points="235.5,-40.2 235.5,-59.2 285.5,-59.2 285.5,-40.2 235.5,-40.2"/>
<polygon fill="none" stroke="#000000" points="235.5,-40.2 235.5,-59.2 285.5,-59.2 285.5,-40.2 235.5,-40.2"/>
<text text-anchor="start" x="266.9053" y="-46.3" font-family="Helvetica,sans-Serif" font-size="11.00" fill="#000000">1 &gt;</text>
<polygon fill="none" stroke="#000000" stroke-width="2" points="9,-39.2 9,-413.2 286,-413.2 286,-39.2 9,-39.2"/>
</a>
</g>
</g>
<!-- organizations&#45;&gt;password_policy -->
<g id="edge1" class="edge">
<title>organizations:w&#45;&gt;password_policy:e</title>
<path fill="none" stroke="#000000" d="M325.3362,-378.2C310.9956,-378.2 303.9115,-378.2 285.5,-378.2"/>
<polygon fill="#000000" stroke="#000000" points="335.2,-374.2 335.2,-382.2 333.6,-382.2 333.6,-374.2 335.2,-374.2"/>
<polyline fill="none" stroke="#000000" points="336,-378.2 332,-378.2 "/>
<ellipse fill="none" stroke="#000000" cx="328.8" cy="-378.2001" rx="3.2" ry="3.2"/>
</g>
</g>
</svg>
