<?xml version="1.0" encoding="UTF-8" standalone="no"?>
<!DOCTYPE svg PUBLIC "-//W3C//DTD SVG 1.1//EN"
 "http://www.w3.org/Graphics/SVG/1.1/DTD/svg11.dtd">
<!-- Generated by graphviz version 2.40.1 (20161225.0304)
 -->
<!-- Title: oneDegreeRelationshipsDiagram Pages: 1 -->
<svg width="512pt" height="267pt"
 viewBox="0.00 0.00 512.00 266.70" xmlns="http://www.w3.org/2000/svg" xmlns:xlink="http://www.w3.org/1999/xlink">
<g id="graph0" class="graph" transform="scale(1 1) rotate(0) translate(4 262.7)">
<title>oneDegreeRelationshipsDiagram</title>
<polygon fill="#ffffff" stroke="transparent" points="-4,4 -4,-262.7 508,-262.7 508,4 -4,4"/>
<text text-anchor="middle" x="72.4936" y="-7.3" font-family="Helvetica,sans-Serif" font-size="11.00" fill="#000000">Generated by SchemaSpy</text>
<!-- password_history -->
<g id="node1" class="node">
<title>password_history</title>
<g id="a_node1"><a xlink:href="../../tables/password_history.html" xlink:title="password_history" target="_top">
<polygon fill="#ffffff" stroke="transparent" points="282,-120.7 282,-254.7 496,-254.7 496,-120.7 282,-120.7"/>
<polygon fill="#f5f5f5" stroke="transparent" points="284,-229.7 284,-252.7 494,-252.7 494,-229.7 284,-229.7"/>
<polygon fill="none" stroke="#000000" points="284,-229.7 284,-252.7 494,-252.7 494,-229.7 284,-229.7"/>
<text text-anchor="start" x="289" y="-238.8" font-family="Helvetica,sans-Serif" font-weight="bold" font-size="11.00" fill="#000000">password_history</text>
<text text-anchor="start" x="459.0437" y="-237.8" font-family="Helvetica,sans-Serif" font-size="11.00" fill="#000000">[table]</text>
<polygon fill="none" stroke="#000000" points="284,-207.7 284,-229.7 427,-229.7 427,-207.7 284,-207.7"/>
<image xlink:href="../../images/primaryKeys.png" width="11px" height="12px" preserveAspectRatio="xMinYMin meet" x="289" y="-224.7"/>
<text text-anchor="start" x="304" y="-214.8" font-family="Helvetica,sans-Serif" font-size="11.00" fill="#000000">password_history_id</text>
<polygon fill="none" stroke="#000000" points="427,-207.7 427,-229.7 494,-229.7 494,-207.7 427,-207.7"/>
<text text-anchor="start" x="430" y="-215.4" font-family="Helvetica,sans-Serif" font-size="11.00" fill="#000000">bigint[19]</text>
<polygon fill="none" stroke="#000000" points="284,-185.7 284,-207.7 427,-207.7 427,-185.7 284,-185.7"/>
<text text-anchor="start" x="304" y="-192.8" font-family="Helvetica,sans-Serif" font-size="11.00" fill="#000000">hash</text>
<polygon fill="none" stroke="#000000" points="427,-185.7 427,-207.7 494,-207.7 494,-185.7 427,-185.7"/>
<text text-anchor="start" x="429.9365" y="-193.4" font-family="Helvetica,sans-Serif" font-size="11.00" fill="#000000">varchar[255]</text>
<polygon fill="none" stroke="#000000" points="284,-163.7 284,-185.7 427,-185.7 427,-163.7 284,-163.7"/>
<text text-anchor="start" x="304" y="-170.8" font-family="Helvetica,sans-Serif" font-size="11.00" fill="#000000">password_timestamp</text>
<polygon fill="none" stroke="#000000" points="427,-163.7 427,-185.7 494,-185.7 494,-163.7 427,-163.7"/>
<text text-anchor="start" x="430" y="-171.4" font-family="Helvetica,sans-Serif" font-size="11.00" fill="#000000">datetime[19]</text>
<polygon fill="#ffffff" stroke="transparent" points="284,-141.7 284,-163.7 427,-163.7 427,-141.7 284,-141.7"/>
<polygon fill="none" stroke="#000000" points="284,-141.7 284,-163.7 427,-163.7 427,-141.7 284,-141.7"/>
<image xlink:href="../../images/foreignKeys.png" width="11px" height="12px" preserveAspectRatio="xMinYMin meet" x="289" y="-158.7"/>
<text text-anchor="start" x="304" y="-148.8" font-family="Helvetica,sans-Serif" font-size="11.00" fill="#000000">user_fk</text>
<polygon fill="none" stroke="#000000" points="427,-141.7 427,-163.7 494,-163.7 494,-141.7 427,-141.7"/>
<text text-anchor="start" x="429.9365" y="-149.4" font-family="Helvetica,sans-Serif" font-size="11.00" fill="#000000">varchar[255]</text>
<polygon fill="#ffffff" stroke="transparent" points="284,-122.7 284,-141.7 347,-141.7 347,-122.7 284,-122.7"/>
<polygon fill="none" stroke="#000000" points="284,-122.7 284,-141.7 347,-141.7 347,-122.7 284,-122.7"/>
<text text-anchor="start" x="287" y="-128.8" font-family="Helvetica,sans-Serif" font-size="11.00" fill="#000000">&lt; 1</text>
<polygon fill="#ffffff" stroke="transparent" points="347,-122.7 347,-141.7 427,-141.7 427,-122.7 347,-122.7"/>
<polygon fill="none" stroke="#000000" points="347,-122.7 347,-141.7 427,-141.7 427,-122.7 347,-122.7"/>
<text text-anchor="start" x="391.6105" y="-128.8" font-family="Helvetica,sans-Serif" font-size="11.00" fill="#000000">0 rows</text>
<polygon fill="#ffffff" stroke="transparent" points="427,-122.7 427,-141.7 494,-141.7 494,-122.7 427,-122.7"/>
<polygon fill="none" stroke="#000000" points="427,-122.7 427,-141.7 494,-141.7 494,-122.7 427,-122.7"/>
<text text-anchor="start" x="475.4053" y="-128.8" font-family="Helvetica,sans-Serif" font-size="11.00" fill="#000000">0 &gt;</text>
<polygon fill="none" stroke="#000000" stroke-width="2" points="283,-121.7 283,-253.7 495,-253.7 495,-121.7 283,-121.7"/>
</a>
</g>
</g>
<!-- users -->
<g id="node2" class="node">
<title>users</title>
<g id="a_node2"><a xlink:href="../../tables/users.html" xlink:title="users" target="_top">
<polygon fill="#ffffff" stroke="transparent" points="8,-38.2 8,-187.2 233,-187.2 233,-38.2 8,-38.2"/>
<polygon fill="#f5f5f5" stroke="transparent" points="8.5,-163.7 8.5,-186.7 233.5,-186.7 233.5,-163.7 8.5,-163.7"/>
<polygon fill="none" stroke="#000000" points="8.5,-163.7 8.5,-186.7 233.5,-186.7 233.5,-163.7 8.5,-163.7"/>
<text text-anchor="start" x="13.5" y="-172.8" font-family="Helvetica,sans-Serif" font-weight="bold" font-size="11.00" fill="#000000">users</text>
<text text-anchor="start" x="198.5437" y="-171.8" font-family="Helvetica,sans-Serif" font-size="11.00" fill="#000000">[table]</text>
<polygon fill="none" stroke="#000000" points="8.5,-141.7 8.5,-163.7 233.5,-163.7 233.5,-141.7 8.5,-141.7"/>
<image xlink:href="../../images/primaryKeys.png" width="11px" height="12px" preserveAspectRatio="xMinYMin meet" x="13.5" y="-158.7"/>
<text text-anchor="start" x="28.5" y="-148.8" font-family="Helvetica,sans-Serif" font-size="11.00" fill="#000000">user_id</text>
<polygon fill="#ffffff" stroke="transparent" points="8.5,-119.7 8.5,-141.7 233.5,-141.7 233.5,-119.7 8.5,-119.7"/>
<polygon fill="none" stroke="#000000" points="8.5,-119.7 8.5,-141.7 233.5,-141.7 233.5,-119.7 8.5,-119.7"/>
<text text-anchor="start" x="28.5" y="-126.8" font-family="Helvetica,sans-Serif" font-size="11.00" fill="#000000">user_uid</text>
<polygon fill="#ffffff" stroke="transparent" points="8.5,-97.7 8.5,-119.7 233.5,-119.7 233.5,-97.7 8.5,-97.7"/>
<polygon fill="none" stroke="#000000" points="8.5,-97.7 8.5,-119.7 233.5,-119.7 233.5,-97.7 8.5,-97.7"/>
<image xlink:href="../../images/foreignKeys.png" width="11px" height="12px" preserveAspectRatio="xMinYMin meet" x="13.5" y="-114.7"/>
<text text-anchor="start" x="28.5" y="-104.8" font-family="Helvetica,sans-Serif" font-size="11.00" fill="#000000">default_org</text>
<polygon fill="#ffffff" stroke="transparent" points="8.5,-75.7 8.5,-97.7 233.5,-97.7 233.5,-75.7 8.5,-75.7"/>
<polygon fill="none" stroke="#000000" points="8.5,-75.7 8.5,-97.7 233.5,-97.7 233.5,-75.7 8.5,-75.7"/>
<text text-anchor="start" x="28.5" y="-82.8" font-family="Helvetica,sans-Serif" font-size="11.00" fill="#000000">type</text>
<polygon fill="none" stroke="#000000" points="8.5,-56.7 8.5,-75.7 233.5,-75.7 233.5,-56.7 8.5,-56.7"/>
<text text-anchor="start" x="11.5" y="-62.8" font-family="Helvetica,sans-Serif" font-size="11.00" fill="#000000">...</text>
<polygon fill="#ffffff" stroke="transparent" points="8.5,-37.7 8.5,-56.7 98.5,-56.7 98.5,-37.7 8.5,-37.7"/>
<polygon fill="none" stroke="#000000" points="8.5,-37.7 8.5,-56.7 98.5,-56.7 98.5,-37.7 8.5,-37.7"/>
<text text-anchor="start" x="11.5" y="-43.8" font-family="Helvetica,sans-Serif" font-size="11.00" fill="#000000">&lt; 1</text>
<polygon fill="#ffffff" stroke="transparent" points="98.5,-37.7 98.5,-56.7 171.5,-56.7 171.5,-37.7 98.5,-37.7"/>
<polygon fill="none" stroke="#000000" points="98.5,-37.7 98.5,-56.7 171.5,-56.7 171.5,-37.7 98.5,-37.7"/>
<text text-anchor="start" x="136.1105" y="-43.8" font-family="Helvetica,sans-Serif" font-size="11.00" fill="#000000">6 rows</text>
<polygon fill="#ffffff" stroke="transparent" points="171.5,-37.7 171.5,-56.7 233.5,-56.7 233.5,-37.7 171.5,-37.7"/>
<polygon fill="none" stroke="#000000" points="171.5,-37.7 171.5,-56.7 233.5,-56.7 233.5,-37.7 171.5,-37.7"/>
<text text-anchor="start" x="208.7904" y="-43.8" font-family="Helvetica,sans-Serif" font-size="11.00" fill="#000000">33 &gt;</text>
</a>
</g>
</g>
<!-- password_history&#45;&gt;users -->
<g id="edge1" class="edge">
<title>password_history:w&#45;&gt;users:e</title>
<path fill="none" stroke="#000000" d="M269.4203,-152.7C257.5435,-152.7 250.158,-152.7 233.5,-152.7"/>
<polygon fill="#000000" stroke="#000000" points="276,-152.7001 284,-156.3 280,-152.7 284,-152.7 284,-152.7 284,-152.7 280,-152.7 284,-149.1 276,-152.7001 276,-152.7001"/>
<ellipse fill="none" stroke="#000000" cx="272.8" cy="-152.7001" rx="3.2" ry="3.2"/>
</g>
</g>
</svg>
