<?xml version="1.0" encoding="UTF-8" standalone="no"?>
<!DOCTYPE svg PUBLIC "-//W3C//DTD SVG 1.1//EN"
 "http://www.w3.org/Graphics/SVG/1.1/DTD/svg11.dtd">
<!-- Generated by graphviz version 2.40.1 (20161225.0304)
 -->
<!-- Title: oneDegreeRelationshipsDiagram Pages: 1 -->
<svg width="816pt" height="423pt"
 viewBox="0.00 0.00 816.00 422.70" xmlns="http://www.w3.org/2000/svg" xmlns:xlink="http://www.w3.org/1999/xlink">
<g id="graph0" class="graph" transform="scale(1 1) rotate(0) translate(4 418.7016)">
<title>oneDegreeRelationshipsDiagram</title>
<polygon fill="#ffffff" stroke="transparent" points="-4,4 -4,-418.7016 812,-418.7016 812,4 -4,4"/>
<text text-anchor="middle" x="72.4936" y="-7.3" font-family="Helvetica,sans-Serif" font-size="11.00" fill="#000000">Generated by SchemaSpy</text>
<!-- protect_license_usage -->
<g id="node1" class="node">
<title>protect_license_usage</title>
<g id="a_node1"><a xlink:href="../../tables/protect_license_usage.html" xlink:title="protect_license_usage" target="_top">
<polygon fill="#ffffff" stroke="transparent" points="563,-175.2016 563,-353.2016 800,-353.2016 800,-175.2016 563,-175.2016"/>
<polygon fill="#f5f5f5" stroke="transparent" points="565.5,-328.2016 565.5,-351.2016 798.5,-351.2016 798.5,-328.2016 565.5,-328.2016"/>
<polygon fill="none" stroke="#000000" points="565.5,-328.2016 565.5,-351.2016 798.5,-351.2016 798.5,-328.2016 565.5,-328.2016"/>
<text text-anchor="start" x="570.5" y="-337.3016" font-family="Helvetica,sans-Serif" font-weight="bold" font-size="11.00" fill="#000000">protect_license_usage</text>
<text text-anchor="start" x="763.5437" y="-336.3016" font-family="Helvetica,sans-Serif" font-size="11.00" fill="#000000">[table]</text>
<polygon fill="none" stroke="#000000" points="565.5,-306.2016 565.5,-328.2016 715.5,-328.2016 715.5,-306.2016 565.5,-306.2016"/>
<image xlink:href="../../images/primaryKeys.png" width="11px" height="12px" preserveAspectRatio="xMinYMin meet" x="570.5" y="-323.202"/>
<text text-anchor="start" x="585.5" y="-313.3016" font-family="Helvetica,sans-Serif" font-size="11.00" fill="#000000">id</text>
<polygon fill="none" stroke="#000000" points="715.5,-306.2016 715.5,-328.2016 798.5,-328.2016 798.5,-306.2016 715.5,-306.2016"/>
<text text-anchor="start" x="718.1783" y="-313.9016" font-family="Helvetica,sans-Serif" font-size="11.00" fill="#000000">int unsigned[10]</text>
<polygon fill="none" stroke="#000000" points="565.5,-284.2016 565.5,-306.2016 715.5,-306.2016 715.5,-284.2016 565.5,-284.2016"/>
<text text-anchor="start" x="585.5" y="-291.3016" font-family="Helvetica,sans-Serif" font-size="11.00" fill="#000000">dt_usage_start</text>
<polygon fill="none" stroke="#000000" points="715.5,-284.2016 715.5,-306.2016 798.5,-306.2016 798.5,-284.2016 715.5,-284.2016"/>
<text text-anchor="start" x="718.5" y="-291.9016" font-family="Helvetica,sans-Serif" font-size="11.00" fill="#000000">bigint[19]</text>
<polygon fill="none" stroke="#000000" points="565.5,-262.2016 565.5,-284.2016 715.5,-284.2016 715.5,-262.2016 565.5,-262.2016"/>
<text text-anchor="start" x="585.5" y="-269.3016" font-family="Helvetica,sans-Serif" font-size="11.00" fill="#000000">dt_usage_end</text>
<polygon fill="none" stroke="#000000" points="715.5,-262.2016 715.5,-284.2016 798.5,-284.2016 798.5,-262.2016 715.5,-262.2016"/>
<text text-anchor="start" x="718.5" y="-269.9016" font-family="Helvetica,sans-Serif" font-size="11.00" fill="#000000">bigint[19]</text>
<polygon fill="none" stroke="#000000" points="565.5,-240.2016 565.5,-262.2016 715.5,-262.2016 715.5,-240.2016 565.5,-240.2016"/>
<text text-anchor="start" x="585.5" y="-247.3016" font-family="Helvetica,sans-Serif" font-size="11.00" fill="#000000">dt_usage_date</text>
<polygon fill="none" stroke="#000000" points="715.5,-240.2016 715.5,-262.2016 798.5,-262.2016 798.5,-240.2016 715.5,-240.2016"/>
<text text-anchor="start" x="718.5" y="-247.9016" font-family="Helvetica,sans-Serif" font-size="11.00" fill="#000000">date[10]</text>
<polygon fill="#ffffff" stroke="transparent" points="565.5,-218.2016 565.5,-240.2016 715.5,-240.2016 715.5,-218.2016 565.5,-218.2016"/>
<polygon fill="none" stroke="#000000" points="565.5,-218.2016 565.5,-240.2016 715.5,-240.2016 715.5,-218.2016 565.5,-218.2016"/>
<image xlink:href="../../images/foreignKeys.png" width="11px" height="12px" preserveAspectRatio="xMinYMin meet" x="570.5" y="-235.202"/>
<text text-anchor="start" x="585.5" y="-225.3016" font-family="Helvetica,sans-Serif" font-size="11.00" fill="#000000">servers_id</text>
<polygon fill="none" stroke="#000000" points="715.5,-218.2016 715.5,-240.2016 798.5,-240.2016 798.5,-218.2016 715.5,-218.2016"/>
<text text-anchor="start" x="718.5" y="-225.9016" font-family="Helvetica,sans-Serif" font-size="11.00" fill="#000000">bigint[19]</text>
<polygon fill="#ffffff" stroke="transparent" points="565.5,-196.2016 565.5,-218.2016 715.5,-218.2016 715.5,-196.2016 565.5,-196.2016"/>
<polygon fill="none" stroke="#000000" points="565.5,-196.2016 565.5,-218.2016 715.5,-218.2016 715.5,-196.2016 565.5,-196.2016"/>
<image xlink:href="../../images/foreignKeys.png" width="11px" height="12px" preserveAspectRatio="xMinYMin meet" x="570.5" y="-213.202"/>
<text text-anchor="start" x="585.5" y="-203.3016" font-family="Helvetica,sans-Serif" font-size="11.00" fill="#000000">organizations_id</text>
<polygon fill="none" stroke="#000000" points="715.5,-196.2016 715.5,-218.2016 798.5,-218.2016 798.5,-196.2016 715.5,-196.2016"/>
<text text-anchor="start" x="718.1783" y="-203.9016" font-family="Helvetica,sans-Serif" font-size="11.00" fill="#000000">int unsigned[10]</text>
<polygon fill="#ffffff" stroke="transparent" points="565.5,-177.2016 565.5,-196.2016 631.5,-196.2016 631.5,-177.2016 565.5,-177.2016"/>
<polygon fill="none" stroke="#000000" points="565.5,-177.2016 565.5,-196.2016 631.5,-196.2016 631.5,-177.2016 565.5,-177.2016"/>
<text text-anchor="start" x="568.5" y="-183.3016" font-family="Helvetica,sans-Serif" font-size="11.00" fill="#000000">&lt; 2</text>
<polygon fill="#ffffff" stroke="transparent" points="631.5,-177.2016 631.5,-196.2016 715.5,-196.2016 715.5,-177.2016 631.5,-177.2016"/>
<polygon fill="none" stroke="#000000" points="631.5,-177.2016 631.5,-196.2016 715.5,-196.2016 715.5,-177.2016 631.5,-177.2016"/>
<text text-anchor="start" x="680.1105" y="-183.3016" font-family="Helvetica,sans-Serif" font-size="11.00" fill="#000000">0 rows</text>
<polygon fill="#ffffff" stroke="transparent" points="715.5,-177.2016 715.5,-196.2016 798.5,-196.2016 798.5,-177.2016 715.5,-177.2016"/>
<polygon fill="none" stroke="#000000" points="715.5,-177.2016 715.5,-196.2016 798.5,-196.2016 798.5,-177.2016 715.5,-177.2016"/>
<text text-anchor="start" x="779.9053" y="-183.3016" font-family="Helvetica,sans-Serif" font-size="11.00" fill="#000000">0 &gt;</text>
<polygon fill="none" stroke="#000000" stroke-width="2" points="564,-176.2016 564,-352.2016 799,-352.2016 799,-176.2016 564,-176.2016"/>
</a>
</g>
</g>
<!-- organizations -->
<g id="node2" class="node">
<title>organizations</title>
<g id="a_node2"><a xlink:href="../../tables/organizations.html" xlink:title="organizations" target="_top">
<polygon fill="#ffffff" stroke="transparent" points="8,-81.7016 8,-296.7016 266,-296.7016 266,-81.7016 8,-81.7016"/>
<polygon fill="#f5f5f5" stroke="transparent" points="8,-273.2016 8,-296.2016 266,-296.2016 266,-273.2016 8,-273.2016"/>
<polygon fill="none" stroke="#000000" points="8,-273.2016 8,-296.2016 266,-296.2016 266,-273.2016 8,-273.2016"/>
<text text-anchor="start" x="13" y="-282.3016" font-family="Helvetica,sans-Serif" font-weight="bold" font-size="11.00" fill="#000000">organizations</text>
<text text-anchor="start" x="231.0437" y="-281.3016" font-family="Helvetica,sans-Serif" font-size="11.00" fill="#000000">[table]</text>
<polygon fill="#ffffff" stroke="transparent" points="8,-251.2016 8,-273.2016 266,-273.2016 266,-251.2016 8,-251.2016"/>
<polygon fill="none" stroke="#000000" points="8,-251.2016 8,-273.2016 266,-273.2016 266,-251.2016 8,-251.2016"/>
<text text-anchor="start" x="28" y="-258.3016" font-family="Helvetica,sans-Serif" font-size="11.00" fill="#000000">name</text>
<polygon fill="#ffffff" stroke="transparent" points="8,-229.2016 8,-251.2016 266,-251.2016 266,-229.2016 8,-229.2016"/>
<polygon fill="none" stroke="#000000" points="8,-229.2016 8,-251.2016 266,-251.2016 266,-229.2016 8,-229.2016"/>
<image xlink:href="../../images/foreignKeys.png" width="11px" height="12px" preserveAspectRatio="xMinYMin meet" x="13" y="-246.202"/>
<text text-anchor="start" x="28" y="-236.3016" font-family="Helvetica,sans-Serif" font-size="11.00" fill="#000000">configKey_fk</text>
<polygon fill="#ffffff" stroke="transparent" points="8,-207.2016 8,-229.2016 266,-229.2016 266,-207.2016 8,-207.2016"/>
<polygon fill="none" stroke="#000000" points="8,-207.2016 8,-229.2016 266,-229.2016 266,-207.2016 8,-207.2016"/>
<image xlink:href="../../images/foreignKeys.png" width="11px" height="12px" preserveAspectRatio="xMinYMin meet" x="13" y="-224.202"/>
<text text-anchor="start" x="28" y="-214.3016" font-family="Helvetica,sans-Serif" font-size="11.00" fill="#000000">passwordPolicy_fk</text>
<polygon fill="#ffffff" stroke="transparent" points="8,-185.2016 8,-207.2016 266,-207.2016 266,-185.2016 8,-185.2016"/>
<polygon fill="none" stroke="#000000" points="8,-185.2016 8,-207.2016 266,-207.2016 266,-185.2016 8,-185.2016"/>
<image xlink:href="../../images/foreignKeys.png" width="11px" height="12px" preserveAspectRatio="xMinYMin meet" x="13" y="-202.202"/>
<text text-anchor="start" x="28" y="-192.3016" font-family="Helvetica,sans-Serif" font-size="11.00" fill="#000000">report_settings_fk</text>
<polygon fill="none" stroke="#000000" points="8,-163.2016 8,-185.2016 266,-185.2016 266,-163.2016 8,-163.2016"/>
<image xlink:href="../../images/primaryKeys.png" width="11px" height="12px" preserveAspectRatio="xMinYMin meet" x="13" y="-180.202"/>
<text text-anchor="start" x="28" y="-170.3016" font-family="Helvetica,sans-Serif" font-size="11.00" fill="#000000">id</text>
<polygon fill="#ffffff" stroke="transparent" points="8,-141.2016 8,-163.2016 266,-163.2016 266,-141.2016 8,-141.2016"/>
<polygon fill="none" stroke="#000000" points="8,-141.2016 8,-163.2016 266,-163.2016 266,-141.2016 8,-141.2016"/>
<text text-anchor="start" x="28" y="-148.3016" font-family="Helvetica,sans-Serif" font-size="11.00" fill="#000000">uuid</text>
<polygon fill="#ffffff" stroke="transparent" points="8,-119.2016 8,-141.2016 266,-141.2016 266,-119.2016 8,-119.2016"/>
<polygon fill="none" stroke="#000000" points="8,-119.2016 8,-141.2016 266,-141.2016 266,-119.2016 8,-119.2016"/>
<image xlink:href="../../images/foreignKeys.png" width="11px" height="12px" preserveAspectRatio="xMinYMin meet" x="13" y="-136.202"/>
<text text-anchor="start" x="28" y="-126.3016" font-family="Helvetica,sans-Serif" font-size="11.00" fill="#000000">saml_idp_config_fk</text>
<polygon fill="none" stroke="#000000" points="8,-100.2016 8,-119.2016 266,-119.2016 266,-100.2016 8,-100.2016"/>
<text text-anchor="start" x="11" y="-106.3016" font-family="Helvetica,sans-Serif" font-size="11.00" fill="#000000">...</text>
<polygon fill="#ffffff" stroke="transparent" points="8,-81.2016 8,-100.2016 115,-100.2016 115,-81.2016 8,-81.2016"/>
<polygon fill="none" stroke="#000000" points="8,-81.2016 8,-100.2016 115,-100.2016 115,-81.2016 8,-81.2016"/>
<text text-anchor="start" x="11" y="-87.3016" font-family="Helvetica,sans-Serif" font-size="11.00" fill="#000000">&lt; 4</text>
<polygon fill="#ffffff" stroke="transparent" points="115,-81.2016 115,-100.2016 196,-100.2016 196,-81.2016 115,-81.2016"/>
<polygon fill="none" stroke="#000000" points="115,-81.2016 115,-100.2016 196,-100.2016 196,-81.2016 115,-81.2016"/>
<text text-anchor="start" x="160.6105" y="-87.3016" font-family="Helvetica,sans-Serif" font-size="11.00" fill="#000000">3 rows</text>
<polygon fill="#ffffff" stroke="transparent" points="196,-81.2016 196,-100.2016 266,-100.2016 266,-81.2016 196,-81.2016"/>
<polygon fill="none" stroke="#000000" points="196,-81.2016 196,-100.2016 266,-100.2016 266,-81.2016 196,-81.2016"/>
<text text-anchor="start" x="241.2904" y="-87.3016" font-family="Helvetica,sans-Serif" font-size="11.00" fill="#000000">81 &gt;</text>
</a>
</g>
</g>
<!-- protect_license_usage&#45;&gt;organizations -->
<g id="edge1" class="edge">
<title>protect_license_usage:w&#45;&gt;organizations:e</title>
<path fill="none" stroke="#000000" d="M550.8938,-204.6056C515.9445,-189.0596 567.1613,-107.8693 522,-75.2016 444.5768,-19.1971 386.4499,-22.1113 307,-75.2016 267.4029,-101.6613 313.624,-174.2016 266,-174.2016"/>
<polygon fill="#000000" stroke="#000000" points="557.6234,-205.8016 564.87,-210.7461 561.5617,-206.5016 565.5,-207.2016 565.5,-207.2016 565.5,-207.2016 561.5617,-206.5016 566.13,-203.6572 557.6234,-205.8016 557.6234,-205.8016"/>
<ellipse fill="none" stroke="#000000" cx="554.4728" cy="-205.2416" rx="3.2" ry="3.2"/>
</g>
<!-- servers -->
<g id="node3" class="node">
<title>servers</title>
<g id="a_node3"><a xlink:href="../../tables/servers.html" xlink:title="servers" target="_top">
<polygon fill="#ffffff" stroke="transparent" points="315,-85.7016 315,-410.7016 514,-410.7016 514,-85.7016 315,-85.7016"/>
<polygon fill="#f5f5f5" stroke="transparent" points="315.5,-387.2016 315.5,-410.2016 514.5,-410.2016 514.5,-387.2016 315.5,-387.2016"/>
<polygon fill="none" stroke="#000000" points="315.5,-387.2016 315.5,-410.2016 514.5,-410.2016 514.5,-387.2016 315.5,-387.2016"/>
<text text-anchor="start" x="320.5" y="-396.3016" font-family="Helvetica,sans-Serif" font-weight="bold" font-size="11.00" fill="#000000">servers</text>
<text text-anchor="start" x="479.5437" y="-395.3016" font-family="Helvetica,sans-Serif" font-size="11.00" fill="#000000">[table]</text>
<polygon fill="none" stroke="#000000" points="315.5,-365.2016 315.5,-387.2016 514.5,-387.2016 514.5,-365.2016 315.5,-365.2016"/>
<image xlink:href="../../images/primaryKeys.png" width="11px" height="12px" preserveAspectRatio="xMinYMin meet" x="320.5" y="-382.202"/>
<text text-anchor="start" x="335.5" y="-372.3016" font-family="Helvetica,sans-Serif" font-size="11.00" fill="#000000">server_id</text>
<polygon fill="#ffffff" stroke="transparent" points="315.5,-343.2016 315.5,-365.2016 514.5,-365.2016 514.5,-343.2016 315.5,-343.2016"/>
<polygon fill="none" stroke="#000000" points="315.5,-343.2016 315.5,-365.2016 514.5,-365.2016 514.5,-343.2016 315.5,-343.2016"/>
<text text-anchor="start" x="335.5" y="-350.3016" font-family="Helvetica,sans-Serif" font-size="11.00" fill="#000000">enabled</text>
<polygon fill="#ffffff" stroke="transparent" points="315.5,-321.2016 315.5,-343.2016 514.5,-343.2016 514.5,-321.2016 315.5,-321.2016"/>
<polygon fill="none" stroke="#000000" points="315.5,-321.2016 315.5,-343.2016 514.5,-343.2016 514.5,-321.2016 315.5,-321.2016"/>
<text text-anchor="start" x="335.5" y="-328.3016" font-family="Helvetica,sans-Serif" font-size="11.00" fill="#000000">hostname</text>
<polygon fill="#ffffff" stroke="transparent" points="315.5,-299.2016 315.5,-321.2016 514.5,-321.2016 514.5,-299.2016 315.5,-299.2016"/>
<polygon fill="none" stroke="#000000" points="315.5,-299.2016 315.5,-321.2016 514.5,-321.2016 514.5,-299.2016 315.5,-299.2016"/>
<text text-anchor="start" x="335.5" y="-306.3016" font-family="Helvetica,sans-Serif" font-size="11.00" fill="#000000">serverpath</text>
<polygon fill="#ffffff" stroke="transparent" points="315.5,-277.2016 315.5,-299.2016 514.5,-299.2016 514.5,-277.2016 315.5,-277.2016"/>
<polygon fill="none" stroke="#000000" points="315.5,-277.2016 315.5,-299.2016 514.5,-299.2016 514.5,-277.2016 315.5,-277.2016"/>
<image xlink:href="../../images/foreignKeys.png" width="11px" height="12px" preserveAspectRatio="xMinYMin meet" x="320.5" y="-294.202"/>
<text text-anchor="start" x="335.5" y="-284.3016" font-family="Helvetica,sans-Serif" font-size="11.00" fill="#000000">organizations_id</text>
<polygon fill="#ffffff" stroke="transparent" points="315.5,-255.2016 315.5,-277.2016 514.5,-277.2016 514.5,-255.2016 315.5,-255.2016"/>
<polygon fill="none" stroke="#000000" points="315.5,-255.2016 315.5,-277.2016 514.5,-277.2016 514.5,-255.2016 315.5,-255.2016"/>
<text text-anchor="start" x="335.5" y="-262.3016" font-family="Helvetica,sans-Serif" font-size="11.00" fill="#000000">name</text>
<polygon fill="#ffffff" stroke="transparent" points="315.5,-233.2016 315.5,-255.2016 514.5,-255.2016 514.5,-233.2016 315.5,-233.2016"/>
<polygon fill="none" stroke="#000000" points="315.5,-233.2016 315.5,-255.2016 514.5,-255.2016 514.5,-233.2016 315.5,-233.2016"/>
<image xlink:href="../../images/foreignKeys.png" width="11px" height="12px" preserveAspectRatio="xMinYMin meet" x="320.5" y="-250.202"/>
<text text-anchor="start" x="335.5" y="-240.3016" font-family="Helvetica,sans-Serif" font-size="11.00" fill="#000000">rasp_server_license_id</text>
<polygon fill="#ffffff" stroke="transparent" points="315.5,-211.2016 315.5,-233.2016 514.5,-233.2016 514.5,-211.2016 315.5,-211.2016"/>
<polygon fill="none" stroke="#000000" points="315.5,-211.2016 315.5,-233.2016 514.5,-233.2016 514.5,-211.2016 315.5,-211.2016"/>
<text text-anchor="start" x="335.5" y="-218.3016" font-family="Helvetica,sans-Serif" font-size="11.00" fill="#000000">environment</text>
<polygon fill="#ffffff" stroke="transparent" points="315.5,-189.2016 315.5,-211.2016 514.5,-211.2016 514.5,-189.2016 315.5,-189.2016"/>
<polygon fill="none" stroke="#000000" points="315.5,-189.2016 315.5,-211.2016 514.5,-211.2016 514.5,-189.2016 315.5,-189.2016"/>
<text text-anchor="start" x="335.5" y="-196.3016" font-family="Helvetica,sans-Serif" font-size="11.00" fill="#000000">dt_creation_time</text>
<polygon fill="#ffffff" stroke="transparent" points="315.5,-167.2016 315.5,-189.2016 514.5,-189.2016 514.5,-167.2016 315.5,-167.2016"/>
<polygon fill="none" stroke="#000000" points="315.5,-167.2016 315.5,-189.2016 514.5,-189.2016 514.5,-167.2016 315.5,-167.2016"/>
<text text-anchor="start" x="335.5" y="-174.3016" font-family="Helvetica,sans-Serif" font-size="11.00" fill="#000000">uuid</text>
<polygon fill="#ffffff" stroke="transparent" points="315.5,-145.2016 315.5,-167.2016 514.5,-167.2016 514.5,-145.2016 315.5,-145.2016"/>
<polygon fill="none" stroke="#000000" points="315.5,-145.2016 315.5,-167.2016 514.5,-167.2016 514.5,-145.2016 315.5,-145.2016"/>
<text text-anchor="start" x="335.5" y="-152.3016" font-family="Helvetica,sans-Serif" font-size="11.00" fill="#000000">agent_language</text>
<polygon fill="#ffffff" stroke="transparent" points="315.5,-123.2016 315.5,-145.2016 514.5,-145.2016 514.5,-123.2016 315.5,-123.2016"/>
<polygon fill="none" stroke="#000000" points="315.5,-123.2016 315.5,-145.2016 514.5,-145.2016 514.5,-123.2016 315.5,-123.2016"/>
<text text-anchor="start" x="335.5" y="-130.3016" font-family="Helvetica,sans-Serif" font-size="11.00" fill="#000000">numeric_hash</text>
<polygon fill="none" stroke="#000000" points="315.5,-104.2016 315.5,-123.2016 514.5,-123.2016 514.5,-104.2016 315.5,-104.2016"/>
<text text-anchor="start" x="318.5" y="-110.3016" font-family="Helvetica,sans-Serif" font-size="11.00" fill="#000000">...</text>
<polygon fill="#ffffff" stroke="transparent" points="315.5,-85.2016 315.5,-104.2016 392.5,-104.2016 392.5,-85.2016 315.5,-85.2016"/>
<polygon fill="none" stroke="#000000" points="315.5,-85.2016 315.5,-104.2016 392.5,-104.2016 392.5,-85.2016 315.5,-85.2016"/>
<text text-anchor="start" x="318.5" y="-91.3016" font-family="Helvetica,sans-Serif" font-size="11.00" fill="#000000">&lt; 2</text>
<polygon fill="#ffffff" stroke="transparent" points="392.5,-85.2016 392.5,-104.2016 458.5,-104.2016 458.5,-85.2016 392.5,-85.2016"/>
<polygon fill="none" stroke="#000000" points="392.5,-85.2016 392.5,-104.2016 458.5,-104.2016 458.5,-85.2016 392.5,-85.2016"/>
<text text-anchor="start" x="423.1105" y="-91.3016" font-family="Helvetica,sans-Serif" font-size="11.00" fill="#000000">0 rows</text>
<polygon fill="#ffffff" stroke="transparent" points="458.5,-85.2016 458.5,-104.2016 514.5,-104.2016 514.5,-85.2016 458.5,-85.2016"/>
<polygon fill="none" stroke="#000000" points="458.5,-85.2016 458.5,-104.2016 514.5,-104.2016 514.5,-85.2016 458.5,-85.2016"/>
<text text-anchor="start" x="489.7904" y="-91.3016" font-family="Helvetica,sans-Serif" font-size="11.00" fill="#000000">21 &gt;</text>
</a>
</g>
</g>
<!-- protect_license_usage&#45;&gt;servers -->
<g id="edge2" class="edge">
<title>protect_license_usage:w&#45;&gt;servers:e</title>
<path fill="none" stroke="#000000" d="M551.2019,-232.138C509.9077,-252.8562 577.8458,-376.2016 514.5,-376.2016"/>
<polygon fill="#000000" stroke="#000000" points="557.6635,-230.811 566.2242,-232.728 561.5818,-230.0063 565.5,-229.2016 565.5,-229.2016 565.5,-229.2016 561.5818,-230.0063 564.7758,-225.6752 557.6635,-230.811 557.6635,-230.811"/>
<ellipse fill="none" stroke="#000000" cx="554.529" cy="-231.4548" rx="3.2" ry="3.2"/>
</g>
<!-- servers&#45;&gt;organizations -->
<g id="edge3" class="edge">
<title>servers:w&#45;&gt;organizations:e</title>
<path fill="none" stroke="#000000" d="M301.2419,-284.4086C272.2109,-264.6279 315.1953,-174.2016 266,-174.2016"/>
<polygon fill="#000000" stroke="#000000" points="307.7689,-286.1449 314.5745,-291.6806 311.6344,-287.1733 315.5,-288.2016 315.5,-288.2016 315.5,-288.2016 311.6344,-287.1733 316.4255,-284.7226 307.7689,-286.1449 307.7689,-286.1449"/>
<ellipse fill="none" stroke="#000000" cx="304.6764" cy="-285.3222" rx="3.2" ry="3.2"/>
</g>
</g>
</svg>
