<?xml version="1.0" encoding="UTF-8" standalone="no"?>
<!DOCTYPE svg PUBLIC "-//W3C//DTD SVG 1.1//EN"
 "http://www.w3.org/Graphics/SVG/1.1/DTD/svg11.dtd">
<!-- Generated by graphviz version 2.40.1 (20161225.0304)
 -->
<!-- Title: oneDegreeRelationshipsDiagram Pages: 1 -->
<svg width="596pt" height="918pt"
 viewBox="0.00 0.00 596.00 917.70" xmlns="http://www.w3.org/2000/svg" xmlns:xlink="http://www.w3.org/1999/xlink">
<g id="graph0" class="graph" transform="scale(1 1) rotate(0) translate(4 913.7)">
<title>oneDegreeRelationshipsDiagram</title>
<polygon fill="#ffffff" stroke="transparent" points="-4,4 -4,-913.7 592,-913.7 592,4 -4,4"/>
<text text-anchor="middle" x="72.4936" y="-7.3" font-family="Helvetica,sans-Serif" font-size="11.00" fill="#000000">Generated by SchemaSpy</text>
<!-- rasp_attack_event_note -->
<g id="node1" class="node">
<title>rasp_attack_event_note</title>
<g id="a_node1"><a xlink:href="../../tables/rasp_attack_event_note.html" xlink:title="rasp_attack_event_note" target="_top">
<polygon fill="#ffffff" stroke="transparent" points="290,-661.7 290,-905.7 580,-905.7 580,-661.7 290,-661.7"/>
<polygon fill="#f5f5f5" stroke="transparent" points="292,-880.7 292,-903.7 578,-903.7 578,-880.7 292,-880.7"/>
<polygon fill="none" stroke="#000000" points="292,-880.7 292,-903.7 578,-903.7 578,-880.7 292,-880.7"/>
<text text-anchor="start" x="297" y="-889.8" font-family="Helvetica,sans-Serif" font-weight="bold" font-size="11.00" fill="#000000">rasp_attack_event_note</text>
<text text-anchor="start" x="543.0437" y="-888.8" font-family="Helvetica,sans-Serif" font-size="11.00" fill="#000000">[table]</text>
<polygon fill="none" stroke="#000000" points="292,-858.7 292,-880.7 467,-880.7 467,-858.7 292,-858.7"/>
<image xlink:href="../../images/primaryKeys.png" width="11px" height="12px" preserveAspectRatio="xMinYMin meet" x="297" y="-875.7"/>
<text text-anchor="start" x="312" y="-865.8" font-family="Helvetica,sans-Serif" font-size="11.00" fill="#000000">rasp_attack_event_note_id</text>
<polygon fill="none" stroke="#000000" points="467,-858.7 467,-880.7 578,-880.7 578,-858.7 467,-858.7"/>
<text text-anchor="start" x="470" y="-866.4" font-family="Helvetica,sans-Serif" font-size="11.00" fill="#000000">bigint unsigned[20]</text>
<polygon fill="#ffffff" stroke="transparent" points="292,-836.7 292,-858.7 467,-858.7 467,-836.7 292,-836.7"/>
<polygon fill="none" stroke="#000000" points="292,-836.7 292,-858.7 467,-858.7 467,-836.7 292,-836.7"/>
<text text-anchor="start" x="312" y="-843.8" font-family="Helvetica,sans-Serif" font-size="11.00" fill="#000000">uuid</text>
<polygon fill="none" stroke="#000000" points="467,-836.7 467,-858.7 578,-858.7 578,-836.7 467,-836.7"/>
<text text-anchor="start" x="470" y="-844.4" font-family="Helvetica,sans-Serif" font-size="11.00" fill="#000000">varchar[255]</text>
<polygon fill="none" stroke="#000000" points="292,-814.7 292,-836.7 467,-836.7 467,-814.7 292,-814.7"/>
<text text-anchor="start" x="312" y="-821.8" font-family="Helvetica,sans-Serif" font-size="11.00" fill="#000000">creation_time</text>
<polygon fill="none" stroke="#000000" points="467,-814.7 467,-836.7 578,-836.7 578,-814.7 467,-814.7"/>
<text text-anchor="start" x="470" y="-822.4" font-family="Helvetica,sans-Serif" font-size="11.00" fill="#000000">datetime[19]</text>
<polygon fill="none" stroke="#000000" points="292,-792.7 292,-814.7 467,-814.7 467,-792.7 292,-792.7"/>
<text text-anchor="start" x="312" y="-799.8" font-family="Helvetica,sans-Serif" font-size="11.00" fill="#000000">last_modification</text>
<polygon fill="none" stroke="#000000" points="467,-792.7 467,-814.7 578,-814.7 578,-792.7 467,-792.7"/>
<text text-anchor="start" x="470" y="-800.4" font-family="Helvetica,sans-Serif" font-size="11.00" fill="#000000">datetime[19]</text>
<polygon fill="none" stroke="#000000" points="292,-770.7 292,-792.7 467,-792.7 467,-770.7 292,-770.7"/>
<text text-anchor="start" x="312" y="-777.8" font-family="Helvetica,sans-Serif" font-size="11.00" fill="#000000">note</text>
<polygon fill="none" stroke="#000000" points="467,-770.7 467,-792.7 578,-792.7 578,-770.7 467,-770.7"/>
<text text-anchor="start" x="469.6115" y="-778.4" font-family="Helvetica,sans-Serif" font-size="11.00" fill="#000000">longtext[2147483647]</text>
<polygon fill="#ffffff" stroke="transparent" points="292,-748.7 292,-770.7 467,-770.7 467,-748.7 292,-748.7"/>
<polygon fill="none" stroke="#000000" points="292,-748.7 292,-770.7 467,-770.7 467,-748.7 292,-748.7"/>
<image xlink:href="../../images/foreignKeys.png" width="11px" height="12px" preserveAspectRatio="xMinYMin meet" x="297" y="-765.7"/>
<text text-anchor="start" x="312" y="-755.8" font-family="Helvetica,sans-Serif" font-size="11.00" fill="#000000">user_creator_id</text>
<polygon fill="none" stroke="#000000" points="467,-748.7 467,-770.7 578,-770.7 578,-748.7 467,-748.7"/>
<text text-anchor="start" x="470" y="-756.4" font-family="Helvetica,sans-Serif" font-size="11.00" fill="#000000">varchar[255]</text>
<polygon fill="#ffffff" stroke="transparent" points="292,-726.7 292,-748.7 467,-748.7 467,-726.7 292,-726.7"/>
<polygon fill="none" stroke="#000000" points="292,-726.7 292,-748.7 467,-748.7 467,-726.7 292,-726.7"/>
<image xlink:href="../../images/foreignKeys.png" width="11px" height="12px" preserveAspectRatio="xMinYMin meet" x="297" y="-743.7"/>
<text text-anchor="start" x="312" y="-733.8" font-family="Helvetica,sans-Serif" font-size="11.00" fill="#000000">user_last_updater_id</text>
<polygon fill="none" stroke="#000000" points="467,-726.7 467,-748.7 578,-748.7 578,-726.7 467,-726.7"/>
<text text-anchor="start" x="470" y="-734.4" font-family="Helvetica,sans-Serif" font-size="11.00" fill="#000000">varchar[255]</text>
<polygon fill="#ffffff" stroke="transparent" points="292,-704.7 292,-726.7 467,-726.7 467,-704.7 292,-704.7"/>
<polygon fill="none" stroke="#000000" points="292,-704.7 292,-726.7 467,-726.7 467,-704.7 292,-704.7"/>
<image xlink:href="../../images/foreignKeys.png" width="11px" height="12px" preserveAspectRatio="xMinYMin meet" x="297" y="-721.7"/>
<text text-anchor="start" x="312" y="-711.8" font-family="Helvetica,sans-Serif" font-size="11.00" fill="#000000">rasp_attack_event_id</text>
<polygon fill="none" stroke="#000000" points="467,-704.7 467,-726.7 578,-726.7 578,-704.7 467,-704.7"/>
<text text-anchor="start" x="470" y="-712.4" font-family="Helvetica,sans-Serif" font-size="11.00" fill="#000000">bigint unsigned[20]</text>
<polygon fill="#ffffff" stroke="transparent" points="292,-682.7 292,-704.7 467,-704.7 467,-682.7 292,-682.7"/>
<polygon fill="none" stroke="#000000" points="292,-682.7 292,-704.7 467,-704.7 467,-682.7 292,-682.7"/>
<image xlink:href="../../images/foreignKeys.png" width="11px" height="12px" preserveAspectRatio="xMinYMin meet" x="297" y="-699.7"/>
<text text-anchor="start" x="312" y="-689.8" font-family="Helvetica,sans-Serif" font-size="11.00" fill="#000000">notifications_messages_id</text>
<polygon fill="none" stroke="#000000" points="467,-682.7 467,-704.7 578,-704.7 578,-682.7 467,-682.7"/>
<text text-anchor="start" x="470" y="-690.4" font-family="Helvetica,sans-Serif" font-size="11.00" fill="#000000">varchar[255]</text>
<polygon fill="#ffffff" stroke="transparent" points="292,-663.7 292,-682.7 371,-682.7 371,-663.7 292,-663.7"/>
<polygon fill="none" stroke="#000000" points="292,-663.7 292,-682.7 371,-682.7 371,-663.7 292,-663.7"/>
<text text-anchor="start" x="295" y="-669.8" font-family="Helvetica,sans-Serif" font-size="11.00" fill="#000000">&lt; 4</text>
<polygon fill="#ffffff" stroke="transparent" points="371,-663.7 371,-682.7 467,-682.7 467,-663.7 371,-663.7"/>
<polygon fill="none" stroke="#000000" points="371,-663.7 371,-682.7 467,-682.7 467,-663.7 371,-663.7"/>
<text text-anchor="start" x="431.6105" y="-669.8" font-family="Helvetica,sans-Serif" font-size="11.00" fill="#000000">0 rows</text>
<polygon fill="#ffffff" stroke="transparent" points="467,-663.7 467,-682.7 578,-682.7 578,-663.7 467,-663.7"/>
<polygon fill="none" stroke="#000000" points="467,-663.7 467,-682.7 578,-682.7 578,-663.7 467,-663.7"/>
<text text-anchor="start" x="559.4053" y="-669.8" font-family="Helvetica,sans-Serif" font-size="11.00" fill="#000000">0 &gt;</text>
<polygon fill="none" stroke="#000000" stroke-width="2" points="291,-662.7 291,-904.7 579,-904.7 579,-662.7 291,-662.7"/>
</a>
</g>
</g>
<!-- notifications_messages -->
<g id="node2" class="node">
<title>notifications_messages</title>
<g id="a_node2"><a xlink:href="../../tables/notifications_messages.html" xlink:title="notifications_messages" target="_top">
<polygon fill="#ffffff" stroke="transparent" points="12,-38.2 12,-363.2 237,-363.2 237,-38.2 12,-38.2"/>
<polygon fill="#f5f5f5" stroke="transparent" points="12.5,-339.7 12.5,-362.7 237.5,-362.7 237.5,-339.7 12.5,-339.7"/>
<polygon fill="none" stroke="#000000" points="12.5,-339.7 12.5,-362.7 237.5,-362.7 237.5,-339.7 12.5,-339.7"/>
<text text-anchor="start" x="17.5" y="-348.8" font-family="Helvetica,sans-Serif" font-weight="bold" font-size="11.00" fill="#000000">notifications_messages</text>
<text text-anchor="start" x="202.5437" y="-347.8" font-family="Helvetica,sans-Serif" font-size="11.00" fill="#000000">[table]</text>
<polygon fill="none" stroke="#000000" points="12.5,-317.7 12.5,-339.7 237.5,-339.7 237.5,-317.7 12.5,-317.7"/>
<image xlink:href="../../images/primaryKeys.png" width="11px" height="12px" preserveAspectRatio="xMinYMin meet" x="17.5" y="-334.7"/>
<text text-anchor="start" x="32.5" y="-324.8" font-family="Helvetica,sans-Serif" font-size="11.00" fill="#000000">id</text>
<polygon fill="#ffffff" stroke="transparent" points="12.5,-295.7 12.5,-317.7 237.5,-317.7 237.5,-295.7 12.5,-295.7"/>
<polygon fill="none" stroke="#000000" points="12.5,-295.7 12.5,-317.7 237.5,-317.7 237.5,-295.7 12.5,-295.7"/>
<image xlink:href="../../images/foreignKeys.png" width="11px" height="12px" preserveAspectRatio="xMinYMin meet" x="17.5" y="-312.7"/>
<text text-anchor="start" x="32.5" y="-302.8" font-family="Helvetica,sans-Serif" font-size="11.00" fill="#000000">organizations_id</text>
<polygon fill="#ffffff" stroke="transparent" points="12.5,-273.7 12.5,-295.7 237.5,-295.7 237.5,-273.7 12.5,-273.7"/>
<polygon fill="none" stroke="#000000" points="12.5,-273.7 12.5,-295.7 237.5,-295.7 237.5,-273.7 12.5,-273.7"/>
<image xlink:href="../../images/foreignKeys.png" width="11px" height="12px" preserveAspectRatio="xMinYMin meet" x="17.5" y="-290.7"/>
<text text-anchor="start" x="32.5" y="-280.8" font-family="Helvetica,sans-Serif" font-size="11.00" fill="#000000">applications_id</text>
<polygon fill="#ffffff" stroke="transparent" points="12.5,-251.7 12.5,-273.7 237.5,-273.7 237.5,-251.7 12.5,-251.7"/>
<polygon fill="none" stroke="#000000" points="12.5,-251.7 12.5,-273.7 237.5,-273.7 237.5,-251.7 12.5,-251.7"/>
<text text-anchor="start" x="32.5" y="-258.8" font-family="Helvetica,sans-Serif" font-size="11.00" fill="#000000">traces_id</text>
<polygon fill="#ffffff" stroke="transparent" points="12.5,-229.7 12.5,-251.7 237.5,-251.7 237.5,-229.7 12.5,-229.7"/>
<polygon fill="none" stroke="#000000" points="12.5,-229.7 12.5,-251.7 237.5,-251.7 237.5,-229.7 12.5,-229.7"/>
<image xlink:href="../../images/foreignKeys.png" width="11px" height="12px" preserveAspectRatio="xMinYMin meet" x="17.5" y="-246.7"/>
<text text-anchor="start" x="32.5" y="-236.8" font-family="Helvetica,sans-Serif" font-size="11.00" fill="#000000">app_libraries_id</text>
<polygon fill="#ffffff" stroke="transparent" points="12.5,-207.7 12.5,-229.7 237.5,-229.7 237.5,-207.7 12.5,-207.7"/>
<polygon fill="none" stroke="#000000" points="12.5,-207.7 12.5,-229.7 237.5,-229.7 237.5,-207.7 12.5,-207.7"/>
<image xlink:href="../../images/foreignKeys.png" width="11px" height="12px" preserveAspectRatio="xMinYMin meet" x="17.5" y="-224.7"/>
<text text-anchor="start" x="32.5" y="-214.8" font-family="Helvetica,sans-Serif" font-size="11.00" fill="#000000">rasp_attacks_id</text>
<polygon fill="#ffffff" stroke="transparent" points="12.5,-185.7 12.5,-207.7 237.5,-207.7 237.5,-185.7 12.5,-185.7"/>
<polygon fill="none" stroke="#000000" points="12.5,-185.7 12.5,-207.7 237.5,-207.7 237.5,-185.7 12.5,-185.7"/>
<image xlink:href="../../images/foreignKeys.png" width="11px" height="12px" preserveAspectRatio="xMinYMin meet" x="17.5" y="-202.7"/>
<text text-anchor="start" x="32.5" y="-192.8" font-family="Helvetica,sans-Serif" font-size="11.00" fill="#000000">servers_id</text>
<polygon fill="#ffffff" stroke="transparent" points="12.5,-163.7 12.5,-185.7 237.5,-185.7 237.5,-163.7 12.5,-163.7"/>
<polygon fill="none" stroke="#000000" points="12.5,-163.7 12.5,-185.7 237.5,-185.7 237.5,-163.7 12.5,-163.7"/>
<text text-anchor="start" x="32.5" y="-170.8" font-family="Helvetica,sans-Serif" font-size="11.00" fill="#000000">traces_notes_id</text>
<polygon fill="#ffffff" stroke="transparent" points="12.5,-141.7 12.5,-163.7 237.5,-163.7 237.5,-141.7 12.5,-141.7"/>
<polygon fill="none" stroke="#000000" points="12.5,-141.7 12.5,-163.7 237.5,-163.7 237.5,-141.7 12.5,-141.7"/>
<image xlink:href="../../images/foreignKeys.png" width="11px" height="12px" preserveAspectRatio="xMinYMin meet" x="17.5" y="-158.7"/>
<text text-anchor="start" x="32.5" y="-148.8" font-family="Helvetica,sans-Serif" font-size="11.00" fill="#000000">organization_remediation_policy_id</text>
<polygon fill="#ffffff" stroke="transparent" points="12.5,-119.7 12.5,-141.7 237.5,-141.7 237.5,-119.7 12.5,-119.7"/>
<polygon fill="none" stroke="#000000" points="12.5,-119.7 12.5,-141.7 237.5,-141.7 237.5,-119.7 12.5,-119.7"/>
<image xlink:href="../../images/foreignKeys.png" width="11px" height="12px" preserveAspectRatio="xMinYMin meet" x="17.5" y="-136.7"/>
<text text-anchor="start" x="32.5" y="-126.8" font-family="Helvetica,sans-Serif" font-size="11.00" fill="#000000">app_compliance_policy_id</text>
<polygon fill="#ffffff" stroke="transparent" points="12.5,-97.7 12.5,-119.7 237.5,-119.7 237.5,-97.7 12.5,-97.7"/>
<polygon fill="none" stroke="#000000" points="12.5,-97.7 12.5,-119.7 237.5,-119.7 237.5,-97.7 12.5,-97.7"/>
<image xlink:href="../../images/foreignKeys.png" width="11px" height="12px" preserveAspectRatio="xMinYMin meet" x="17.5" y="-114.7"/>
<text text-anchor="start" x="32.5" y="-104.8" font-family="Helvetica,sans-Serif" font-size="11.00" fill="#000000">vulnerability_instances_id</text>
<polygon fill="#ffffff" stroke="transparent" points="12.5,-75.7 12.5,-97.7 237.5,-97.7 237.5,-75.7 12.5,-75.7"/>
<polygon fill="none" stroke="#000000" points="12.5,-75.7 12.5,-97.7 237.5,-97.7 237.5,-75.7 12.5,-75.7"/>
<image xlink:href="../../images/foreignKeys.png" width="11px" height="12px" preserveAspectRatio="xMinYMin meet" x="17.5" y="-92.7"/>
<text text-anchor="start" x="32.5" y="-82.8" font-family="Helvetica,sans-Serif" font-size="11.00" fill="#000000">vulnerability_notes_id</text>
<polygon fill="none" stroke="#000000" points="12.5,-56.7 12.5,-75.7 237.5,-75.7 237.5,-56.7 12.5,-56.7"/>
<text text-anchor="start" x="15.5" y="-62.8" font-family="Helvetica,sans-Serif" font-size="11.00" fill="#000000">...</text>
<polygon fill="#ffffff" stroke="transparent" points="12.5,-37.7 12.5,-56.7 105.5,-56.7 105.5,-37.7 12.5,-37.7"/>
<polygon fill="none" stroke="#000000" points="12.5,-37.7 12.5,-56.7 105.5,-56.7 105.5,-37.7 12.5,-37.7"/>
<text text-anchor="start" x="15.5" y="-43.8" font-family="Helvetica,sans-Serif" font-size="11.00" fill="#000000">&lt; 9</text>
<polygon fill="#ffffff" stroke="transparent" points="105.5,-37.7 105.5,-56.7 179.5,-56.7 179.5,-37.7 105.5,-37.7"/>
<polygon fill="none" stroke="#000000" points="105.5,-37.7 105.5,-56.7 179.5,-56.7 179.5,-37.7 105.5,-37.7"/>
<text text-anchor="start" x="144.1105" y="-43.8" font-family="Helvetica,sans-Serif" font-size="11.00" fill="#000000">0 rows</text>
<polygon fill="#ffffff" stroke="transparent" points="179.5,-37.7 179.5,-56.7 237.5,-56.7 237.5,-37.7 179.5,-37.7"/>
<polygon fill="none" stroke="#000000" points="179.5,-37.7 179.5,-56.7 237.5,-56.7 237.5,-37.7 179.5,-37.7"/>
<text text-anchor="start" x="218.9053" y="-43.8" font-family="Helvetica,sans-Serif" font-size="11.00" fill="#000000">4 &gt;</text>
</a>
</g>
</g>
<!-- rasp_attack_event_note&#45;&gt;notifications_messages -->
<g id="edge1" class="edge">
<title>rasp_attack_event_note:w&#45;&gt;notifications_messages:e</title>
<path fill="none" stroke="#000000" d="M278.0837,-689.0851C223.6908,-646.833 314.0643,-328.7 237.5,-328.7"/>
<polygon fill="#000000" stroke="#000000" points="284.4066,-691.1818 290.8668,-697.117 288.2033,-692.4409 292,-693.7 292,-693.7 292,-693.7 288.2033,-692.4409 293.1332,-690.283 284.4066,-691.1818 284.4066,-691.1818"/>
<ellipse fill="none" stroke="#000000" cx="281.3693" cy="-690.1746" rx="3.2" ry="3.2"/>
</g>
<!-- rasp_attack_event -->
<g id="node3" class="node">
<title>rasp_attack_event</title>
<g id="a_node3"><a xlink:href="../../tables/rasp_attack_event.html" xlink:title="rasp_attack_event" target="_top">
<polygon fill="#ffffff" stroke="transparent" points="8,-384.2 8,-687.2 241,-687.2 241,-384.2 8,-384.2"/>
<polygon fill="#f5f5f5" stroke="transparent" points="8.5,-663.7 8.5,-686.7 241.5,-686.7 241.5,-663.7 8.5,-663.7"/>
<polygon fill="none" stroke="#000000" points="8.5,-663.7 8.5,-686.7 241.5,-686.7 241.5,-663.7 8.5,-663.7"/>
<text text-anchor="start" x="13.5" y="-672.8" font-family="Helvetica,sans-Serif" font-weight="bold" font-size="11.00" fill="#000000">rasp_attack_event</text>
<text text-anchor="start" x="206.5437" y="-671.8" font-family="Helvetica,sans-Serif" font-size="11.00" fill="#000000">[table]</text>
<polygon fill="none" stroke="#000000" points="8.5,-641.7 8.5,-663.7 241.5,-663.7 241.5,-641.7 8.5,-641.7"/>
<image xlink:href="../../images/primaryKeys.png" width="11px" height="12px" preserveAspectRatio="xMinYMin meet" x="13.5" y="-658.7"/>
<text text-anchor="start" x="28.5" y="-648.8" font-family="Helvetica,sans-Serif" font-size="11.00" fill="#000000">rasp_attack_event_id</text>
<polygon fill="#ffffff" stroke="transparent" points="8.5,-619.7 8.5,-641.7 241.5,-641.7 241.5,-619.7 8.5,-619.7"/>
<polygon fill="none" stroke="#000000" points="8.5,-619.7 8.5,-641.7 241.5,-641.7 241.5,-619.7 8.5,-619.7"/>
<image xlink:href="../../images/foreignKeys.png" width="11px" height="12px" preserveAspectRatio="xMinYMin meet" x="13.5" y="-636.7"/>
<text text-anchor="start" x="28.5" y="-626.8" font-family="Helvetica,sans-Serif" font-size="11.00" fill="#000000">rasp_attacks_id</text>
<polygon fill="#ffffff" stroke="transparent" points="8.5,-597.7 8.5,-619.7 241.5,-619.7 241.5,-597.7 8.5,-597.7"/>
<polygon fill="none" stroke="#000000" points="8.5,-597.7 8.5,-619.7 241.5,-619.7 241.5,-597.7 8.5,-597.7"/>
<image xlink:href="../../images/foreignKeys.png" width="11px" height="12px" preserveAspectRatio="xMinYMin meet" x="13.5" y="-614.7"/>
<text text-anchor="start" x="28.5" y="-604.8" font-family="Helvetica,sans-Serif" font-size="11.00" fill="#000000">rasp_attacks_applications_id</text>
<polygon fill="#ffffff" stroke="transparent" points="8.5,-575.7 8.5,-597.7 241.5,-597.7 241.5,-575.7 8.5,-575.7"/>
<polygon fill="none" stroke="#000000" points="8.5,-575.7 8.5,-597.7 241.5,-597.7 241.5,-575.7 8.5,-575.7"/>
<text text-anchor="start" x="28.5" y="-582.8" font-family="Helvetica,sans-Serif" font-size="11.00" fill="#000000">status</text>
<polygon fill="#ffffff" stroke="transparent" points="8.5,-553.7 8.5,-575.7 241.5,-575.7 241.5,-553.7 8.5,-553.7"/>
<polygon fill="none" stroke="#000000" points="8.5,-553.7 8.5,-575.7 241.5,-575.7 241.5,-553.7 8.5,-553.7"/>
<text text-anchor="start" x="28.5" y="-560.8" font-family="Helvetica,sans-Serif" font-size="11.00" fill="#000000">timestamp_server</text>
<polygon fill="#ffffff" stroke="transparent" points="8.5,-531.7 8.5,-553.7 241.5,-553.7 241.5,-531.7 8.5,-531.7"/>
<polygon fill="none" stroke="#000000" points="8.5,-531.7 8.5,-553.7 241.5,-553.7 241.5,-531.7 8.5,-531.7"/>
<image xlink:href="../../images/foreignKeys.png" width="11px" height="12px" preserveAspectRatio="xMinYMin meet" x="13.5" y="-548.7"/>
<text text-anchor="start" x="28.5" y="-538.8" font-family="Helvetica,sans-Serif" font-size="11.00" fill="#000000">applications_id</text>
<polygon fill="#ffffff" stroke="transparent" points="8.5,-509.7 8.5,-531.7 241.5,-531.7 241.5,-509.7 8.5,-509.7"/>
<polygon fill="none" stroke="#000000" points="8.5,-509.7 8.5,-531.7 241.5,-531.7 241.5,-509.7 8.5,-509.7"/>
<image xlink:href="../../images/foreignKeys.png" width="11px" height="12px" preserveAspectRatio="xMinYMin meet" x="13.5" y="-526.7"/>
<text text-anchor="start" x="28.5" y="-516.8" font-family="Helvetica,sans-Serif" font-size="11.00" fill="#000000">servers_id</text>
<polygon fill="#ffffff" stroke="transparent" points="8.5,-487.7 8.5,-509.7 241.5,-509.7 241.5,-487.7 8.5,-487.7"/>
<polygon fill="none" stroke="#000000" points="8.5,-487.7 8.5,-509.7 241.5,-509.7 241.5,-487.7 8.5,-487.7"/>
<text text-anchor="start" x="28.5" y="-494.8" font-family="Helvetica,sans-Serif" font-size="11.00" fill="#000000">uuid</text>
<polygon fill="#ffffff" stroke="transparent" points="8.5,-465.7 8.5,-487.7 241.5,-487.7 241.5,-465.7 8.5,-465.7"/>
<polygon fill="none" stroke="#000000" points="8.5,-465.7 8.5,-487.7 241.5,-487.7 241.5,-465.7 8.5,-465.7"/>
<image xlink:href="../../images/foreignKeys.png" width="11px" height="12px" preserveAspectRatio="xMinYMin meet" x="13.5" y="-482.7"/>
<text text-anchor="start" x="28.5" y="-472.8" font-family="Helvetica,sans-Serif" font-size="11.00" fill="#000000">rasp_protection_rules_exceptions_id</text>
<polygon fill="#ffffff" stroke="transparent" points="8.5,-443.7 8.5,-465.7 241.5,-465.7 241.5,-443.7 8.5,-443.7"/>
<polygon fill="none" stroke="#000000" points="8.5,-443.7 8.5,-465.7 241.5,-465.7 241.5,-443.7 8.5,-443.7"/>
<image xlink:href="../../images/foreignKeys.png" width="11px" height="12px" preserveAspectRatio="xMinYMin meet" x="13.5" y="-460.7"/>
<text text-anchor="start" x="28.5" y="-450.8" font-family="Helvetica,sans-Serif" font-size="11.00" fill="#000000">rasp_messages_id</text>
<polygon fill="#ffffff" stroke="transparent" points="8.5,-421.7 8.5,-443.7 241.5,-443.7 241.5,-421.7 8.5,-421.7"/>
<polygon fill="none" stroke="#000000" points="8.5,-421.7 8.5,-443.7 241.5,-443.7 241.5,-421.7 8.5,-421.7"/>
<image xlink:href="../../images/foreignKeys.png" width="11px" height="12px" preserveAspectRatio="xMinYMin meet" x="13.5" y="-438.7"/>
<text text-anchor="start" x="28.5" y="-428.8" font-family="Helvetica,sans-Serif" font-size="11.00" fill="#000000">rasp_protection_rules_id</text>
<polygon fill="none" stroke="#000000" points="8.5,-402.7 8.5,-421.7 241.5,-421.7 241.5,-402.7 8.5,-402.7"/>
<text text-anchor="start" x="11.5" y="-408.8" font-family="Helvetica,sans-Serif" font-size="11.00" fill="#000000">...</text>
<polygon fill="#ffffff" stroke="transparent" points="8.5,-383.7 8.5,-402.7 105.5,-402.7 105.5,-383.7 8.5,-383.7"/>
<polygon fill="none" stroke="#000000" points="8.5,-383.7 8.5,-402.7 105.5,-402.7 105.5,-383.7 8.5,-383.7"/>
<text text-anchor="start" x="11.5" y="-389.8" font-family="Helvetica,sans-Serif" font-size="11.00" fill="#000000">&lt; 7</text>
<polygon fill="#ffffff" stroke="transparent" points="105.5,-383.7 105.5,-402.7 181.5,-402.7 181.5,-383.7 105.5,-383.7"/>
<polygon fill="none" stroke="#000000" points="105.5,-383.7 105.5,-402.7 181.5,-402.7 181.5,-383.7 105.5,-383.7"/>
<text text-anchor="start" x="146.1105" y="-389.8" font-family="Helvetica,sans-Serif" font-size="11.00" fill="#000000">0 rows</text>
<polygon fill="#ffffff" stroke="transparent" points="181.5,-383.7 181.5,-402.7 241.5,-402.7 241.5,-383.7 181.5,-383.7"/>
<polygon fill="none" stroke="#000000" points="181.5,-383.7 181.5,-402.7 241.5,-402.7 241.5,-383.7 181.5,-383.7"/>
<text text-anchor="start" x="222.9053" y="-389.8" font-family="Helvetica,sans-Serif" font-size="11.00" fill="#000000">5 &gt;</text>
</a>
</g>
</g>
<!-- rasp_attack_event_note&#45;&gt;rasp_attack_event -->
<g id="edge2" class="edge">
<title>rasp_attack_event_note:w&#45;&gt;rasp_attack_event:e</title>
<path fill="none" stroke="#000000" d="M277.9816,-710.7565C261.738,-695.9048 271.2175,-652.7 241.5,-652.7"/>
<polygon fill="#000000" stroke="#000000" points="284.4554,-713.0394 290.8027,-719.0951 288.2277,-714.3697 292,-715.7 292,-715.7 292,-715.7 288.2277,-714.3697 293.1973,-712.3049 284.4554,-713.0394 284.4554,-713.0394"/>
<ellipse fill="none" stroke="#000000" cx="281.4375" cy="-711.9752" rx="3.2" ry="3.2"/>
</g>
<!-- users -->
<g id="node4" class="node">
<title>users</title>
<g id="a_node4"><a xlink:href="../../tables/users.html" xlink:title="users" target="_top">
<polygon fill="#ffffff" stroke="transparent" points="12,-708.2 12,-857.2 237,-857.2 237,-708.2 12,-708.2"/>
<polygon fill="#f5f5f5" stroke="transparent" points="12.5,-833.7 12.5,-856.7 237.5,-856.7 237.5,-833.7 12.5,-833.7"/>
<polygon fill="none" stroke="#000000" points="12.5,-833.7 12.5,-856.7 237.5,-856.7 237.5,-833.7 12.5,-833.7"/>
<text text-anchor="start" x="17.5" y="-842.8" font-family="Helvetica,sans-Serif" font-weight="bold" font-size="11.00" fill="#000000">users</text>
<text text-anchor="start" x="202.5437" y="-841.8" font-family="Helvetica,sans-Serif" font-size="11.00" fill="#000000">[table]</text>
<polygon fill="none" stroke="#000000" points="12.5,-811.7 12.5,-833.7 237.5,-833.7 237.5,-811.7 12.5,-811.7"/>
<image xlink:href="../../images/primaryKeys.png" width="11px" height="12px" preserveAspectRatio="xMinYMin meet" x="17.5" y="-828.7"/>
<text text-anchor="start" x="32.5" y="-818.8" font-family="Helvetica,sans-Serif" font-size="11.00" fill="#000000">user_id</text>
<polygon fill="#ffffff" stroke="transparent" points="12.5,-789.7 12.5,-811.7 237.5,-811.7 237.5,-789.7 12.5,-789.7"/>
<polygon fill="none" stroke="#000000" points="12.5,-789.7 12.5,-811.7 237.5,-811.7 237.5,-789.7 12.5,-789.7"/>
<text text-anchor="start" x="32.5" y="-796.8" font-family="Helvetica,sans-Serif" font-size="11.00" fill="#000000">user_uid</text>
<polygon fill="#ffffff" stroke="transparent" points="12.5,-767.7 12.5,-789.7 237.5,-789.7 237.5,-767.7 12.5,-767.7"/>
<polygon fill="none" stroke="#000000" points="12.5,-767.7 12.5,-789.7 237.5,-789.7 237.5,-767.7 12.5,-767.7"/>
<image xlink:href="../../images/foreignKeys.png" width="11px" height="12px" preserveAspectRatio="xMinYMin meet" x="17.5" y="-784.7"/>
<text text-anchor="start" x="32.5" y="-774.8" font-family="Helvetica,sans-Serif" font-size="11.00" fill="#000000">default_org</text>
<polygon fill="#ffffff" stroke="transparent" points="12.5,-745.7 12.5,-767.7 237.5,-767.7 237.5,-745.7 12.5,-745.7"/>
<polygon fill="none" stroke="#000000" points="12.5,-745.7 12.5,-767.7 237.5,-767.7 237.5,-745.7 12.5,-745.7"/>
<text text-anchor="start" x="32.5" y="-752.8" font-family="Helvetica,sans-Serif" font-size="11.00" fill="#000000">type</text>
<polygon fill="none" stroke="#000000" points="12.5,-726.7 12.5,-745.7 237.5,-745.7 237.5,-726.7 12.5,-726.7"/>
<text text-anchor="start" x="15.5" y="-732.8" font-family="Helvetica,sans-Serif" font-size="11.00" fill="#000000">...</text>
<polygon fill="#ffffff" stroke="transparent" points="12.5,-707.7 12.5,-726.7 102.5,-726.7 102.5,-707.7 12.5,-707.7"/>
<polygon fill="none" stroke="#000000" points="12.5,-707.7 12.5,-726.7 102.5,-726.7 102.5,-707.7 12.5,-707.7"/>
<text text-anchor="start" x="15.5" y="-713.8" font-family="Helvetica,sans-Serif" font-size="11.00" fill="#000000">&lt; 1</text>
<polygon fill="#ffffff" stroke="transparent" points="102.5,-707.7 102.5,-726.7 175.5,-726.7 175.5,-707.7 102.5,-707.7"/>
<polygon fill="none" stroke="#000000" points="102.5,-707.7 102.5,-726.7 175.5,-726.7 175.5,-707.7 102.5,-707.7"/>
<text text-anchor="start" x="140.1105" y="-713.8" font-family="Helvetica,sans-Serif" font-size="11.00" fill="#000000">6 rows</text>
<polygon fill="#ffffff" stroke="transparent" points="175.5,-707.7 175.5,-726.7 237.5,-726.7 237.5,-707.7 175.5,-707.7"/>
<polygon fill="none" stroke="#000000" points="175.5,-707.7 175.5,-726.7 237.5,-726.7 237.5,-707.7 175.5,-707.7"/>
<text text-anchor="start" x="212.7904" y="-713.8" font-family="Helvetica,sans-Serif" font-size="11.00" fill="#000000">33 &gt;</text>
</a>
</g>
</g>
<!-- rasp_attack_event_note&#45;&gt;users -->
<g id="edge3" class="edge">
<title>rasp_attack_event_note:w&#45;&gt;users:e</title>
<path fill="none" stroke="#000000" d="M277.846,-764.2308C259.8678,-778.6761 268.4491,-822.7 237.5,-822.7"/>
<polygon fill="#000000" stroke="#000000" points="284.3808,-762.139 293.0975,-763.1286 288.1904,-760.9195 292,-759.7 292,-759.7 292,-759.7 288.1904,-760.9195 290.9025,-756.2714 284.3808,-762.139 284.3808,-762.139"/>
<ellipse fill="none" stroke="#000000" cx="281.3332" cy="-763.1146" rx="3.2" ry="3.2"/>
</g>
<!-- rasp_attack_event_note&#45;&gt;users -->
<g id="edge4" class="edge">
<title>rasp_attack_event_note:w&#45;&gt;users:e</title>
<path fill="none" stroke="#000000" d="M277.9844,-741.7997C255.0743,-758.7788 276.4161,-822.7 237.5,-822.7"/>
<polygon fill="#000000" stroke="#000000" points="284.3217,-739.946 293.0107,-741.1552 288.1609,-738.823 292,-737.7 292,-737.7 292,-737.7 288.1609,-738.823 290.9893,-734.2448 284.3217,-739.946 284.3217,-739.946"/>
<ellipse fill="none" stroke="#000000" cx="281.2504" cy="-740.8444" rx="3.2" ry="3.2"/>
</g>
</g>
</svg>
