digraph "twoDegreesRelationshipsDiagram" {
  graph [
    rankdir="RL"
    bgcolor="#ffffff"
    label="\nGenerated by SchemaSpy"
    labeljust="l"
    nodesep="0.18"
    ranksep="0.46"
    fontname="Helvetica"
    fontsize="11"
    ration="compress"
  ];
  node [
    fontname="Helvetica"
    fontsize="11"
    shape="plaintext"
  ];
  edge [
    arrowsize="0.8"
  ];
  "ac_groups_users":"elipses":w -> "users":"user_id":e [arrowhead=none dir=back arrowtail=crowodot];
  "alert_recipients":"elipses":w -> "users":"user_id":e [arrowhead=none dir=back arrowtail=crowodot];
  "applications":"elipses":w -> "organizations":"elipses":e [arrowhead=none dir=back arrowtail=crowodot];
  "compliance_digest_last_sent":"elipses":w -> "organizations":"elipses":e [arrowhead=none dir=back arrowtail=crowodot];
  "compliance_digest_last_sent":"elipses":w -> "users":"user_id":e [arrowhead=none dir=back arrowtail=crowodot];
  "library_digest_last_sent":"elipses":w -> "organizations":"elipses":e [arrowhead=none dir=back arrowtail=crowodot];
  "library_digest_last_sent":"elipses":w -> "users":"user_id":e [arrowhead=none dir=back arrowtail=crowodot];
  "login_activity":"elipses":w -> "users":"user_id":e [arrowhead=none dir=back arrowtail=crowodot];
  "message":"elipses":w -> "users":"user_id":e [arrowhead=none dir=back arrowtail=crowodot];
  "message_user_inbox":"elipses":w -> "message":"elipses":e [arrowhead=none dir=back arrowtail=crowodot];
  "message_user_inbox":"elipses":w -> "users":"user_id":e [arrowhead=none dir=back arrowtail=crowodot];
  "notifications_user_activity_digest":"elipses":w -> "organizations":"elipses":e [arrowhead=none dir=back arrowtail=crowodot];
  "notifications_user_activity_digest":"elipses":w -> "users":"user_id":e [arrowhead=none dir=back arrowtail=crowodot];
  "notifications_user_agent_update":"elipses":w -> "users":"user_id":e [arrowhead=none dir=back arrowtail=crowodot];
  "notifications_user_app_compliance_policy":"elipses":w -> "users":"user_id":e [arrowhead=none dir=back arrowtail=crowodot];
  "notifications_user_messages":"elipses":w -> "users":"user_id":e [arrowhead=none dir=back arrowtail=crowodot];
  "notifications_user_remediation_policy":"elipses":w -> "applications":"elipses":e [arrowhead=none dir=back arrowtail=crowodot];
  "notifications_user_remediation_policy":"elipses":w -> "users":"user_id":e [arrowhead=none dir=back arrowtail=crowodot];
  "notifications_user_settings":"elipses":w -> "organizations":"elipses":e [arrowhead=none dir=back arrowtail=crowodot];
  "notifications_user_settings":"elipses":w -> "users":"user_id":e [arrowhead=none dir=back arrowtail=crowodot];
  "password_history":"elipses":w -> "users":"user_id":e [arrowhead=none dir=back arrowtail=crowodot];
  "rasp_alert_attacks_recipients":"elipses":w -> "users":"user_id":e [arrowhead=none dir=back arrowtail=crowodot];
  "rasp_attack_event":"applications_id":w -> "applications":"elipses":e [arrowhead=none dir=back arrowtail=crowodot];
  "rasp_attack_event":"rasp_attacks_applications_id":w -> "rasp_attacks_applications":"elipses":e [arrowhead=none dir=back arrowtail=crowodot];
  "rasp_attack_event":"rasp_attacks_id":w -> "rasp_attacks":"elipses":e [arrowhead=none dir=back arrowtail=crowodot];
  "rasp_attack_event":"rasp_messages_id":w -> "rasp_messages":"elipses":e [arrowhead=none dir=back arrowtail=crowodot];
  "rasp_attack_event":"rasp_protection_rules_exceptions_id":w -> "rules_exclusions":"elipses":e [arrowhead=none dir=back arrowtail=crowodot];
  "rasp_attack_event":"rasp_protection_rules_id":w -> "rasp_protection_rules":"elipses":e [arrowhead=none dir=back arrowtail=crowodot];
  "rasp_attack_event":"servers_id":w -> "servers":"elipses":e [arrowhead=none dir=back arrowtail=crowodot];
  "rasp_attack_event_count":"elipses":w -> "rasp_attack_event":"rasp_attack_event_id":e [arrowhead=none dir=back arrowtail=crowodot];
  "rasp_attack_event_detail":"elipses":w -> "rasp_attack_event":"rasp_attack_event_id":e [arrowhead=none dir=back arrowtail=teeodot];
  "rasp_attack_event_note":"elipses":w -> "rasp_attack_event":"rasp_attack_event_id":e [arrowhead=none dir=back arrowtail=crowodot];
  "rasp_attack_event_note":"elipses":w -> "users":"user_id":e [arrowhead=none dir=back arrowtail=crowodot];
  "rasp_attack_event_note":"elipses":w -> "users":"user_id":e [arrowhead=none dir=back arrowtail=crowodot];
  "rasp_attack_event_user_viewed":"rasp_attack_event_id":w -> "rasp_attack_event":"rasp_attack_event_id":e [arrowhead=none dir=back arrowtail=crowodot];
  "rasp_attack_event_user_viewed":"users_id":w -> "users":"user_id":e [arrowhead=none dir=back arrowtail=crowodot];
  "rasp_attacks":"elipses":w -> "organizations":"elipses":e [arrowhead=none dir=back arrowtail=crowodot];
  "rasp_attacks_applications":"elipses":w -> "applications":"elipses":e [arrowhead=none dir=back arrowtail=crowodot];
  "rasp_attacks_applications":"elipses":w -> "rasp_attacks":"elipses":e [arrowhead=none dir=back arrowtail=crowodot];
  "rasp_attacks_notes_viewed":"elipses":w -> "rasp_attacks":"elipses":e [arrowhead=none dir=back arrowtail=crowodot];
  "rasp_attacks_notes_viewed":"elipses":w -> "users":"user_id":e [arrowhead=none dir=back arrowtail=crowodot];
  "rasp_messages":"elipses":w -> "applications":"elipses":e [arrowhead=none dir=back arrowtail=crowodot];
  "rasp_messages":"elipses":w -> "servers":"elipses":e [arrowhead=none dir=back arrowtail=crowodot];
  "rasp_users_organizations":"elipses":w -> "organizations":"elipses":e [arrowhead=none dir=back arrowtail=crowodot];
  "rasp_users_organizations":"elipses":w -> "users":"user_id":e [arrowhead=none dir=back arrowtail=crowodot];
  "remediation_digest_last_sent":"elipses":w -> "organizations":"elipses":e [arrowhead=none dir=back arrowtail=crowodot];
  "remediation_digest_last_sent":"elipses":w -> "users":"user_id":e [arrowhead=none dir=back arrowtail=crowodot];
  "rules_exclusions":"elipses":w -> "applications":"elipses":e [arrowhead=none dir=back arrowtail=crowodot];
  "servers":"elipses":w -> "organizations":"elipses":e [arrowhead=none dir=back arrowtail=crowodot];
  "suggested_security_controls":"elipses":w -> "organizations":"elipses":e [arrowhead=none dir=back arrowtail=crowodot];
  "suggested_security_controls":"elipses":w -> "users":"user_id":e [arrowhead=none dir=back arrowtail=crowodot];
  "tags_rasp_attack_event":"elipses":w -> "rasp_attack_event":"rasp_attack_event_id":e [arrowhead=none dir=back arrowtail=crowodot];
  "tsv_users_trusted_devices":"elipses":w -> "users":"user_id":e [arrowhead=none dir=back arrowtail=crowodot];
  "user_avatar":"elipses":w -> "users":"user_id":e [arrowhead=none dir=back arrowtail=crowodot];
  "user_onboarding_tutorial_viewed":"elipses":w -> "organizations":"elipses":e [arrowhead=none dir=back arrowtail=crowodot];
  "user_onboarding_tutorial_viewed":"elipses":w -> "users":"user_id":e [arrowhead=none dir=back arrowtail=crowodot];
  "user_preferences":"elipses":w -> "users":"user_id":e [arrowhead=none dir=back arrowtail=crowodot];
  "users":"default_org":w -> "organizations":"elipses":e [arrowhead=none dir=back arrowtail=crowodot];
  "users_organizations":"elipses":w -> "organizations":"elipses":e [arrowhead=none dir=back arrowtail=crowodot];
  "users_organizations":"elipses":w -> "users":"user_id":e [arrowhead=none dir=back arrowtail=crowodot];
  "vuln_trend_views":"elipses":w -> "users":"user_id":e [arrowhead=none dir=back arrowtail=crowodot];
  "vulnerability_approval_workflow":"elipses":w -> "users":"user_id":e [arrowhead=none dir=back arrowtail=crowodot];
  "vulnerability_bugtracker_ticket":"elipses":w -> "users":"user_id":e [arrowhead=none dir=back arrowtail=crowodot];
  "vulnerability_note":"elipses":w -> "users":"user_id":e [arrowhead=none dir=back arrowtail=crowodot];
  "vulnerability_note":"elipses":w -> "users":"user_id":e [arrowhead=none dir=back arrowtail=crowodot];
  "vulnerability_note_viewed":"elipses":w -> "users":"user_id":e [arrowhead=none dir=back arrowtail=crowodot];
  "ac_groups_users" [
   label=<
    <TABLE BORDER="0" CELLBORDER="1" CELLSPACING="0" BGCOLOR="#ffffff">
      <TR><TD COLSPAN="3"  BGCOLOR="#f5f5f5"><TABLE BORDER="0" CELLSPACING="0"><TR><TD ALIGN="LEFT"><B>ac_groups_users</B></TD><TD ALIGN="RIGHT">[table]</TD></TR></TABLE></TD></TR>
      <TR><TD PORT="elipses" COLSPAN="3" ALIGN="LEFT">...</TD></TR>
      <TR><TD ALIGN="LEFT" BGCOLOR="#ffffff">&lt; 2</TD><TD ALIGN="RIGHT" BGCOLOR="#ffffff">5 rows</TD><TD ALIGN="RIGHT" BGCOLOR="#ffffff">  </TD></TR>
    </TABLE>>
    URL="../../tables/ac_groups_users.html"
    target="_top"
    tooltip="ac_groups_users"
  ];
  "alert_recipients" [
   label=<
    <TABLE BORDER="0" CELLBORDER="1" CELLSPACING="0" BGCOLOR="#ffffff">
      <TR><TD COLSPAN="3"  BGCOLOR="#f5f5f5"><TABLE BORDER="0" CELLSPACING="0"><TR><TD ALIGN="LEFT"><B>alert_recipients</B></TD><TD ALIGN="RIGHT">[table]</TD></TR></TABLE></TD></TR>
      <TR><TD PORT="elipses" COLSPAN="3" ALIGN="LEFT">...</TD></TR>
      <TR><TD ALIGN="LEFT" BGCOLOR="#ffffff">&lt; 2</TD><TD ALIGN="RIGHT" BGCOLOR="#ffffff">0 rows</TD><TD ALIGN="RIGHT" BGCOLOR="#ffffff">  </TD></TR>
    </TABLE>>
    URL="../../tables/alert_recipients.html"
    target="_top"
    tooltip="alert_recipients"
  ];
  "applications" [
   label=<
    <TABLE BORDER="0" CELLBORDER="1" CELLSPACING="0" BGCOLOR="#ffffff">
      <TR><TD COLSPAN="3"  BGCOLOR="#f5f5f5"><TABLE BORDER="0" CELLSPACING="0"><TR><TD ALIGN="LEFT"><B>applications</B></TD><TD ALIGN="RIGHT">[table]</TD></TR></TABLE></TD></TR>
      <TR><TD PORT="elipses" COLSPAN="3" ALIGN="LEFT">...</TD></TR>
      <TR><TD ALIGN="LEFT" BGCOLOR="#ffffff">&lt; 3</TD><TD ALIGN="RIGHT" BGCOLOR="#ffffff">0 rows</TD><TD ALIGN="RIGHT" BGCOLOR="#ffffff">57 &gt;</TD></TR>
    </TABLE>>
    URL="../../tables/applications.html"
    target="_top"
    tooltip="applications"
  ];
  "compliance_digest_last_sent" [
   label=<
    <TABLE BORDER="0" CELLBORDER="1" CELLSPACING="0" BGCOLOR="#ffffff">
      <TR><TD COLSPAN="3"  BGCOLOR="#f5f5f5"><TABLE BORDER="0" CELLSPACING="0"><TR><TD ALIGN="LEFT"><B>compliance_digest_last_sent</B></TD><TD ALIGN="RIGHT">[table]</TD></TR></TABLE></TD></TR>
      <TR><TD PORT="elipses" COLSPAN="3" ALIGN="LEFT">...</TD></TR>
      <TR><TD ALIGN="LEFT" BGCOLOR="#ffffff">&lt; 2</TD><TD ALIGN="RIGHT" BGCOLOR="#ffffff">0 rows</TD><TD ALIGN="RIGHT" BGCOLOR="#ffffff">  </TD></TR>
    </TABLE>>
    URL="../../tables/compliance_digest_last_sent.html"
    target="_top"
    tooltip="compliance_digest_last_sent"
  ];
  "library_digest_last_sent" [
   label=<
    <TABLE BORDER="0" CELLBORDER="1" CELLSPACING="0" BGCOLOR="#ffffff">
      <TR><TD COLSPAN="3"  BGCOLOR="#f5f5f5"><TABLE BORDER="0" CELLSPACING="0"><TR><TD ALIGN="LEFT"><B>library_digest_last_sent</B></TD><TD ALIGN="RIGHT">[table]</TD></TR></TABLE></TD></TR>
      <TR><TD PORT="elipses" COLSPAN="3" ALIGN="LEFT">...</TD></TR>
      <TR><TD ALIGN="LEFT" BGCOLOR="#ffffff">&lt; 2</TD><TD ALIGN="RIGHT" BGCOLOR="#ffffff">0 rows</TD><TD ALIGN="RIGHT" BGCOLOR="#ffffff">  </TD></TR>
    </TABLE>>
    URL="../../tables/library_digest_last_sent.html"
    target="_top"
    tooltip="library_digest_last_sent"
  ];
  "login_activity" [
   label=<
    <TABLE BORDER="0" CELLBORDER="1" CELLSPACING="0" BGCOLOR="#ffffff">
      <TR><TD COLSPAN="3"  BGCOLOR="#f5f5f5"><TABLE BORDER="0" CELLSPACING="0"><TR><TD ALIGN="LEFT"><B>login_activity</B></TD><TD ALIGN="RIGHT">[table]</TD></TR></TABLE></TD></TR>
      <TR><TD PORT="elipses" COLSPAN="3" ALIGN="LEFT">...</TD></TR>
      <TR><TD ALIGN="LEFT" BGCOLOR="#ffffff">&lt; 1</TD><TD ALIGN="RIGHT" BGCOLOR="#ffffff">0 rows</TD><TD ALIGN="RIGHT" BGCOLOR="#ffffff">  </TD></TR>
    </TABLE>>
    URL="../../tables/login_activity.html"
    target="_top"
    tooltip="login_activity"
  ];
  "message" [
   label=<
    <TABLE BORDER="0" CELLBORDER="1" CELLSPACING="0" BGCOLOR="#ffffff">
      <TR><TD COLSPAN="3"  BGCOLOR="#f5f5f5"><TABLE BORDER="0" CELLSPACING="0"><TR><TD ALIGN="LEFT"><B>message</B></TD><TD ALIGN="RIGHT">[table]</TD></TR></TABLE></TD></TR>
      <TR><TD PORT="elipses" COLSPAN="3" ALIGN="LEFT">...</TD></TR>
      <TR><TD ALIGN="LEFT" BGCOLOR="#ffffff">&lt; 1</TD><TD ALIGN="RIGHT" BGCOLOR="#ffffff">0 rows</TD><TD ALIGN="RIGHT" BGCOLOR="#ffffff">1 &gt;</TD></TR>
    </TABLE>>
    URL="../../tables/message.html"
    target="_top"
    tooltip="message"
  ];
  "message_user_inbox" [
   label=<
    <TABLE BORDER="0" CELLBORDER="1" CELLSPACING="0" BGCOLOR="#ffffff">
      <TR><TD COLSPAN="3"  BGCOLOR="#f5f5f5"><TABLE BORDER="0" CELLSPACING="0"><TR><TD ALIGN="LEFT"><B>message_user_inbox</B></TD><TD ALIGN="RIGHT">[table]</TD></TR></TABLE></TD></TR>
      <TR><TD PORT="elipses" COLSPAN="3" ALIGN="LEFT">...</TD></TR>
      <TR><TD ALIGN="LEFT" BGCOLOR="#ffffff">&lt; 2</TD><TD ALIGN="RIGHT" BGCOLOR="#ffffff">0 rows</TD><TD ALIGN="RIGHT" BGCOLOR="#ffffff">  </TD></TR>
    </TABLE>>
    URL="../../tables/message_user_inbox.html"
    target="_top"
    tooltip="message_user_inbox"
  ];
  "notifications_user_activity_digest" [
   label=<
    <TABLE BORDER="0" CELLBORDER="1" CELLSPACING="0" BGCOLOR="#ffffff">
      <TR><TD COLSPAN="3"  BGCOLOR="#f5f5f5"><TABLE BORDER="0" CELLSPACING="0"><TR><TD ALIGN="LEFT"><B>notifications_user_activity_digest</B></TD><TD ALIGN="RIGHT">[table]</TD></TR></TABLE></TD></TR>
      <TR><TD PORT="elipses" COLSPAN="3" ALIGN="LEFT">...</TD></TR>
      <TR><TD ALIGN="LEFT" BGCOLOR="#ffffff">&lt; 2</TD><TD ALIGN="RIGHT" BGCOLOR="#ffffff">0 rows</TD><TD ALIGN="RIGHT" BGCOLOR="#ffffff">  </TD></TR>
    </TABLE>>
    URL="../../tables/notifications_user_activity_digest.html"
    target="_top"
    tooltip="notifications_user_activity_digest"
  ];
  "notifications_user_agent_update" [
   label=<
    <TABLE BORDER="0" CELLBORDER="1" CELLSPACING="0" BGCOLOR="#ffffff">
      <TR><TD COLSPAN="3"  BGCOLOR="#f5f5f5"><TABLE BORDER="0" CELLSPACING="0"><TR><TD ALIGN="LEFT"><B>notifications_user_agent_update</B></TD><TD ALIGN="RIGHT">[table]</TD></TR></TABLE></TD></TR>
      <TR><TD PORT="elipses" COLSPAN="3" ALIGN="LEFT">...</TD></TR>
      <TR><TD ALIGN="LEFT" BGCOLOR="#ffffff">&lt; 1</TD><TD ALIGN="RIGHT" BGCOLOR="#ffffff">0 rows</TD><TD ALIGN="RIGHT" BGCOLOR="#ffffff">  </TD></TR>
    </TABLE>>
    URL="../../tables/notifications_user_agent_update.html"
    target="_top"
    tooltip="notifications_user_agent_update"
  ];
  "notifications_user_app_compliance_policy" [
   label=<
    <TABLE BORDER="0" CELLBORDER="1" CELLSPACING="0" BGCOLOR="#ffffff">
      <TR><TD COLSPAN="3"  BGCOLOR="#f5f5f5"><TABLE BORDER="0" CELLSPACING="0"><TR><TD ALIGN="LEFT"><B>notifications_user_app_compliance_policy</B></TD><TD ALIGN="RIGHT">[table]</TD></TR></TABLE></TD></TR>
      <TR><TD PORT="elipses" COLSPAN="3" ALIGN="LEFT">...</TD></TR>
      <TR><TD ALIGN="LEFT" BGCOLOR="#ffffff">&lt; 2</TD><TD ALIGN="RIGHT" BGCOLOR="#ffffff">0 rows</TD><TD ALIGN="RIGHT" BGCOLOR="#ffffff">  </TD></TR>
    </TABLE>>
    URL="../../tables/notifications_user_app_compliance_policy.html"
    target="_top"
    tooltip="notifications_user_app_compliance_policy"
  ];
  "notifications_user_messages" [
   label=<
    <TABLE BORDER="0" CELLBORDER="1" CELLSPACING="0" BGCOLOR="#ffffff">
      <TR><TD COLSPAN="3"  BGCOLOR="#f5f5f5"><TABLE BORDER="0" CELLSPACING="0"><TR><TD ALIGN="LEFT"><B>notifications_user_messages</B></TD><TD ALIGN="RIGHT">[table]</TD></TR></TABLE></TD></TR>
      <TR><TD PORT="elipses" COLSPAN="3" ALIGN="LEFT">...</TD></TR>
      <TR><TD ALIGN="LEFT" BGCOLOR="#ffffff">&lt; 2</TD><TD ALIGN="RIGHT" BGCOLOR="#ffffff">0 rows</TD><TD ALIGN="RIGHT" BGCOLOR="#ffffff">  </TD></TR>
    </TABLE>>
    URL="../../tables/notifications_user_messages.html"
    target="_top"
    tooltip="notifications_user_messages"
  ];
  "notifications_user_remediation_policy" [
   label=<
    <TABLE BORDER="0" CELLBORDER="1" CELLSPACING="0" BGCOLOR="#ffffff">
      <TR><TD COLSPAN="3"  BGCOLOR="#f5f5f5"><TABLE BORDER="0" CELLSPACING="0"><TR><TD ALIGN="LEFT"><B>notifications_user_remediation_policy</B></TD><TD ALIGN="RIGHT">[table]</TD></TR></TABLE></TD></TR>
      <TR><TD PORT="elipses" COLSPAN="3" ALIGN="LEFT">...</TD></TR>
      <TR><TD ALIGN="LEFT" BGCOLOR="#ffffff">&lt; 3</TD><TD ALIGN="RIGHT" BGCOLOR="#ffffff">0 rows</TD><TD ALIGN="RIGHT" BGCOLOR="#ffffff">  </TD></TR>
    </TABLE>>
    URL="../../tables/notifications_user_remediation_policy.html"
    target="_top"
    tooltip="notifications_user_remediation_policy"
  ];
  "notifications_user_settings" [
   label=<
    <TABLE BORDER="0" CELLBORDER="1" CELLSPACING="0" BGCOLOR="#ffffff">
      <TR><TD COLSPAN="3"  BGCOLOR="#f5f5f5"><TABLE BORDER="0" CELLSPACING="0"><TR><TD ALIGN="LEFT"><B>notifications_user_settings</B></TD><TD ALIGN="RIGHT">[table]</TD></TR></TABLE></TD></TR>
      <TR><TD PORT="elipses" COLSPAN="3" ALIGN="LEFT">...</TD></TR>
      <TR><TD ALIGN="LEFT" BGCOLOR="#ffffff">&lt; 2</TD><TD ALIGN="RIGHT" BGCOLOR="#ffffff">4 rows</TD><TD ALIGN="RIGHT" BGCOLOR="#ffffff">2 &gt;</TD></TR>
    </TABLE>>
    URL="../../tables/notifications_user_settings.html"
    target="_top"
    tooltip="notifications_user_settings"
  ];
  "organizations" [
   label=<
    <TABLE BORDER="0" CELLBORDER="1" CELLSPACING="0" BGCOLOR="#ffffff">
      <TR><TD COLSPAN="3"  BGCOLOR="#f5f5f5"><TABLE BORDER="0" CELLSPACING="0"><TR><TD ALIGN="LEFT"><B>organizations</B></TD><TD ALIGN="RIGHT">[table]</TD></TR></TABLE></TD></TR>
      <TR><TD PORT="elipses" COLSPAN="3" ALIGN="LEFT">...</TD></TR>
      <TR><TD ALIGN="LEFT" BGCOLOR="#ffffff">&lt; 4</TD><TD ALIGN="RIGHT" BGCOLOR="#ffffff">3 rows</TD><TD ALIGN="RIGHT" BGCOLOR="#ffffff">81 &gt;</TD></TR>
    </TABLE>>
    URL="../../tables/organizations.html"
    target="_top"
    tooltip="organizations"
  ];
  "password_history" [
   label=<
    <TABLE BORDER="0" CELLBORDER="1" CELLSPACING="0" BGCOLOR="#ffffff">
      <TR><TD COLSPAN="3"  BGCOLOR="#f5f5f5"><TABLE BORDER="0" CELLSPACING="0"><TR><TD ALIGN="LEFT"><B>password_history</B></TD><TD ALIGN="RIGHT">[table]</TD></TR></TABLE></TD></TR>
      <TR><TD PORT="elipses" COLSPAN="3" ALIGN="LEFT">...</TD></TR>
      <TR><TD ALIGN="LEFT" BGCOLOR="#ffffff">&lt; 1</TD><TD ALIGN="RIGHT" BGCOLOR="#ffffff">0 rows</TD><TD ALIGN="RIGHT" BGCOLOR="#ffffff">  </TD></TR>
    </TABLE>>
    URL="../../tables/password_history.html"
    target="_top"
    tooltip="password_history"
  ];
  "rasp_alert_attacks_recipients" [
   label=<
    <TABLE BORDER="0" CELLBORDER="1" CELLSPACING="0" BGCOLOR="#ffffff">
      <TR><TD COLSPAN="3"  BGCOLOR="#f5f5f5"><TABLE BORDER="0" CELLSPACING="0"><TR><TD ALIGN="LEFT"><B>rasp_alert_attacks_recipients</B></TD><TD ALIGN="RIGHT">[table]</TD></TR></TABLE></TD></TR>
      <TR><TD PORT="elipses" COLSPAN="3" ALIGN="LEFT">...</TD></TR>
      <TR><TD ALIGN="LEFT" BGCOLOR="#ffffff">&lt; 2</TD><TD ALIGN="RIGHT" BGCOLOR="#ffffff">0 rows</TD><TD ALIGN="RIGHT" BGCOLOR="#ffffff">  </TD></TR>
    </TABLE>>
    URL="../../tables/rasp_alert_attacks_recipients.html"
    target="_top"
    tooltip="rasp_alert_attacks_recipients"
  ];
  "rasp_attack_event" [
   label=<
    <TABLE BORDER="0" CELLBORDER="1" CELLSPACING="0" BGCOLOR="#ffffff">
      <TR><TD COLSPAN="3"  BGCOLOR="#f5f5f5"><TABLE BORDER="0" CELLSPACING="0"><TR><TD ALIGN="LEFT"><B>rasp_attack_event</B></TD><TD ALIGN="RIGHT">[table]</TD></TR></TABLE></TD></TR>
      <TR><TD PORT="rasp_attack_event_id" COLSPAN="3" ALIGN="LEFT"><TABLE BORDER="0" CELLSPACING="0" ALIGN="LEFT"><TR ALIGN="LEFT"><TD ALIGN="LEFT" FIXEDSIZE="TRUE" WIDTH="15" HEIGHT="16"><IMG SRC="../../images/primaryKeys.png"/></TD><TD ALIGN="LEFT" FIXEDSIZE="TRUE" WIDTH="212" HEIGHT="16">rasp_attack_event_id</TD></TR></TABLE></TD></TR>
      <TR><TD PORT="rasp_attacks_id" COLSPAN="3" BGCOLOR="#ffffff" ALIGN="LEFT"><TABLE BORDER="0" CELLSPACING="0" ALIGN="LEFT"><TR ALIGN="LEFT"><TD ALIGN="LEFT" FIXEDSIZE="TRUE" WIDTH="15" HEIGHT="16"><IMG SRC="../../images/foreignKeys.png"/></TD><TD ALIGN="LEFT" FIXEDSIZE="TRUE" WIDTH="212" HEIGHT="16">rasp_attacks_id</TD></TR></TABLE></TD></TR>
      <TR><TD PORT="rasp_attacks_applications_id" COLSPAN="3" BGCOLOR="#ffffff" ALIGN="LEFT"><TABLE BORDER="0" CELLSPACING="0" ALIGN="LEFT"><TR ALIGN="LEFT"><TD ALIGN="LEFT" FIXEDSIZE="TRUE" WIDTH="15" HEIGHT="16"><IMG SRC="../../images/foreignKeys.png"/></TD><TD ALIGN="LEFT" FIXEDSIZE="TRUE" WIDTH="212" HEIGHT="16">rasp_attacks_applications_id</TD></TR></TABLE></TD></TR>
      <TR><TD PORT="status" COLSPAN="3" BGCOLOR="#ffffff" ALIGN="LEFT"><TABLE BORDER="0" CELLSPACING="0" ALIGN="LEFT"><TR ALIGN="LEFT"><TD ALIGN="LEFT" FIXEDSIZE="TRUE" WIDTH="15" HEIGHT="16"></TD><TD ALIGN="LEFT" FIXEDSIZE="TRUE" WIDTH="212" HEIGHT="16">status</TD></TR></TABLE></TD></TR>
      <TR><TD PORT="timestamp_server" COLSPAN="3" BGCOLOR="#ffffff" ALIGN="LEFT"><TABLE BORDER="0" CELLSPACING="0" ALIGN="LEFT"><TR ALIGN="LEFT"><TD ALIGN="LEFT" FIXEDSIZE="TRUE" WIDTH="15" HEIGHT="16"></TD><TD ALIGN="LEFT" FIXEDSIZE="TRUE" WIDTH="212" HEIGHT="16">timestamp_server</TD></TR></TABLE></TD></TR>
      <TR><TD PORT="applications_id" COLSPAN="3" BGCOLOR="#ffffff" ALIGN="LEFT"><TABLE BORDER="0" CELLSPACING="0" ALIGN="LEFT"><TR ALIGN="LEFT"><TD ALIGN="LEFT" FIXEDSIZE="TRUE" WIDTH="15" HEIGHT="16"><IMG SRC="../../images/foreignKeys.png"/></TD><TD ALIGN="LEFT" FIXEDSIZE="TRUE" WIDTH="212" HEIGHT="16">applications_id</TD></TR></TABLE></TD></TR>
      <TR><TD PORT="servers_id" COLSPAN="3" BGCOLOR="#ffffff" ALIGN="LEFT"><TABLE BORDER="0" CELLSPACING="0" ALIGN="LEFT"><TR ALIGN="LEFT"><TD ALIGN="LEFT" FIXEDSIZE="TRUE" WIDTH="15" HEIGHT="16"><IMG SRC="../../images/foreignKeys.png"/></TD><TD ALIGN="LEFT" FIXEDSIZE="TRUE" WIDTH="212" HEIGHT="16">servers_id</TD></TR></TABLE></TD></TR>
      <TR><TD PORT="uuid" COLSPAN="3" BGCOLOR="#ffffff" ALIGN="LEFT"><TABLE BORDER="0" CELLSPACING="0" ALIGN="LEFT"><TR ALIGN="LEFT"><TD ALIGN="LEFT" FIXEDSIZE="TRUE" WIDTH="15" HEIGHT="16"></TD><TD ALIGN="LEFT" FIXEDSIZE="TRUE" WIDTH="212" HEIGHT="16">uuid</TD></TR></TABLE></TD></TR>
      <TR><TD PORT="rasp_protection_rules_exceptions_id" COLSPAN="3" BGCOLOR="#ffffff" ALIGN="LEFT"><TABLE BORDER="0" CELLSPACING="0" ALIGN="LEFT"><TR ALIGN="LEFT"><TD ALIGN="LEFT" FIXEDSIZE="TRUE" WIDTH="15" HEIGHT="16"><IMG SRC="../../images/foreignKeys.png"/></TD><TD ALIGN="LEFT" FIXEDSIZE="TRUE" WIDTH="212" HEIGHT="16">rasp_protection_rules_exceptions_id</TD></TR></TABLE></TD></TR>
      <TR><TD PORT="rasp_messages_id" COLSPAN="3" BGCOLOR="#ffffff" ALIGN="LEFT"><TABLE BORDER="0" CELLSPACING="0" ALIGN="LEFT"><TR ALIGN="LEFT"><TD ALIGN="LEFT" FIXEDSIZE="TRUE" WIDTH="15" HEIGHT="16"><IMG SRC="../../images/foreignKeys.png"/></TD><TD ALIGN="LEFT" FIXEDSIZE="TRUE" WIDTH="212" HEIGHT="16">rasp_messages_id</TD></TR></TABLE></TD></TR>
      <TR><TD PORT="rasp_protection_rules_id" COLSPAN="3" BGCOLOR="#ffffff" ALIGN="LEFT"><TABLE BORDER="0" CELLSPACING="0" ALIGN="LEFT"><TR ALIGN="LEFT"><TD ALIGN="LEFT" FIXEDSIZE="TRUE" WIDTH="15" HEIGHT="16"><IMG SRC="../../images/foreignKeys.png"/></TD><TD ALIGN="LEFT" FIXEDSIZE="TRUE" WIDTH="212" HEIGHT="16">rasp_protection_rules_id</TD></TR></TABLE></TD></TR>
      <TR><TD PORT="elipses" COLSPAN="3" ALIGN="LEFT">...</TD></TR>
      <TR><TD ALIGN="LEFT" BGCOLOR="#ffffff">&lt; 7</TD><TD ALIGN="RIGHT" BGCOLOR="#ffffff">0 rows</TD><TD ALIGN="RIGHT" BGCOLOR="#ffffff">5 &gt;</TD></TR>
    </TABLE>>
    URL="../../tables/rasp_attack_event.html"
    target="_top"
    tooltip="rasp_attack_event"
  ];
  "rasp_attack_event_count" [
   label=<
    <TABLE BORDER="0" CELLBORDER="1" CELLSPACING="0" BGCOLOR="#ffffff">
      <TR><TD COLSPAN="3"  BGCOLOR="#f5f5f5"><TABLE BORDER="0" CELLSPACING="0"><TR><TD ALIGN="LEFT"><B>rasp_attack_event_count</B></TD><TD ALIGN="RIGHT">[table]</TD></TR></TABLE></TD></TR>
      <TR><TD PORT="elipses" COLSPAN="3" ALIGN="LEFT">...</TD></TR>
      <TR><TD ALIGN="LEFT" BGCOLOR="#ffffff">&lt; 1</TD><TD ALIGN="RIGHT" BGCOLOR="#ffffff">0 rows</TD><TD ALIGN="RIGHT" BGCOLOR="#ffffff">  </TD></TR>
    </TABLE>>
    URL="../../tables/rasp_attack_event_count.html"
    target="_top"
    tooltip="rasp_attack_event_count"
  ];
  "rasp_attack_event_detail" [
   label=<
    <TABLE BORDER="0" CELLBORDER="1" CELLSPACING="0" BGCOLOR="#ffffff">
      <TR><TD COLSPAN="3"  BGCOLOR="#f5f5f5"><TABLE BORDER="0" CELLSPACING="0"><TR><TD ALIGN="LEFT"><B>rasp_attack_event_detail</B></TD><TD ALIGN="RIGHT">[table]</TD></TR></TABLE></TD></TR>
      <TR><TD PORT="elipses" COLSPAN="3" ALIGN="LEFT">...</TD></TR>
      <TR><TD ALIGN="LEFT" BGCOLOR="#ffffff">&lt; 1</TD><TD ALIGN="RIGHT" BGCOLOR="#ffffff">0 rows</TD><TD ALIGN="RIGHT" BGCOLOR="#ffffff">  </TD></TR>
    </TABLE>>
    URL="../../tables/rasp_attack_event_detail.html"
    target="_top"
    tooltip="rasp_attack_event_detail"
  ];
  "rasp_attack_event_note" [
   label=<
    <TABLE BORDER="0" CELLBORDER="1" CELLSPACING="0" BGCOLOR="#ffffff">
      <TR><TD COLSPAN="3"  BGCOLOR="#f5f5f5"><TABLE BORDER="0" CELLSPACING="0"><TR><TD ALIGN="LEFT"><B>rasp_attack_event_note</B></TD><TD ALIGN="RIGHT">[table]</TD></TR></TABLE></TD></TR>
      <TR><TD PORT="elipses" COLSPAN="3" ALIGN="LEFT">...</TD></TR>
      <TR><TD ALIGN="LEFT" BGCOLOR="#ffffff">&lt; 4</TD><TD ALIGN="RIGHT" BGCOLOR="#ffffff">0 rows</TD><TD ALIGN="RIGHT" BGCOLOR="#ffffff">  </TD></TR>
    </TABLE>>
    URL="../../tables/rasp_attack_event_note.html"
    target="_top"
    tooltip="rasp_attack_event_note"
  ];
  "rasp_attack_event_user_viewed" [
   label=<
    <TABLE BORDER="2" CELLBORDER="1" CELLSPACING="0" BGCOLOR="#ffffff">
      <TR><TD COLSPAN="4"  BGCOLOR="#f5f5f5"><TABLE BORDER="0" CELLSPACING="0"><TR><TD ALIGN="LEFT"><B>rasp_attack_event_user_viewed</B></TD><TD ALIGN="RIGHT">[table]</TD></TR></TABLE></TD></TR>
      <TR><TD PORT="rasp_attack_event_user_viewed_id" COLSPAN="2" ALIGN="LEFT"><TABLE BORDER="0" CELLSPACING="0" ALIGN="LEFT"><TR ALIGN="LEFT"><TD ALIGN="LEFT" FIXEDSIZE="TRUE" WIDTH="15" HEIGHT="16"><IMG SRC="../../images/primaryKeys.png"/></TD><TD ALIGN="LEFT" FIXEDSIZE="TRUE" WIDTH="200" HEIGHT="16">rasp_attack_event_user_viewed_id</TD></TR></TABLE></TD><TD PORT="rasp_attack_event_user_viewed_id.type" ALIGN="LEFT">bigint unsigned[20]</TD></TR>
      <TR><TD PORT="users_id" COLSPAN="2" BGCOLOR="#ffffff" ALIGN="LEFT"><TABLE BORDER="0" CELLSPACING="0" ALIGN="LEFT"><TR ALIGN="LEFT"><TD ALIGN="LEFT" FIXEDSIZE="TRUE" WIDTH="15" HEIGHT="16"><IMG SRC="../../images/foreignKeys.png"/></TD><TD ALIGN="LEFT" FIXEDSIZE="TRUE" WIDTH="200" HEIGHT="16">users_id</TD></TR></TABLE></TD><TD PORT="users_id.type" ALIGN="LEFT">varchar[255]</TD></TR>
      <TR><TD PORT="rasp_attack_event_id" COLSPAN="2" BGCOLOR="#ffffff" ALIGN="LEFT"><TABLE BORDER="0" CELLSPACING="0" ALIGN="LEFT"><TR ALIGN="LEFT"><TD ALIGN="LEFT" FIXEDSIZE="TRUE" WIDTH="15" HEIGHT="16"><IMG SRC="../../images/foreignKeys.png"/></TD><TD ALIGN="LEFT" FIXEDSIZE="TRUE" WIDTH="200" HEIGHT="16">rasp_attack_event_id</TD></TR></TABLE></TD><TD PORT="rasp_attack_event_id.type" ALIGN="LEFT">bigint unsigned[20]</TD></TR>
      <TR><TD PORT="dt_last_viewed" COLSPAN="2" ALIGN="LEFT"><TABLE BORDER="0" CELLSPACING="0" ALIGN="LEFT"><TR ALIGN="LEFT"><TD ALIGN="LEFT" FIXEDSIZE="TRUE" WIDTH="15" HEIGHT="16"></TD><TD ALIGN="LEFT" FIXEDSIZE="TRUE" WIDTH="200" HEIGHT="16">dt_last_viewed</TD></TR></TABLE></TD><TD PORT="dt_last_viewed.type" ALIGN="LEFT">bigint[19]</TD></TR>
      <TR><TD ALIGN="LEFT" BGCOLOR="#ffffff">&lt; 2</TD><TD ALIGN="RIGHT" BGCOLOR="#ffffff">0 rows</TD><TD ALIGN="RIGHT" BGCOLOR="#ffffff">0 &gt;</TD></TR>
    </TABLE>>
    URL="../../tables/rasp_attack_event_user_viewed.html"
    target="_top"
    tooltip="rasp_attack_event_user_viewed"
  ];
  "rasp_attacks" [
   label=<
    <TABLE BORDER="0" CELLBORDER="1" CELLSPACING="0" BGCOLOR="#ffffff">
      <TR><TD COLSPAN="3"  BGCOLOR="#f5f5f5"><TABLE BORDER="0" CELLSPACING="0"><TR><TD ALIGN="LEFT"><B>rasp_attacks</B></TD><TD ALIGN="RIGHT">[table]</TD></TR></TABLE></TD></TR>
      <TR><TD PORT="elipses" COLSPAN="3" ALIGN="LEFT">...</TD></TR>
      <TR><TD ALIGN="LEFT" BGCOLOR="#ffffff">&lt; 1</TD><TD ALIGN="RIGHT" BGCOLOR="#ffffff">0 rows</TD><TD ALIGN="RIGHT" BGCOLOR="#ffffff">5 &gt;</TD></TR>
    </TABLE>>
    URL="../../tables/rasp_attacks.html"
    target="_top"
    tooltip="rasp_attacks"
  ];
  "rasp_attacks_applications" [
   label=<
    <TABLE BORDER="0" CELLBORDER="1" CELLSPACING="0" BGCOLOR="#ffffff">
      <TR><TD COLSPAN="3"  BGCOLOR="#f5f5f5"><TABLE BORDER="0" CELLSPACING="0"><TR><TD ALIGN="LEFT"><B>rasp_attacks_applications</B></TD><TD ALIGN="RIGHT">[table]</TD></TR></TABLE></TD></TR>
      <TR><TD PORT="elipses" COLSPAN="3" ALIGN="LEFT">...</TD></TR>
      <TR><TD ALIGN="LEFT" BGCOLOR="#ffffff">&lt; 2</TD><TD ALIGN="RIGHT" BGCOLOR="#ffffff">0 rows</TD><TD ALIGN="RIGHT" BGCOLOR="#ffffff">2 &gt;</TD></TR>
    </TABLE>>
    URL="../../tables/rasp_attacks_applications.html"
    target="_top"
    tooltip="rasp_attacks_applications"
  ];
  "rasp_attacks_notes_viewed" [
   label=<
    <TABLE BORDER="0" CELLBORDER="1" CELLSPACING="0" BGCOLOR="#ffffff">
      <TR><TD COLSPAN="3"  BGCOLOR="#f5f5f5"><TABLE BORDER="0" CELLSPACING="0"><TR><TD ALIGN="LEFT"><B>rasp_attacks_notes_viewed</B></TD><TD ALIGN="RIGHT">[table]</TD></TR></TABLE></TD></TR>
      <TR><TD PORT="elipses" COLSPAN="3" ALIGN="LEFT">...</TD></TR>
      <TR><TD ALIGN="LEFT" BGCOLOR="#ffffff">&lt; 2</TD><TD ALIGN="RIGHT" BGCOLOR="#ffffff">0 rows</TD><TD ALIGN="RIGHT" BGCOLOR="#ffffff">  </TD></TR>
    </TABLE>>
    URL="../../tables/rasp_attacks_notes_viewed.html"
    target="_top"
    tooltip="rasp_attacks_notes_viewed"
  ];
  "rasp_messages" [
   label=<
    <TABLE BORDER="0" CELLBORDER="1" CELLSPACING="0" BGCOLOR="#ffffff">
      <TR><TD COLSPAN="3"  BGCOLOR="#f5f5f5"><TABLE BORDER="0" CELLSPACING="0"><TR><TD ALIGN="LEFT"><B>rasp_messages</B></TD><TD ALIGN="RIGHT">[table]</TD></TR></TABLE></TD></TR>
      <TR><TD PORT="elipses" COLSPAN="3" ALIGN="LEFT">...</TD></TR>
      <TR><TD ALIGN="LEFT" BGCOLOR="#ffffff">&lt; 2</TD><TD ALIGN="RIGHT" BGCOLOR="#ffffff">0 rows</TD><TD ALIGN="RIGHT" BGCOLOR="#ffffff">3 &gt;</TD></TR>
    </TABLE>>
    URL="../../tables/rasp_messages.html"
    target="_top"
    tooltip="rasp_messages"
  ];
  "rasp_protection_rules" [
   label=<
    <TABLE BORDER="0" CELLBORDER="1" CELLSPACING="0" BGCOLOR="#ffffff">
      <TR><TD COLSPAN="3"  BGCOLOR="#f5f5f5"><TABLE BORDER="0" CELLSPACING="0"><TR><TD ALIGN="LEFT"><B>rasp_protection_rules</B></TD><TD ALIGN="RIGHT">[table]</TD></TR></TABLE></TD></TR>
      <TR><TD PORT="elipses" COLSPAN="3" ALIGN="LEFT">...</TD></TR>
      <TR><TD ALIGN="LEFT" BGCOLOR="#ffffff">  </TD><TD ALIGN="RIGHT" BGCOLOR="#ffffff">64 rows</TD><TD ALIGN="RIGHT" BGCOLOR="#ffffff">9 &gt;</TD></TR>
    </TABLE>>
    URL="../../tables/rasp_protection_rules.html"
    target="_top"
    tooltip="rasp_protection_rules"
  ];
  "rasp_users_organizations" [
   label=<
    <TABLE BORDER="0" CELLBORDER="1" CELLSPACING="0" BGCOLOR="#ffffff">
      <TR><TD COLSPAN="3"  BGCOLOR="#f5f5f5"><TABLE BORDER="0" CELLSPACING="0"><TR><TD ALIGN="LEFT"><B>rasp_users_organizations</B></TD><TD ALIGN="RIGHT">[table]</TD></TR></TABLE></TD></TR>
      <TR><TD PORT="elipses" COLSPAN="3" ALIGN="LEFT">...</TD></TR>
      <TR><TD ALIGN="LEFT" BGCOLOR="#ffffff">&lt; 2</TD><TD ALIGN="RIGHT" BGCOLOR="#ffffff">0 rows</TD><TD ALIGN="RIGHT" BGCOLOR="#ffffff">  </TD></TR>
    </TABLE>>
    URL="../../tables/rasp_users_organizations.html"
    target="_top"
    tooltip="rasp_users_organizations"
  ];
  "remediation_digest_last_sent" [
   label=<
    <TABLE BORDER="0" CELLBORDER="1" CELLSPACING="0" BGCOLOR="#ffffff">
      <TR><TD COLSPAN="3"  BGCOLOR="#f5f5f5"><TABLE BORDER="0" CELLSPACING="0"><TR><TD ALIGN="LEFT"><B>remediation_digest_last_sent</B></TD><TD ALIGN="RIGHT">[table]</TD></TR></TABLE></TD></TR>
      <TR><TD PORT="elipses" COLSPAN="3" ALIGN="LEFT">...</TD></TR>
      <TR><TD ALIGN="LEFT" BGCOLOR="#ffffff">&lt; 2</TD><TD ALIGN="RIGHT" BGCOLOR="#ffffff">0 rows</TD><TD ALIGN="RIGHT" BGCOLOR="#ffffff">  </TD></TR>
    </TABLE>>
    URL="../../tables/remediation_digest_last_sent.html"
    target="_top"
    tooltip="remediation_digest_last_sent"
  ];
  "rules_exclusions" [
   label=<
    <TABLE BORDER="0" CELLBORDER="1" CELLSPACING="0" BGCOLOR="#ffffff">
      <TR><TD COLSPAN="3"  BGCOLOR="#f5f5f5"><TABLE BORDER="0" CELLSPACING="0"><TR><TD ALIGN="LEFT"><B>rules_exclusions</B></TD><TD ALIGN="RIGHT">[table]</TD></TR></TABLE></TD></TR>
      <TR><TD PORT="elipses" COLSPAN="3" ALIGN="LEFT">...</TD></TR>
      <TR><TD ALIGN="LEFT" BGCOLOR="#ffffff">&lt; 1</TD><TD ALIGN="RIGHT" BGCOLOR="#ffffff">0 rows</TD><TD ALIGN="RIGHT" BGCOLOR="#ffffff">5 &gt;</TD></TR>
    </TABLE>>
    URL="../../tables/rules_exclusions.html"
    target="_top"
    tooltip="rules_exclusions"
  ];
  "servers" [
   label=<
    <TABLE BORDER="0" CELLBORDER="1" CELLSPACING="0" BGCOLOR="#ffffff">
      <TR><TD COLSPAN="3"  BGCOLOR="#f5f5f5"><TABLE BORDER="0" CELLSPACING="0"><TR><TD ALIGN="LEFT"><B>servers</B></TD><TD ALIGN="RIGHT">[table]</TD></TR></TABLE></TD></TR>
      <TR><TD PORT="elipses" COLSPAN="3" ALIGN="LEFT">...</TD></TR>
      <TR><TD ALIGN="LEFT" BGCOLOR="#ffffff">&lt; 2</TD><TD ALIGN="RIGHT" BGCOLOR="#ffffff">0 rows</TD><TD ALIGN="RIGHT" BGCOLOR="#ffffff">21 &gt;</TD></TR>
    </TABLE>>
    URL="../../tables/servers.html"
    target="_top"
    tooltip="servers"
  ];
  "suggested_security_controls" [
   label=<
    <TABLE BORDER="0" CELLBORDER="1" CELLSPACING="0" BGCOLOR="#ffffff">
      <TR><TD COLSPAN="3"  BGCOLOR="#f5f5f5"><TABLE BORDER="0" CELLSPACING="0"><TR><TD ALIGN="LEFT"><B>suggested_security_controls</B></TD><TD ALIGN="RIGHT">[table]</TD></TR></TABLE></TD></TR>
      <TR><TD PORT="elipses" COLSPAN="3" ALIGN="LEFT">...</TD></TR>
      <TR><TD ALIGN="LEFT" BGCOLOR="#ffffff">&lt; 2</TD><TD ALIGN="RIGHT" BGCOLOR="#ffffff">0 rows</TD><TD ALIGN="RIGHT" BGCOLOR="#ffffff">1 &gt;</TD></TR>
    </TABLE>>
    URL="../../tables/suggested_security_controls.html"
    target="_top"
    tooltip="suggested_security_controls"
  ];
  "tags_rasp_attack_event" [
   label=<
    <TABLE BORDER="0" CELLBORDER="1" CELLSPACING="0" BGCOLOR="#ffffff">
      <TR><TD COLSPAN="3"  BGCOLOR="#f5f5f5"><TABLE BORDER="0" CELLSPACING="0"><TR><TD ALIGN="LEFT"><B>tags_rasp_attack_event</B></TD><TD ALIGN="RIGHT">[table]</TD></TR></TABLE></TD></TR>
      <TR><TD PORT="elipses" COLSPAN="3" ALIGN="LEFT">...</TD></TR>
      <TR><TD ALIGN="LEFT" BGCOLOR="#ffffff">&lt; 1</TD><TD ALIGN="RIGHT" BGCOLOR="#ffffff">0 rows</TD><TD ALIGN="RIGHT" BGCOLOR="#ffffff">  </TD></TR>
    </TABLE>>
    URL="../../tables/tags_rasp_attack_event.html"
    target="_top"
    tooltip="tags_rasp_attack_event"
  ];
  "tsv_users_trusted_devices" [
   label=<
    <TABLE BORDER="0" CELLBORDER="1" CELLSPACING="0" BGCOLOR="#ffffff">
      <TR><TD COLSPAN="3"  BGCOLOR="#f5f5f5"><TABLE BORDER="0" CELLSPACING="0"><TR><TD ALIGN="LEFT"><B>tsv_users_trusted_devices</B></TD><TD ALIGN="RIGHT">[table]</TD></TR></TABLE></TD></TR>
      <TR><TD PORT="elipses" COLSPAN="3" ALIGN="LEFT">...</TD></TR>
      <TR><TD ALIGN="LEFT" BGCOLOR="#ffffff">&lt; 1</TD><TD ALIGN="RIGHT" BGCOLOR="#ffffff">0 rows</TD><TD ALIGN="RIGHT" BGCOLOR="#ffffff">  </TD></TR>
    </TABLE>>
    URL="../../tables/tsv_users_trusted_devices.html"
    target="_top"
    tooltip="tsv_users_trusted_devices"
  ];
  "user_avatar" [
   label=<
    <TABLE BORDER="0" CELLBORDER="1" CELLSPACING="0" BGCOLOR="#ffffff">
      <TR><TD COLSPAN="3"  BGCOLOR="#f5f5f5"><TABLE BORDER="0" CELLSPACING="0"><TR><TD ALIGN="LEFT"><B>user_avatar</B></TD><TD ALIGN="RIGHT">[table]</TD></TR></TABLE></TD></TR>
      <TR><TD PORT="elipses" COLSPAN="3" ALIGN="LEFT">...</TD></TR>
      <TR><TD ALIGN="LEFT" BGCOLOR="#ffffff">&lt; 1</TD><TD ALIGN="RIGHT" BGCOLOR="#ffffff">0 rows</TD><TD ALIGN="RIGHT" BGCOLOR="#ffffff">  </TD></TR>
    </TABLE>>
    URL="../../tables/user_avatar.html"
    target="_top"
    tooltip="user_avatar"
  ];
  "user_onboarding_tutorial_viewed" [
   label=<
    <TABLE BORDER="0" CELLBORDER="1" CELLSPACING="0" BGCOLOR="#ffffff">
      <TR><TD COLSPAN="3"  BGCOLOR="#f5f5f5"><TABLE BORDER="0" CELLSPACING="0"><TR><TD ALIGN="LEFT"><B>user_onboarding_tutorial_viewed</B></TD><TD ALIGN="RIGHT">[table]</TD></TR></TABLE></TD></TR>
      <TR><TD PORT="elipses" COLSPAN="3" ALIGN="LEFT">...</TD></TR>
      <TR><TD ALIGN="LEFT" BGCOLOR="#ffffff">&lt; 2</TD><TD ALIGN="RIGHT" BGCOLOR="#ffffff">0 rows</TD><TD ALIGN="RIGHT" BGCOLOR="#ffffff">  </TD></TR>
    </TABLE>>
    URL="../../tables/user_onboarding_tutorial_viewed.html"
    target="_top"
    tooltip="user_onboarding_tutorial_viewed"
  ];
  "user_preferences" [
   label=<
    <TABLE BORDER="0" CELLBORDER="1" CELLSPACING="0" BGCOLOR="#ffffff">
      <TR><TD COLSPAN="3"  BGCOLOR="#f5f5f5"><TABLE BORDER="0" CELLSPACING="0"><TR><TD ALIGN="LEFT"><B>user_preferences</B></TD><TD ALIGN="RIGHT">[table]</TD></TR></TABLE></TD></TR>
      <TR><TD PORT="elipses" COLSPAN="3" ALIGN="LEFT">...</TD></TR>
      <TR><TD ALIGN="LEFT" BGCOLOR="#ffffff">&lt; 1</TD><TD ALIGN="RIGHT" BGCOLOR="#ffffff">0 rows</TD><TD ALIGN="RIGHT" BGCOLOR="#ffffff">  </TD></TR>
    </TABLE>>
    URL="../../tables/user_preferences.html"
    target="_top"
    tooltip="user_preferences"
  ];
  "users" [
   label=<
    <TABLE BORDER="0" CELLBORDER="1" CELLSPACING="0" BGCOLOR="#ffffff">
      <TR><TD COLSPAN="3"  BGCOLOR="#f5f5f5"><TABLE BORDER="0" CELLSPACING="0"><TR><TD ALIGN="LEFT"><B>users</B></TD><TD ALIGN="RIGHT">[table]</TD></TR></TABLE></TD></TR>
      <TR><TD PORT="user_id" COLSPAN="3" ALIGN="LEFT"><TABLE BORDER="0" CELLSPACING="0" ALIGN="LEFT"><TR ALIGN="LEFT"><TD ALIGN="LEFT" FIXEDSIZE="TRUE" WIDTH="15" HEIGHT="16"><IMG SRC="../../images/primaryKeys.png"/></TD><TD ALIGN="LEFT" FIXEDSIZE="TRUE" WIDTH="204" HEIGHT="16">user_id</TD></TR></TABLE></TD></TR>
      <TR><TD PORT="user_uid" COLSPAN="3" BGCOLOR="#ffffff" ALIGN="LEFT"><TABLE BORDER="0" CELLSPACING="0" ALIGN="LEFT"><TR ALIGN="LEFT"><TD ALIGN="LEFT" FIXEDSIZE="TRUE" WIDTH="15" HEIGHT="16"></TD><TD ALIGN="LEFT" FIXEDSIZE="TRUE" WIDTH="204" HEIGHT="16">user_uid</TD></TR></TABLE></TD></TR>
      <TR><TD PORT="default_org" COLSPAN="3" BGCOLOR="#ffffff" ALIGN="LEFT"><TABLE BORDER="0" CELLSPACING="0" ALIGN="LEFT"><TR ALIGN="LEFT"><TD ALIGN="LEFT" FIXEDSIZE="TRUE" WIDTH="15" HEIGHT="16"><IMG SRC="../../images/foreignKeys.png"/></TD><TD ALIGN="LEFT" FIXEDSIZE="TRUE" WIDTH="204" HEIGHT="16">default_org</TD></TR></TABLE></TD></TR>
      <TR><TD PORT="type" COLSPAN="3" BGCOLOR="#ffffff" ALIGN="LEFT"><TABLE BORDER="0" CELLSPACING="0" ALIGN="LEFT"><TR ALIGN="LEFT"><TD ALIGN="LEFT" FIXEDSIZE="TRUE" WIDTH="15" HEIGHT="16"></TD><TD ALIGN="LEFT" FIXEDSIZE="TRUE" WIDTH="204" HEIGHT="16">type</TD></TR></TABLE></TD></TR>
      <TR><TD PORT="elipses" COLSPAN="3" ALIGN="LEFT">...</TD></TR>
      <TR><TD ALIGN="LEFT" BGCOLOR="#ffffff">&lt; 1</TD><TD ALIGN="RIGHT" BGCOLOR="#ffffff">6 rows</TD><TD ALIGN="RIGHT" BGCOLOR="#ffffff">33 &gt;</TD></TR>
    </TABLE>>
    URL="../../tables/users.html"
    target="_top"
    tooltip="users"
  ];
  "users_organizations" [
   label=<
    <TABLE BORDER="0" CELLBORDER="1" CELLSPACING="0" BGCOLOR="#ffffff">
      <TR><TD COLSPAN="3"  BGCOLOR="#f5f5f5"><TABLE BORDER="0" CELLSPACING="0"><TR><TD ALIGN="LEFT"><B>users_organizations</B></TD><TD ALIGN="RIGHT">[table]</TD></TR></TABLE></TD></TR>
      <TR><TD PORT="elipses" COLSPAN="3" ALIGN="LEFT">...</TD></TR>
      <TR><TD ALIGN="LEFT" BGCOLOR="#ffffff">&lt; 4</TD><TD ALIGN="RIGHT" BGCOLOR="#ffffff">6 rows</TD><TD ALIGN="RIGHT" BGCOLOR="#ffffff">  </TD></TR>
    </TABLE>>
    URL="../../tables/users_organizations.html"
    target="_top"
    tooltip="users_organizations"
  ];
  "vuln_trend_views" [
   label=<
    <TABLE BORDER="0" CELLBORDER="1" CELLSPACING="0" BGCOLOR="#ffffff">
      <TR><TD COLSPAN="3"  BGCOLOR="#f5f5f5"><TABLE BORDER="0" CELLSPACING="0"><TR><TD ALIGN="LEFT"><B>vuln_trend_views</B></TD><TD ALIGN="RIGHT">[table]</TD></TR></TABLE></TD></TR>
      <TR><TD PORT="elipses" COLSPAN="3" ALIGN="LEFT">...</TD></TR>
      <TR><TD ALIGN="LEFT" BGCOLOR="#ffffff">&lt; 1</TD><TD ALIGN="RIGHT" BGCOLOR="#ffffff">0 rows</TD><TD ALIGN="RIGHT" BGCOLOR="#ffffff">  </TD></TR>
    </TABLE>>
    URL="../../tables/vuln_trend_views.html"
    target="_top"
    tooltip="vuln_trend_views"
  ];
  "vulnerability_approval_workflow" [
   label=<
    <TABLE BORDER="0" CELLBORDER="1" CELLSPACING="0" BGCOLOR="#ffffff">
      <TR><TD COLSPAN="3"  BGCOLOR="#f5f5f5"><TABLE BORDER="0" CELLSPACING="0"><TR><TD ALIGN="LEFT"><B>vulnerability_approval_workflow</B></TD><TD ALIGN="RIGHT">[table]</TD></TR></TABLE></TD></TR>
      <TR><TD PORT="elipses" COLSPAN="3" ALIGN="LEFT">...</TD></TR>
      <TR><TD ALIGN="LEFT" BGCOLOR="#ffffff">&lt; 2</TD><TD ALIGN="RIGHT" BGCOLOR="#ffffff">0 rows</TD><TD ALIGN="RIGHT" BGCOLOR="#ffffff">  </TD></TR>
    </TABLE>>
    URL="../../tables/vulnerability_approval_workflow.html"
    target="_top"
    tooltip="vulnerability_approval_workflow"
  ];
  "vulnerability_bugtracker_ticket" [
   label=<
    <TABLE BORDER="0" CELLBORDER="1" CELLSPACING="0" BGCOLOR="#ffffff">
      <TR><TD COLSPAN="3"  BGCOLOR="#f5f5f5"><TABLE BORDER="0" CELLSPACING="0"><TR><TD ALIGN="LEFT"><B>vulnerability_bugtracker_ticket</B></TD><TD ALIGN="RIGHT">[table]</TD></TR></TABLE></TD></TR>
      <TR><TD PORT="elipses" COLSPAN="3" ALIGN="LEFT">...</TD></TR>
      <TR><TD ALIGN="LEFT" BGCOLOR="#ffffff">&lt; 3</TD><TD ALIGN="RIGHT" BGCOLOR="#ffffff">0 rows</TD><TD ALIGN="RIGHT" BGCOLOR="#ffffff">  </TD></TR>
    </TABLE>>
    URL="../../tables/vulnerability_bugtracker_ticket.html"
    target="_top"
    tooltip="vulnerability_bugtracker_ticket"
  ];
  "vulnerability_note" [
   label=<
    <TABLE BORDER="0" CELLBORDER="1" CELLSPACING="0" BGCOLOR="#ffffff">
      <TR><TD COLSPAN="3"  BGCOLOR="#f5f5f5"><TABLE BORDER="0" CELLSPACING="0"><TR><TD ALIGN="LEFT"><B>vulnerability_note</B></TD><TD ALIGN="RIGHT">[table]</TD></TR></TABLE></TD></TR>
      <TR><TD PORT="elipses" COLSPAN="3" ALIGN="LEFT">...</TD></TR>
      <TR><TD ALIGN="LEFT" BGCOLOR="#ffffff">&lt; 3</TD><TD ALIGN="RIGHT" BGCOLOR="#ffffff">0 rows</TD><TD ALIGN="RIGHT" BGCOLOR="#ffffff">2 &gt;</TD></TR>
    </TABLE>>
    URL="../../tables/vulnerability_note.html"
    target="_top"
    tooltip="vulnerability_note"
  ];
  "vulnerability_note_viewed" [
   label=<
    <TABLE BORDER="0" CELLBORDER="1" CELLSPACING="0" BGCOLOR="#ffffff">
      <TR><TD COLSPAN="3"  BGCOLOR="#f5f5f5"><TABLE BORDER="0" CELLSPACING="0"><TR><TD ALIGN="LEFT"><B>vulnerability_note_viewed</B></TD><TD ALIGN="RIGHT">[table]</TD></TR></TABLE></TD></TR>
      <TR><TD PORT="elipses" COLSPAN="3" ALIGN="LEFT">...</TD></TR>
      <TR><TD ALIGN="LEFT" BGCOLOR="#ffffff">&lt; 2</TD><TD ALIGN="RIGHT" BGCOLOR="#ffffff">0 rows</TD><TD ALIGN="RIGHT" BGCOLOR="#ffffff">  </TD></TR>
    </TABLE>>
    URL="../../tables/vulnerability_note_viewed.html"
    target="_top"
    tooltip="vulnerability_note_viewed"
  ];
}
