<?xml version="1.0" encoding="UTF-8" standalone="no"?>
<!DOCTYPE svg PUBLIC "-//W3C//DTD SVG 1.1//EN"
 "http://www.w3.org/Graphics/SVG/1.1/DTD/svg11.dtd">
<!-- Generated by graphviz version 2.40.1 (20161225.0304)
 -->
<!-- Title: oneDegreeRelationshipsDiagram Pages: 1 -->
<svg width="564pt" height="182pt"
 viewBox="0.00 0.00 564.00 182.20" xmlns="http://www.w3.org/2000/svg" xmlns:xlink="http://www.w3.org/1999/xlink">
<g id="graph0" class="graph" transform="scale(1 1) rotate(0) translate(4 178.2)">
<title>oneDegreeRelationshipsDiagram</title>
<polygon fill="#ffffff" stroke="transparent" points="-4,4 -4,-178.2 560,-178.2 560,4 -4,4"/>
<text text-anchor="middle" x="72.4936" y="-7.3" font-family="Helvetica,sans-Serif" font-size="11.00" fill="#000000">Generated by SchemaSpy</text>
<!-- rasp_alert_attacks_triggers_interval -->
<g id="node1" class="node">
<title>rasp_alert_attacks_triggers_interval</title>
<g id="a_node1"><a xlink:href="../../tables/rasp_alert_attacks_triggers_interval.html" xlink:title="rasp_alert_attacks_triggers_interval" target="_top">
<polygon fill="#ffffff" stroke="transparent" points="234,-58.2 234,-170.2 548,-170.2 548,-58.2 234,-58.2"/>
<polygon fill="#f5f5f5" stroke="transparent" points="236,-145.2 236,-168.2 546,-168.2 546,-145.2 236,-145.2"/>
<polygon fill="none" stroke="#000000" points="236,-145.2 236,-168.2 546,-168.2 546,-145.2 236,-145.2"/>
<text text-anchor="start" x="241" y="-154.3" font-family="Helvetica,sans-Serif" font-weight="bold" font-size="11.00" fill="#000000">rasp_alert_attacks_triggers_interval</text>
<text text-anchor="start" x="511.0437" y="-153.3" font-family="Helvetica,sans-Serif" font-size="11.00" fill="#000000">[table]</text>
<polygon fill="none" stroke="#000000" points="236,-123.2 236,-145.2 463,-145.2 463,-123.2 236,-123.2"/>
<image xlink:href="../../images/primaryKeys.png" width="11px" height="12px" preserveAspectRatio="xMinYMin meet" x="241" y="-140.2"/>
<text text-anchor="start" x="256" y="-130.3" font-family="Helvetica,sans-Serif" font-size="11.00" fill="#000000">id</text>
<polygon fill="none" stroke="#000000" points="463,-123.2 463,-145.2 546,-145.2 546,-123.2 463,-123.2"/>
<text text-anchor="start" x="465.6783" y="-130.9" font-family="Helvetica,sans-Serif" font-size="11.00" fill="#000000">int unsigned[10]</text>
<polygon fill="#ffffff" stroke="transparent" points="236,-101.2 236,-123.2 463,-123.2 463,-101.2 236,-101.2"/>
<polygon fill="none" stroke="#000000" points="236,-101.2 236,-123.2 463,-123.2 463,-101.2 236,-101.2"/>
<image xlink:href="../../images/foreignKeys.png" width="11px" height="12px" preserveAspectRatio="xMinYMin meet" x="241" y="-118.2"/>
<text text-anchor="start" x="256" y="-108.3" font-family="Helvetica,sans-Serif" font-size="11.00" fill="#000000">rasp_alert_attacks_triggers_id</text>
<polygon fill="none" stroke="#000000" points="463,-101.2 463,-123.2 546,-123.2 546,-101.2 463,-101.2"/>
<text text-anchor="start" x="465.6783" y="-108.9" font-family="Helvetica,sans-Serif" font-size="11.00" fill="#000000">int unsigned[10]</text>
<polygon fill="#ffffff" stroke="transparent" points="236,-79.2 236,-101.2 463,-101.2 463,-79.2 236,-79.2"/>
<polygon fill="none" stroke="#000000" points="236,-79.2 236,-101.2 463,-101.2 463,-79.2 236,-79.2"/>
<text text-anchor="start" x="256" y="-86.3" font-family="Helvetica,sans-Serif" font-size="11.00" fill="#000000">trigger_interval</text>
<polygon fill="none" stroke="#000000" points="463,-79.2 463,-101.2 546,-101.2 546,-79.2 463,-79.2"/>
<text text-anchor="start" x="466" y="-86.9" font-family="Helvetica,sans-Serif" font-size="11.00" fill="#000000">tinyint[3]</text>
<polygon fill="#ffffff" stroke="transparent" points="236,-60.2 236,-79.2 341,-79.2 341,-60.2 236,-60.2"/>
<polygon fill="none" stroke="#000000" points="236,-60.2 236,-79.2 341,-79.2 341,-60.2 236,-60.2"/>
<text text-anchor="start" x="239" y="-66.3" font-family="Helvetica,sans-Serif" font-size="11.00" fill="#000000">&lt; 1</text>
<polygon fill="#ffffff" stroke="transparent" points="341,-60.2 341,-79.2 463,-79.2 463,-60.2 341,-60.2"/>
<polygon fill="none" stroke="#000000" points="341,-60.2 341,-79.2 463,-79.2 463,-60.2 341,-60.2"/>
<text text-anchor="start" x="427.6105" y="-66.3" font-family="Helvetica,sans-Serif" font-size="11.00" fill="#000000">0 rows</text>
<polygon fill="#ffffff" stroke="transparent" points="463,-60.2 463,-79.2 546,-79.2 546,-60.2 463,-60.2"/>
<polygon fill="none" stroke="#000000" points="463,-60.2 463,-79.2 546,-79.2 546,-60.2 463,-60.2"/>
<text text-anchor="start" x="527.4053" y="-66.3" font-family="Helvetica,sans-Serif" font-size="11.00" fill="#000000">0 &gt;</text>
<polygon fill="none" stroke="#000000" stroke-width="2" points="235,-59.2 235,-169.2 547,-169.2 547,-59.2 235,-59.2"/>
</a>
</g>
</g>
<!-- rasp_alert_attacks_triggers -->
<g id="node2" class="node">
<title>rasp_alert_attacks_triggers</title>
<g id="a_node2"><a xlink:href="../../tables/rasp_alert_attacks_triggers.html" xlink:title="rasp_alert_attacks_triggers" target="_top">
<polygon fill="#ffffff" stroke="transparent" points="8,-38.2 8,-146.2 185,-146.2 185,-38.2 8,-38.2"/>
<polygon fill="#f5f5f5" stroke="transparent" points="8.5,-123.2 8.5,-146.2 185.5,-146.2 185.5,-123.2 8.5,-123.2"/>
<polygon fill="none" stroke="#000000" points="8.5,-123.2 8.5,-146.2 185.5,-146.2 185.5,-123.2 8.5,-123.2"/>
<text text-anchor="start" x="13.5" y="-132.3" font-family="Helvetica,sans-Serif" font-weight="bold" font-size="11.00" fill="#000000">rasp_alert_attacks_triggers</text>
<text text-anchor="start" x="150.5437" y="-131.3" font-family="Helvetica,sans-Serif" font-size="11.00" fill="#000000">[table]</text>
<polygon fill="none" stroke="#000000" points="8.5,-101.2 8.5,-123.2 185.5,-123.2 185.5,-101.2 8.5,-101.2"/>
<image xlink:href="../../images/primaryKeys.png" width="11px" height="12px" preserveAspectRatio="xMinYMin meet" x="13.5" y="-118.2"/>
<text text-anchor="start" x="28.5" y="-108.3" font-family="Helvetica,sans-Serif" font-size="11.00" fill="#000000">id</text>
<polygon fill="#ffffff" stroke="transparent" points="8.5,-79.2 8.5,-101.2 185.5,-101.2 185.5,-79.2 8.5,-79.2"/>
<polygon fill="none" stroke="#000000" points="8.5,-79.2 8.5,-101.2 185.5,-101.2 185.5,-79.2 8.5,-79.2"/>
<image xlink:href="../../images/foreignKeys.png" width="11px" height="12px" preserveAspectRatio="xMinYMin meet" x="13.5" y="-96.2"/>
<text text-anchor="start" x="28.5" y="-86.3" font-family="Helvetica,sans-Serif" font-size="11.00" fill="#000000">rasp_alert_attacks_id</text>
<polygon fill="#ffffff" stroke="transparent" points="8.5,-57.2 8.5,-79.2 185.5,-79.2 185.5,-57.2 8.5,-57.2"/>
<polygon fill="none" stroke="#000000" points="8.5,-57.2 8.5,-79.2 185.5,-79.2 185.5,-57.2 8.5,-57.2"/>
<text text-anchor="start" x="28.5" y="-64.3" font-family="Helvetica,sans-Serif" font-size="11.00" fill="#000000">trigger_type</text>
<polygon fill="#ffffff" stroke="transparent" points="8.5,-38.2 8.5,-57.2 77.5,-57.2 77.5,-38.2 8.5,-38.2"/>
<polygon fill="none" stroke="#000000" points="8.5,-38.2 8.5,-57.2 77.5,-57.2 77.5,-38.2 8.5,-38.2"/>
<text text-anchor="start" x="11.5" y="-44.3" font-family="Helvetica,sans-Serif" font-size="11.00" fill="#000000">&lt; 1</text>
<polygon fill="#ffffff" stroke="transparent" points="77.5,-38.2 77.5,-57.2 139.5,-57.2 139.5,-38.2 77.5,-38.2"/>
<polygon fill="none" stroke="#000000" points="77.5,-38.2 77.5,-57.2 139.5,-57.2 139.5,-38.2 77.5,-38.2"/>
<text text-anchor="start" x="104.1105" y="-44.3" font-family="Helvetica,sans-Serif" font-size="11.00" fill="#000000">0 rows</text>
<polygon fill="#ffffff" stroke="transparent" points="139.5,-38.2 139.5,-57.2 185.5,-57.2 185.5,-38.2 139.5,-38.2"/>
<polygon fill="none" stroke="#000000" points="139.5,-38.2 139.5,-57.2 185.5,-57.2 185.5,-38.2 139.5,-38.2"/>
<text text-anchor="start" x="166.9053" y="-44.3" font-family="Helvetica,sans-Serif" font-size="11.00" fill="#000000">2 &gt;</text>
</a>
</g>
</g>
<!-- rasp_alert_attacks_triggers_interval&#45;&gt;rasp_alert_attacks_triggers -->
<g id="edge1" class="edge">
<title>rasp_alert_attacks_triggers_interval:w&#45;&gt;rasp_alert_attacks_triggers:e</title>
<path fill="none" stroke="#000000" d="M221.4203,-112.2C209.5435,-112.2 202.158,-112.2 185.5,-112.2"/>
<polygon fill="#000000" stroke="#000000" points="228,-112.2001 236,-115.8 232,-112.2 236,-112.2 236,-112.2 236,-112.2 232,-112.2 236,-108.6 228,-112.2001 228,-112.2001"/>
<ellipse fill="none" stroke="#000000" cx="224.8" cy="-112.2001" rx="3.2" ry="3.2"/>
</g>
</g>
</svg>
