<?xml version="1.0" encoding="UTF-8" standalone="no"?>
<!DOCTYPE svg PUBLIC "-//W3C//DTD SVG 1.1//EN"
 "http://www.w3.org/Graphics/SVG/1.1/DTD/svg11.dtd">
<!-- Generated by graphviz version 2.40.1 (20161225.0304)
 -->
<!-- Title: twoDegreesRelationshipsDiagram Pages: 1 -->
<svg width="677pt" height="469pt"
 viewBox="0.00 0.00 677.00 469.20" xmlns="http://www.w3.org/2000/svg" xmlns:xlink="http://www.w3.org/1999/xlink">
<g id="graph0" class="graph" transform="scale(1 1) rotate(0) translate(4 465.2)">
<title>twoDegreesRelationshipsDiagram</title>
<polygon fill="#ffffff" stroke="transparent" points="-4,4 -4,-465.2 673,-465.2 673,4 -4,4"/>
<text text-anchor="middle" x="72.4936" y="-7.3" font-family="Helvetica,sans-Serif" font-size="11.00" fill="#000000">Generated by SchemaSpy</text>
<!-- rasp_virtual_patches -->
<g id="node1" class="node">
<title>rasp_virtual_patches</title>
<g id="a_node1"><a xlink:href="../../tables/rasp_virtual_patches.html" xlink:title="rasp_virtual_patches" target="_top">
<polygon fill="#ffffff" stroke="transparent" points="165,-145.2 165,-294.2 309,-294.2 309,-145.2 165,-145.2"/>
<polygon fill="#f5f5f5" stroke="transparent" points="165,-270.7 165,-293.7 309,-293.7 309,-270.7 165,-270.7"/>
<polygon fill="none" stroke="#000000" points="165,-270.7 165,-293.7 309,-293.7 309,-270.7 165,-270.7"/>
<text text-anchor="start" x="169.7658" y="-279.8" font-family="Helvetica,sans-Serif" font-weight="bold" font-size="11.00" fill="#000000">rasp_virtual_patches</text>
<text text-anchor="start" x="274.5219" y="-278.8" font-family="Helvetica,sans-Serif" font-size="11.00" fill="#000000">[table]</text>
<polygon fill="none" stroke="#000000" points="165,-248.7 165,-270.7 309,-270.7 309,-248.7 165,-248.7"/>
<image xlink:href="../../images/primaryKeys.png" width="11px" height="12px" preserveAspectRatio="xMinYMin meet" x="170" y="-265.7"/>
<text text-anchor="start" x="187" y="-255.8" font-family="Helvetica,sans-Serif" font-size="11.00" fill="#000000">id</text>
<polygon fill="#ffffff" stroke="transparent" points="165,-226.7 165,-248.7 309,-248.7 309,-226.7 165,-226.7"/>
<polygon fill="none" stroke="#000000" points="165,-226.7 165,-248.7 309,-248.7 309,-226.7 165,-226.7"/>
<text text-anchor="start" x="187" y="-233.8" font-family="Helvetica,sans-Serif" font-size="11.00" fill="#000000">name</text>
<polygon fill="#ffffff" stroke="transparent" points="165,-204.7 165,-226.7 309,-226.7 309,-204.7 165,-204.7"/>
<polygon fill="none" stroke="#000000" points="165,-204.7 165,-226.7 309,-226.7 309,-204.7 165,-204.7"/>
<image xlink:href="../../images/foreignKeys.png" width="11px" height="12px" preserveAspectRatio="xMinYMin meet" x="170" y="-221.7"/>
<text text-anchor="start" x="187" y="-211.8" font-family="Helvetica,sans-Serif" font-size="11.00" fill="#000000">organizations_id</text>
<polygon fill="#ffffff" stroke="transparent" points="165,-182.7 165,-204.7 309,-204.7 309,-182.7 165,-182.7"/>
<polygon fill="none" stroke="#000000" points="165,-182.7 165,-204.7 309,-204.7 309,-182.7 165,-182.7"/>
<text text-anchor="start" x="187" y="-189.8" font-family="Helvetica,sans-Serif" font-size="11.00" fill="#000000">uuid</text>
<polygon fill="none" stroke="#000000" points="165,-163.7 165,-182.7 309,-182.7 309,-163.7 165,-163.7"/>
<text text-anchor="start" x="168" y="-169.8" font-family="Helvetica,sans-Serif" font-size="11.00" fill="#000000">...</text>
<polygon fill="#ffffff" stroke="transparent" points="165,-144.7 165,-163.7 218,-163.7 218,-144.7 165,-144.7"/>
<polygon fill="none" stroke="#000000" points="165,-144.7 165,-163.7 218,-163.7 218,-144.7 165,-144.7"/>
<text text-anchor="start" x="168" y="-150.8" font-family="Helvetica,sans-Serif" font-size="11.00" fill="#000000">&lt; 1</text>
<polygon fill="#ffffff" stroke="transparent" points="218,-144.7 218,-163.7 272,-163.7 272,-144.7 218,-144.7"/>
<polygon fill="none" stroke="#000000" points="218,-144.7 218,-163.7 272,-163.7 272,-144.7 218,-144.7"/>
<text text-anchor="start" x="236.6105" y="-150.8" font-family="Helvetica,sans-Serif" font-size="11.00" fill="#000000">0 rows</text>
<polygon fill="#ffffff" stroke="transparent" points="272,-144.7 272,-163.7 309,-163.7 309,-144.7 272,-144.7"/>
<polygon fill="none" stroke="#000000" points="272,-144.7 272,-163.7 309,-163.7 309,-144.7 272,-144.7"/>
<text text-anchor="start" x="290.4053" y="-150.8" font-family="Helvetica,sans-Serif" font-size="11.00" fill="#000000">5 &gt;</text>
</a>
</g>
</g>
<!-- organizations -->
<g id="node2" class="node">
<title>organizations</title>
<g id="a_node2"><a xlink:href="../../tables/organizations.html" xlink:title="organizations" target="_top">
<polygon fill="#ffffff" stroke="transparent" points="8,-188.2 8,-249.2 116,-249.2 116,-188.2 8,-188.2"/>
<polygon fill="#f5f5f5" stroke="transparent" points="8,-225.7 8,-248.7 116,-248.7 116,-225.7 8,-225.7"/>
<polygon fill="none" stroke="#000000" points="8,-225.7 8,-248.7 116,-248.7 116,-225.7 8,-225.7"/>
<text text-anchor="start" x="12.7976" y="-234.8" font-family="Helvetica,sans-Serif" font-weight="bold" font-size="11.00" fill="#000000">organizations</text>
<text text-anchor="start" x="81.5219" y="-233.8" font-family="Helvetica,sans-Serif" font-size="11.00" fill="#000000">[table]</text>
<polygon fill="none" stroke="#000000" points="8,-206.7 8,-225.7 116,-225.7 116,-206.7 8,-206.7"/>
<text text-anchor="start" x="11" y="-212.8" font-family="Helvetica,sans-Serif" font-size="11.00" fill="#000000">...</text>
<polygon fill="#ffffff" stroke="transparent" points="8,-187.7 8,-206.7 40,-206.7 40,-187.7 8,-187.7"/>
<polygon fill="none" stroke="#000000" points="8,-187.7 8,-206.7 40,-206.7 40,-187.7 8,-187.7"/>
<text text-anchor="start" x="11" y="-193.8" font-family="Helvetica,sans-Serif" font-size="11.00" fill="#000000">&lt; 4</text>
<polygon fill="#ffffff" stroke="transparent" points="40,-187.7 40,-206.7 83,-206.7 83,-187.7 40,-187.7"/>
<polygon fill="none" stroke="#000000" points="40,-187.7 40,-206.7 83,-206.7 83,-187.7 40,-187.7"/>
<text text-anchor="start" x="47.6105" y="-193.8" font-family="Helvetica,sans-Serif" font-size="11.00" fill="#000000">3 rows</text>
<polygon fill="#ffffff" stroke="transparent" points="83,-187.7 83,-206.7 116,-206.7 116,-187.7 83,-187.7"/>
<polygon fill="none" stroke="#000000" points="83,-187.7 83,-206.7 116,-206.7 116,-187.7 83,-187.7"/>
<text text-anchor="start" x="91.2904" y="-193.8" font-family="Helvetica,sans-Serif" font-size="11.00" fill="#000000">81 &gt;</text>
</a>
</g>
</g>
<!-- rasp_virtual_patches&#45;&gt;organizations -->
<g id="edge1" class="edge">
<title>rasp_virtual_patches:w&#45;&gt;organizations:e</title>
<path fill="none" stroke="#000000" d="M150.4909,-215.7C139.1774,-215.7 131.9931,-215.7 116,-215.7"/>
<polygon fill="#000000" stroke="#000000" points="157,-215.7001 165,-219.3 161,-215.7 165,-215.7 165,-215.7 165,-215.7 161,-215.7 165,-212.1 157,-215.7001 157,-215.7001"/>
<ellipse fill="none" stroke="#000000" cx="153.8" cy="-215.7001" rx="3.2" ry="3.2"/>
</g>
<!-- rasp_virtual_patches_applications_map -->
<g id="node3" class="node">
<title>rasp_virtual_patches_applications_map</title>
<g id="a_node3"><a xlink:href="../../tables/rasp_virtual_patches_applications_map.html" xlink:title="rasp_virtual_patches_applications_map" target="_top">
<polygon fill="#ffffff" stroke="transparent" points="391.5,-396.2 391.5,-457.2 627.5,-457.2 627.5,-396.2 391.5,-396.2"/>
<polygon fill="#f5f5f5" stroke="transparent" points="391.5,-433.7 391.5,-456.7 627.5,-456.7 627.5,-433.7 391.5,-433.7"/>
<polygon fill="none" stroke="#000000" points="391.5,-433.7 391.5,-456.7 627.5,-456.7 627.5,-433.7 391.5,-433.7"/>
<text text-anchor="start" x="396.4206" y="-442.8" font-family="Helvetica,sans-Serif" font-weight="bold" font-size="11.00" fill="#000000">rasp_virtual_patches_applications_map</text>
<text text-anchor="start" x="593.0219" y="-441.8" font-family="Helvetica,sans-Serif" font-size="11.00" fill="#000000">[table]</text>
<polygon fill="none" stroke="#000000" points="391.5,-414.7 391.5,-433.7 627.5,-433.7 627.5,-414.7 391.5,-414.7"/>
<text text-anchor="start" x="394.5" y="-420.8" font-family="Helvetica,sans-Serif" font-size="11.00" fill="#000000">...</text>
<polygon fill="#ffffff" stroke="transparent" points="391.5,-395.7 391.5,-414.7 494.5,-414.7 494.5,-395.7 391.5,-395.7"/>
<polygon fill="none" stroke="#000000" points="391.5,-395.7 391.5,-414.7 494.5,-414.7 494.5,-395.7 391.5,-395.7"/>
<text text-anchor="start" x="394.5" y="-401.8" font-family="Helvetica,sans-Serif" font-size="11.00" fill="#000000">&lt; 2</text>
<polygon fill="#ffffff" stroke="transparent" points="494.5,-395.7 494.5,-414.7 573.5,-414.7 573.5,-395.7 494.5,-395.7"/>
<polygon fill="none" stroke="#000000" points="494.5,-395.7 494.5,-414.7 573.5,-414.7 573.5,-395.7 494.5,-395.7"/>
<text text-anchor="start" x="538.1105" y="-401.8" font-family="Helvetica,sans-Serif" font-size="11.00" fill="#000000">0 rows</text>
<polygon fill="#ffffff" stroke="transparent" points="573.5,-395.7 573.5,-414.7 627.5,-414.7 627.5,-395.7 573.5,-395.7"/>
<polygon fill="none" stroke="#000000" points="573.5,-395.7 573.5,-414.7 627.5,-414.7 627.5,-395.7 573.5,-395.7"/>
<text text-anchor="start" x="618.3862" y="-401.8" font-family="Helvetica,sans-Serif" font-size="11.00" fill="#000000"> &#160;</text>
</a>
</g>
</g>
<!-- rasp_virtual_patches_applications_map&#45;&gt;rasp_virtual_patches -->
<g id="edge2" class="edge">
<title>rasp_virtual_patches_applications_map:w&#45;&gt;rasp_virtual_patches:e</title>
<path fill="none" stroke="#000000" d="M377.1301,-421.0694C364.5253,-415.5215 360.3646,-401.7995 350,-385.7 318.1222,-336.1838 367.8901,-259.7 309,-259.7"/>
<polygon fill="#000000" stroke="#000000" points="383.6308,-422.2594 390.8517,-427.2412 387.5654,-422.9797 391.5,-423.7 391.5,-423.7 391.5,-423.7 387.5654,-422.9797 392.1483,-420.1588 383.6308,-422.2594 383.6308,-422.2594"/>
<ellipse fill="none" stroke="#000000" cx="380.4831" cy="-421.6831" rx="3.2" ry="3.2"/>
</g>
<!-- rasp_virtual_patches_criterias -->
<g id="node4" class="node">
<title>rasp_virtual_patches_criterias</title>
<g id="a_node4"><a xlink:href="../../tables/rasp_virtual_patches_criterias.html" xlink:title="rasp_virtual_patches_criterias" target="_top">
<polygon fill="#ffffff" stroke="transparent" points="415,-314.2 415,-375.2 604,-375.2 604,-314.2 415,-314.2"/>
<polygon fill="#f5f5f5" stroke="transparent" points="415.5,-351.7 415.5,-374.7 604.5,-374.7 604.5,-351.7 415.5,-351.7"/>
<polygon fill="none" stroke="#000000" points="415.5,-351.7 415.5,-374.7 604.5,-374.7 604.5,-351.7 415.5,-351.7"/>
<text text-anchor="start" x="420.4622" y="-360.8" font-family="Helvetica,sans-Serif" font-weight="bold" font-size="11.00" fill="#000000">rasp_virtual_patches_criterias</text>
<text text-anchor="start" x="570.0219" y="-359.8" font-family="Helvetica,sans-Serif" font-size="11.00" fill="#000000">[table]</text>
<polygon fill="none" stroke="#000000" points="415.5,-332.7 415.5,-351.7 604.5,-351.7 604.5,-332.7 415.5,-332.7"/>
<text text-anchor="start" x="418.5" y="-338.8" font-family="Helvetica,sans-Serif" font-size="11.00" fill="#000000">...</text>
<polygon fill="#ffffff" stroke="transparent" points="415.5,-313.7 415.5,-332.7 495.5,-332.7 495.5,-313.7 415.5,-313.7"/>
<polygon fill="none" stroke="#000000" points="415.5,-313.7 415.5,-332.7 495.5,-332.7 495.5,-313.7 415.5,-313.7"/>
<text text-anchor="start" x="418.5" y="-319.8" font-family="Helvetica,sans-Serif" font-size="11.00" fill="#000000">&lt; 1</text>
<polygon fill="#ffffff" stroke="transparent" points="495.5,-313.7 495.5,-332.7 562.5,-332.7 562.5,-313.7 495.5,-313.7"/>
<polygon fill="none" stroke="#000000" points="495.5,-313.7 495.5,-332.7 562.5,-332.7 562.5,-313.7 495.5,-313.7"/>
<text text-anchor="start" x="527.1105" y="-319.8" font-family="Helvetica,sans-Serif" font-size="11.00" fill="#000000">0 rows</text>
<polygon fill="#ffffff" stroke="transparent" points="562.5,-313.7 562.5,-332.7 604.5,-332.7 604.5,-313.7 562.5,-313.7"/>
<polygon fill="none" stroke="#000000" points="562.5,-313.7 562.5,-332.7 604.5,-332.7 604.5,-313.7 562.5,-313.7"/>
<text text-anchor="start" x="595.3862" y="-319.8" font-family="Helvetica,sans-Serif" font-size="11.00" fill="#000000"> &#160;</text>
</a>
</g>
</g>
<!-- rasp_virtual_patches_criterias&#45;&gt;rasp_virtual_patches -->
<g id="edge3" class="edge">
<title>rasp_virtual_patches_criterias:w&#45;&gt;rasp_virtual_patches:e</title>
<path fill="none" stroke="#000000" d="M400.9902,-340.3836C379.4702,-336.0097 371.9961,-321.241 350,-303.7 329.1018,-287.0346 335.7296,-259.7 309,-259.7"/>
<polygon fill="#000000" stroke="#000000" points="407.5327,-340.9771 415.1747,-345.2853 411.5164,-341.3385 415.5,-341.7 415.5,-341.7 415.5,-341.7 411.5164,-341.3385 415.8253,-338.1147 407.5327,-340.9771 407.5327,-340.9771"/>
<ellipse fill="none" stroke="#000000" cx="404.3458" cy="-340.6879" rx="3.2" ry="3.2"/>
</g>
<!-- rasp_virtual_patches_environments -->
<g id="node5" class="node">
<title>rasp_virtual_patches_environments</title>
<g id="a_node5"><a xlink:href="../../tables/rasp_virtual_patches_environments.html" xlink:title="rasp_virtual_patches_environments" target="_top">
<polygon fill="#ffffff" stroke="transparent" points="401.5,-232.2 401.5,-293.2 617.5,-293.2 617.5,-232.2 401.5,-232.2"/>
<polygon fill="#f5f5f5" stroke="transparent" points="401.5,-269.7 401.5,-292.7 617.5,-292.7 617.5,-269.7 401.5,-269.7"/>
<polygon fill="none" stroke="#000000" points="401.5,-269.7 401.5,-292.7 617.5,-292.7 617.5,-269.7 401.5,-269.7"/>
<text text-anchor="start" x="406.2029" y="-278.8" font-family="Helvetica,sans-Serif" font-weight="bold" font-size="11.00" fill="#000000">rasp_virtual_patches_environments</text>
<text text-anchor="start" x="583.0219" y="-277.8" font-family="Helvetica,sans-Serif" font-size="11.00" fill="#000000">[table]</text>
<polygon fill="none" stroke="#000000" points="401.5,-250.7 401.5,-269.7 617.5,-269.7 617.5,-250.7 401.5,-250.7"/>
<text text-anchor="start" x="404.5" y="-256.8" font-family="Helvetica,sans-Serif" font-size="11.00" fill="#000000">...</text>
<polygon fill="#ffffff" stroke="transparent" points="401.5,-231.7 401.5,-250.7 494.5,-250.7 494.5,-231.7 401.5,-231.7"/>
<polygon fill="none" stroke="#000000" points="401.5,-231.7 401.5,-250.7 494.5,-250.7 494.5,-231.7 401.5,-231.7"/>
<text text-anchor="start" x="404.5" y="-237.8" font-family="Helvetica,sans-Serif" font-size="11.00" fill="#000000">&lt; 1</text>
<polygon fill="#ffffff" stroke="transparent" points="494.5,-231.7 494.5,-250.7 568.5,-250.7 568.5,-231.7 494.5,-231.7"/>
<polygon fill="none" stroke="#000000" points="494.5,-231.7 494.5,-250.7 568.5,-250.7 568.5,-231.7 494.5,-231.7"/>
<text text-anchor="start" x="533.1105" y="-237.8" font-family="Helvetica,sans-Serif" font-size="11.00" fill="#000000">0 rows</text>
<polygon fill="#ffffff" stroke="transparent" points="568.5,-231.7 568.5,-250.7 617.5,-250.7 617.5,-231.7 568.5,-231.7"/>
<polygon fill="none" stroke="#000000" points="568.5,-231.7 568.5,-250.7 617.5,-250.7 617.5,-231.7 568.5,-231.7"/>
<text text-anchor="start" x="608.3862" y="-237.8" font-family="Helvetica,sans-Serif" font-size="11.00" fill="#000000"> &#160;</text>
</a>
</g>
</g>
<!-- rasp_virtual_patches_environments&#45;&gt;rasp_virtual_patches -->
<g id="edge4" class="edge">
<title>rasp_virtual_patches_environments:w&#45;&gt;rasp_virtual_patches:e</title>
<path fill="none" stroke="#000000" d="M387.0065,-259.7C357.2268,-259.7 344.8116,-259.7 309,-259.7"/>
<polygon fill="#000000" stroke="#000000" points="393.5,-259.7001 401.5,-263.3 397.5,-259.7 401.5,-259.7 401.5,-259.7 401.5,-259.7 397.5,-259.7 401.5,-256.1 393.5,-259.7001 393.5,-259.7001"/>
<ellipse fill="none" stroke="#000000" cx="390.3" cy="-259.7001" rx="3.2" ry="3.2"/>
</g>
<!-- rasp_virtual_patches_languages_map -->
<g id="node6" class="node">
<title>rasp_virtual_patches_languages_map</title>
<g id="a_node6"><a xlink:href="../../tables/rasp_virtual_patches_languages_map.html" xlink:title="rasp_virtual_patches_languages_map" target="_top">
<polygon fill="#ffffff" stroke="transparent" points="358,-120.7 358,-210.7 661,-210.7 661,-120.7 358,-120.7"/>
<polygon fill="#f5f5f5" stroke="transparent" points="360.5,-185.7 360.5,-208.7 659.5,-208.7 659.5,-185.7 360.5,-185.7"/>
<polygon fill="none" stroke="#000000" points="360.5,-185.7 360.5,-208.7 659.5,-208.7 659.5,-185.7 360.5,-185.7"/>
<text text-anchor="start" x="365.5" y="-194.8" font-family="Helvetica,sans-Serif" font-weight="bold" font-size="11.00" fill="#000000">rasp_virtual_patches_languages_map</text>
<text text-anchor="start" x="624.5437" y="-193.8" font-family="Helvetica,sans-Serif" font-size="11.00" fill="#000000">[table]</text>
<polygon fill="none" stroke="#000000" points="360.5,-163.7 360.5,-185.7 598.5,-185.7 598.5,-163.7 360.5,-163.7"/>
<image xlink:href="../../images/primaryKeys.png" width="11px" height="12px" preserveAspectRatio="xMinYMin meet" x="365.5" y="-180.7"/>
<text text-anchor="start" x="380.5" y="-170.8" font-family="Helvetica,sans-Serif" font-size="11.00" fill="#000000">rasp_virtual_patches_id</text>
<polygon fill="none" stroke="#000000" points="598.5,-163.7 598.5,-185.7 659.5,-185.7 659.5,-163.7 598.5,-163.7"/>
<text text-anchor="start" x="601.5" y="-171.4" font-family="Helvetica,sans-Serif" font-size="11.00" fill="#000000">int[10]</text>
<polygon fill="none" stroke="#000000" points="360.5,-141.7 360.5,-163.7 598.5,-163.7 598.5,-141.7 360.5,-141.7"/>
<image xlink:href="../../images/primaryKeys.png" width="11px" height="12px" preserveAspectRatio="xMinYMin meet" x="365.5" y="-158.7"/>
<text text-anchor="start" x="380.5" y="-148.8" font-family="Helvetica,sans-Serif" font-size="11.00" fill="#000000">language</text>
<polygon fill="none" stroke="#000000" points="598.5,-141.7 598.5,-163.7 659.5,-163.7 659.5,-141.7 598.5,-141.7"/>
<text text-anchor="start" x="601.494" y="-149.4" font-family="Helvetica,sans-Serif" font-size="11.00" fill="#000000">varchar[30]</text>
<polygon fill="#ffffff" stroke="transparent" points="360.5,-122.7 360.5,-141.7 470.5,-141.7 470.5,-122.7 360.5,-122.7"/>
<polygon fill="none" stroke="#000000" points="360.5,-122.7 360.5,-141.7 470.5,-141.7 470.5,-122.7 360.5,-122.7"/>
<text text-anchor="start" x="363.5" y="-128.8" font-family="Helvetica,sans-Serif" font-size="11.00" fill="#000000">&lt; 1</text>
<polygon fill="#ffffff" stroke="transparent" points="470.5,-122.7 470.5,-141.7 598.5,-141.7 598.5,-122.7 470.5,-122.7"/>
<polygon fill="none" stroke="#000000" points="470.5,-122.7 470.5,-141.7 598.5,-141.7 598.5,-122.7 470.5,-122.7"/>
<text text-anchor="start" x="563.1105" y="-128.8" font-family="Helvetica,sans-Serif" font-size="11.00" fill="#000000">0 rows</text>
<polygon fill="#ffffff" stroke="transparent" points="598.5,-122.7 598.5,-141.7 659.5,-141.7 659.5,-122.7 598.5,-122.7"/>
<polygon fill="none" stroke="#000000" points="598.5,-122.7 598.5,-141.7 659.5,-141.7 659.5,-122.7 598.5,-122.7"/>
<text text-anchor="start" x="640.9053" y="-128.8" font-family="Helvetica,sans-Serif" font-size="11.00" fill="#000000">0 &gt;</text>
<polygon fill="none" stroke="#000000" stroke-width="2" points="359,-121.7 359,-209.7 660,-209.7 660,-121.7 359,-121.7"/>
</a>
</g>
</g>
<!-- rasp_virtual_patches_languages_map&#45;&gt;rasp_virtual_patches -->
<g id="edge5" class="edge">
<title>rasp_virtual_patches_languages_map:w&#45;&gt;rasp_virtual_patches:e</title>
<path fill="none" stroke="#000000" d="M346.5119,-179.032C324.8888,-196.3534 347.1318,-259.7 309,-259.7"/>
<polygon fill="#000000" stroke="#000000" points="352.8581,-177.0667 361.565,-178.1389 356.679,-175.8833 360.5,-174.7 360.5,-174.7 360.5,-174.7 356.679,-175.8833 359.435,-171.2611 352.8581,-177.0667 352.8581,-177.0667"/>
<ellipse fill="none" stroke="#000000" cx="349.8013" cy="-178.0134" rx="3.2" ry="3.2"/>
</g>
<!-- rasp_virtual_patches_technologies_map -->
<g id="node7" class="node">
<title>rasp_virtual_patches_technologies_map</title>
<g id="a_node7"><a xlink:href="../../tables/rasp_virtual_patches_technologies_map.html" xlink:title="rasp_virtual_patches_technologies_map" target="_top">
<polygon fill="#ffffff" stroke="transparent" points="390,-38.2 390,-99.2 629,-99.2 629,-38.2 390,-38.2"/>
<polygon fill="#f5f5f5" stroke="transparent" points="390.5,-75.7 390.5,-98.7 629.5,-98.7 629.5,-75.7 390.5,-75.7"/>
<polygon fill="none" stroke="#000000" points="390.5,-75.7 390.5,-98.7 629.5,-98.7 629.5,-75.7 390.5,-75.7"/>
<text text-anchor="start" x="395.0836" y="-84.8" font-family="Helvetica,sans-Serif" font-weight="bold" font-size="11.00" fill="#000000">rasp_virtual_patches_technologies_map</text>
<text text-anchor="start" x="595.0219" y="-83.8" font-family="Helvetica,sans-Serif" font-size="11.00" fill="#000000">[table]</text>
<polygon fill="none" stroke="#000000" points="390.5,-56.7 390.5,-75.7 629.5,-75.7 629.5,-56.7 390.5,-56.7"/>
<text text-anchor="start" x="393.5" y="-62.8" font-family="Helvetica,sans-Serif" font-size="11.00" fill="#000000">...</text>
<polygon fill="#ffffff" stroke="transparent" points="390.5,-37.7 390.5,-56.7 495.5,-56.7 495.5,-37.7 390.5,-37.7"/>
<polygon fill="none" stroke="#000000" points="390.5,-37.7 390.5,-56.7 495.5,-56.7 495.5,-37.7 390.5,-37.7"/>
<text text-anchor="start" x="393.5" y="-43.8" font-family="Helvetica,sans-Serif" font-size="11.00" fill="#000000">&lt; 1</text>
<polygon fill="#ffffff" stroke="transparent" points="495.5,-37.7 495.5,-56.7 575.5,-56.7 575.5,-37.7 495.5,-37.7"/>
<polygon fill="none" stroke="#000000" points="495.5,-37.7 495.5,-56.7 575.5,-56.7 575.5,-37.7 495.5,-37.7"/>
<text text-anchor="start" x="540.1105" y="-43.8" font-family="Helvetica,sans-Serif" font-size="11.00" fill="#000000">0 rows</text>
<polygon fill="#ffffff" stroke="transparent" points="575.5,-37.7 575.5,-56.7 629.5,-56.7 629.5,-37.7 575.5,-37.7"/>
<polygon fill="none" stroke="#000000" points="575.5,-37.7 575.5,-56.7 629.5,-56.7 629.5,-37.7 575.5,-37.7"/>
<text text-anchor="start" x="620.3862" y="-43.8" font-family="Helvetica,sans-Serif" font-size="11.00" fill="#000000"> &#160;</text>
</a>
</g>
</g>
<!-- rasp_virtual_patches_technologies_map&#45;&gt;rasp_virtual_patches -->
<g id="edge6" class="edge">
<title>rasp_virtual_patches_technologies_map:w&#45;&gt;rasp_virtual_patches:e</title>
<path fill="none" stroke="#000000" d="M376.2049,-68.5706C362.7109,-75.1662 360.0905,-92.2588 350,-110.7 317.031,-170.9535 377.6836,-259.7 309,-259.7"/>
<polygon fill="#000000" stroke="#000000" points="382.6566,-67.2751 391.2088,-69.2295 386.5783,-66.4875 390.5,-65.7 390.5,-65.7 390.5,-65.7 386.5783,-66.4875 389.7912,-62.1705 382.6566,-67.2751 382.6566,-67.2751"/>
<ellipse fill="none" stroke="#000000" cx="379.5192" cy="-67.9051" rx="3.2" ry="3.2"/>
</g>
</g>
</svg>
