<?xml version="1.0" encoding="UTF-8" standalone="no"?>
<!DOCTYPE svg PUBLIC "-//W3C//DTD SVG 1.1//EN"
 "http://www.w3.org/Graphics/SVG/1.1/DTD/svg11.dtd">
<!-- Generated by graphviz version 2.40.1 (20161225.0304)
 -->
<!-- Title: twoDegreesRelationshipsDiagram Pages: 1 -->
<svg width="962pt" height="760pt"
 viewBox="0.00 0.00 962.00 759.70" xmlns="http://www.w3.org/2000/svg" xmlns:xlink="http://www.w3.org/1999/xlink">
<g id="graph0" class="graph" transform="scale(1 1) rotate(0) translate(4 755.7)">
<title>twoDegreesRelationshipsDiagram</title>
<polygon fill="#ffffff" stroke="transparent" points="-4,4 -4,-755.7 958,-755.7 958,4 -4,4"/>
<text text-anchor="middle" x="72.4936" y="-7.3" font-family="Helvetica,sans-Serif" font-size="11.00" fill="#000000">Generated by SchemaSpy</text>
<!-- rasp_attack_event -->
<g id="node1" class="node">
<title>rasp_attack_event</title>
<g id="a_node1"><a xlink:href="../../tables/rasp_attack_event.html" xlink:title="rasp_attack_event" target="_top">
<polygon fill="#ffffff" stroke="transparent" points="380,-142.2 380,-445.2 613,-445.2 613,-142.2 380,-142.2"/>
<polygon fill="#f5f5f5" stroke="transparent" points="380.5,-421.7 380.5,-444.7 613.5,-444.7 613.5,-421.7 380.5,-421.7"/>
<polygon fill="none" stroke="#000000" points="380.5,-421.7 380.5,-444.7 613.5,-444.7 613.5,-421.7 380.5,-421.7"/>
<text text-anchor="start" x="385.5" y="-430.8" font-family="Helvetica,sans-Serif" font-weight="bold" font-size="11.00" fill="#000000">rasp_attack_event</text>
<text text-anchor="start" x="578.5437" y="-429.8" font-family="Helvetica,sans-Serif" font-size="11.00" fill="#000000">[table]</text>
<polygon fill="none" stroke="#000000" points="380.5,-399.7 380.5,-421.7 613.5,-421.7 613.5,-399.7 380.5,-399.7"/>
<image xlink:href="../../images/primaryKeys.png" width="11px" height="12px" preserveAspectRatio="xMinYMin meet" x="385.5" y="-416.7"/>
<text text-anchor="start" x="400.5" y="-406.8" font-family="Helvetica,sans-Serif" font-size="11.00" fill="#000000">rasp_attack_event_id</text>
<polygon fill="#ffffff" stroke="transparent" points="380.5,-377.7 380.5,-399.7 613.5,-399.7 613.5,-377.7 380.5,-377.7"/>
<polygon fill="none" stroke="#000000" points="380.5,-377.7 380.5,-399.7 613.5,-399.7 613.5,-377.7 380.5,-377.7"/>
<image xlink:href="../../images/foreignKeys.png" width="11px" height="12px" preserveAspectRatio="xMinYMin meet" x="385.5" y="-394.7"/>
<text text-anchor="start" x="400.5" y="-384.8" font-family="Helvetica,sans-Serif" font-size="11.00" fill="#000000">rasp_attacks_id</text>
<polygon fill="#ffffff" stroke="transparent" points="380.5,-355.7 380.5,-377.7 613.5,-377.7 613.5,-355.7 380.5,-355.7"/>
<polygon fill="none" stroke="#000000" points="380.5,-355.7 380.5,-377.7 613.5,-377.7 613.5,-355.7 380.5,-355.7"/>
<image xlink:href="../../images/foreignKeys.png" width="11px" height="12px" preserveAspectRatio="xMinYMin meet" x="385.5" y="-372.7"/>
<text text-anchor="start" x="400.5" y="-362.8" font-family="Helvetica,sans-Serif" font-size="11.00" fill="#000000">rasp_attacks_applications_id</text>
<polygon fill="#ffffff" stroke="transparent" points="380.5,-333.7 380.5,-355.7 613.5,-355.7 613.5,-333.7 380.5,-333.7"/>
<polygon fill="none" stroke="#000000" points="380.5,-333.7 380.5,-355.7 613.5,-355.7 613.5,-333.7 380.5,-333.7"/>
<text text-anchor="start" x="400.5" y="-340.8" font-family="Helvetica,sans-Serif" font-size="11.00" fill="#000000">status</text>
<polygon fill="#ffffff" stroke="transparent" points="380.5,-311.7 380.5,-333.7 613.5,-333.7 613.5,-311.7 380.5,-311.7"/>
<polygon fill="none" stroke="#000000" points="380.5,-311.7 380.5,-333.7 613.5,-333.7 613.5,-311.7 380.5,-311.7"/>
<text text-anchor="start" x="400.5" y="-318.8" font-family="Helvetica,sans-Serif" font-size="11.00" fill="#000000">timestamp_server</text>
<polygon fill="#ffffff" stroke="transparent" points="380.5,-289.7 380.5,-311.7 613.5,-311.7 613.5,-289.7 380.5,-289.7"/>
<polygon fill="none" stroke="#000000" points="380.5,-289.7 380.5,-311.7 613.5,-311.7 613.5,-289.7 380.5,-289.7"/>
<image xlink:href="../../images/foreignKeys.png" width="11px" height="12px" preserveAspectRatio="xMinYMin meet" x="385.5" y="-306.7"/>
<text text-anchor="start" x="400.5" y="-296.8" font-family="Helvetica,sans-Serif" font-size="11.00" fill="#000000">applications_id</text>
<polygon fill="#ffffff" stroke="transparent" points="380.5,-267.7 380.5,-289.7 613.5,-289.7 613.5,-267.7 380.5,-267.7"/>
<polygon fill="none" stroke="#000000" points="380.5,-267.7 380.5,-289.7 613.5,-289.7 613.5,-267.7 380.5,-267.7"/>
<image xlink:href="../../images/foreignKeys.png" width="11px" height="12px" preserveAspectRatio="xMinYMin meet" x="385.5" y="-284.7"/>
<text text-anchor="start" x="400.5" y="-274.8" font-family="Helvetica,sans-Serif" font-size="11.00" fill="#000000">servers_id</text>
<polygon fill="#ffffff" stroke="transparent" points="380.5,-245.7 380.5,-267.7 613.5,-267.7 613.5,-245.7 380.5,-245.7"/>
<polygon fill="none" stroke="#000000" points="380.5,-245.7 380.5,-267.7 613.5,-267.7 613.5,-245.7 380.5,-245.7"/>
<text text-anchor="start" x="400.5" y="-252.8" font-family="Helvetica,sans-Serif" font-size="11.00" fill="#000000">uuid</text>
<polygon fill="#ffffff" stroke="transparent" points="380.5,-223.7 380.5,-245.7 613.5,-245.7 613.5,-223.7 380.5,-223.7"/>
<polygon fill="none" stroke="#000000" points="380.5,-223.7 380.5,-245.7 613.5,-245.7 613.5,-223.7 380.5,-223.7"/>
<image xlink:href="../../images/foreignKeys.png" width="11px" height="12px" preserveAspectRatio="xMinYMin meet" x="385.5" y="-240.7"/>
<text text-anchor="start" x="400.5" y="-230.8" font-family="Helvetica,sans-Serif" font-size="11.00" fill="#000000">rasp_protection_rules_exceptions_id</text>
<polygon fill="#ffffff" stroke="transparent" points="380.5,-201.7 380.5,-223.7 613.5,-223.7 613.5,-201.7 380.5,-201.7"/>
<polygon fill="none" stroke="#000000" points="380.5,-201.7 380.5,-223.7 613.5,-223.7 613.5,-201.7 380.5,-201.7"/>
<image xlink:href="../../images/foreignKeys.png" width="11px" height="12px" preserveAspectRatio="xMinYMin meet" x="385.5" y="-218.7"/>
<text text-anchor="start" x="400.5" y="-208.8" font-family="Helvetica,sans-Serif" font-size="11.00" fill="#000000">rasp_messages_id</text>
<polygon fill="#ffffff" stroke="transparent" points="380.5,-179.7 380.5,-201.7 613.5,-201.7 613.5,-179.7 380.5,-179.7"/>
<polygon fill="none" stroke="#000000" points="380.5,-179.7 380.5,-201.7 613.5,-201.7 613.5,-179.7 380.5,-179.7"/>
<image xlink:href="../../images/foreignKeys.png" width="11px" height="12px" preserveAspectRatio="xMinYMin meet" x="385.5" y="-196.7"/>
<text text-anchor="start" x="400.5" y="-186.8" font-family="Helvetica,sans-Serif" font-size="11.00" fill="#000000">rasp_protection_rules_id</text>
<polygon fill="none" stroke="#000000" points="380.5,-160.7 380.5,-179.7 613.5,-179.7 613.5,-160.7 380.5,-160.7"/>
<text text-anchor="start" x="383.5" y="-166.8" font-family="Helvetica,sans-Serif" font-size="11.00" fill="#000000">...</text>
<polygon fill="#ffffff" stroke="transparent" points="380.5,-141.7 380.5,-160.7 477.5,-160.7 477.5,-141.7 380.5,-141.7"/>
<polygon fill="none" stroke="#000000" points="380.5,-141.7 380.5,-160.7 477.5,-160.7 477.5,-141.7 380.5,-141.7"/>
<text text-anchor="start" x="383.5" y="-147.8" font-family="Helvetica,sans-Serif" font-size="11.00" fill="#000000">&lt; 7</text>
<polygon fill="#ffffff" stroke="transparent" points="477.5,-141.7 477.5,-160.7 553.5,-160.7 553.5,-141.7 477.5,-141.7"/>
<polygon fill="none" stroke="#000000" points="477.5,-141.7 477.5,-160.7 553.5,-160.7 553.5,-141.7 477.5,-141.7"/>
<text text-anchor="start" x="518.1105" y="-147.8" font-family="Helvetica,sans-Serif" font-size="11.00" fill="#000000">0 rows</text>
<polygon fill="#ffffff" stroke="transparent" points="553.5,-141.7 553.5,-160.7 613.5,-160.7 613.5,-141.7 553.5,-141.7"/>
<polygon fill="none" stroke="#000000" points="553.5,-141.7 553.5,-160.7 613.5,-160.7 613.5,-141.7 553.5,-141.7"/>
<text text-anchor="start" x="594.9053" y="-147.8" font-family="Helvetica,sans-Serif" font-size="11.00" fill="#000000">5 &gt;</text>
</a>
</g>
</g>
<!-- applications -->
<g id="node2" class="node">
<title>applications</title>
<g id="a_node2"><a xlink:href="../../tables/applications.html" xlink:title="applications" target="_top">
<polygon fill="#ffffff" stroke="transparent" points="10,-244.2 10,-305.2 111,-305.2 111,-244.2 10,-244.2"/>
<polygon fill="#f5f5f5" stroke="transparent" points="10.5,-281.7 10.5,-304.7 111.5,-304.7 111.5,-281.7 10.5,-281.7"/>
<polygon fill="none" stroke="#000000" points="10.5,-281.7 10.5,-304.7 111.5,-304.7 111.5,-281.7 10.5,-281.7"/>
<text text-anchor="start" x="15.4655" y="-290.8" font-family="Helvetica,sans-Serif" font-weight="bold" font-size="11.00" fill="#000000">applications</text>
<text text-anchor="start" x="77.0219" y="-289.8" font-family="Helvetica,sans-Serif" font-size="11.00" fill="#000000">[table]</text>
<polygon fill="none" stroke="#000000" points="10.5,-262.7 10.5,-281.7 111.5,-281.7 111.5,-262.7 10.5,-262.7"/>
<text text-anchor="start" x="13.5" y="-268.8" font-family="Helvetica,sans-Serif" font-size="11.00" fill="#000000">...</text>
<polygon fill="#ffffff" stroke="transparent" points="10.5,-243.7 10.5,-262.7 38.5,-262.7 38.5,-243.7 10.5,-243.7"/>
<polygon fill="none" stroke="#000000" points="10.5,-243.7 10.5,-262.7 38.5,-262.7 38.5,-243.7 10.5,-243.7"/>
<text text-anchor="start" x="13.5" y="-249.8" font-family="Helvetica,sans-Serif" font-size="11.00" fill="#000000">&lt; 3</text>
<polygon fill="#ffffff" stroke="transparent" points="38.5,-243.7 38.5,-262.7 80.5,-262.7 80.5,-243.7 38.5,-243.7"/>
<polygon fill="none" stroke="#000000" points="38.5,-243.7 38.5,-262.7 80.5,-262.7 80.5,-243.7 38.5,-243.7"/>
<text text-anchor="start" x="45.1105" y="-249.8" font-family="Helvetica,sans-Serif" font-size="11.00" fill="#000000">0 rows</text>
<polygon fill="#ffffff" stroke="transparent" points="80.5,-243.7 80.5,-262.7 111.5,-262.7 111.5,-243.7 80.5,-243.7"/>
<polygon fill="none" stroke="#000000" points="80.5,-243.7 80.5,-262.7 111.5,-262.7 111.5,-243.7 80.5,-243.7"/>
<text text-anchor="start" x="86.7904" y="-249.8" font-family="Helvetica,sans-Serif" font-size="11.00" fill="#000000">57 &gt;</text>
</a>
</g>
</g>
<!-- rasp_attack_event&#45;&gt;applications -->
<g id="edge1" class="edge">
<title>rasp_attack_event:w&#45;&gt;applications:e</title>
<path fill="none" stroke="#000000" d="M365.9731,-300.8759C276.758,-303.0523 245.9058,-324.2409 154,-297.7 132.7261,-291.5565 133.6432,-271.7 111.5,-271.7"/>
<polygon fill="#000000" stroke="#000000" points="372.5006,-300.7969 380.5436,-304.2997 376.5003,-300.7485 380.5,-300.7 380.5,-300.7 380.5,-300.7 376.5003,-300.7485 380.4564,-297.1003 372.5006,-300.7969 372.5006,-300.7969"/>
<ellipse fill="none" stroke="#000000" cx="369.3008" cy="-300.8357" rx="3.2" ry="3.2"/>
</g>
<!-- rasp_attacks_applications -->
<g id="node3" class="node">
<title>rasp_attacks_applications</title>
<g id="a_node3"><a xlink:href="../../tables/rasp_attacks_applications.html" xlink:title="rasp_attacks_applications" target="_top">
<polygon fill="#ffffff" stroke="transparent" points="162,-339.2 162,-400.2 331,-400.2 331,-339.2 162,-339.2"/>
<polygon fill="#f5f5f5" stroke="transparent" points="162.5,-376.7 162.5,-399.7 331.5,-399.7 331.5,-376.7 162.5,-376.7"/>
<polygon fill="none" stroke="#000000" points="162.5,-376.7 162.5,-399.7 331.5,-399.7 331.5,-376.7 162.5,-376.7"/>
<text text-anchor="start" x="167.233" y="-385.8" font-family="Helvetica,sans-Serif" font-weight="bold" font-size="11.00" fill="#000000">rasp_attacks_applications</text>
<text text-anchor="start" x="297.0219" y="-384.8" font-family="Helvetica,sans-Serif" font-size="11.00" fill="#000000">[table]</text>
<polygon fill="none" stroke="#000000" points="162.5,-357.7 162.5,-376.7 331.5,-376.7 331.5,-357.7 162.5,-357.7"/>
<text text-anchor="start" x="165.5" y="-363.8" font-family="Helvetica,sans-Serif" font-size="11.00" fill="#000000">...</text>
<polygon fill="#ffffff" stroke="transparent" points="162.5,-338.7 162.5,-357.7 227.5,-357.7 227.5,-338.7 162.5,-338.7"/>
<polygon fill="none" stroke="#000000" points="162.5,-338.7 162.5,-357.7 227.5,-357.7 227.5,-338.7 162.5,-338.7"/>
<text text-anchor="start" x="165.5" y="-344.8" font-family="Helvetica,sans-Serif" font-size="11.00" fill="#000000">&lt; 2</text>
<polygon fill="#ffffff" stroke="transparent" points="227.5,-338.7 227.5,-357.7 287.5,-357.7 287.5,-338.7 227.5,-338.7"/>
<polygon fill="none" stroke="#000000" points="227.5,-338.7 227.5,-357.7 287.5,-357.7 287.5,-338.7 227.5,-338.7"/>
<text text-anchor="start" x="252.1105" y="-344.8" font-family="Helvetica,sans-Serif" font-size="11.00" fill="#000000">0 rows</text>
<polygon fill="#ffffff" stroke="transparent" points="287.5,-338.7 287.5,-357.7 331.5,-357.7 331.5,-338.7 287.5,-338.7"/>
<polygon fill="none" stroke="#000000" points="287.5,-338.7 287.5,-357.7 331.5,-357.7 331.5,-338.7 287.5,-338.7"/>
<text text-anchor="start" x="312.9053" y="-344.8" font-family="Helvetica,sans-Serif" font-size="11.00" fill="#000000">2 &gt;</text>
</a>
</g>
</g>
<!-- rasp_attack_event&#45;&gt;rasp_attacks_applications -->
<g id="edge2" class="edge">
<title>rasp_attack_event:w&#45;&gt;rasp_attacks_applications:e</title>
<path fill="none" stroke="#000000" d="M365.9909,-366.7C354.6774,-366.7 347.4931,-366.7 331.5,-366.7"/>
<polygon fill="#000000" stroke="#000000" points="372.5,-366.7001 380.5,-370.3 376.5,-366.7 380.5,-366.7 380.5,-366.7 380.5,-366.7 376.5,-366.7 380.5,-363.1 372.5,-366.7001 372.5,-366.7001"/>
<ellipse fill="none" stroke="#000000" cx="369.3" cy="-366.7001" rx="3.2" ry="3.2"/>
</g>
<!-- rasp_attacks -->
<g id="node4" class="node">
<title>rasp_attacks</title>
<g id="a_node4"><a xlink:href="../../tables/rasp_attacks.html" xlink:title="rasp_attacks" target="_top">
<polygon fill="#ffffff" stroke="transparent" points="8,-368.2 8,-429.2 113,-429.2 113,-368.2 8,-368.2"/>
<polygon fill="#f5f5f5" stroke="transparent" points="8.5,-405.7 8.5,-428.7 113.5,-428.7 113.5,-405.7 8.5,-405.7"/>
<polygon fill="none" stroke="#000000" points="8.5,-405.7 8.5,-428.7 113.5,-428.7 113.5,-405.7 8.5,-405.7"/>
<text text-anchor="start" x="13.3249" y="-414.8" font-family="Helvetica,sans-Serif" font-weight="bold" font-size="11.00" fill="#000000">rasp_attacks</text>
<text text-anchor="start" x="79.0219" y="-413.8" font-family="Helvetica,sans-Serif" font-size="11.00" fill="#000000">[table]</text>
<polygon fill="none" stroke="#000000" points="8.5,-386.7 8.5,-405.7 113.5,-405.7 113.5,-386.7 8.5,-386.7"/>
<text text-anchor="start" x="11.5" y="-392.8" font-family="Helvetica,sans-Serif" font-size="11.00" fill="#000000">...</text>
<polygon fill="#ffffff" stroke="transparent" points="8.5,-367.7 8.5,-386.7 41.5,-386.7 41.5,-367.7 8.5,-367.7"/>
<polygon fill="none" stroke="#000000" points="8.5,-367.7 8.5,-386.7 41.5,-386.7 41.5,-367.7 8.5,-367.7"/>
<text text-anchor="start" x="11.5" y="-373.8" font-family="Helvetica,sans-Serif" font-size="11.00" fill="#000000">&lt; 1</text>
<polygon fill="#ffffff" stroke="transparent" points="41.5,-367.7 41.5,-386.7 85.5,-386.7 85.5,-367.7 41.5,-367.7"/>
<polygon fill="none" stroke="#000000" points="41.5,-367.7 41.5,-386.7 85.5,-386.7 85.5,-367.7 41.5,-367.7"/>
<text text-anchor="start" x="50.1105" y="-373.8" font-family="Helvetica,sans-Serif" font-size="11.00" fill="#000000">0 rows</text>
<polygon fill="#ffffff" stroke="transparent" points="85.5,-367.7 85.5,-386.7 113.5,-386.7 113.5,-367.7 85.5,-367.7"/>
<polygon fill="none" stroke="#000000" points="85.5,-367.7 85.5,-386.7 113.5,-386.7 113.5,-367.7 85.5,-367.7"/>
<text text-anchor="start" x="94.9053" y="-373.8" font-family="Helvetica,sans-Serif" font-size="11.00" fill="#000000">5 &gt;</text>
</a>
</g>
</g>
<!-- rasp_attack_event&#45;&gt;rasp_attacks -->
<g id="edge3" class="edge">
<title>rasp_attack_event:w&#45;&gt;rasp_attacks:e</title>
<path fill="none" stroke="#000000" d="M366.2733,-392.4291C357.6539,-397.7204 353.2445,-407.1578 339,-410.7 259.2078,-430.5419 234.9325,-425.206 154,-410.7 135.1062,-407.3135 132.6949,-395.7 113.5,-395.7"/>
<polygon fill="#000000" stroke="#000000" points="372.7614,-390.7285 381.4128,-392.1824 376.6307,-389.7142 380.5,-388.7 380.5,-388.7 380.5,-388.7 376.6307,-389.7142 379.5872,-385.2176 372.7614,-390.7285 372.7614,-390.7285"/>
<ellipse fill="none" stroke="#000000" cx="369.666" cy="-391.5398" rx="3.2" ry="3.2"/>
</g>
<!-- rasp_messages -->
<g id="node5" class="node">
<title>rasp_messages</title>
<g id="a_node5"><a xlink:href="../../tables/rasp_messages.html" xlink:title="rasp_messages" target="_top">
<polygon fill="#ffffff" stroke="transparent" points="186.5,-120.2 186.5,-181.2 306.5,-181.2 306.5,-120.2 186.5,-120.2"/>
<polygon fill="#f5f5f5" stroke="transparent" points="186.5,-157.7 186.5,-180.7 306.5,-180.7 306.5,-157.7 186.5,-157.7"/>
<polygon fill="none" stroke="#000000" points="186.5,-157.7 186.5,-180.7 306.5,-180.7 306.5,-157.7 186.5,-157.7"/>
<text text-anchor="start" x="191.186" y="-166.8" font-family="Helvetica,sans-Serif" font-weight="bold" font-size="11.00" fill="#000000">rasp_messages</text>
<text text-anchor="start" x="272.0219" y="-165.8" font-family="Helvetica,sans-Serif" font-size="11.00" fill="#000000">[table]</text>
<polygon fill="none" stroke="#000000" points="186.5,-138.7 186.5,-157.7 306.5,-157.7 306.5,-138.7 186.5,-138.7"/>
<text text-anchor="start" x="189.5" y="-144.8" font-family="Helvetica,sans-Serif" font-size="11.00" fill="#000000">...</text>
<polygon fill="#ffffff" stroke="transparent" points="186.5,-119.7 186.5,-138.7 227.5,-138.7 227.5,-119.7 186.5,-119.7"/>
<polygon fill="none" stroke="#000000" points="186.5,-119.7 186.5,-138.7 227.5,-138.7 227.5,-119.7 186.5,-119.7"/>
<text text-anchor="start" x="189.5" y="-125.8" font-family="Helvetica,sans-Serif" font-size="11.00" fill="#000000">&lt; 2</text>
<polygon fill="#ffffff" stroke="transparent" points="227.5,-119.7 227.5,-138.7 275.5,-138.7 275.5,-119.7 227.5,-119.7"/>
<polygon fill="none" stroke="#000000" points="227.5,-119.7 227.5,-138.7 275.5,-138.7 275.5,-119.7 227.5,-119.7"/>
<text text-anchor="start" x="240.1105" y="-125.8" font-family="Helvetica,sans-Serif" font-size="11.00" fill="#000000">0 rows</text>
<polygon fill="#ffffff" stroke="transparent" points="275.5,-119.7 275.5,-138.7 306.5,-138.7 306.5,-119.7 275.5,-119.7"/>
<polygon fill="none" stroke="#000000" points="275.5,-119.7 275.5,-138.7 306.5,-138.7 306.5,-119.7 275.5,-119.7"/>
<text text-anchor="start" x="287.9053" y="-125.8" font-family="Helvetica,sans-Serif" font-size="11.00" fill="#000000">3 &gt;</text>
</a>
</g>
</g>
<!-- rasp_attack_event&#45;&gt;rasp_messages -->
<g id="edge4" class="edge">
<title>rasp_attack_event:w&#45;&gt;rasp_messages:e</title>
<path fill="none" stroke="#000000" d="M366.1835,-209.7382C339.2658,-197.0223 344.6321,-147.7 306.5,-147.7"/>
<polygon fill="#000000" stroke="#000000" points="372.6659,-211.0792 379.7707,-216.2253 376.5829,-211.8896 380.5,-212.7 380.5,-212.7 380.5,-212.7 376.5829,-211.8896 381.2293,-209.1747 372.6659,-211.0792 372.6659,-211.0792"/>
<ellipse fill="none" stroke="#000000" cx="369.5322" cy="-210.4309" rx="3.2" ry="3.2"/>
</g>
<!-- rules_exclusions -->
<g id="node6" class="node">
<title>rules_exclusions</title>
<g id="a_node6"><a xlink:href="../../tables/rules_exclusions.html" xlink:title="rules_exclusions" target="_top">
<polygon fill="#ffffff" stroke="transparent" points="184.5,-202.2 184.5,-263.2 308.5,-263.2 308.5,-202.2 184.5,-202.2"/>
<polygon fill="#f5f5f5" stroke="transparent" points="184.5,-239.7 184.5,-262.7 308.5,-262.7 308.5,-239.7 184.5,-239.7"/>
<polygon fill="none" stroke="#000000" points="184.5,-239.7 184.5,-262.7 308.5,-262.7 308.5,-239.7 184.5,-239.7"/>
<text text-anchor="start" x="189.3556" y="-248.8" font-family="Helvetica,sans-Serif" font-weight="bold" font-size="11.00" fill="#000000">rules_exclusions</text>
<text text-anchor="start" x="274.0219" y="-247.8" font-family="Helvetica,sans-Serif" font-size="11.00" fill="#000000">[table]</text>
<polygon fill="none" stroke="#000000" points="184.5,-220.7 184.5,-239.7 308.5,-239.7 308.5,-220.7 184.5,-220.7"/>
<text text-anchor="start" x="187.5" y="-226.8" font-family="Helvetica,sans-Serif" font-size="11.00" fill="#000000">...</text>
<polygon fill="#ffffff" stroke="transparent" points="184.5,-201.7 184.5,-220.7 227.5,-220.7 227.5,-201.7 184.5,-201.7"/>
<polygon fill="none" stroke="#000000" points="184.5,-201.7 184.5,-220.7 227.5,-220.7 227.5,-201.7 184.5,-201.7"/>
<text text-anchor="start" x="187.5" y="-207.8" font-family="Helvetica,sans-Serif" font-size="11.00" fill="#000000">&lt; 1</text>
<polygon fill="#ffffff" stroke="transparent" points="227.5,-201.7 227.5,-220.7 276.5,-220.7 276.5,-201.7 227.5,-201.7"/>
<polygon fill="none" stroke="#000000" points="227.5,-201.7 227.5,-220.7 276.5,-220.7 276.5,-201.7 227.5,-201.7"/>
<text text-anchor="start" x="241.1105" y="-207.8" font-family="Helvetica,sans-Serif" font-size="11.00" fill="#000000">0 rows</text>
<polygon fill="#ffffff" stroke="transparent" points="276.5,-201.7 276.5,-220.7 308.5,-220.7 308.5,-201.7 276.5,-201.7"/>
<polygon fill="none" stroke="#000000" points="276.5,-201.7 276.5,-220.7 308.5,-220.7 308.5,-201.7 276.5,-201.7"/>
<text text-anchor="start" x="289.9053" y="-207.8" font-family="Helvetica,sans-Serif" font-size="11.00" fill="#000000">5 &gt;</text>
</a>
</g>
</g>
<!-- rasp_attack_event&#45;&gt;rules_exclusions -->
<g id="edge5" class="edge">
<title>rasp_attack_event:w&#45;&gt;rules_exclusions:e</title>
<path fill="none" stroke="#000000" d="M365.8616,-234.3077C345.0101,-233.129 335.0638,-229.7 308.5,-229.7"/>
<polygon fill="#000000" stroke="#000000" points="372.5029,-234.4856 380.4035,-238.2987 376.5014,-234.5928 380.5,-234.7 380.5,-234.7 380.5,-234.7 376.5014,-234.5928 380.5965,-231.1013 372.5029,-234.4856 372.5029,-234.4856"/>
<ellipse fill="none" stroke="#000000" cx="369.304" cy="-234.3998" rx="3.2" ry="3.2"/>
</g>
<!-- rasp_protection_rules -->
<g id="node7" class="node">
<title>rasp_protection_rules</title>
<g id="a_node7"><a xlink:href="../../tables/rasp_protection_rules.html" xlink:title="rasp_protection_rules" target="_top">
<polygon fill="#ffffff" stroke="transparent" points="172.5,-38.2 172.5,-99.2 320.5,-99.2 320.5,-38.2 172.5,-38.2"/>
<polygon fill="#f5f5f5" stroke="transparent" points="172.5,-75.7 172.5,-98.7 320.5,-98.7 320.5,-75.7 172.5,-75.7"/>
<polygon fill="none" stroke="#000000" points="172.5,-75.7 172.5,-98.7 320.5,-98.7 320.5,-75.7 172.5,-75.7"/>
<text text-anchor="start" x="177.1274" y="-84.8" font-family="Helvetica,sans-Serif" font-weight="bold" font-size="11.00" fill="#000000">rasp_protection_rules</text>
<text text-anchor="start" x="286.0219" y="-83.8" font-family="Helvetica,sans-Serif" font-size="11.00" fill="#000000">[table]</text>
<polygon fill="none" stroke="#000000" points="172.5,-56.7 172.5,-75.7 320.5,-75.7 320.5,-56.7 172.5,-56.7"/>
<text text-anchor="start" x="175.5" y="-62.8" font-family="Helvetica,sans-Serif" font-size="11.00" fill="#000000">...</text>
<polygon fill="#ffffff" stroke="transparent" points="172.5,-37.7 172.5,-56.7 219.5,-56.7 219.5,-37.7 172.5,-37.7"/>
<polygon fill="none" stroke="#000000" points="172.5,-37.7 172.5,-56.7 219.5,-56.7 219.5,-37.7 172.5,-37.7"/>
<text text-anchor="start" x="175.5" y="-43.8" font-family="Helvetica,sans-Serif" font-size="11.00" fill="#000000"> &#160;</text>
<polygon fill="#ffffff" stroke="transparent" points="219.5,-37.7 219.5,-56.7 281.5,-56.7 281.5,-37.7 219.5,-37.7"/>
<polygon fill="none" stroke="#000000" points="219.5,-37.7 219.5,-56.7 281.5,-56.7 281.5,-37.7 219.5,-37.7"/>
<text text-anchor="start" x="239.9956" y="-43.8" font-family="Helvetica,sans-Serif" font-size="11.00" fill="#000000">64 rows</text>
<polygon fill="#ffffff" stroke="transparent" points="281.5,-37.7 281.5,-56.7 320.5,-56.7 320.5,-37.7 281.5,-37.7"/>
<polygon fill="none" stroke="#000000" points="281.5,-37.7 281.5,-56.7 320.5,-56.7 320.5,-37.7 281.5,-37.7"/>
<text text-anchor="start" x="301.9053" y="-43.8" font-family="Helvetica,sans-Serif" font-size="11.00" fill="#000000">9 &gt;</text>
</a>
</g>
</g>
<!-- rasp_attack_event&#45;&gt;rasp_protection_rules -->
<g id="edge6" class="edge">
<title>rasp_attack_event:w&#45;&gt;rasp_protection_rules:e</title>
<path fill="none" stroke="#000000" d="M366.255,-187.6101C329.6374,-168.3611 376.3468,-65.7 320.5,-65.7"/>
<polygon fill="#000000" stroke="#000000" points="372.6818,-189.0041 379.7368,-194.2182 376.5909,-189.8521 380.5,-190.7 380.5,-190.7 380.5,-190.7 376.5909,-189.8521 381.2632,-187.1818 372.6818,-189.0041 372.6818,-189.0041"/>
<ellipse fill="none" stroke="#000000" cx="369.5545" cy="-188.3257" rx="3.2" ry="3.2"/>
</g>
<!-- servers -->
<g id="node8" class="node">
<title>servers</title>
<g id="a_node8"><a xlink:href="../../tables/servers.html" xlink:title="servers" target="_top">
<polygon fill="#ffffff" stroke="transparent" points="17.5,-120.2 17.5,-181.2 103.5,-181.2 103.5,-120.2 17.5,-120.2"/>
<polygon fill="#f5f5f5" stroke="transparent" points="17.5,-157.7 17.5,-180.7 103.5,-180.7 103.5,-157.7 17.5,-157.7"/>
<polygon fill="none" stroke="#000000" points="17.5,-157.7 17.5,-180.7 103.5,-180.7 103.5,-157.7 17.5,-157.7"/>
<text text-anchor="start" x="22.5" y="-166.8" font-family="Helvetica,sans-Serif" font-weight="bold" font-size="11.00" fill="#000000">servers</text>
<text text-anchor="start" x="68.5437" y="-165.8" font-family="Helvetica,sans-Serif" font-size="11.00" fill="#000000">[table]</text>
<polygon fill="none" stroke="#000000" points="17.5,-138.7 17.5,-157.7 103.5,-157.7 103.5,-138.7 17.5,-138.7"/>
<text text-anchor="start" x="20.5" y="-144.8" font-family="Helvetica,sans-Serif" font-size="11.00" fill="#000000">...</text>
<polygon fill="#ffffff" stroke="transparent" points="17.5,-119.7 17.5,-138.7 38.5,-138.7 38.5,-119.7 17.5,-119.7"/>
<polygon fill="none" stroke="#000000" points="17.5,-119.7 17.5,-138.7 38.5,-138.7 38.5,-119.7 17.5,-119.7"/>
<text text-anchor="start" x="20.2026" y="-125.8" font-family="Helvetica,sans-Serif" font-size="11.00" fill="#000000">&lt; 2</text>
<polygon fill="#ffffff" stroke="transparent" points="38.5,-119.7 38.5,-138.7 76.5,-138.7 76.5,-119.7 38.5,-119.7"/>
<polygon fill="none" stroke="#000000" points="38.5,-119.7 38.5,-138.7 76.5,-138.7 76.5,-119.7 38.5,-119.7"/>
<text text-anchor="start" x="41.3053" y="-125.8" font-family="Helvetica,sans-Serif" font-size="11.00" fill="#000000">0 rows</text>
<polygon fill="#ffffff" stroke="transparent" points="76.5,-119.7 76.5,-138.7 103.5,-138.7 103.5,-119.7 76.5,-119.7"/>
<polygon fill="none" stroke="#000000" points="76.5,-119.7 76.5,-138.7 103.5,-138.7 103.5,-119.7 76.5,-119.7"/>
<text text-anchor="start" x="79.1452" y="-125.8" font-family="Helvetica,sans-Serif" font-size="11.00" fill="#000000">21 &gt;</text>
</a>
</g>
</g>
<!-- rasp_attack_event&#45;&gt;servers -->
<g id="edge7" class="edge">
<title>rasp_attack_event:w&#45;&gt;servers:e</title>
<path fill="none" stroke="#000000" d="M365.7627,-279.1762C307.6806,-282.3816 191.8288,-299.9056 154,-273.7 104.4069,-239.3448 163.8304,-147.7 103.5,-147.7"/>
<polygon fill="#000000" stroke="#000000" points="372.5042,-278.9584 380.6163,-282.2981 376.5021,-278.8292 380.5,-278.7 380.5,-278.7 380.5,-278.7 376.5021,-278.8292 380.3837,-275.1019 372.5042,-278.9584 372.5042,-278.9584"/>
<ellipse fill="none" stroke="#000000" cx="369.3058" cy="-279.0618" rx="3.2" ry="3.2"/>
</g>
<!-- rasp_attacks_applications&#45;&gt;applications -->
<g id="edge12" class="edge">
<title>rasp_attacks_applications:w&#45;&gt;applications:e</title>
<path fill="none" stroke="#000000" d="M148.5154,-362.618C124.3397,-344.4344 153.4315,-271.7 111.5,-271.7"/>
<polygon fill="#000000" stroke="#000000" points="154.8205,-364.4584 161.4913,-370.1558 158.6602,-365.5792 162.5,-366.7 162.5,-366.7 162.5,-366.7 158.6602,-365.5792 163.5087,-363.2442 154.8205,-364.4584 154.8205,-364.4584"/>
<ellipse fill="none" stroke="#000000" cx="151.7487" cy="-363.5617" rx="3.2" ry="3.2"/>
</g>
<!-- rasp_attacks_applications&#45;&gt;rasp_attacks -->
<g id="edge13" class="edge">
<title>rasp_attacks_applications:w&#45;&gt;rasp_attacks:e</title>
<path fill="none" stroke="#000000" d="M148.4495,-370.7323C136.471,-378.7007 132.8749,-395.7 113.5,-395.7"/>
<polygon fill="#000000" stroke="#000000" points="154.8104,-368.9069 163.4931,-370.1603 158.6552,-367.8034 162.5,-366.7 162.5,-366.7 162.5,-366.7 158.6552,-367.8034 161.5069,-363.2397 154.8104,-368.9069 154.8104,-368.9069"/>
<ellipse fill="none" stroke="#000000" cx="151.7346" cy="-369.7896" rx="3.2" ry="3.2"/>
</g>
<!-- rasp_messages&#45;&gt;applications -->
<g id="edge14" class="edge">
<title>rasp_messages:w&#45;&gt;applications:e</title>
<path fill="none" stroke="#000000" d="M172.0967,-150.4052C130.6388,-168.539 170.2468,-271.7 111.5,-271.7"/>
<polygon fill="#000000" stroke="#000000" points="178.6375,-149.1768 187.1646,-151.2381 182.5687,-148.4384 186.5,-147.7 186.5,-147.7 186.5,-147.7 182.5687,-148.4384 185.8354,-144.1619 178.6375,-149.1768 178.6375,-149.1768"/>
<ellipse fill="none" stroke="#000000" cx="175.4925" cy="-149.7675" rx="3.2" ry="3.2"/>
</g>
<!-- rasp_messages&#45;&gt;servers -->
<g id="edge15" class="edge">
<title>rasp_messages:w&#45;&gt;servers:e</title>
<path fill="none" stroke="#000000" d="M172.072,-147.7C146.3674,-147.7 135.0573,-147.7 103.5,-147.7"/>
<polygon fill="#000000" stroke="#000000" points="178.5,-147.7001 186.5,-151.3 182.5,-147.7 186.5,-147.7 186.5,-147.7 186.5,-147.7 182.5,-147.7 186.5,-144.1 178.5,-147.7001 178.5,-147.7001"/>
<ellipse fill="none" stroke="#000000" cx="175.3" cy="-147.7001" rx="3.2" ry="3.2"/>
</g>
<!-- rules_exclusions&#45;&gt;applications -->
<g id="edge16" class="edge">
<title>rules_exclusions:w&#45;&gt;applications:e</title>
<path fill="none" stroke="#000000" d="M170.1718,-232.2015C146.756,-241.2433 143.3749,-271.7 111.5,-271.7"/>
<polygon fill="#000000" stroke="#000000" points="176.6192,-231.0759 185.1192,-233.2464 180.5596,-230.388 184.5,-229.7 184.5,-229.7 184.5,-229.7 180.5596,-230.388 183.8808,-226.1536 176.6192,-231.0759 176.6192,-231.0759"/>
<ellipse fill="none" stroke="#000000" cx="173.4669" cy="-231.6263" rx="3.2" ry="3.2"/>
</g>
<!-- rasp_attack_event_count -->
<g id="node9" class="node">
<title>rasp_attack_event_count</title>
<g id="a_node9"><a xlink:href="../../tables/rasp_attack_event_count.html" xlink:title="rasp_attack_event_count" target="_top">
<polygon fill="#ffffff" stroke="transparent" points="662,-547.7 662,-747.7 946,-747.7 946,-547.7 662,-547.7"/>
<polygon fill="#f5f5f5" stroke="transparent" points="664,-722.7 664,-745.7 944,-745.7 944,-722.7 664,-722.7"/>
<polygon fill="none" stroke="#000000" points="664,-722.7 664,-745.7 944,-745.7 944,-722.7 664,-722.7"/>
<text text-anchor="start" x="669" y="-731.8" font-family="Helvetica,sans-Serif" font-weight="bold" font-size="11.00" fill="#000000">rasp_attack_event_count</text>
<text text-anchor="start" x="909.0437" y="-730.8" font-family="Helvetica,sans-Serif" font-size="11.00" fill="#000000">[table]</text>
<polygon fill="none" stroke="#000000" points="664,-700.7 664,-722.7 846,-722.7 846,-700.7 664,-700.7"/>
<image xlink:href="../../images/primaryKeys.png" width="11px" height="12px" preserveAspectRatio="xMinYMin meet" x="669" y="-717.7"/>
<text text-anchor="start" x="684" y="-707.8" font-family="Helvetica,sans-Serif" font-size="11.00" fill="#000000">rasp_attack_event_count_id</text>
<polygon fill="none" stroke="#000000" points="846,-700.7 846,-722.7 944,-722.7 944,-700.7 846,-700.7"/>
<text text-anchor="start" x="848.8429" y="-708.4" font-family="Helvetica,sans-Serif" font-size="11.00" fill="#000000">bigint unsigned[20]</text>
<polygon fill="#ffffff" stroke="transparent" points="664,-678.7 664,-700.7 846,-700.7 846,-678.7 664,-678.7"/>
<polygon fill="none" stroke="#000000" points="664,-678.7 664,-700.7 846,-700.7 846,-678.7 664,-678.7"/>
<image xlink:href="../../images/foreignKeys.png" width="11px" height="12px" preserveAspectRatio="xMinYMin meet" x="669" y="-695.7"/>
<text text-anchor="start" x="684" y="-685.8" font-family="Helvetica,sans-Serif" font-size="11.00" fill="#000000">rasp_attack_event_id</text>
<polygon fill="none" stroke="#000000" points="846,-678.7 846,-700.7 944,-700.7 944,-678.7 846,-678.7"/>
<text text-anchor="start" x="848.8429" y="-686.4" font-family="Helvetica,sans-Serif" font-size="11.00" fill="#000000">bigint unsigned[20]</text>
<polygon fill="#ffffff" stroke="transparent" points="664,-656.7 664,-678.7 846,-678.7 846,-656.7 664,-656.7"/>
<polygon fill="none" stroke="#000000" points="664,-656.7 664,-678.7 846,-678.7 846,-656.7 664,-656.7"/>
<text text-anchor="start" x="684" y="-663.8" font-family="Helvetica,sans-Serif" font-size="11.00" fill="#000000">rasp_attack_event_uuid</text>
<polygon fill="none" stroke="#000000" points="846,-656.7 846,-678.7 944,-678.7 944,-656.7 846,-656.7"/>
<text text-anchor="start" x="849" y="-664.4" font-family="Helvetica,sans-Serif" font-size="11.00" fill="#000000">varchar[38]</text>
<polygon fill="#ffffff" stroke="transparent" points="664,-634.7 664,-656.7 846,-656.7 846,-634.7 664,-634.7"/>
<polygon fill="none" stroke="#000000" points="664,-634.7 664,-656.7 846,-656.7 846,-634.7 664,-634.7"/>
<text text-anchor="start" x="684" y="-641.8" font-family="Helvetica,sans-Serif" font-size="11.00" fill="#000000">hash</text>
<polygon fill="none" stroke="#000000" points="846,-634.7 846,-656.7 944,-656.7 944,-634.7 846,-634.7"/>
<text text-anchor="start" x="848.8429" y="-642.4" font-family="Helvetica,sans-Serif" font-size="11.00" fill="#000000">bigint unsigned[20]</text>
<polygon fill="none" stroke="#000000" points="664,-612.7 664,-634.7 846,-634.7 846,-612.7 664,-612.7"/>
<text text-anchor="start" x="684" y="-619.8" font-family="Helvetica,sans-Serif" font-size="11.00" fill="#000000">count</text>
<polygon fill="none" stroke="#000000" points="846,-612.7 846,-634.7 944,-634.7 944,-612.7 846,-612.7"/>
<text text-anchor="start" x="849" y="-620.4" font-family="Helvetica,sans-Serif" font-size="11.00" fill="#000000">int[10]</text>
<polygon fill="none" stroke="#000000" points="664,-590.7 664,-612.7 846,-612.7 846,-590.7 664,-590.7"/>
<text text-anchor="start" x="684" y="-597.8" font-family="Helvetica,sans-Serif" font-size="11.00" fill="#000000">dt_created</text>
<polygon fill="none" stroke="#000000" points="846,-590.7 846,-612.7 944,-612.7 944,-590.7 846,-590.7"/>
<text text-anchor="start" x="849" y="-598.4" font-family="Helvetica,sans-Serif" font-size="11.00" fill="#000000">timestamp[19]</text>
<polygon fill="none" stroke="#000000" points="664,-568.7 664,-590.7 846,-590.7 846,-568.7 664,-568.7"/>
<text text-anchor="start" x="684" y="-575.8" font-family="Helvetica,sans-Serif" font-size="11.00" fill="#000000">dt_modified</text>
<polygon fill="none" stroke="#000000" points="846,-568.7 846,-590.7 944,-590.7 944,-568.7 846,-568.7"/>
<text text-anchor="start" x="849" y="-576.4" font-family="Helvetica,sans-Serif" font-size="11.00" fill="#000000">timestamp[19]</text>
<polygon fill="#ffffff" stroke="transparent" points="664,-549.7 664,-568.7 746,-568.7 746,-549.7 664,-549.7"/>
<polygon fill="none" stroke="#000000" points="664,-549.7 664,-568.7 746,-568.7 746,-549.7 664,-549.7"/>
<text text-anchor="start" x="667" y="-555.8" font-family="Helvetica,sans-Serif" font-size="11.00" fill="#000000">&lt; 1</text>
<polygon fill="#ffffff" stroke="transparent" points="746,-549.7 746,-568.7 846,-568.7 846,-549.7 746,-549.7"/>
<polygon fill="none" stroke="#000000" points="746,-549.7 746,-568.7 846,-568.7 846,-549.7 746,-549.7"/>
<text text-anchor="start" x="810.6105" y="-555.8" font-family="Helvetica,sans-Serif" font-size="11.00" fill="#000000">0 rows</text>
<polygon fill="#ffffff" stroke="transparent" points="846,-549.7 846,-568.7 944,-568.7 944,-549.7 846,-549.7"/>
<polygon fill="none" stroke="#000000" points="846,-549.7 846,-568.7 944,-568.7 944,-549.7 846,-549.7"/>
<text text-anchor="start" x="925.4053" y="-555.8" font-family="Helvetica,sans-Serif" font-size="11.00" fill="#000000">0 &gt;</text>
<polygon fill="none" stroke="#000000" stroke-width="2" points="663,-548.7 663,-746.7 945,-746.7 945,-548.7 663,-548.7"/>
</a>
</g>
</g>
<!-- rasp_attack_event_count&#45;&gt;rasp_attack_event -->
<g id="edge8" class="edge">
<title>rasp_attack_event_count:w&#45;&gt;rasp_attack_event:e</title>
<path fill="none" stroke="#000000" d="M650.6491,-683.8727C612.9487,-643.8074 671.0927,-410.7 613.5,-410.7"/>
<polygon fill="#000000" stroke="#000000" points="656.668,-686.4997 662.5599,-692.9994 660.334,-688.0999 664,-689.7 664,-689.7 664,-689.7 660.334,-688.0999 665.4401,-686.4006 656.668,-686.4997 656.668,-686.4997"/>
<ellipse fill="none" stroke="#000000" cx="653.7352" cy="-685.2196" rx="3.2" ry="3.2"/>
</g>
<!-- rasp_attack_event_detail -->
<g id="node10" class="node">
<title>rasp_attack_event_detail</title>
<g id="a_node10"><a xlink:href="../../tables/rasp_attack_event_detail.html" xlink:title="rasp_attack_event_detail" target="_top">
<polygon fill="#ffffff" stroke="transparent" points="721.5,-465.2 721.5,-526.2 886.5,-526.2 886.5,-465.2 721.5,-465.2"/>
<polygon fill="#f5f5f5" stroke="transparent" points="722,-502.7 722,-525.7 887,-525.7 887,-502.7 722,-502.7"/>
<polygon fill="none" stroke="#000000" points="722,-502.7 722,-525.7 887,-525.7 887,-502.7 722,-502.7"/>
<text text-anchor="start" x="726.8675" y="-511.8" font-family="Helvetica,sans-Serif" font-weight="bold" font-size="11.00" fill="#000000">rasp_attack_event_detail</text>
<text text-anchor="start" x="852.5219" y="-510.8" font-family="Helvetica,sans-Serif" font-size="11.00" fill="#000000">[table]</text>
<polygon fill="none" stroke="#000000" points="722,-483.7 722,-502.7 887,-502.7 887,-483.7 722,-483.7"/>
<text text-anchor="start" x="725" y="-489.8" font-family="Helvetica,sans-Serif" font-size="11.00" fill="#000000">...</text>
<polygon fill="#ffffff" stroke="transparent" points="722,-464.7 722,-483.7 790,-483.7 790,-464.7 722,-464.7"/>
<polygon fill="none" stroke="#000000" points="722,-464.7 722,-483.7 790,-483.7 790,-464.7 722,-464.7"/>
<text text-anchor="start" x="725" y="-470.8" font-family="Helvetica,sans-Serif" font-size="11.00" fill="#000000">&lt; 1</text>
<polygon fill="#ffffff" stroke="transparent" points="790,-464.7 790,-483.7 851,-483.7 851,-464.7 790,-464.7"/>
<polygon fill="none" stroke="#000000" points="790,-464.7 790,-483.7 851,-483.7 851,-464.7 790,-464.7"/>
<text text-anchor="start" x="815.6105" y="-470.8" font-family="Helvetica,sans-Serif" font-size="11.00" fill="#000000">0 rows</text>
<polygon fill="#ffffff" stroke="transparent" points="851,-464.7 851,-483.7 887,-483.7 887,-464.7 851,-464.7"/>
<polygon fill="none" stroke="#000000" points="851,-464.7 851,-483.7 887,-483.7 887,-464.7 851,-464.7"/>
<text text-anchor="start" x="877.8862" y="-470.8" font-family="Helvetica,sans-Serif" font-size="11.00" fill="#000000"> &#160;</text>
</a>
</g>
</g>
<!-- rasp_attack_event_detail&#45;&gt;rasp_attack_event -->
<g id="edge9" class="edge">
<title>rasp_attack_event_detail:w&#45;&gt;rasp_attack_event:e</title>
<path fill="none" stroke="#000000" d="M711.5952,-492.1213C685.7711,-489.0211 678.2032,-473.804 654,-454.7 633.1374,-438.2328 640.0786,-410.7 613.5,-410.7"/>
<polygon fill="#000000" stroke="#000000" points="721.4234,-488.6617 720.9791,-496.6494 719.3815,-496.5605 719.8259,-488.5729 721.4234,-488.6617"/>
<polyline fill="none" stroke="#000000" points="722,-492.7 718.0062,-492.4778 "/>
<ellipse fill="none" stroke="#000000" cx="714.8111" cy="-492.3001" rx="3.2" ry="3.2"/>
</g>
<!-- rasp_attack_event_note -->
<g id="node11" class="node">
<title>rasp_attack_event_note</title>
<g id="a_node11"><a xlink:href="../../tables/rasp_attack_event_note.html" xlink:title="rasp_attack_event_note" target="_top">
<polygon fill="#ffffff" stroke="transparent" points="724,-383.2 724,-444.2 884,-444.2 884,-383.2 724,-383.2"/>
<polygon fill="#f5f5f5" stroke="transparent" points="724,-420.7 724,-443.7 884,-443.7 884,-420.7 724,-420.7"/>
<polygon fill="none" stroke="#000000" points="724,-420.7 724,-443.7 884,-443.7 884,-420.7 724,-420.7"/>
<text text-anchor="start" x="728.8084" y="-429.8" font-family="Helvetica,sans-Serif" font-weight="bold" font-size="11.00" fill="#000000">rasp_attack_event_note</text>
<text text-anchor="start" x="849.5219" y="-428.8" font-family="Helvetica,sans-Serif" font-size="11.00" fill="#000000">[table]</text>
<polygon fill="none" stroke="#000000" points="724,-401.7 724,-420.7 884,-420.7 884,-401.7 724,-401.7"/>
<text text-anchor="start" x="727" y="-407.8" font-family="Helvetica,sans-Serif" font-size="11.00" fill="#000000">...</text>
<polygon fill="#ffffff" stroke="transparent" points="724,-382.7 724,-401.7 789,-401.7 789,-382.7 724,-382.7"/>
<polygon fill="none" stroke="#000000" points="724,-382.7 724,-401.7 789,-401.7 789,-382.7 724,-382.7"/>
<text text-anchor="start" x="727" y="-388.8" font-family="Helvetica,sans-Serif" font-size="11.00" fill="#000000">&lt; 4</text>
<polygon fill="#ffffff" stroke="transparent" points="789,-382.7 789,-401.7 849,-401.7 849,-382.7 789,-382.7"/>
<polygon fill="none" stroke="#000000" points="789,-382.7 789,-401.7 849,-401.7 849,-382.7 789,-382.7"/>
<text text-anchor="start" x="813.6105" y="-388.8" font-family="Helvetica,sans-Serif" font-size="11.00" fill="#000000">0 rows</text>
<polygon fill="#ffffff" stroke="transparent" points="849,-382.7 849,-401.7 884,-401.7 884,-382.7 849,-382.7"/>
<polygon fill="none" stroke="#000000" points="849,-382.7 849,-401.7 884,-401.7 884,-382.7 849,-382.7"/>
<text text-anchor="start" x="874.8862" y="-388.8" font-family="Helvetica,sans-Serif" font-size="11.00" fill="#000000"> &#160;</text>
</a>
</g>
</g>
<!-- rasp_attack_event_note&#45;&gt;rasp_attack_event -->
<g id="edge10" class="edge">
<title>rasp_attack_event_note:w&#45;&gt;rasp_attack_event:e</title>
<path fill="none" stroke="#000000" d="M709.1109,-410.7C671.7625,-410.7 657.2396,-410.7 613.5,-410.7"/>
<polygon fill="#000000" stroke="#000000" points="716,-410.7001 724,-414.3 720,-410.7 724,-410.7 724,-410.7 724,-410.7 720,-410.7 724,-407.1 716,-410.7001 716,-410.7001"/>
<ellipse fill="none" stroke="#000000" cx="712.8" cy="-410.7001" rx="3.2" ry="3.2"/>
</g>
<!-- rasp_attack_event_user_viewed -->
<g id="node12" class="node">
<title>rasp_attack_event_user_viewed</title>
<g id="a_node12"><a xlink:href="../../tables/rasp_attack_event_user_viewed.html" xlink:title="rasp_attack_event_user_viewed" target="_top">
<polygon fill="#ffffff" stroke="transparent" points="704,-301.2 704,-362.2 904,-362.2 904,-301.2 704,-301.2"/>
<polygon fill="#f5f5f5" stroke="transparent" points="704,-338.7 704,-361.7 904,-361.7 904,-338.7 704,-338.7"/>
<polygon fill="none" stroke="#000000" points="704,-338.7 704,-361.7 904,-361.7 904,-338.7 704,-338.7"/>
<text text-anchor="start" x="708.6427" y="-347.8" font-family="Helvetica,sans-Serif" font-weight="bold" font-size="11.00" fill="#000000">rasp_attack_event_user_viewed</text>
<text text-anchor="start" x="869.5219" y="-346.8" font-family="Helvetica,sans-Serif" font-size="11.00" fill="#000000">[table]</text>
<polygon fill="none" stroke="#000000" points="704,-319.7 704,-338.7 904,-338.7 904,-319.7 704,-319.7"/>
<text text-anchor="start" x="707" y="-325.8" font-family="Helvetica,sans-Serif" font-size="11.00" fill="#000000">...</text>
<polygon fill="#ffffff" stroke="transparent" points="704,-300.7 704,-319.7 789,-319.7 789,-300.7 704,-300.7"/>
<polygon fill="none" stroke="#000000" points="704,-300.7 704,-319.7 789,-319.7 789,-300.7 704,-300.7"/>
<text text-anchor="start" x="707" y="-306.8" font-family="Helvetica,sans-Serif" font-size="11.00" fill="#000000">&lt; 2</text>
<polygon fill="#ffffff" stroke="transparent" points="789,-300.7 789,-319.7 859,-319.7 859,-300.7 789,-300.7"/>
<polygon fill="none" stroke="#000000" points="789,-300.7 789,-319.7 859,-319.7 859,-300.7 789,-300.7"/>
<text text-anchor="start" x="823.6105" y="-306.8" font-family="Helvetica,sans-Serif" font-size="11.00" fill="#000000">0 rows</text>
<polygon fill="#ffffff" stroke="transparent" points="859,-300.7 859,-319.7 904,-319.7 904,-300.7 859,-300.7"/>
<polygon fill="none" stroke="#000000" points="859,-300.7 859,-319.7 904,-319.7 904,-300.7 859,-300.7"/>
<text text-anchor="start" x="894.8862" y="-306.8" font-family="Helvetica,sans-Serif" font-size="11.00" fill="#000000"> &#160;</text>
</a>
</g>
</g>
<!-- rasp_attack_event_user_viewed&#45;&gt;rasp_attack_event -->
<g id="edge11" class="edge">
<title>rasp_attack_event_user_viewed:w&#45;&gt;rasp_attack_event:e</title>
<path fill="none" stroke="#000000" d="M689.8094,-331.2465C674.0947,-337.9515 671.6286,-356.6806 654,-372.7 635.7329,-389.2996 638.1827,-410.7 613.5,-410.7"/>
<polygon fill="#000000" stroke="#000000" points="696.1258,-330.1131 704.6359,-332.2434 700.0629,-329.4065 704,-328.7 704,-328.7 704,-328.7 700.0629,-329.4065 703.3641,-325.1566 696.1258,-330.1131 696.1258,-330.1131"/>
<ellipse fill="none" stroke="#000000" cx="692.9761" cy="-330.6783" rx="3.2" ry="3.2"/>
</g>
<!-- tags_rasp_attack_event -->
<g id="node13" class="node">
<title>tags_rasp_attack_event</title>
<g id="a_node13"><a xlink:href="../../tables/tags_rasp_attack_event.html" xlink:title="tags_rasp_attack_event" target="_top">
<polygon fill="#ffffff" stroke="transparent" points="724.5,-219.2 724.5,-280.2 883.5,-280.2 883.5,-219.2 724.5,-219.2"/>
<polygon fill="#f5f5f5" stroke="transparent" points="725,-256.7 725,-279.7 884,-279.7 884,-256.7 725,-256.7"/>
<polygon fill="none" stroke="#000000" points="725,-256.7 725,-279.7 884,-279.7 884,-256.7 725,-256.7"/>
<text text-anchor="start" x="729.6159" y="-265.8" font-family="Helvetica,sans-Serif" font-weight="bold" font-size="11.00" fill="#000000">tags_rasp_attack_event</text>
<text text-anchor="start" x="849.5219" y="-264.8" font-family="Helvetica,sans-Serif" font-size="11.00" fill="#000000">[table]</text>
<polygon fill="none" stroke="#000000" points="725,-237.7 725,-256.7 884,-256.7 884,-237.7 725,-237.7"/>
<text text-anchor="start" x="728" y="-243.8" font-family="Helvetica,sans-Serif" font-size="11.00" fill="#000000">...</text>
<polygon fill="#ffffff" stroke="transparent" points="725,-218.7 725,-237.7 790,-237.7 790,-218.7 725,-218.7"/>
<polygon fill="none" stroke="#000000" points="725,-218.7 725,-237.7 790,-237.7 790,-218.7 725,-218.7"/>
<text text-anchor="start" x="728" y="-224.8" font-family="Helvetica,sans-Serif" font-size="11.00" fill="#000000">&lt; 1</text>
<polygon fill="#ffffff" stroke="transparent" points="790,-218.7 790,-237.7 850,-237.7 850,-218.7 790,-218.7"/>
<polygon fill="none" stroke="#000000" points="790,-218.7 790,-237.7 850,-237.7 850,-218.7 790,-218.7"/>
<text text-anchor="start" x="814.6105" y="-224.8" font-family="Helvetica,sans-Serif" font-size="11.00" fill="#000000">0 rows</text>
<polygon fill="#ffffff" stroke="transparent" points="850,-218.7 850,-237.7 884,-237.7 884,-218.7 850,-218.7"/>
<polygon fill="none" stroke="#000000" points="850,-218.7 850,-237.7 884,-237.7 884,-218.7 850,-218.7"/>
<text text-anchor="start" x="874.8862" y="-224.8" font-family="Helvetica,sans-Serif" font-size="11.00" fill="#000000"> &#160;</text>
</a>
</g>
</g>
<!-- tags_rasp_attack_event&#45;&gt;rasp_attack_event -->
<g id="edge17" class="edge">
<title>tags_rasp_attack_event:w&#45;&gt;rasp_attack_event:e</title>
<path fill="none" stroke="#000000" d="M710.4364,-247.6327C684.4977,-251.3083 673.7401,-265.822 654,-290.7 619.0123,-334.7943 669.7889,-410.7 613.5,-410.7"/>
<polygon fill="#000000" stroke="#000000" points="717.0164,-247.2113 725.2301,-250.2926 721.0082,-246.9557 725,-246.7 725,-246.7 725,-246.7 721.0082,-246.9557 724.7699,-243.1074 717.0164,-247.2113 717.0164,-247.2113"/>
<ellipse fill="none" stroke="#000000" cx="713.8229" cy="-247.4159" rx="3.2" ry="3.2"/>
</g>
</g>
</svg>
