<?xml version="1.0" encoding="UTF-8" standalone="no"?>
<!DOCTYPE svg PUBLIC "-//W3C//DTD SVG 1.1//EN"
 "http://www.w3.org/Graphics/SVG/1.1/DTD/svg11.dtd">
<!-- Generated by graphviz version 2.40.1 (20161225.0304)
 -->
<!-- Title: twoDegreesRelationshipsDiagram Pages: 1 -->
<svg width="627pt" height="327pt"
 viewBox="0.00 0.00 627.00 326.70" xmlns="http://www.w3.org/2000/svg" xmlns:xlink="http://www.w3.org/1999/xlink">
<g id="graph0" class="graph" transform="scale(1 1) rotate(0) translate(4 322.7)">
<title>twoDegreesRelationshipsDiagram</title>
<polygon fill="#ffffff" stroke="transparent" points="-4,4 -4,-322.7 623,-322.7 623,4 -4,4"/>
<text text-anchor="middle" x="72.4936" y="-7.3" font-family="Helvetica,sans-Serif" font-size="11.00" fill="#000000">Generated by SchemaSpy</text>
<!-- agent_message_source_name -->
<g id="node1" class="node">
<title>agent_message_source_name</title>
<g id="a_node1"><a xlink:href="../../tables/agent_message_source_name.html" xlink:title="agent_message_source_name" target="_top">
<polygon fill="#ffffff" stroke="transparent" points="386,-171.7 386,-232.7 579,-232.7 579,-171.7 386,-171.7"/>
<polygon fill="#f5f5f5" stroke="transparent" points="386.5,-209.2 386.5,-232.2 579.5,-232.2 579.5,-209.2 386.5,-209.2"/>
<polygon fill="none" stroke="#000000" points="386.5,-209.2 386.5,-232.2 579.5,-232.2 579.5,-209.2 386.5,-209.2"/>
<text text-anchor="start" x="391.0021" y="-218.3" font-family="Helvetica,sans-Serif" font-weight="bold" font-size="11.00" fill="#000000">agent_message_source_name</text>
<text text-anchor="start" x="545.0219" y="-217.3" font-family="Helvetica,sans-Serif" font-size="11.00" fill="#000000">[table]</text>
<polygon fill="none" stroke="#000000" points="386.5,-190.2 386.5,-209.2 579.5,-209.2 579.5,-190.2 386.5,-190.2"/>
<text text-anchor="start" x="389.5" y="-196.3" font-family="Helvetica,sans-Serif" font-size="11.00" fill="#000000">...</text>
<polygon fill="#ffffff" stroke="transparent" points="386.5,-171.2 386.5,-190.2 468.5,-190.2 468.5,-171.2 386.5,-171.2"/>
<polygon fill="none" stroke="#000000" points="386.5,-171.2 386.5,-190.2 468.5,-190.2 468.5,-171.2 386.5,-171.2"/>
<text text-anchor="start" x="389.5" y="-177.3" font-family="Helvetica,sans-Serif" font-size="11.00" fill="#000000">&lt; 2</text>
<polygon fill="#ffffff" stroke="transparent" points="468.5,-171.2 468.5,-190.2 536.5,-190.2 536.5,-171.2 468.5,-171.2"/>
<polygon fill="none" stroke="#000000" points="468.5,-171.2 468.5,-190.2 536.5,-190.2 536.5,-171.2 468.5,-171.2"/>
<text text-anchor="start" x="501.1105" y="-177.3" font-family="Helvetica,sans-Serif" font-size="11.00" fill="#000000">0 rows</text>
<polygon fill="#ffffff" stroke="transparent" points="536.5,-171.2 536.5,-190.2 579.5,-190.2 579.5,-171.2 536.5,-171.2"/>
<polygon fill="none" stroke="#000000" points="536.5,-171.2 536.5,-190.2 579.5,-190.2 579.5,-171.2 536.5,-171.2"/>
<text text-anchor="start" x="570.3862" y="-177.3" font-family="Helvetica,sans-Serif" font-size="11.00" fill="#000000"> &#160;</text>
</a>
</g>
</g>
<!-- rasp_messages -->
<g id="node2" class="node">
<title>rasp_messages</title>
<g id="a_node2"><a xlink:href="../../tables/rasp_messages.html" xlink:title="rasp_messages" target="_top">
<polygon fill="#ffffff" stroke="transparent" points="158,-84.7 158,-233.7 305,-233.7 305,-84.7 158,-84.7"/>
<polygon fill="#f5f5f5" stroke="transparent" points="158.5,-210.2 158.5,-233.2 305.5,-233.2 305.5,-210.2 158.5,-210.2"/>
<polygon fill="none" stroke="#000000" points="158.5,-210.2 158.5,-233.2 305.5,-233.2 305.5,-210.2 158.5,-210.2"/>
<text text-anchor="start" x="163.5" y="-219.3" font-family="Helvetica,sans-Serif" font-weight="bold" font-size="11.00" fill="#000000">rasp_messages</text>
<text text-anchor="start" x="270.5437" y="-218.3" font-family="Helvetica,sans-Serif" font-size="11.00" fill="#000000">[table]</text>
<polygon fill="none" stroke="#000000" points="158.5,-188.2 158.5,-210.2 305.5,-210.2 305.5,-188.2 158.5,-188.2"/>
<image xlink:href="../../images/primaryKeys.png" width="11px" height="12px" preserveAspectRatio="xMinYMin meet" x="163.5" y="-205.2"/>
<text text-anchor="start" x="178.5" y="-195.3" font-family="Helvetica,sans-Serif" font-size="11.00" fill="#000000">id</text>
<polygon fill="#ffffff" stroke="transparent" points="158.5,-166.2 158.5,-188.2 305.5,-188.2 305.5,-166.2 158.5,-166.2"/>
<polygon fill="none" stroke="#000000" points="158.5,-166.2 158.5,-188.2 305.5,-188.2 305.5,-166.2 158.5,-166.2"/>
<image xlink:href="../../images/foreignKeys.png" width="11px" height="12px" preserveAspectRatio="xMinYMin meet" x="163.5" y="-183.2"/>
<text text-anchor="start" x="178.5" y="-173.3" font-family="Helvetica,sans-Serif" font-size="11.00" fill="#000000">servers_id</text>
<polygon fill="#ffffff" stroke="transparent" points="158.5,-144.2 158.5,-166.2 305.5,-166.2 305.5,-144.2 158.5,-144.2"/>
<polygon fill="none" stroke="#000000" points="158.5,-144.2 158.5,-166.2 305.5,-166.2 305.5,-144.2 158.5,-144.2"/>
<image xlink:href="../../images/foreignKeys.png" width="11px" height="12px" preserveAspectRatio="xMinYMin meet" x="163.5" y="-161.2"/>
<text text-anchor="start" x="178.5" y="-151.3" font-family="Helvetica,sans-Serif" font-size="11.00" fill="#000000">applications_id</text>
<polygon fill="#ffffff" stroke="transparent" points="158.5,-122.2 158.5,-144.2 305.5,-144.2 305.5,-122.2 158.5,-122.2"/>
<polygon fill="none" stroke="#000000" points="158.5,-122.2 158.5,-144.2 305.5,-144.2 305.5,-122.2 158.5,-122.2"/>
<text text-anchor="start" x="178.5" y="-129.3" font-family="Helvetica,sans-Serif" font-size="11.00" fill="#000000">display_source_ip</text>
<polygon fill="none" stroke="#000000" points="158.5,-103.2 158.5,-122.2 305.5,-122.2 305.5,-103.2 158.5,-103.2"/>
<text text-anchor="start" x="161.5" y="-109.3" font-family="Helvetica,sans-Serif" font-size="11.00" fill="#000000">...</text>
<polygon fill="#ffffff" stroke="transparent" points="158.5,-84.2 158.5,-103.2 212.5,-103.2 212.5,-84.2 158.5,-84.2"/>
<polygon fill="none" stroke="#000000" points="158.5,-84.2 158.5,-103.2 212.5,-103.2 212.5,-84.2 158.5,-84.2"/>
<text text-anchor="start" x="161.5" y="-90.3" font-family="Helvetica,sans-Serif" font-size="11.00" fill="#000000">&lt; 2</text>
<polygon fill="#ffffff" stroke="transparent" points="212.5,-84.2 212.5,-103.2 267.5,-103.2 267.5,-84.2 212.5,-84.2"/>
<polygon fill="none" stroke="#000000" points="212.5,-84.2 212.5,-103.2 267.5,-103.2 267.5,-84.2 212.5,-84.2"/>
<text text-anchor="start" x="232.1105" y="-90.3" font-family="Helvetica,sans-Serif" font-size="11.00" fill="#000000">0 rows</text>
<polygon fill="#ffffff" stroke="transparent" points="267.5,-84.2 267.5,-103.2 305.5,-103.2 305.5,-84.2 267.5,-84.2"/>
<polygon fill="none" stroke="#000000" points="267.5,-84.2 267.5,-103.2 305.5,-103.2 305.5,-84.2 267.5,-84.2"/>
<text text-anchor="start" x="286.9053" y="-90.3" font-family="Helvetica,sans-Serif" font-size="11.00" fill="#000000">3 &gt;</text>
</a>
</g>
</g>
<!-- agent_message_source_name&#45;&gt;rasp_messages -->
<g id="edge1" class="edge">
<title>agent_message_source_name:w&#45;&gt;rasp_messages:e</title>
<path fill="none" stroke="#000000" d="M372.0769,-199.2C347.2332,-199.2 336.1563,-199.2 305.5,-199.2"/>
<polygon fill="#000000" stroke="#000000" points="378.5,-199.2001 386.5,-202.8 382.5,-199.2 386.5,-199.2 386.5,-199.2 386.5,-199.2 382.5,-199.2 386.5,-195.6 378.5,-199.2001 378.5,-199.2001"/>
<ellipse fill="none" stroke="#000000" cx="375.3" cy="-199.2001" rx="3.2" ry="3.2"/>
</g>
<!-- applications -->
<g id="node4" class="node">
<title>applications</title>
<g id="a_node4"><a xlink:href="../../tables/applications.html" xlink:title="applications" target="_top">
<polygon fill="#ffffff" stroke="transparent" points="8,-139.7 8,-200.7 109,-200.7 109,-139.7 8,-139.7"/>
<polygon fill="#f5f5f5" stroke="transparent" points="8.5,-177.2 8.5,-200.2 109.5,-200.2 109.5,-177.2 8.5,-177.2"/>
<polygon fill="none" stroke="#000000" points="8.5,-177.2 8.5,-200.2 109.5,-200.2 109.5,-177.2 8.5,-177.2"/>
<text text-anchor="start" x="13.4655" y="-186.3" font-family="Helvetica,sans-Serif" font-weight="bold" font-size="11.00" fill="#000000">applications</text>
<text text-anchor="start" x="75.0219" y="-185.3" font-family="Helvetica,sans-Serif" font-size="11.00" fill="#000000">[table]</text>
<polygon fill="none" stroke="#000000" points="8.5,-158.2 8.5,-177.2 109.5,-177.2 109.5,-158.2 8.5,-158.2"/>
<text text-anchor="start" x="11.5" y="-164.3" font-family="Helvetica,sans-Serif" font-size="11.00" fill="#000000">...</text>
<polygon fill="#ffffff" stroke="transparent" points="8.5,-139.2 8.5,-158.2 36.5,-158.2 36.5,-139.2 8.5,-139.2"/>
<polygon fill="none" stroke="#000000" points="8.5,-139.2 8.5,-158.2 36.5,-158.2 36.5,-139.2 8.5,-139.2"/>
<text text-anchor="start" x="11.5" y="-145.3" font-family="Helvetica,sans-Serif" font-size="11.00" fill="#000000">&lt; 3</text>
<polygon fill="#ffffff" stroke="transparent" points="36.5,-139.2 36.5,-158.2 78.5,-158.2 78.5,-139.2 36.5,-139.2"/>
<polygon fill="none" stroke="#000000" points="36.5,-139.2 36.5,-158.2 78.5,-158.2 78.5,-139.2 36.5,-139.2"/>
<text text-anchor="start" x="43.1105" y="-145.3" font-family="Helvetica,sans-Serif" font-size="11.00" fill="#000000">0 rows</text>
<polygon fill="#ffffff" stroke="transparent" points="78.5,-139.2 78.5,-158.2 109.5,-158.2 109.5,-139.2 78.5,-139.2"/>
<polygon fill="none" stroke="#000000" points="78.5,-139.2 78.5,-158.2 109.5,-158.2 109.5,-139.2 78.5,-139.2"/>
<text text-anchor="start" x="84.7904" y="-145.3" font-family="Helvetica,sans-Serif" font-size="11.00" fill="#000000">57 &gt;</text>
</a>
</g>
</g>
<!-- rasp_messages&#45;&gt;applications -->
<g id="edge5" class="edge">
<title>rasp_messages:w&#45;&gt;applications:e</title>
<path fill="none" stroke="#000000" d="M144.1744,-157.1816C132.7211,-160.5899 126.1408,-167.2 109.5,-167.2"/>
<polygon fill="#000000" stroke="#000000" points="150.5755,-156.2962 158.9933,-158.766 154.5377,-155.7481 158.5,-155.2 158.5,-155.2 158.5,-155.2 154.5377,-155.7481 158.0067,-151.634 150.5755,-156.2962 150.5755,-156.2962"/>
<ellipse fill="none" stroke="#000000" cx="147.4056" cy="-156.7347" rx="3.2" ry="3.2"/>
</g>
<!-- servers -->
<g id="node5" class="node">
<title>servers</title>
<g id="a_node5"><a xlink:href="../../tables/servers.html" xlink:title="servers" target="_top">
<polygon fill="#ffffff" stroke="transparent" points="15.5,-245.7 15.5,-306.7 101.5,-306.7 101.5,-245.7 15.5,-245.7"/>
<polygon fill="#f5f5f5" stroke="transparent" points="15.5,-283.2 15.5,-306.2 101.5,-306.2 101.5,-283.2 15.5,-283.2"/>
<polygon fill="none" stroke="#000000" points="15.5,-283.2 15.5,-306.2 101.5,-306.2 101.5,-283.2 15.5,-283.2"/>
<text text-anchor="start" x="20.5" y="-292.3" font-family="Helvetica,sans-Serif" font-weight="bold" font-size="11.00" fill="#000000">servers</text>
<text text-anchor="start" x="66.5437" y="-291.3" font-family="Helvetica,sans-Serif" font-size="11.00" fill="#000000">[table]</text>
<polygon fill="none" stroke="#000000" points="15.5,-264.2 15.5,-283.2 101.5,-283.2 101.5,-264.2 15.5,-264.2"/>
<text text-anchor="start" x="18.5" y="-270.3" font-family="Helvetica,sans-Serif" font-size="11.00" fill="#000000">...</text>
<polygon fill="#ffffff" stroke="transparent" points="15.5,-245.2 15.5,-264.2 36.5,-264.2 36.5,-245.2 15.5,-245.2"/>
<polygon fill="none" stroke="#000000" points="15.5,-245.2 15.5,-264.2 36.5,-264.2 36.5,-245.2 15.5,-245.2"/>
<text text-anchor="start" x="18.2026" y="-251.3" font-family="Helvetica,sans-Serif" font-size="11.00" fill="#000000">&lt; 2</text>
<polygon fill="#ffffff" stroke="transparent" points="36.5,-245.2 36.5,-264.2 74.5,-264.2 74.5,-245.2 36.5,-245.2"/>
<polygon fill="none" stroke="#000000" points="36.5,-245.2 36.5,-264.2 74.5,-264.2 74.5,-245.2 36.5,-245.2"/>
<text text-anchor="start" x="39.3053" y="-251.3" font-family="Helvetica,sans-Serif" font-size="11.00" fill="#000000">0 rows</text>
<polygon fill="#ffffff" stroke="transparent" points="74.5,-245.2 74.5,-264.2 101.5,-264.2 101.5,-245.2 74.5,-245.2"/>
<polygon fill="none" stroke="#000000" points="74.5,-245.2 74.5,-264.2 101.5,-264.2 101.5,-245.2 74.5,-245.2"/>
<text text-anchor="start" x="77.1452" y="-251.3" font-family="Helvetica,sans-Serif" font-size="11.00" fill="#000000">21 &gt;</text>
</a>
</g>
</g>
<!-- rasp_messages&#45;&gt;servers -->
<g id="edge6" class="edge">
<title>rasp_messages:w&#45;&gt;servers:e</title>
<path fill="none" stroke="#000000" d="M144.5441,-180.8461C117.518,-198.3816 145.3058,-273.2 101.5,-273.2"/>
<polygon fill="#000000" stroke="#000000" points="150.7598,-179.2222 159.41,-180.6831 154.6299,-178.2111 158.5,-177.2 158.5,-177.2 158.5,-177.2 154.6299,-178.2111 157.59,-173.7169 150.7598,-179.2222 150.7598,-179.2222"/>
<ellipse fill="none" stroke="#000000" cx="147.6637" cy="-180.0311" rx="3.2" ry="3.2"/>
</g>
<!-- rasp_attack_event -->
<g id="node3" class="node">
<title>rasp_attack_event</title>
<g id="a_node3"><a xlink:href="../../tables/rasp_attack_event.html" xlink:title="rasp_attack_event" target="_top">
<polygon fill="#ffffff" stroke="transparent" points="416.5,-253.7 416.5,-314.7 548.5,-314.7 548.5,-253.7 416.5,-253.7"/>
<polygon fill="#f5f5f5" stroke="transparent" points="416.5,-291.2 416.5,-314.2 548.5,-314.2 548.5,-291.2 416.5,-291.2"/>
<polygon fill="none" stroke="#000000" points="416.5,-291.2 416.5,-314.2 548.5,-314.2 548.5,-291.2 416.5,-291.2"/>
<text text-anchor="start" x="421.0667" y="-300.3" font-family="Helvetica,sans-Serif" font-weight="bold" font-size="11.00" fill="#000000">rasp_attack_event</text>
<text text-anchor="start" x="514.0219" y="-299.3" font-family="Helvetica,sans-Serif" font-size="11.00" fill="#000000">[table]</text>
<polygon fill="none" stroke="#000000" points="416.5,-272.2 416.5,-291.2 548.5,-291.2 548.5,-272.2 416.5,-272.2"/>
<text text-anchor="start" x="419.5" y="-278.3" font-family="Helvetica,sans-Serif" font-size="11.00" fill="#000000">...</text>
<polygon fill="#ffffff" stroke="transparent" points="416.5,-253.2 416.5,-272.2 463.5,-272.2 463.5,-253.2 416.5,-253.2"/>
<polygon fill="none" stroke="#000000" points="416.5,-253.2 416.5,-272.2 463.5,-272.2 463.5,-253.2 416.5,-253.2"/>
<text text-anchor="start" x="419.5" y="-259.3" font-family="Helvetica,sans-Serif" font-size="11.00" fill="#000000">&lt; 7</text>
<polygon fill="#ffffff" stroke="transparent" points="463.5,-253.2 463.5,-272.2 514.5,-272.2 514.5,-253.2 463.5,-253.2"/>
<polygon fill="none" stroke="#000000" points="463.5,-253.2 463.5,-272.2 514.5,-272.2 514.5,-253.2 463.5,-253.2"/>
<text text-anchor="start" x="479.1105" y="-259.3" font-family="Helvetica,sans-Serif" font-size="11.00" fill="#000000">0 rows</text>
<polygon fill="#ffffff" stroke="transparent" points="514.5,-253.2 514.5,-272.2 548.5,-272.2 548.5,-253.2 514.5,-253.2"/>
<polygon fill="none" stroke="#000000" points="514.5,-253.2 514.5,-272.2 548.5,-272.2 548.5,-253.2 514.5,-253.2"/>
<text text-anchor="start" x="529.9053" y="-259.3" font-family="Helvetica,sans-Serif" font-size="11.00" fill="#000000">5 &gt;</text>
</a>
</g>
</g>
<!-- rasp_attack_event&#45;&gt;rasp_messages -->
<g id="edge3" class="edge">
<title>rasp_attack_event:w&#45;&gt;rasp_messages:e</title>
<path fill="none" stroke="#000000" d="M402.0598,-280.1119C378.3392,-276.1445 369.8253,-261.713 346,-243.2 325.0126,-226.8921 332.0786,-199.2 305.5,-199.2"/>
<polygon fill="#000000" stroke="#000000" points="408.5226,-280.5988 416.2295,-284.7898 412.5113,-280.8994 416.5,-281.2 416.5,-281.2 416.5,-281.2 412.5113,-280.8994 416.7705,-277.6102 408.5226,-280.5988 408.5226,-280.5988"/>
<ellipse fill="none" stroke="#000000" cx="405.3317" cy="-280.3584" rx="3.2" ry="3.2"/>
</g>
<!-- rasp_attack_event&#45;&gt;applications -->
<g id="edge2" class="edge">
<title>rasp_attack_event:w&#45;&gt;applications:e</title>
<path fill="none" stroke="#000000" d="M402.0011,-280.0359C346.922,-274.6103 160.751,-251.7505 150,-244.2 118.3568,-221.9769 148.1673,-167.2 109.5,-167.2"/>
<polygon fill="#000000" stroke="#000000" points="408.5257,-280.5597 416.2119,-284.7885 412.5128,-280.8798 416.5,-281.2 416.5,-281.2 416.5,-281.2 412.5128,-280.8798 416.7881,-277.6115 408.5257,-280.5597 408.5257,-280.5597"/>
<ellipse fill="none" stroke="#000000" cx="405.3359" cy="-280.3036" rx="3.2" ry="3.2"/>
</g>
<!-- rasp_attack_event&#45;&gt;servers -->
<g id="edge4" class="edge">
<title>rasp_attack_event:w&#45;&gt;servers:e</title>
<path fill="none" stroke="#000000" d="M401.7212,-281.1694C273.7948,-280.6323 236.4849,-273.2 101.5,-273.2"/>
<polygon fill="#000000" stroke="#000000" points="408.5,-281.1834 416.4925,-284.8 412.5,-281.1917 416.5,-281.2 416.5,-281.2 416.5,-281.2 412.5,-281.1917 416.5075,-277.6 408.5,-281.1834 408.5,-281.1834"/>
<ellipse fill="none" stroke="#000000" cx="405.3" cy="-281.1768" rx="3.2" ry="3.2"/>
</g>
<!-- rasp_messages_attackers -->
<g id="node6" class="node">
<title>rasp_messages_attackers</title>
<g id="a_node6"><a xlink:href="../../tables/rasp_messages_attackers.html" xlink:title="rasp_messages_attackers" target="_top">
<polygon fill="#ffffff" stroke="transparent" points="354,-38.2 354,-150.2 611,-150.2 611,-38.2 354,-38.2"/>
<polygon fill="#f5f5f5" stroke="transparent" points="356.5,-125.2 356.5,-148.2 609.5,-148.2 609.5,-125.2 356.5,-125.2"/>
<polygon fill="none" stroke="#000000" points="356.5,-125.2 356.5,-148.2 609.5,-148.2 609.5,-125.2 356.5,-125.2"/>
<text text-anchor="start" x="361.5" y="-134.3" font-family="Helvetica,sans-Serif" font-weight="bold" font-size="11.00" fill="#000000">rasp_messages_attackers</text>
<text text-anchor="start" x="574.5437" y="-133.3" font-family="Helvetica,sans-Serif" font-size="11.00" fill="#000000">[table]</text>
<polygon fill="none" stroke="#000000" points="356.5,-103.2 356.5,-125.2 526.5,-125.2 526.5,-103.2 356.5,-103.2"/>
<image xlink:href="../../images/primaryKeys.png" width="11px" height="12px" preserveAspectRatio="xMinYMin meet" x="361.5" y="-120.2"/>
<text text-anchor="start" x="376.5" y="-110.3" font-family="Helvetica,sans-Serif" font-size="11.00" fill="#000000">id</text>
<polygon fill="none" stroke="#000000" points="526.5,-103.2 526.5,-125.2 609.5,-125.2 609.5,-103.2 526.5,-103.2"/>
<text text-anchor="start" x="529.1783" y="-110.9" font-family="Helvetica,sans-Serif" font-size="11.00" fill="#000000">int unsigned[10]</text>
<polygon fill="none" stroke="#000000" points="356.5,-81.2 356.5,-103.2 526.5,-103.2 526.5,-81.2 356.5,-81.2"/>
<text text-anchor="start" x="376.5" y="-88.3" font-family="Helvetica,sans-Serif" font-size="11.00" fill="#000000">authenticated_id</text>
<polygon fill="none" stroke="#000000" points="526.5,-81.2 526.5,-103.2 609.5,-103.2 609.5,-81.2 526.5,-81.2"/>
<text text-anchor="start" x="529.5" y="-88.9" font-family="Helvetica,sans-Serif" font-size="11.00" fill="#000000">varchar[255]</text>
<polygon fill="#ffffff" stroke="transparent" points="356.5,-59.2 356.5,-81.2 526.5,-81.2 526.5,-59.2 356.5,-59.2"/>
<polygon fill="none" stroke="#000000" points="356.5,-59.2 356.5,-81.2 526.5,-81.2 526.5,-59.2 356.5,-59.2"/>
<image xlink:href="../../images/foreignKeys.png" width="11px" height="12px" preserveAspectRatio="xMinYMin meet" x="361.5" y="-76.2"/>
<text text-anchor="start" x="376.5" y="-66.3" font-family="Helvetica,sans-Serif" font-size="11.00" fill="#000000">rasp_messages_id</text>
<polygon fill="none" stroke="#000000" points="526.5,-59.2 526.5,-81.2 609.5,-81.2 609.5,-59.2 526.5,-59.2"/>
<text text-anchor="start" x="529.5" y="-66.9" font-family="Helvetica,sans-Serif" font-size="11.00" fill="#000000">bigint[19]</text>
<polygon fill="#ffffff" stroke="transparent" points="356.5,-40.2 356.5,-59.2 432.5,-59.2 432.5,-40.2 356.5,-40.2"/>
<polygon fill="none" stroke="#000000" points="356.5,-40.2 356.5,-59.2 432.5,-59.2 432.5,-40.2 356.5,-40.2"/>
<text text-anchor="start" x="359.5" y="-46.3" font-family="Helvetica,sans-Serif" font-size="11.00" fill="#000000">&lt; 1</text>
<polygon fill="#ffffff" stroke="transparent" points="432.5,-40.2 432.5,-59.2 526.5,-59.2 526.5,-40.2 432.5,-40.2"/>
<polygon fill="none" stroke="#000000" points="432.5,-40.2 432.5,-59.2 526.5,-59.2 526.5,-40.2 432.5,-40.2"/>
<text text-anchor="start" x="491.1105" y="-46.3" font-family="Helvetica,sans-Serif" font-size="11.00" fill="#000000">0 rows</text>
<polygon fill="#ffffff" stroke="transparent" points="526.5,-40.2 526.5,-59.2 609.5,-59.2 609.5,-40.2 526.5,-40.2"/>
<polygon fill="none" stroke="#000000" points="526.5,-40.2 526.5,-59.2 609.5,-59.2 609.5,-40.2 526.5,-40.2"/>
<text text-anchor="start" x="590.9053" y="-46.3" font-family="Helvetica,sans-Serif" font-size="11.00" fill="#000000">0 &gt;</text>
<polygon fill="none" stroke="#000000" stroke-width="2" points="355,-39.2 355,-149.2 610,-149.2 610,-39.2 355,-39.2"/>
</a>
</g>
</g>
<!-- rasp_messages_attackers&#45;&gt;rasp_messages -->
<g id="edge7" class="edge">
<title>rasp_messages_attackers:w&#45;&gt;rasp_messages:e</title>
<path fill="none" stroke="#000000" d="M342.021,-73.6504C307.6928,-94.1651 361.1307,-199.2 305.5,-199.2"/>
<polygon fill="#000000" stroke="#000000" points="348.7179,-72.0546 357.3346,-73.7019 352.609,-71.1273 356.5,-70.2 356.5,-70.2 356.5,-70.2 352.609,-71.1273 355.6654,-66.6981 348.7179,-72.0546 348.7179,-72.0546"/>
<ellipse fill="none" stroke="#000000" cx="345.6051" cy="-72.7964" rx="3.2" ry="3.2"/>
</g>
</g>
</svg>
