<?xml version="1.0" encoding="UTF-8" standalone="no"?>
<!DOCTYPE svg PUBLIC "-//W3C//DTD SVG 1.1//EN"
 "http://www.w3.org/Graphics/SVG/1.1/DTD/svg11.dtd">
<!-- Generated by graphviz version 2.40.1 (20161225.0304)
 -->
<!-- Title: twoDegreesRelationshipsDiagram Pages: 1 -->
<svg width="1224pt" height="1594pt"
 viewBox="0.00 0.00 1224.00 1593.70" xmlns="http://www.w3.org/2000/svg" xmlns:xlink="http://www.w3.org/1999/xlink">
<g id="graph0" class="graph" transform="scale(1 1) rotate(0) translate(4 1589.7)">
<title>twoDegreesRelationshipsDiagram</title>
<polygon fill="#ffffff" stroke="transparent" points="-4,4 -4,-1589.7 1220,-1589.7 1220,4 -4,4"/>
<text text-anchor="middle" x="72.4936" y="-7.3" font-family="Helvetica,sans-Serif" font-size="11.00" fill="#000000">Generated by SchemaSpy</text>
<!-- applications -->
<g id="node1" class="node">
<title>applications</title>
<g id="a_node1"><a xlink:href="../../tables/applications.html" xlink:title="applications" target="_top">
<polygon fill="#ffffff" stroke="transparent" points="234.5,-1134.7 234.5,-1195.7 335.5,-1195.7 335.5,-1134.7 234.5,-1134.7"/>
<polygon fill="#f5f5f5" stroke="transparent" points="235,-1172.2 235,-1195.2 336,-1195.2 336,-1172.2 235,-1172.2"/>
<polygon fill="none" stroke="#000000" points="235,-1172.2 235,-1195.2 336,-1195.2 336,-1172.2 235,-1172.2"/>
<text text-anchor="start" x="239.9655" y="-1181.3" font-family="Helvetica,sans-Serif" font-weight="bold" font-size="11.00" fill="#000000">applications</text>
<text text-anchor="start" x="301.5219" y="-1180.3" font-family="Helvetica,sans-Serif" font-size="11.00" fill="#000000">[table]</text>
<polygon fill="none" stroke="#000000" points="235,-1153.2 235,-1172.2 336,-1172.2 336,-1153.2 235,-1153.2"/>
<text text-anchor="start" x="238" y="-1159.3" font-family="Helvetica,sans-Serif" font-size="11.00" fill="#000000">...</text>
<polygon fill="#ffffff" stroke="transparent" points="235,-1134.2 235,-1153.2 263,-1153.2 263,-1134.2 235,-1134.2"/>
<polygon fill="none" stroke="#000000" points="235,-1134.2 235,-1153.2 263,-1153.2 263,-1134.2 235,-1134.2"/>
<text text-anchor="start" x="238" y="-1140.3" font-family="Helvetica,sans-Serif" font-size="11.00" fill="#000000">&lt; 3</text>
<polygon fill="#ffffff" stroke="transparent" points="263,-1134.2 263,-1153.2 305,-1153.2 305,-1134.2 263,-1134.2"/>
<polygon fill="none" stroke="#000000" points="263,-1134.2 263,-1153.2 305,-1153.2 305,-1134.2 263,-1134.2"/>
<text text-anchor="start" x="269.6105" y="-1140.3" font-family="Helvetica,sans-Serif" font-size="11.00" fill="#000000">0 rows</text>
<polygon fill="#ffffff" stroke="transparent" points="305,-1134.2 305,-1153.2 336,-1153.2 336,-1134.2 305,-1134.2"/>
<polygon fill="none" stroke="#000000" points="305,-1134.2 305,-1153.2 336,-1153.2 336,-1134.2 305,-1134.2"/>
<text text-anchor="start" x="311.2904" y="-1140.3" font-family="Helvetica,sans-Serif" font-size="11.00" fill="#000000">57 &gt;</text>
</a>
</g>
</g>
<!-- organizations -->
<g id="node2" class="node">
<title>organizations</title>
<g id="a_node2"><a xlink:href="../../tables/organizations.html" xlink:title="organizations" target="_top">
<polygon fill="#ffffff" stroke="transparent" points="8,-1134.7 8,-1195.7 116,-1195.7 116,-1134.7 8,-1134.7"/>
<polygon fill="#f5f5f5" stroke="transparent" points="8,-1172.2 8,-1195.2 116,-1195.2 116,-1172.2 8,-1172.2"/>
<polygon fill="none" stroke="#000000" points="8,-1172.2 8,-1195.2 116,-1195.2 116,-1172.2 8,-1172.2"/>
<text text-anchor="start" x="12.7976" y="-1181.3" font-family="Helvetica,sans-Serif" font-weight="bold" font-size="11.00" fill="#000000">organizations</text>
<text text-anchor="start" x="81.5219" y="-1180.3" font-family="Helvetica,sans-Serif" font-size="11.00" fill="#000000">[table]</text>
<polygon fill="none" stroke="#000000" points="8,-1153.2 8,-1172.2 116,-1172.2 116,-1153.2 8,-1153.2"/>
<text text-anchor="start" x="11" y="-1159.3" font-family="Helvetica,sans-Serif" font-size="11.00" fill="#000000">...</text>
<polygon fill="#ffffff" stroke="transparent" points="8,-1134.2 8,-1153.2 40,-1153.2 40,-1134.2 8,-1134.2"/>
<polygon fill="none" stroke="#000000" points="8,-1134.2 8,-1153.2 40,-1153.2 40,-1134.2 8,-1134.2"/>
<text text-anchor="start" x="11" y="-1140.3" font-family="Helvetica,sans-Serif" font-size="11.00" fill="#000000">&lt; 4</text>
<polygon fill="#ffffff" stroke="transparent" points="40,-1134.2 40,-1153.2 83,-1153.2 83,-1134.2 40,-1134.2"/>
<polygon fill="none" stroke="#000000" points="40,-1134.2 40,-1153.2 83,-1153.2 83,-1134.2 40,-1134.2"/>
<text text-anchor="start" x="47.6105" y="-1140.3" font-family="Helvetica,sans-Serif" font-size="11.00" fill="#000000">3 rows</text>
<polygon fill="#ffffff" stroke="transparent" points="83,-1134.2 83,-1153.2 116,-1153.2 116,-1134.2 83,-1134.2"/>
<polygon fill="none" stroke="#000000" points="83,-1134.2 83,-1153.2 116,-1153.2 116,-1134.2 83,-1134.2"/>
<text text-anchor="start" x="91.2904" y="-1140.3" font-family="Helvetica,sans-Serif" font-size="11.00" fill="#000000">81 &gt;</text>
</a>
</g>
</g>
<!-- applications&#45;&gt;organizations -->
<g id="edge1" class="edge">
<title>applications:w&#45;&gt;organizations:e</title>
<path fill="none" stroke="#000000" d="M220.5662,-1162.2C179.1504,-1162.2 163.724,-1162.2 116,-1162.2"/>
<polygon fill="#000000" stroke="#000000" points="227,-1162.2001 235,-1165.8 231,-1162.2 235,-1162.2 235,-1162.2 235,-1162.2 231,-1162.2 235,-1158.6 227,-1162.2001 227,-1162.2001"/>
<ellipse fill="none" stroke="#000000" cx="223.8" cy="-1162.2001" rx="3.2" ry="3.2"/>
</g>
<!-- rasp_attack_event -->
<g id="node3" class="node">
<title>rasp_attack_event</title>
<g id="a_node3"><a xlink:href="../../tables/rasp_attack_event.html" xlink:title="rasp_attack_event" target="_top">
<polygon fill="#ffffff" stroke="transparent" points="726,-1115.7 726,-1418.7 959,-1418.7 959,-1115.7 726,-1115.7"/>
<polygon fill="#f5f5f5" stroke="transparent" points="726.5,-1395.2 726.5,-1418.2 959.5,-1418.2 959.5,-1395.2 726.5,-1395.2"/>
<polygon fill="none" stroke="#000000" points="726.5,-1395.2 726.5,-1418.2 959.5,-1418.2 959.5,-1395.2 726.5,-1395.2"/>
<text text-anchor="start" x="731.5" y="-1404.3" font-family="Helvetica,sans-Serif" font-weight="bold" font-size="11.00" fill="#000000">rasp_attack_event</text>
<text text-anchor="start" x="924.5437" y="-1403.3" font-family="Helvetica,sans-Serif" font-size="11.00" fill="#000000">[table]</text>
<polygon fill="none" stroke="#000000" points="726.5,-1373.2 726.5,-1395.2 959.5,-1395.2 959.5,-1373.2 726.5,-1373.2"/>
<image xlink:href="../../images/primaryKeys.png" width="11px" height="12px" preserveAspectRatio="xMinYMin meet" x="731.5" y="-1390.2"/>
<text text-anchor="start" x="746.5" y="-1380.3" font-family="Helvetica,sans-Serif" font-size="11.00" fill="#000000">rasp_attack_event_id</text>
<polygon fill="#ffffff" stroke="transparent" points="726.5,-1351.2 726.5,-1373.2 959.5,-1373.2 959.5,-1351.2 726.5,-1351.2"/>
<polygon fill="none" stroke="#000000" points="726.5,-1351.2 726.5,-1373.2 959.5,-1373.2 959.5,-1351.2 726.5,-1351.2"/>
<image xlink:href="../../images/foreignKeys.png" width="11px" height="12px" preserveAspectRatio="xMinYMin meet" x="731.5" y="-1368.2"/>
<text text-anchor="start" x="746.5" y="-1358.3" font-family="Helvetica,sans-Serif" font-size="11.00" fill="#000000">rasp_attacks_id</text>
<polygon fill="#ffffff" stroke="transparent" points="726.5,-1329.2 726.5,-1351.2 959.5,-1351.2 959.5,-1329.2 726.5,-1329.2"/>
<polygon fill="none" stroke="#000000" points="726.5,-1329.2 726.5,-1351.2 959.5,-1351.2 959.5,-1329.2 726.5,-1329.2"/>
<image xlink:href="../../images/foreignKeys.png" width="11px" height="12px" preserveAspectRatio="xMinYMin meet" x="731.5" y="-1346.2"/>
<text text-anchor="start" x="746.5" y="-1336.3" font-family="Helvetica,sans-Serif" font-size="11.00" fill="#000000">rasp_attacks_applications_id</text>
<polygon fill="#ffffff" stroke="transparent" points="726.5,-1307.2 726.5,-1329.2 959.5,-1329.2 959.5,-1307.2 726.5,-1307.2"/>
<polygon fill="none" stroke="#000000" points="726.5,-1307.2 726.5,-1329.2 959.5,-1329.2 959.5,-1307.2 726.5,-1307.2"/>
<text text-anchor="start" x="746.5" y="-1314.3" font-family="Helvetica,sans-Serif" font-size="11.00" fill="#000000">status</text>
<polygon fill="#ffffff" stroke="transparent" points="726.5,-1285.2 726.5,-1307.2 959.5,-1307.2 959.5,-1285.2 726.5,-1285.2"/>
<polygon fill="none" stroke="#000000" points="726.5,-1285.2 726.5,-1307.2 959.5,-1307.2 959.5,-1285.2 726.5,-1285.2"/>
<text text-anchor="start" x="746.5" y="-1292.3" font-family="Helvetica,sans-Serif" font-size="11.00" fill="#000000">timestamp_server</text>
<polygon fill="#ffffff" stroke="transparent" points="726.5,-1263.2 726.5,-1285.2 959.5,-1285.2 959.5,-1263.2 726.5,-1263.2"/>
<polygon fill="none" stroke="#000000" points="726.5,-1263.2 726.5,-1285.2 959.5,-1285.2 959.5,-1263.2 726.5,-1263.2"/>
<image xlink:href="../../images/foreignKeys.png" width="11px" height="12px" preserveAspectRatio="xMinYMin meet" x="731.5" y="-1280.2"/>
<text text-anchor="start" x="746.5" y="-1270.3" font-family="Helvetica,sans-Serif" font-size="11.00" fill="#000000">applications_id</text>
<polygon fill="#ffffff" stroke="transparent" points="726.5,-1241.2 726.5,-1263.2 959.5,-1263.2 959.5,-1241.2 726.5,-1241.2"/>
<polygon fill="none" stroke="#000000" points="726.5,-1241.2 726.5,-1263.2 959.5,-1263.2 959.5,-1241.2 726.5,-1241.2"/>
<image xlink:href="../../images/foreignKeys.png" width="11px" height="12px" preserveAspectRatio="xMinYMin meet" x="731.5" y="-1258.2"/>
<text text-anchor="start" x="746.5" y="-1248.3" font-family="Helvetica,sans-Serif" font-size="11.00" fill="#000000">servers_id</text>
<polygon fill="#ffffff" stroke="transparent" points="726.5,-1219.2 726.5,-1241.2 959.5,-1241.2 959.5,-1219.2 726.5,-1219.2"/>
<polygon fill="none" stroke="#000000" points="726.5,-1219.2 726.5,-1241.2 959.5,-1241.2 959.5,-1219.2 726.5,-1219.2"/>
<text text-anchor="start" x="746.5" y="-1226.3" font-family="Helvetica,sans-Serif" font-size="11.00" fill="#000000">uuid</text>
<polygon fill="#ffffff" stroke="transparent" points="726.5,-1197.2 726.5,-1219.2 959.5,-1219.2 959.5,-1197.2 726.5,-1197.2"/>
<polygon fill="none" stroke="#000000" points="726.5,-1197.2 726.5,-1219.2 959.5,-1219.2 959.5,-1197.2 726.5,-1197.2"/>
<image xlink:href="../../images/foreignKeys.png" width="11px" height="12px" preserveAspectRatio="xMinYMin meet" x="731.5" y="-1214.2"/>
<text text-anchor="start" x="746.5" y="-1204.3" font-family="Helvetica,sans-Serif" font-size="11.00" fill="#000000">rasp_protection_rules_exceptions_id</text>
<polygon fill="#ffffff" stroke="transparent" points="726.5,-1175.2 726.5,-1197.2 959.5,-1197.2 959.5,-1175.2 726.5,-1175.2"/>
<polygon fill="none" stroke="#000000" points="726.5,-1175.2 726.5,-1197.2 959.5,-1197.2 959.5,-1175.2 726.5,-1175.2"/>
<image xlink:href="../../images/foreignKeys.png" width="11px" height="12px" preserveAspectRatio="xMinYMin meet" x="731.5" y="-1192.2"/>
<text text-anchor="start" x="746.5" y="-1182.3" font-family="Helvetica,sans-Serif" font-size="11.00" fill="#000000">rasp_messages_id</text>
<polygon fill="#ffffff" stroke="transparent" points="726.5,-1153.2 726.5,-1175.2 959.5,-1175.2 959.5,-1153.2 726.5,-1153.2"/>
<polygon fill="none" stroke="#000000" points="726.5,-1153.2 726.5,-1175.2 959.5,-1175.2 959.5,-1153.2 726.5,-1153.2"/>
<image xlink:href="../../images/foreignKeys.png" width="11px" height="12px" preserveAspectRatio="xMinYMin meet" x="731.5" y="-1170.2"/>
<text text-anchor="start" x="746.5" y="-1160.3" font-family="Helvetica,sans-Serif" font-size="11.00" fill="#000000">rasp_protection_rules_id</text>
<polygon fill="none" stroke="#000000" points="726.5,-1134.2 726.5,-1153.2 959.5,-1153.2 959.5,-1134.2 726.5,-1134.2"/>
<text text-anchor="start" x="729.5" y="-1140.3" font-family="Helvetica,sans-Serif" font-size="11.00" fill="#000000">...</text>
<polygon fill="#ffffff" stroke="transparent" points="726.5,-1115.2 726.5,-1134.2 823.5,-1134.2 823.5,-1115.2 726.5,-1115.2"/>
<polygon fill="none" stroke="#000000" points="726.5,-1115.2 726.5,-1134.2 823.5,-1134.2 823.5,-1115.2 726.5,-1115.2"/>
<text text-anchor="start" x="729.5" y="-1121.3" font-family="Helvetica,sans-Serif" font-size="11.00" fill="#000000">&lt; 7</text>
<polygon fill="#ffffff" stroke="transparent" points="823.5,-1115.2 823.5,-1134.2 899.5,-1134.2 899.5,-1115.2 823.5,-1115.2"/>
<polygon fill="none" stroke="#000000" points="823.5,-1115.2 823.5,-1134.2 899.5,-1134.2 899.5,-1115.2 823.5,-1115.2"/>
<text text-anchor="start" x="864.1105" y="-1121.3" font-family="Helvetica,sans-Serif" font-size="11.00" fill="#000000">0 rows</text>
<polygon fill="#ffffff" stroke="transparent" points="899.5,-1115.2 899.5,-1134.2 959.5,-1134.2 959.5,-1115.2 899.5,-1115.2"/>
<polygon fill="none" stroke="#000000" points="899.5,-1115.2 899.5,-1134.2 959.5,-1134.2 959.5,-1115.2 899.5,-1115.2"/>
<text text-anchor="start" x="940.9053" y="-1121.3" font-family="Helvetica,sans-Serif" font-size="11.00" fill="#000000">5 &gt;</text>
</a>
</g>
</g>
<!-- rasp_attack_event&#45;&gt;applications -->
<g id="edge2" class="edge">
<title>rasp_attack_event:w&#45;&gt;applications:e</title>
<path fill="none" stroke="#000000" d="M712.4884,-1270.4198C694.2121,-1257.0231 713.6924,-1211.5785 685,-1192.2 652.7464,-1170.4163 374.9208,-1162.2 336,-1162.2"/>
<polygon fill="#000000" stroke="#000000" points="718.7762,-1272.1161 725.5623,-1277.6757 722.6381,-1273.1581 726.5,-1274.2 726.5,-1274.2 726.5,-1274.2 722.6381,-1273.1581 727.4377,-1270.7243 718.7762,-1272.1161 718.7762,-1272.1161"/>
<ellipse fill="none" stroke="#000000" cx="715.6866" cy="-1271.2826" rx="3.2" ry="3.2"/>
</g>
<!-- rasp_attacks_applications -->
<g id="node4" class="node">
<title>rasp_attacks_applications</title>
<g id="a_node4"><a xlink:href="../../tables/rasp_attacks_applications.html" xlink:title="rasp_attacks_applications" target="_top">
<polygon fill="#ffffff" stroke="transparent" points="481,-1312.7 481,-1373.7 650,-1373.7 650,-1312.7 481,-1312.7"/>
<polygon fill="#f5f5f5" stroke="transparent" points="481.5,-1350.2 481.5,-1373.2 650.5,-1373.2 650.5,-1350.2 481.5,-1350.2"/>
<polygon fill="none" stroke="#000000" points="481.5,-1350.2 481.5,-1373.2 650.5,-1373.2 650.5,-1350.2 481.5,-1350.2"/>
<text text-anchor="start" x="486.233" y="-1359.3" font-family="Helvetica,sans-Serif" font-weight="bold" font-size="11.00" fill="#000000">rasp_attacks_applications</text>
<text text-anchor="start" x="616.0219" y="-1358.3" font-family="Helvetica,sans-Serif" font-size="11.00" fill="#000000">[table]</text>
<polygon fill="none" stroke="#000000" points="481.5,-1331.2 481.5,-1350.2 650.5,-1350.2 650.5,-1331.2 481.5,-1331.2"/>
<text text-anchor="start" x="484.5" y="-1337.3" font-family="Helvetica,sans-Serif" font-size="11.00" fill="#000000">...</text>
<polygon fill="#ffffff" stroke="transparent" points="481.5,-1312.2 481.5,-1331.2 546.5,-1331.2 546.5,-1312.2 481.5,-1312.2"/>
<polygon fill="none" stroke="#000000" points="481.5,-1312.2 481.5,-1331.2 546.5,-1331.2 546.5,-1312.2 481.5,-1312.2"/>
<text text-anchor="start" x="484.5" y="-1318.3" font-family="Helvetica,sans-Serif" font-size="11.00" fill="#000000">&lt; 2</text>
<polygon fill="#ffffff" stroke="transparent" points="546.5,-1312.2 546.5,-1331.2 606.5,-1331.2 606.5,-1312.2 546.5,-1312.2"/>
<polygon fill="none" stroke="#000000" points="546.5,-1312.2 546.5,-1331.2 606.5,-1331.2 606.5,-1312.2 546.5,-1312.2"/>
<text text-anchor="start" x="571.1105" y="-1318.3" font-family="Helvetica,sans-Serif" font-size="11.00" fill="#000000">0 rows</text>
<polygon fill="#ffffff" stroke="transparent" points="606.5,-1312.2 606.5,-1331.2 650.5,-1331.2 650.5,-1312.2 606.5,-1312.2"/>
<polygon fill="none" stroke="#000000" points="606.5,-1312.2 606.5,-1331.2 650.5,-1331.2 650.5,-1312.2 606.5,-1312.2"/>
<text text-anchor="start" x="631.9053" y="-1318.3" font-family="Helvetica,sans-Serif" font-size="11.00" fill="#000000">2 &gt;</text>
</a>
</g>
</g>
<!-- rasp_attack_event&#45;&gt;rasp_attacks_applications -->
<g id="edge3" class="edge">
<title>rasp_attack_event:w&#45;&gt;rasp_attacks_applications:e</title>
<path fill="none" stroke="#000000" d="M712.0121,-1340.2C689.3676,-1340.2 678.8681,-1340.2 650.5,-1340.2"/>
<polygon fill="#000000" stroke="#000000" points="718.5,-1340.2001 726.5,-1343.8 722.5,-1340.2 726.5,-1340.2 726.5,-1340.2 726.5,-1340.2 722.5,-1340.2 726.5,-1336.6 718.5,-1340.2001 718.5,-1340.2001"/>
<ellipse fill="none" stroke="#000000" cx="715.3" cy="-1340.2001" rx="3.2" ry="3.2"/>
</g>
<!-- rasp_attacks -->
<g id="node5" class="node">
<title>rasp_attacks</title>
<g id="a_node5"><a xlink:href="../../tables/rasp_attacks.html" xlink:title="rasp_attacks" target="_top">
<polygon fill="#ffffff" stroke="transparent" points="232.5,-1312.7 232.5,-1373.7 337.5,-1373.7 337.5,-1312.7 232.5,-1312.7"/>
<polygon fill="#f5f5f5" stroke="transparent" points="233,-1350.2 233,-1373.2 338,-1373.2 338,-1350.2 233,-1350.2"/>
<polygon fill="none" stroke="#000000" points="233,-1350.2 233,-1373.2 338,-1373.2 338,-1350.2 233,-1350.2"/>
<text text-anchor="start" x="237.8249" y="-1359.3" font-family="Helvetica,sans-Serif" font-weight="bold" font-size="11.00" fill="#000000">rasp_attacks</text>
<text text-anchor="start" x="303.5219" y="-1358.3" font-family="Helvetica,sans-Serif" font-size="11.00" fill="#000000">[table]</text>
<polygon fill="none" stroke="#000000" points="233,-1331.2 233,-1350.2 338,-1350.2 338,-1331.2 233,-1331.2"/>
<text text-anchor="start" x="236" y="-1337.3" font-family="Helvetica,sans-Serif" font-size="11.00" fill="#000000">...</text>
<polygon fill="#ffffff" stroke="transparent" points="233,-1312.2 233,-1331.2 266,-1331.2 266,-1312.2 233,-1312.2"/>
<polygon fill="none" stroke="#000000" points="233,-1312.2 233,-1331.2 266,-1331.2 266,-1312.2 233,-1312.2"/>
<text text-anchor="start" x="236" y="-1318.3" font-family="Helvetica,sans-Serif" font-size="11.00" fill="#000000">&lt; 1</text>
<polygon fill="#ffffff" stroke="transparent" points="266,-1312.2 266,-1331.2 310,-1331.2 310,-1312.2 266,-1312.2"/>
<polygon fill="none" stroke="#000000" points="266,-1312.2 266,-1331.2 310,-1331.2 310,-1312.2 266,-1312.2"/>
<text text-anchor="start" x="274.6105" y="-1318.3" font-family="Helvetica,sans-Serif" font-size="11.00" fill="#000000">0 rows</text>
<polygon fill="#ffffff" stroke="transparent" points="310,-1312.2 310,-1331.2 338,-1331.2 338,-1312.2 310,-1312.2"/>
<polygon fill="none" stroke="#000000" points="310,-1312.2 310,-1331.2 338,-1331.2 338,-1312.2 310,-1312.2"/>
<text text-anchor="start" x="319.4053" y="-1318.3" font-family="Helvetica,sans-Serif" font-size="11.00" fill="#000000">5 &gt;</text>
</a>
</g>
</g>
<!-- rasp_attack_event&#45;&gt;rasp_attacks -->
<g id="edge4" class="edge">
<title>rasp_attack_event:w&#45;&gt;rasp_attacks:e</title>
<path fill="none" stroke="#000000" d="M712.2733,-1365.9291C703.6539,-1371.2204 699.2445,-1380.6578 685,-1384.2 581.9171,-1409.8336 550.2411,-1404.6195 446,-1384.2 395.136,-1374.2364 389.8307,-1340.2 338,-1340.2"/>
<polygon fill="#000000" stroke="#000000" points="718.7614,-1364.2285 727.4128,-1365.6824 722.6307,-1363.2142 726.5,-1362.2 726.5,-1362.2 726.5,-1362.2 722.6307,-1363.2142 725.5872,-1358.7176 718.7614,-1364.2285 718.7614,-1364.2285"/>
<ellipse fill="none" stroke="#000000" cx="715.666" cy="-1365.0398" rx="3.2" ry="3.2"/>
</g>
<!-- rasp_messages -->
<g id="node6" class="node">
<title>rasp_messages</title>
<g id="a_node6"><a xlink:href="../../tables/rasp_messages.html" xlink:title="rasp_messages" target="_top">
<polygon fill="#ffffff" stroke="transparent" points="505.5,-1202.7 505.5,-1263.7 625.5,-1263.7 625.5,-1202.7 505.5,-1202.7"/>
<polygon fill="#f5f5f5" stroke="transparent" points="505.5,-1240.2 505.5,-1263.2 625.5,-1263.2 625.5,-1240.2 505.5,-1240.2"/>
<polygon fill="none" stroke="#000000" points="505.5,-1240.2 505.5,-1263.2 625.5,-1263.2 625.5,-1240.2 505.5,-1240.2"/>
<text text-anchor="start" x="510.186" y="-1249.3" font-family="Helvetica,sans-Serif" font-weight="bold" font-size="11.00" fill="#000000">rasp_messages</text>
<text text-anchor="start" x="591.0219" y="-1248.3" font-family="Helvetica,sans-Serif" font-size="11.00" fill="#000000">[table]</text>
<polygon fill="none" stroke="#000000" points="505.5,-1221.2 505.5,-1240.2 625.5,-1240.2 625.5,-1221.2 505.5,-1221.2"/>
<text text-anchor="start" x="508.5" y="-1227.3" font-family="Helvetica,sans-Serif" font-size="11.00" fill="#000000">...</text>
<polygon fill="#ffffff" stroke="transparent" points="505.5,-1202.2 505.5,-1221.2 546.5,-1221.2 546.5,-1202.2 505.5,-1202.2"/>
<polygon fill="none" stroke="#000000" points="505.5,-1202.2 505.5,-1221.2 546.5,-1221.2 546.5,-1202.2 505.5,-1202.2"/>
<text text-anchor="start" x="508.5" y="-1208.3" font-family="Helvetica,sans-Serif" font-size="11.00" fill="#000000">&lt; 2</text>
<polygon fill="#ffffff" stroke="transparent" points="546.5,-1202.2 546.5,-1221.2 594.5,-1221.2 594.5,-1202.2 546.5,-1202.2"/>
<polygon fill="none" stroke="#000000" points="546.5,-1202.2 546.5,-1221.2 594.5,-1221.2 594.5,-1202.2 546.5,-1202.2"/>
<text text-anchor="start" x="559.1105" y="-1208.3" font-family="Helvetica,sans-Serif" font-size="11.00" fill="#000000">0 rows</text>
<polygon fill="#ffffff" stroke="transparent" points="594.5,-1202.2 594.5,-1221.2 625.5,-1221.2 625.5,-1202.2 594.5,-1202.2"/>
<polygon fill="none" stroke="#000000" points="594.5,-1202.2 594.5,-1221.2 625.5,-1221.2 625.5,-1202.2 594.5,-1202.2"/>
<text text-anchor="start" x="606.9053" y="-1208.3" font-family="Helvetica,sans-Serif" font-size="11.00" fill="#000000">3 &gt;</text>
</a>
</g>
</g>
<!-- rasp_attack_event&#45;&gt;rasp_messages -->
<g id="edge5" class="edge">
<title>rasp_attack_event:w&#45;&gt;rasp_messages:e</title>
<path fill="none" stroke="#000000" d="M711.9607,-1187.664C676.3153,-1195.2986 669.1082,-1230.2 625.5,-1230.2"/>
<polygon fill="#000000" stroke="#000000" points="718.5402,-1187.0015 726.8607,-1189.7819 722.5201,-1186.6008 726.5,-1186.2 726.5,-1186.2 726.5,-1186.2 722.5201,-1186.6008 726.1393,-1182.6181 718.5402,-1187.0015 718.5402,-1187.0015"/>
<ellipse fill="none" stroke="#000000" cx="715.3563" cy="-1187.3221" rx="3.2" ry="3.2"/>
</g>
<!-- rules_exclusions -->
<g id="node7" class="node">
<title>rules_exclusions</title>
<g id="a_node7"><a xlink:href="../../tables/rules_exclusions.html" xlink:title="rules_exclusions" target="_top">
<polygon fill="#ffffff" stroke="transparent" points="503.5,-1092.7 503.5,-1153.7 627.5,-1153.7 627.5,-1092.7 503.5,-1092.7"/>
<polygon fill="#f5f5f5" stroke="transparent" points="503.5,-1130.2 503.5,-1153.2 627.5,-1153.2 627.5,-1130.2 503.5,-1130.2"/>
<polygon fill="none" stroke="#000000" points="503.5,-1130.2 503.5,-1153.2 627.5,-1153.2 627.5,-1130.2 503.5,-1130.2"/>
<text text-anchor="start" x="508.3556" y="-1139.3" font-family="Helvetica,sans-Serif" font-weight="bold" font-size="11.00" fill="#000000">rules_exclusions</text>
<text text-anchor="start" x="593.0219" y="-1138.3" font-family="Helvetica,sans-Serif" font-size="11.00" fill="#000000">[table]</text>
<polygon fill="none" stroke="#000000" points="503.5,-1111.2 503.5,-1130.2 627.5,-1130.2 627.5,-1111.2 503.5,-1111.2"/>
<text text-anchor="start" x="506.5" y="-1117.3" font-family="Helvetica,sans-Serif" font-size="11.00" fill="#000000">...</text>
<polygon fill="#ffffff" stroke="transparent" points="503.5,-1092.2 503.5,-1111.2 546.5,-1111.2 546.5,-1092.2 503.5,-1092.2"/>
<polygon fill="none" stroke="#000000" points="503.5,-1092.2 503.5,-1111.2 546.5,-1111.2 546.5,-1092.2 503.5,-1092.2"/>
<text text-anchor="start" x="506.5" y="-1098.3" font-family="Helvetica,sans-Serif" font-size="11.00" fill="#000000">&lt; 1</text>
<polygon fill="#ffffff" stroke="transparent" points="546.5,-1092.2 546.5,-1111.2 595.5,-1111.2 595.5,-1092.2 546.5,-1092.2"/>
<polygon fill="none" stroke="#000000" points="546.5,-1092.2 546.5,-1111.2 595.5,-1111.2 595.5,-1092.2 546.5,-1092.2"/>
<text text-anchor="start" x="560.1105" y="-1098.3" font-family="Helvetica,sans-Serif" font-size="11.00" fill="#000000">0 rows</text>
<polygon fill="#ffffff" stroke="transparent" points="595.5,-1092.2 595.5,-1111.2 627.5,-1111.2 627.5,-1092.2 595.5,-1092.2"/>
<polygon fill="none" stroke="#000000" points="595.5,-1092.2 595.5,-1111.2 627.5,-1111.2 627.5,-1092.2 595.5,-1092.2"/>
<text text-anchor="start" x="608.9053" y="-1098.3" font-family="Helvetica,sans-Serif" font-size="11.00" fill="#000000">5 &gt;</text>
</a>
</g>
</g>
<!-- rasp_attack_event&#45;&gt;rules_exclusions -->
<g id="edge6" class="edge">
<title>rasp_attack_event:w&#45;&gt;rules_exclusions:e</title>
<path fill="none" stroke="#000000" d="M712.2303,-1204.5792C701.12,-1197.451 699.4494,-1181.1647 685,-1168.2 660.2222,-1145.9681 660.7896,-1120.2 627.5,-1120.2"/>
<polygon fill="#000000" stroke="#000000" points="718.7457,-1206.2324 725.6146,-1211.6894 722.6229,-1207.2162 726.5,-1208.2 726.5,-1208.2 726.5,-1208.2 722.6229,-1207.2162 727.3854,-1204.7106 718.7457,-1206.2324 718.7457,-1206.2324"/>
<ellipse fill="none" stroke="#000000" cx="715.644" cy="-1205.4453" rx="3.2" ry="3.2"/>
</g>
<!-- rasp_protection_rules -->
<g id="node8" class="node">
<title>rasp_protection_rules</title>
<g id="a_node8"><a xlink:href="../../tables/rasp_protection_rules.html" xlink:title="rasp_protection_rules" target="_top">
<polygon fill="#ffffff" stroke="transparent" points="165,-226.2 165,-580.2 405,-580.2 405,-226.2 165,-226.2"/>
<polygon fill="#f5f5f5" stroke="transparent" points="167,-555.2 167,-578.2 403,-578.2 403,-555.2 167,-555.2"/>
<polygon fill="none" stroke="#000000" points="167,-555.2 167,-578.2 403,-578.2 403,-555.2 167,-555.2"/>
<text text-anchor="start" x="172" y="-564.3" font-family="Helvetica,sans-Serif" font-weight="bold" font-size="11.00" fill="#000000">rasp_protection_rules</text>
<text text-anchor="start" x="368.0437" y="-563.3" font-family="Helvetica,sans-Serif" font-size="11.00" fill="#000000">[table]</text>
<polygon fill="none" stroke="#000000" points="167,-533.2 167,-555.2 328,-555.2 328,-533.2 167,-533.2"/>
<image xlink:href="../../images/primaryKeys.png" width="11px" height="12px" preserveAspectRatio="xMinYMin meet" x="172" y="-550.2"/>
<text text-anchor="start" x="187" y="-540.3" font-family="Helvetica,sans-Serif" font-size="11.00" fill="#000000">id</text>
<polygon fill="none" stroke="#000000" points="328,-533.2 328,-555.2 403,-555.2 403,-533.2 328,-533.2"/>
<text text-anchor="start" x="331" y="-540.9" font-family="Helvetica,sans-Serif" font-size="11.00" fill="#000000">int[10]</text>
<polygon fill="#ffffff" stroke="transparent" points="167,-511.2 167,-533.2 328,-533.2 328,-511.2 167,-511.2"/>
<polygon fill="none" stroke="#000000" points="167,-511.2 167,-533.2 328,-533.2 328,-511.2 167,-511.2"/>
<text text-anchor="start" x="187" y="-518.3" font-family="Helvetica,sans-Serif" font-size="11.00" fill="#000000">uuid</text>
<polygon fill="none" stroke="#000000" points="328,-511.2 328,-533.2 403,-533.2 403,-511.2 328,-511.2"/>
<text text-anchor="start" x="331" y="-518.9" font-family="Helvetica,sans-Serif" font-size="11.00" fill="#000000">varchar[255]</text>
<polygon fill="#ffffff" stroke="transparent" points="167,-489.2 167,-511.2 328,-511.2 328,-489.2 167,-489.2"/>
<polygon fill="none" stroke="#000000" points="167,-489.2 167,-511.2 328,-511.2 328,-489.2 167,-489.2"/>
<text text-anchor="start" x="187" y="-496.3" font-family="Helvetica,sans-Serif" font-size="11.00" fill="#000000">name</text>
<polygon fill="none" stroke="#000000" points="328,-489.2 328,-511.2 403,-511.2 403,-489.2 328,-489.2"/>
<text text-anchor="start" x="331" y="-496.9" font-family="Helvetica,sans-Serif" font-size="11.00" fill="#000000">varchar[255]</text>
<polygon fill="none" stroke="#000000" points="167,-467.2 167,-489.2 328,-489.2 328,-467.2 167,-467.2"/>
<text text-anchor="start" x="187" y="-474.3" font-family="Helvetica,sans-Serif" font-size="11.00" fill="#000000">category</text>
<polygon fill="none" stroke="#000000" points="328,-467.2 328,-489.2 403,-489.2 403,-467.2 328,-467.2"/>
<text text-anchor="start" x="331" y="-474.9" font-family="Helvetica,sans-Serif" font-size="11.00" fill="#000000">varchar[45]</text>
<polygon fill="none" stroke="#000000" points="167,-445.2 167,-467.2 328,-467.2 328,-445.2 167,-445.2"/>
<text text-anchor="start" x="187" y="-452.3" font-family="Helvetica,sans-Serif" font-size="11.00" fill="#000000">description</text>
<polygon fill="none" stroke="#000000" points="328,-445.2 328,-467.2 403,-467.2 403,-445.2 328,-445.2"/>
<text text-anchor="start" x="331" y="-452.9" font-family="Helvetica,sans-Serif" font-size="11.00" fill="#000000">varchar[4000]</text>
<polygon fill="none" stroke="#000000" points="167,-423.2 167,-445.2 328,-445.2 328,-423.2 167,-423.2"/>
<text text-anchor="start" x="187" y="-430.3" font-family="Helvetica,sans-Serif" font-size="11.00" fill="#000000">cve_shield</text>
<polygon fill="none" stroke="#000000" points="328,-423.2 328,-445.2 403,-445.2 403,-423.2 328,-423.2"/>
<text text-anchor="start" x="331" y="-430.9" font-family="Helvetica,sans-Serif" font-size="11.00" fill="#000000">bit[1]</text>
<polygon fill="none" stroke="#000000" points="167,-401.2 167,-423.2 328,-423.2 328,-401.2 167,-401.2"/>
<text text-anchor="start" x="187" y="-408.3" font-family="Helvetica,sans-Serif" font-size="11.00" fill="#000000">impact</text>
<polygon fill="none" stroke="#000000" points="328,-401.2 328,-423.2 403,-423.2 403,-401.2 328,-401.2"/>
<text text-anchor="start" x="331" y="-408.9" font-family="Helvetica,sans-Serif" font-size="11.00" fill="#000000">tinyint[3]</text>
<polygon fill="none" stroke="#000000" points="167,-379.2 167,-401.2 328,-401.2 328,-379.2 167,-379.2"/>
<text text-anchor="start" x="187" y="-386.3" font-family="Helvetica,sans-Serif" font-size="11.00" fill="#000000">dt_created</text>
<polygon fill="none" stroke="#000000" points="328,-379.2 328,-401.2 403,-401.2 403,-379.2 328,-379.2"/>
<text text-anchor="start" x="330.9666" y="-386.9" font-family="Helvetica,sans-Serif" font-size="11.00" fill="#000000">timestamp[19]</text>
<polygon fill="none" stroke="#000000" points="167,-357.2 167,-379.2 328,-379.2 328,-357.2 167,-357.2"/>
<text text-anchor="start" x="187" y="-364.3" font-family="Helvetica,sans-Serif" font-size="11.00" fill="#000000">dt_modified</text>
<polygon fill="none" stroke="#000000" points="328,-357.2 328,-379.2 403,-379.2 403,-357.2 328,-357.2"/>
<text text-anchor="start" x="330.9666" y="-364.9" font-family="Helvetica,sans-Serif" font-size="11.00" fill="#000000">timestamp[19]</text>
<polygon fill="none" stroke="#000000" points="167,-335.2 167,-357.2 328,-357.2 328,-335.2 167,-335.2"/>
<text text-anchor="start" x="187" y="-342.3" font-family="Helvetica,sans-Serif" font-size="11.00" fill="#000000">display_name</text>
<polygon fill="none" stroke="#000000" points="328,-335.2 328,-357.2 403,-357.2 403,-335.2 328,-335.2"/>
<text text-anchor="start" x="331" y="-342.9" font-family="Helvetica,sans-Serif" font-size="11.00" fill="#000000">varchar[255]</text>
<polygon fill="none" stroke="#000000" points="167,-313.2 167,-335.2 328,-335.2 328,-313.2 167,-313.2"/>
<text text-anchor="start" x="187" y="-320.3" font-family="Helvetica,sans-Serif" font-size="11.00" fill="#000000">can_block_at_perimeter</text>
<polygon fill="none" stroke="#000000" points="328,-313.2 328,-335.2 403,-335.2 403,-313.2 328,-313.2"/>
<text text-anchor="start" x="331" y="-320.9" font-family="Helvetica,sans-Serif" font-size="11.00" fill="#000000">bit[1]</text>
<polygon fill="none" stroke="#000000" points="167,-291.2 167,-313.2 328,-313.2 328,-291.2 167,-291.2"/>
<text text-anchor="start" x="187" y="-298.3" font-family="Helvetica,sans-Serif" font-size="11.00" fill="#000000">default_mode</text>
<polygon fill="none" stroke="#000000" points="328,-291.2 328,-313.2 403,-313.2 403,-291.2 328,-291.2"/>
<text text-anchor="start" x="331" y="-298.9" font-family="Helvetica,sans-Serif" font-size="11.00" fill="#000000">tinyint[3]</text>
<polygon fill="none" stroke="#000000" points="167,-269.2 167,-291.2 328,-291.2 328,-269.2 167,-269.2"/>
<text text-anchor="start" x="187" y="-276.3" font-family="Helvetica,sans-Serif" font-size="11.00" fill="#000000">freemium_enabled</text>
<polygon fill="none" stroke="#000000" points="328,-269.2 328,-291.2 403,-291.2 403,-269.2 328,-269.2"/>
<text text-anchor="start" x="331" y="-276.9" font-family="Helvetica,sans-Serif" font-size="11.00" fill="#000000">bit[1]</text>
<polygon fill="none" stroke="#000000" points="167,-247.2 167,-269.2 328,-269.2 328,-247.2 167,-247.2"/>
<text text-anchor="start" x="187" y="-254.3" font-family="Helvetica,sans-Serif" font-size="11.00" fill="#000000">is_monitor_at_perimeter</text>
<polygon fill="none" stroke="#000000" points="328,-247.2 328,-269.2 403,-269.2 403,-247.2 328,-247.2"/>
<text text-anchor="start" x="331" y="-254.9" font-family="Helvetica,sans-Serif" font-size="11.00" fill="#000000">bit[1]</text>
<polygon fill="#ffffff" stroke="transparent" points="167,-228.2 167,-247.2 236,-247.2 236,-228.2 167,-228.2"/>
<polygon fill="none" stroke="#000000" points="167,-228.2 167,-247.2 236,-247.2 236,-228.2 167,-228.2"/>
<text text-anchor="start" x="170" y="-234.3" font-family="Helvetica,sans-Serif" font-size="11.00" fill="#000000">&lt; 0</text>
<polygon fill="#ffffff" stroke="transparent" points="236,-228.2 236,-247.2 328,-247.2 328,-228.2 236,-228.2"/>
<polygon fill="none" stroke="#000000" points="236,-228.2 236,-247.2 328,-247.2 328,-228.2 236,-228.2"/>
<text text-anchor="start" x="286.4956" y="-234.3" font-family="Helvetica,sans-Serif" font-size="11.00" fill="#000000">64 rows</text>
<polygon fill="#ffffff" stroke="transparent" points="328,-228.2 328,-247.2 403,-247.2 403,-228.2 328,-228.2"/>
<polygon fill="none" stroke="#000000" points="328,-228.2 328,-247.2 403,-247.2 403,-228.2 328,-228.2"/>
<text text-anchor="start" x="384.4053" y="-234.3" font-family="Helvetica,sans-Serif" font-size="11.00" fill="#000000">9 &gt;</text>
<polygon fill="none" stroke="#000000" stroke-width="2" points="166,-227.2 166,-579.2 404,-579.2 404,-227.2 166,-227.2"/>
</a>
</g>
</g>
<!-- rasp_attack_event&#45;&gt;rasp_protection_rules -->
<g id="edge7" class="edge">
<title>rasp_attack_event:w&#45;&gt;rasp_protection_rules:e</title>
<path fill="none" stroke="#000000" d="M714.7887,-1155.7832C676.3025,-1091.3063 722.4854,-677.1333 685,-638.2 647.911,-599.6784 491.4482,-638.3775 446,-610.2 416.2451,-591.7522 438.0097,-544.2 403,-544.2"/>
<polygon fill="#000000" stroke="#000000" points="720.0037,-1159.5311 724.399,-1167.1233 723.2518,-1161.8656 726.5,-1164.2 726.5,-1164.2 726.5,-1164.2 723.2518,-1161.8656 728.601,-1161.2767 720.0037,-1159.5311 720.0037,-1159.5311"/>
<ellipse fill="none" stroke="#000000" cx="717.4052" cy="-1157.6636" rx="3.2" ry="3.2"/>
</g>
<!-- servers -->
<g id="node9" class="node">
<title>servers</title>
<g id="a_node9"><a xlink:href="../../tables/servers.html" xlink:title="servers" target="_top">
<polygon fill="#ffffff" stroke="transparent" points="242,-1216.7 242,-1277.7 328,-1277.7 328,-1216.7 242,-1216.7"/>
<polygon fill="#f5f5f5" stroke="transparent" points="242,-1254.2 242,-1277.2 328,-1277.2 328,-1254.2 242,-1254.2"/>
<polygon fill="none" stroke="#000000" points="242,-1254.2 242,-1277.2 328,-1277.2 328,-1254.2 242,-1254.2"/>
<text text-anchor="start" x="247" y="-1263.3" font-family="Helvetica,sans-Serif" font-weight="bold" font-size="11.00" fill="#000000">servers</text>
<text text-anchor="start" x="293.0437" y="-1262.3" font-family="Helvetica,sans-Serif" font-size="11.00" fill="#000000">[table]</text>
<polygon fill="none" stroke="#000000" points="242,-1235.2 242,-1254.2 328,-1254.2 328,-1235.2 242,-1235.2"/>
<text text-anchor="start" x="245" y="-1241.3" font-family="Helvetica,sans-Serif" font-size="11.00" fill="#000000">...</text>
<polygon fill="#ffffff" stroke="transparent" points="242,-1216.2 242,-1235.2 263,-1235.2 263,-1216.2 242,-1216.2"/>
<polygon fill="none" stroke="#000000" points="242,-1216.2 242,-1235.2 263,-1235.2 263,-1216.2 242,-1216.2"/>
<text text-anchor="start" x="244.7027" y="-1222.3" font-family="Helvetica,sans-Serif" font-size="11.00" fill="#000000">&lt; 2</text>
<polygon fill="#ffffff" stroke="transparent" points="263,-1216.2 263,-1235.2 301,-1235.2 301,-1216.2 263,-1216.2"/>
<polygon fill="none" stroke="#000000" points="263,-1216.2 263,-1235.2 301,-1235.2 301,-1216.2 263,-1216.2"/>
<text text-anchor="start" x="265.8053" y="-1222.3" font-family="Helvetica,sans-Serif" font-size="11.00" fill="#000000">0 rows</text>
<polygon fill="#ffffff" stroke="transparent" points="301,-1216.2 301,-1235.2 328,-1235.2 328,-1216.2 301,-1216.2"/>
<polygon fill="none" stroke="#000000" points="301,-1216.2 301,-1235.2 328,-1235.2 328,-1216.2 301,-1216.2"/>
<text text-anchor="start" x="303.6452" y="-1222.3" font-family="Helvetica,sans-Serif" font-size="11.00" fill="#000000">21 &gt;</text>
</a>
</g>
</g>
<!-- rasp_attack_event&#45;&gt;servers -->
<g id="edge8" class="edge">
<title>rasp_attack_event:w&#45;&gt;servers:e</title>
<path fill="none" stroke="#000000" d="M712.2733,-1255.9291C703.6539,-1261.2204 699.2445,-1270.6578 685,-1274.2 581.9171,-1299.8336 551.4003,-1287.3886 446,-1274.2 392.3059,-1267.4813 382.1128,-1244.2 328,-1244.2"/>
<polygon fill="#000000" stroke="#000000" points="718.7614,-1254.2285 727.4128,-1255.6824 722.6307,-1253.2142 726.5,-1252.2 726.5,-1252.2 726.5,-1252.2 722.6307,-1253.2142 725.5872,-1248.7176 718.7614,-1254.2285 718.7614,-1254.2285"/>
<ellipse fill="none" stroke="#000000" cx="715.666" cy="-1255.0398" rx="3.2" ry="3.2"/>
</g>
<!-- rasp_attacks_applications&#45;&gt;applications -->
<g id="edge14" class="edge">
<title>rasp_attacks_applications:w&#45;&gt;applications:e</title>
<path fill="none" stroke="#000000" d="M467.1688,-1338.5483C421.2392,-1326.476 454.9298,-1251.0526 413,-1206.2 386.083,-1177.4067 375.4155,-1162.2 336,-1162.2"/>
<polygon fill="#000000" stroke="#000000" points="473.5526,-1339.284 481.0878,-1343.7763 477.5263,-1339.742 481.5,-1340.2 481.5,-1340.2 481.5,-1340.2 477.5263,-1339.742 481.9122,-1336.6237 473.5526,-1339.284 473.5526,-1339.284"/>
<ellipse fill="none" stroke="#000000" cx="470.3737" cy="-1338.9176" rx="3.2" ry="3.2"/>
</g>
<!-- rasp_attacks_applications&#45;&gt;rasp_attacks -->
<g id="edge15" class="edge">
<title>rasp_attacks_applications:w&#45;&gt;rasp_attacks:e</title>
<path fill="none" stroke="#000000" d="M467.0495,-1340.2C414.8619,-1340.2 396.6706,-1340.2 338,-1340.2"/>
<polygon fill="#000000" stroke="#000000" points="473.5,-1340.2001 481.5,-1343.8 477.5,-1340.2 481.5,-1340.2 481.5,-1340.2 481.5,-1340.2 477.5,-1340.2 481.5,-1336.6 473.5,-1340.2001 473.5,-1340.2001"/>
<ellipse fill="none" stroke="#000000" cx="470.3" cy="-1340.2001" rx="3.2" ry="3.2"/>
</g>
<!-- rasp_attacks&#45;&gt;organizations -->
<g id="edge13" class="edge">
<title>rasp_attacks:w&#45;&gt;organizations:e</title>
<path fill="none" stroke="#000000" d="M218.5922,-1339.2532C189.1219,-1335.0156 178.3673,-1316.7392 157,-1288.2 121.7052,-1241.0585 174.8901,-1162.2 116,-1162.2"/>
<polygon fill="#000000" stroke="#000000" points="225.0172,-1339.6754 232.7639,-1343.7923 229.0086,-1339.9377 233,-1340.2 233,-1340.2 233,-1340.2 229.0086,-1339.9377 233.2361,-1336.6077 225.0172,-1339.6754 225.0172,-1339.6754"/>
<ellipse fill="none" stroke="#000000" cx="221.8241" cy="-1339.4655" rx="3.2" ry="3.2"/>
</g>
<!-- rasp_messages&#45;&gt;applications -->
<g id="edge19" class="edge">
<title>rasp_messages:w&#45;&gt;applications:e</title>
<path fill="none" stroke="#000000" d="M491.1119,-1229.4363C423.1463,-1221.9656 412.0964,-1162.2 336,-1162.2"/>
<polygon fill="#000000" stroke="#000000" points="497.5112,-1229.7759 505.3092,-1233.7949 501.5056,-1229.988 505.5,-1230.2 505.5,-1230.2 505.5,-1230.2 501.5056,-1229.988 505.6908,-1226.6051 497.5112,-1229.7759 497.5112,-1229.7759"/>
<ellipse fill="none" stroke="#000000" cx="494.3157" cy="-1229.6063" rx="3.2" ry="3.2"/>
</g>
<!-- rasp_messages&#45;&gt;servers -->
<g id="edge20" class="edge">
<title>rasp_messages:w&#45;&gt;servers:e</title>
<path fill="none" stroke="#000000" d="M490.9132,-1230.367C423.6381,-1231.9465 402.0335,-1244.2 328,-1244.2"/>
<polygon fill="#000000" stroke="#000000" points="497.5005,-1230.2916 505.5412,-1233.7998 501.5003,-1230.2458 505.5,-1230.2 505.5,-1230.2 505.5,-1230.2 501.5003,-1230.2458 505.4588,-1226.6002 497.5005,-1230.2916 497.5005,-1230.2916"/>
<ellipse fill="none" stroke="#000000" cx="494.3007" cy="-1230.3283" rx="3.2" ry="3.2"/>
</g>
<!-- rules_exclusions&#45;&gt;applications -->
<g id="edge28" class="edge">
<title>rules_exclusions:w&#45;&gt;applications:e</title>
<path fill="none" stroke="#000000" d="M489.0035,-1120.731C424.6146,-1125.5929 407.6525,-1162.2 336,-1162.2"/>
<polygon fill="#000000" stroke="#000000" points="495.5054,-1120.4929 503.6318,-1123.7976 499.5027,-1120.3465 503.5,-1120.2 503.5,-1120.2 503.5,-1120.2 499.5027,-1120.3465 503.3682,-1116.6024 495.5054,-1120.4929 495.5054,-1120.4929"/>
<ellipse fill="none" stroke="#000000" cx="492.3075" cy="-1120.6101" rx="3.2" ry="3.2"/>
</g>
<!-- servers&#45;&gt;organizations -->
<g id="edge31" class="edge">
<title>servers:w&#45;&gt;organizations:e</title>
<path fill="none" stroke="#000000" d="M227.4458,-1243.5134C197.6589,-1240.4384 186.3264,-1227.1603 157,-1206.2 135.2538,-1190.6574 142.7296,-1162.2 116,-1162.2"/>
<polygon fill="#000000" stroke="#000000" points="234.0089,-1243.8229 241.8303,-1247.796 238.0044,-1244.0115 242,-1244.2 242,-1244.2 242,-1244.2 238.0044,-1244.0115 242.1697,-1240.604 234.0089,-1243.8229 234.0089,-1243.8229"/>
<ellipse fill="none" stroke="#000000" cx="230.8124" cy="-1243.6721" rx="3.2" ry="3.2"/>
</g>
<!-- rasp_attack_event_count -->
<g id="node10" class="node">
<title>rasp_attack_event_count</title>
<g id="a_node10"><a xlink:href="../../tables/rasp_attack_event_count.html" xlink:title="rasp_attack_event_count" target="_top">
<polygon fill="#ffffff" stroke="transparent" points="1025.5,-1520.7 1025.5,-1581.7 1190.5,-1581.7 1190.5,-1520.7 1025.5,-1520.7"/>
<polygon fill="#f5f5f5" stroke="transparent" points="1026,-1558.2 1026,-1581.2 1191,-1581.2 1191,-1558.2 1026,-1558.2"/>
<polygon fill="none" stroke="#000000" points="1026,-1558.2 1026,-1581.2 1191,-1581.2 1191,-1558.2 1026,-1558.2"/>
<text text-anchor="start" x="1030.5584" y="-1567.3" font-family="Helvetica,sans-Serif" font-weight="bold" font-size="11.00" fill="#000000">rasp_attack_event_count</text>
<text text-anchor="start" x="1156.5219" y="-1566.3" font-family="Helvetica,sans-Serif" font-size="11.00" fill="#000000">[table]</text>
<polygon fill="none" stroke="#000000" points="1026,-1539.2 1026,-1558.2 1191,-1558.2 1191,-1539.2 1026,-1539.2"/>
<text text-anchor="start" x="1029" y="-1545.3" font-family="Helvetica,sans-Serif" font-size="11.00" fill="#000000">...</text>
<polygon fill="#ffffff" stroke="transparent" points="1026,-1520.2 1026,-1539.2 1094,-1539.2 1094,-1520.2 1026,-1520.2"/>
<polygon fill="none" stroke="#000000" points="1026,-1520.2 1026,-1539.2 1094,-1539.2 1094,-1520.2 1026,-1520.2"/>
<text text-anchor="start" x="1029" y="-1526.3" font-family="Helvetica,sans-Serif" font-size="11.00" fill="#000000">&lt; 1</text>
<polygon fill="#ffffff" stroke="transparent" points="1094,-1520.2 1094,-1539.2 1155,-1539.2 1155,-1520.2 1094,-1520.2"/>
<polygon fill="none" stroke="#000000" points="1094,-1520.2 1094,-1539.2 1155,-1539.2 1155,-1520.2 1094,-1520.2"/>
<text text-anchor="start" x="1119.6105" y="-1526.3" font-family="Helvetica,sans-Serif" font-size="11.00" fill="#000000">0 rows</text>
<polygon fill="#ffffff" stroke="transparent" points="1155,-1520.2 1155,-1539.2 1191,-1539.2 1191,-1520.2 1155,-1520.2"/>
<polygon fill="none" stroke="#000000" points="1155,-1520.2 1155,-1539.2 1191,-1539.2 1191,-1520.2 1155,-1520.2"/>
<text text-anchor="start" x="1181.8862" y="-1526.3" font-family="Helvetica,sans-Serif" font-size="11.00" fill="#000000"> &#160;</text>
</a>
</g>
</g>
<!-- rasp_attack_event_count&#45;&gt;rasp_attack_event -->
<g id="edge9" class="edge">
<title>rasp_attack_event_count:w&#45;&gt;rasp_attack_event:e</title>
<path fill="none" stroke="#000000" d="M1011.4752,-1545.7544C959.5862,-1525.3533 1032.4692,-1384.2 959.5,-1384.2"/>
<polygon fill="#000000" stroke="#000000" points="1018.111,-1546.8717 1025.4022,-1551.75 1022.0555,-1547.5358 1026,-1548.2 1026,-1548.2 1026,-1548.2 1022.0555,-1547.5358 1026.5978,-1544.65 1018.111,-1546.8717 1018.111,-1546.8717"/>
<ellipse fill="none" stroke="#000000" cx="1014.9555" cy="-1546.3403" rx="3.2" ry="3.2"/>
</g>
<!-- rasp_attack_event_detail -->
<g id="node11" class="node">
<title>rasp_attack_event_detail</title>
<g id="a_node11"><a xlink:href="../../tables/rasp_attack_event_detail.html" xlink:title="rasp_attack_event_detail" target="_top">
<polygon fill="#ffffff" stroke="transparent" points="1025.5,-1438.7 1025.5,-1499.7 1190.5,-1499.7 1190.5,-1438.7 1025.5,-1438.7"/>
<polygon fill="#f5f5f5" stroke="transparent" points="1026,-1476.2 1026,-1499.2 1191,-1499.2 1191,-1476.2 1026,-1476.2"/>
<polygon fill="none" stroke="#000000" points="1026,-1476.2 1026,-1499.2 1191,-1499.2 1191,-1476.2 1026,-1476.2"/>
<text text-anchor="start" x="1030.8675" y="-1485.3" font-family="Helvetica,sans-Serif" font-weight="bold" font-size="11.00" fill="#000000">rasp_attack_event_detail</text>
<text text-anchor="start" x="1156.5219" y="-1484.3" font-family="Helvetica,sans-Serif" font-size="11.00" fill="#000000">[table]</text>
<polygon fill="none" stroke="#000000" points="1026,-1457.2 1026,-1476.2 1191,-1476.2 1191,-1457.2 1026,-1457.2"/>
<text text-anchor="start" x="1029" y="-1463.3" font-family="Helvetica,sans-Serif" font-size="11.00" fill="#000000">...</text>
<polygon fill="#ffffff" stroke="transparent" points="1026,-1438.2 1026,-1457.2 1094,-1457.2 1094,-1438.2 1026,-1438.2"/>
<polygon fill="none" stroke="#000000" points="1026,-1438.2 1026,-1457.2 1094,-1457.2 1094,-1438.2 1026,-1438.2"/>
<text text-anchor="start" x="1029" y="-1444.3" font-family="Helvetica,sans-Serif" font-size="11.00" fill="#000000">&lt; 1</text>
<polygon fill="#ffffff" stroke="transparent" points="1094,-1438.2 1094,-1457.2 1155,-1457.2 1155,-1438.2 1094,-1438.2"/>
<polygon fill="none" stroke="#000000" points="1094,-1438.2 1094,-1457.2 1155,-1457.2 1155,-1438.2 1094,-1438.2"/>
<text text-anchor="start" x="1119.6105" y="-1444.3" font-family="Helvetica,sans-Serif" font-size="11.00" fill="#000000">0 rows</text>
<polygon fill="#ffffff" stroke="transparent" points="1155,-1438.2 1155,-1457.2 1191,-1457.2 1191,-1438.2 1155,-1438.2"/>
<polygon fill="none" stroke="#000000" points="1155,-1438.2 1155,-1457.2 1191,-1457.2 1191,-1438.2 1155,-1438.2"/>
<text text-anchor="start" x="1181.8862" y="-1444.3" font-family="Helvetica,sans-Serif" font-size="11.00" fill="#000000"> &#160;</text>
</a>
</g>
</g>
<!-- rasp_attack_event_detail&#45;&gt;rasp_attack_event -->
<g id="edge10" class="edge">
<title>rasp_attack_event_detail:w&#45;&gt;rasp_attack_event:e</title>
<path fill="none" stroke="#000000" d="M1015.454,-1464.4873C983.2289,-1452.7118 1002.3902,-1384.2 959.5,-1384.2"/>
<polygon fill="#000000" stroke="#000000" points="1025.8516,-1462.1235 1024.5691,-1470.02 1022.9898,-1469.7635 1024.2723,-1461.867 1025.8516,-1462.1235"/>
<polyline fill="none" stroke="#000000" points="1026,-1466.2 1022.0517,-1465.5588 "/>
<ellipse fill="none" stroke="#000000" cx="1018.8931" cy="-1465.0458" rx="3.2" ry="3.2"/>
</g>
<!-- rasp_attack_event_note -->
<g id="node12" class="node">
<title>rasp_attack_event_note</title>
<g id="a_node12"><a xlink:href="../../tables/rasp_attack_event_note.html" xlink:title="rasp_attack_event_note" target="_top">
<polygon fill="#ffffff" stroke="transparent" points="1028,-1356.7 1028,-1417.7 1188,-1417.7 1188,-1356.7 1028,-1356.7"/>
<polygon fill="#f5f5f5" stroke="transparent" points="1028,-1394.2 1028,-1417.2 1188,-1417.2 1188,-1394.2 1028,-1394.2"/>
<polygon fill="none" stroke="#000000" points="1028,-1394.2 1028,-1417.2 1188,-1417.2 1188,-1394.2 1028,-1394.2"/>
<text text-anchor="start" x="1032.8084" y="-1403.3" font-family="Helvetica,sans-Serif" font-weight="bold" font-size="11.00" fill="#000000">rasp_attack_event_note</text>
<text text-anchor="start" x="1153.5219" y="-1402.3" font-family="Helvetica,sans-Serif" font-size="11.00" fill="#000000">[table]</text>
<polygon fill="none" stroke="#000000" points="1028,-1375.2 1028,-1394.2 1188,-1394.2 1188,-1375.2 1028,-1375.2"/>
<text text-anchor="start" x="1031" y="-1381.3" font-family="Helvetica,sans-Serif" font-size="11.00" fill="#000000">...</text>
<polygon fill="#ffffff" stroke="transparent" points="1028,-1356.2 1028,-1375.2 1093,-1375.2 1093,-1356.2 1028,-1356.2"/>
<polygon fill="none" stroke="#000000" points="1028,-1356.2 1028,-1375.2 1093,-1375.2 1093,-1356.2 1028,-1356.2"/>
<text text-anchor="start" x="1031" y="-1362.3" font-family="Helvetica,sans-Serif" font-size="11.00" fill="#000000">&lt; 4</text>
<polygon fill="#ffffff" stroke="transparent" points="1093,-1356.2 1093,-1375.2 1153,-1375.2 1153,-1356.2 1093,-1356.2"/>
<polygon fill="none" stroke="#000000" points="1093,-1356.2 1093,-1375.2 1153,-1375.2 1153,-1356.2 1093,-1356.2"/>
<text text-anchor="start" x="1117.6105" y="-1362.3" font-family="Helvetica,sans-Serif" font-size="11.00" fill="#000000">0 rows</text>
<polygon fill="#ffffff" stroke="transparent" points="1153,-1356.2 1153,-1375.2 1188,-1375.2 1188,-1356.2 1153,-1356.2"/>
<polygon fill="none" stroke="#000000" points="1153,-1356.2 1153,-1375.2 1188,-1375.2 1188,-1356.2 1153,-1356.2"/>
<text text-anchor="start" x="1178.8862" y="-1362.3" font-family="Helvetica,sans-Serif" font-size="11.00" fill="#000000"> &#160;</text>
</a>
</g>
</g>
<!-- rasp_attack_event_note&#45;&gt;rasp_attack_event -->
<g id="edge11" class="edge">
<title>rasp_attack_event_note:w&#45;&gt;rasp_attack_event:e</title>
<path fill="none" stroke="#000000" d="M1013.5353,-1384.2C994.0831,-1384.2 984.474,-1384.2 959.5,-1384.2"/>
<polygon fill="#000000" stroke="#000000" points="1020,-1384.2001 1028,-1387.8 1024,-1384.2 1028,-1384.2 1028,-1384.2 1028,-1384.2 1024,-1384.2 1028,-1380.6 1020,-1384.2001 1020,-1384.2001"/>
<ellipse fill="none" stroke="#000000" cx="1016.8" cy="-1384.2001" rx="3.2" ry="3.2"/>
</g>
<!-- rasp_attack_event_user_viewed -->
<g id="node13" class="node">
<title>rasp_attack_event_user_viewed</title>
<g id="a_node13"><a xlink:href="../../tables/rasp_attack_event_user_viewed.html" xlink:title="rasp_attack_event_user_viewed" target="_top">
<polygon fill="#ffffff" stroke="transparent" points="1008,-1274.7 1008,-1335.7 1208,-1335.7 1208,-1274.7 1008,-1274.7"/>
<polygon fill="#f5f5f5" stroke="transparent" points="1008,-1312.2 1008,-1335.2 1208,-1335.2 1208,-1312.2 1008,-1312.2"/>
<polygon fill="none" stroke="#000000" points="1008,-1312.2 1008,-1335.2 1208,-1335.2 1208,-1312.2 1008,-1312.2"/>
<text text-anchor="start" x="1012.6427" y="-1321.3" font-family="Helvetica,sans-Serif" font-weight="bold" font-size="11.00" fill="#000000">rasp_attack_event_user_viewed</text>
<text text-anchor="start" x="1173.5219" y="-1320.3" font-family="Helvetica,sans-Serif" font-size="11.00" fill="#000000">[table]</text>
<polygon fill="none" stroke="#000000" points="1008,-1293.2 1008,-1312.2 1208,-1312.2 1208,-1293.2 1008,-1293.2"/>
<text text-anchor="start" x="1011" y="-1299.3" font-family="Helvetica,sans-Serif" font-size="11.00" fill="#000000">...</text>
<polygon fill="#ffffff" stroke="transparent" points="1008,-1274.2 1008,-1293.2 1093,-1293.2 1093,-1274.2 1008,-1274.2"/>
<polygon fill="none" stroke="#000000" points="1008,-1274.2 1008,-1293.2 1093,-1293.2 1093,-1274.2 1008,-1274.2"/>
<text text-anchor="start" x="1011" y="-1280.3" font-family="Helvetica,sans-Serif" font-size="11.00" fill="#000000">&lt; 2</text>
<polygon fill="#ffffff" stroke="transparent" points="1093,-1274.2 1093,-1293.2 1163,-1293.2 1163,-1274.2 1093,-1274.2"/>
<polygon fill="none" stroke="#000000" points="1093,-1274.2 1093,-1293.2 1163,-1293.2 1163,-1274.2 1093,-1274.2"/>
<text text-anchor="start" x="1127.6105" y="-1280.3" font-family="Helvetica,sans-Serif" font-size="11.00" fill="#000000">0 rows</text>
<polygon fill="#ffffff" stroke="transparent" points="1163,-1274.2 1163,-1293.2 1208,-1293.2 1208,-1274.2 1163,-1274.2"/>
<polygon fill="none" stroke="#000000" points="1163,-1274.2 1163,-1293.2 1208,-1293.2 1208,-1274.2 1163,-1274.2"/>
<text text-anchor="start" x="1198.8862" y="-1280.3" font-family="Helvetica,sans-Serif" font-size="11.00" fill="#000000"> &#160;</text>
</a>
</g>
</g>
<!-- rasp_attack_event_user_viewed&#45;&gt;rasp_attack_event -->
<g id="edge12" class="edge">
<title>rasp_attack_event_user_viewed:w&#45;&gt;rasp_attack_event:e</title>
<path fill="none" stroke="#000000" d="M994.0877,-1306.8436C974.4771,-1324.1902 995.7222,-1384.2 959.5,-1384.2"/>
<polygon fill="#000000" stroke="#000000" points="1000.4115,-1304.7329 1009.1398,-1305.6148 1004.2058,-1303.4664 1008,-1302.2 1008,-1302.2 1008,-1302.2 1004.2058,-1303.4664 1006.8602,-1298.7852 1000.4115,-1304.7329 1000.4115,-1304.7329"/>
<ellipse fill="none" stroke="#000000" cx="997.3762" cy="-1305.7461" rx="3.2" ry="3.2"/>
</g>
<!-- rasp_cve_shield_org_config -->
<g id="node14" class="node">
<title>rasp_cve_shield_org_config</title>
<g id="a_node14"><a xlink:href="../../tables/rasp_cve_shield_org_config.html" xlink:title="rasp_cve_shield_org_config" target="_top">
<polygon fill="#ffffff" stroke="transparent" points="474,-648.7 474,-775.7 657,-775.7 657,-648.7 474,-648.7"/>
<polygon fill="#f5f5f5" stroke="transparent" points="474.5,-752.2 474.5,-775.2 657.5,-775.2 657.5,-752.2 474.5,-752.2"/>
<polygon fill="none" stroke="#000000" points="474.5,-752.2 474.5,-775.2 657.5,-775.2 657.5,-752.2 474.5,-752.2"/>
<text text-anchor="start" x="479.5" y="-761.3" font-family="Helvetica,sans-Serif" font-weight="bold" font-size="11.00" fill="#000000">rasp_cve_shield_org_config</text>
<text text-anchor="start" x="622.5437" y="-760.3" font-family="Helvetica,sans-Serif" font-size="11.00" fill="#000000">[table]</text>
<polygon fill="none" stroke="#000000" points="474.5,-730.2 474.5,-752.2 657.5,-752.2 657.5,-730.2 474.5,-730.2"/>
<image xlink:href="../../images/primaryKeys.png" width="11px" height="12px" preserveAspectRatio="xMinYMin meet" x="479.5" y="-747.2"/>
<text text-anchor="start" x="494.5" y="-737.3" font-family="Helvetica,sans-Serif" font-size="11.00" fill="#000000">id</text>
<polygon fill="#ffffff" stroke="transparent" points="474.5,-708.2 474.5,-730.2 657.5,-730.2 657.5,-708.2 474.5,-708.2"/>
<polygon fill="none" stroke="#000000" points="474.5,-708.2 474.5,-730.2 657.5,-730.2 657.5,-708.2 474.5,-708.2"/>
<image xlink:href="../../images/foreignKeys.png" width="11px" height="12px" preserveAspectRatio="xMinYMin meet" x="479.5" y="-725.2"/>
<text text-anchor="start" x="494.5" y="-715.3" font-family="Helvetica,sans-Serif" font-size="11.00" fill="#000000">rasp_protection_rules_id</text>
<polygon fill="#ffffff" stroke="transparent" points="474.5,-686.2 474.5,-708.2 657.5,-708.2 657.5,-686.2 474.5,-686.2"/>
<polygon fill="none" stroke="#000000" points="474.5,-686.2 474.5,-708.2 657.5,-708.2 657.5,-686.2 474.5,-686.2"/>
<image xlink:href="../../images/foreignKeys.png" width="11px" height="12px" preserveAspectRatio="xMinYMin meet" x="479.5" y="-703.2"/>
<text text-anchor="start" x="494.5" y="-693.3" font-family="Helvetica,sans-Serif" font-size="11.00" fill="#000000">organization_id</text>
<polygon fill="none" stroke="#000000" points="474.5,-667.2 474.5,-686.2 657.5,-686.2 657.5,-667.2 474.5,-667.2"/>
<text text-anchor="start" x="477.5" y="-673.3" font-family="Helvetica,sans-Serif" font-size="11.00" fill="#000000">...</text>
<polygon fill="#ffffff" stroke="transparent" points="474.5,-648.2 474.5,-667.2 551.5,-667.2 551.5,-648.2 474.5,-648.2"/>
<polygon fill="none" stroke="#000000" points="474.5,-648.2 474.5,-667.2 551.5,-667.2 551.5,-648.2 474.5,-648.2"/>
<text text-anchor="start" x="477.5" y="-654.3" font-family="Helvetica,sans-Serif" font-size="11.00" fill="#000000">&lt; 2</text>
<polygon fill="#ffffff" stroke="transparent" points="551.5,-648.2 551.5,-667.2 617.5,-667.2 617.5,-648.2 551.5,-648.2"/>
<polygon fill="none" stroke="#000000" points="551.5,-648.2 551.5,-667.2 617.5,-667.2 617.5,-648.2 551.5,-648.2"/>
<text text-anchor="start" x="582.1105" y="-654.3" font-family="Helvetica,sans-Serif" font-size="11.00" fill="#000000">0 rows</text>
<polygon fill="#ffffff" stroke="transparent" points="617.5,-648.2 617.5,-667.2 657.5,-667.2 657.5,-648.2 617.5,-648.2"/>
<polygon fill="none" stroke="#000000" points="617.5,-648.2 617.5,-667.2 657.5,-667.2 657.5,-648.2 617.5,-648.2"/>
<text text-anchor="start" x="648.3862" y="-654.3" font-family="Helvetica,sans-Serif" font-size="11.00" fill="#000000"> &#160;</text>
</a>
</g>
</g>
<!-- rasp_cve_shield_org_config&#45;&gt;organizations -->
<g id="edge16" class="edge">
<title>rasp_cve_shield_org_config:w&#45;&gt;organizations:e</title>
<path fill="none" stroke="#000000" d="M459.6774,-697.2769C313.9269,-698.8429 245.9137,-725.1075 157,-847.2 115.4443,-904.2625 186.5905,-1162.2 116,-1162.2"/>
<polygon fill="#000000" stroke="#000000" points="466.5001,-697.2416 474.5187,-700.8 470.5001,-697.2208 474.5,-697.2 474.5,-697.2 474.5,-697.2 470.5001,-697.2208 474.4813,-693.6 466.5001,-697.2416 466.5001,-697.2416"/>
<ellipse fill="none" stroke="#000000" cx="463.3002" cy="-697.2582" rx="3.2" ry="3.2"/>
</g>
<!-- rasp_cve_shield_org_config&#45;&gt;rasp_protection_rules -->
<g id="edge17" class="edge">
<title>rasp_cve_shield_org_config:w&#45;&gt;rasp_protection_rules:e</title>
<path fill="none" stroke="#000000" d="M460.0447,-716.9874C402.5062,-696.7295 481.4397,-544.2 403,-544.2"/>
<polygon fill="#000000" stroke="#000000" points="466.5921,-717.9895 473.9553,-722.7586 470.5461,-718.5948 474.5,-719.2 474.5,-719.2 474.5,-719.2 470.5461,-718.5948 475.0447,-715.6414 466.5921,-717.9895 466.5921,-717.9895"/>
<ellipse fill="none" stroke="#000000" cx="463.4289" cy="-717.5053" rx="3.2" ry="3.2"/>
</g>
<!-- rasp_cve_shield_profile -->
<g id="node15" class="node">
<title>rasp_cve_shield_profile</title>
<g id="a_node15"><a xlink:href="../../tables/rasp_cve_shield_profile.html" xlink:title="rasp_cve_shield_profile" target="_top">
<polygon fill="#ffffff" stroke="transparent" points="483.5,-167.7 483.5,-294.7 647.5,-294.7 647.5,-167.7 483.5,-167.7"/>
<polygon fill="#f5f5f5" stroke="transparent" points="483.5,-271.2 483.5,-294.2 647.5,-294.2 647.5,-271.2 483.5,-271.2"/>
<polygon fill="none" stroke="#000000" points="483.5,-271.2 483.5,-294.2 647.5,-294.2 647.5,-271.2 483.5,-271.2"/>
<text text-anchor="start" x="488.5" y="-280.3" font-family="Helvetica,sans-Serif" font-weight="bold" font-size="11.00" fill="#000000">rasp_cve_shield_profile</text>
<text text-anchor="start" x="612.5437" y="-279.3" font-family="Helvetica,sans-Serif" font-size="11.00" fill="#000000">[table]</text>
<polygon fill="none" stroke="#000000" points="483.5,-249.2 483.5,-271.2 647.5,-271.2 647.5,-249.2 483.5,-249.2"/>
<image xlink:href="../../images/primaryKeys.png" width="11px" height="12px" preserveAspectRatio="xMinYMin meet" x="488.5" y="-266.2"/>
<text text-anchor="start" x="503.5" y="-256.3" font-family="Helvetica,sans-Serif" font-size="11.00" fill="#000000">id</text>
<polygon fill="#ffffff" stroke="transparent" points="483.5,-227.2 483.5,-249.2 647.5,-249.2 647.5,-227.2 483.5,-227.2"/>
<polygon fill="none" stroke="#000000" points="483.5,-227.2 483.5,-249.2 647.5,-249.2 647.5,-227.2 483.5,-227.2"/>
<text text-anchor="start" x="503.5" y="-234.3" font-family="Helvetica,sans-Serif" font-size="11.00" fill="#000000">profile_name</text>
<polygon fill="#ffffff" stroke="transparent" points="483.5,-205.2 483.5,-227.2 647.5,-227.2 647.5,-205.2 483.5,-205.2"/>
<polygon fill="none" stroke="#000000" points="483.5,-205.2 483.5,-227.2 647.5,-227.2 647.5,-205.2 483.5,-205.2"/>
<image xlink:href="../../images/foreignKeys.png" width="11px" height="12px" preserveAspectRatio="xMinYMin meet" x="488.5" y="-222.2"/>
<text text-anchor="start" x="503.5" y="-212.3" font-family="Helvetica,sans-Serif" font-size="11.00" fill="#000000">rasp_protection_rules_id</text>
<polygon fill="none" stroke="#000000" points="483.5,-186.2 483.5,-205.2 647.5,-205.2 647.5,-186.2 483.5,-186.2"/>
<text text-anchor="start" x="486.5" y="-192.3" font-family="Helvetica,sans-Serif" font-size="11.00" fill="#000000">...</text>
<polygon fill="#ffffff" stroke="transparent" points="483.5,-167.2 483.5,-186.2 550.5,-186.2 550.5,-167.2 483.5,-167.2"/>
<polygon fill="none" stroke="#000000" points="483.5,-167.2 483.5,-186.2 550.5,-186.2 550.5,-167.2 483.5,-167.2"/>
<text text-anchor="start" x="486.5" y="-173.3" font-family="Helvetica,sans-Serif" font-size="11.00" fill="#000000">&lt; 1</text>
<polygon fill="#ffffff" stroke="transparent" points="550.5,-167.2 550.5,-186.2 611.5,-186.2 611.5,-167.2 550.5,-167.2"/>
<polygon fill="none" stroke="#000000" points="550.5,-167.2 550.5,-186.2 611.5,-186.2 611.5,-167.2 550.5,-167.2"/>
<text text-anchor="start" x="576.1105" y="-173.3" font-family="Helvetica,sans-Serif" font-size="11.00" fill="#000000">0 rows</text>
<polygon fill="#ffffff" stroke="transparent" points="611.5,-167.2 611.5,-186.2 647.5,-186.2 647.5,-167.2 611.5,-167.2"/>
<polygon fill="none" stroke="#000000" points="611.5,-167.2 611.5,-186.2 647.5,-186.2 647.5,-167.2 611.5,-167.2"/>
<text text-anchor="start" x="638.3862" y="-173.3" font-family="Helvetica,sans-Serif" font-size="11.00" fill="#000000"> &#160;</text>
</a>
</g>
</g>
<!-- rasp_cve_shield_profile&#45;&gt;rasp_protection_rules -->
<g id="edge18" class="edge">
<title>rasp_cve_shield_profile:w&#45;&gt;rasp_protection_rules:e</title>
<path fill="none" stroke="#000000" d="M469.7136,-220.8367C417.5209,-260.7034 472.7749,-544.2 403,-544.2"/>
<polygon fill="#000000" stroke="#000000" points="475.9174,-218.7503 484.6476,-219.6122 479.7087,-217.4751 483.5,-216.2 483.5,-216.2 483.5,-216.2 479.7087,-217.4751 482.3524,-212.7878 475.9174,-218.7503 475.9174,-218.7503"/>
<ellipse fill="none" stroke="#000000" cx="472.8843" cy="-219.7704" rx="3.2" ry="3.2"/>
</g>
<!-- rasp_protection_rules_cve -->
<g id="node16" class="node">
<title>rasp_protection_rules_cve</title>
<g id="a_node16"><a xlink:href="../../tables/rasp_protection_rules_cve.html" xlink:title="rasp_protection_rules_cve" target="_top">
<polygon fill="#ffffff" stroke="transparent" points="479,-38.2 479,-146.2 652,-146.2 652,-38.2 479,-38.2"/>
<polygon fill="#f5f5f5" stroke="transparent" points="479.5,-123.2 479.5,-146.2 652.5,-146.2 652.5,-123.2 479.5,-123.2"/>
<polygon fill="none" stroke="#000000" points="479.5,-123.2 479.5,-146.2 652.5,-146.2 652.5,-123.2 479.5,-123.2"/>
<text text-anchor="start" x="484.5" y="-132.3" font-family="Helvetica,sans-Serif" font-weight="bold" font-size="11.00" fill="#000000">rasp_protection_rules_cve</text>
<text text-anchor="start" x="617.5437" y="-131.3" font-family="Helvetica,sans-Serif" font-size="11.00" fill="#000000">[table]</text>
<polygon fill="none" stroke="#000000" points="479.5,-101.2 479.5,-123.2 652.5,-123.2 652.5,-101.2 479.5,-101.2"/>
<image xlink:href="../../images/primaryKeys.png" width="11px" height="12px" preserveAspectRatio="xMinYMin meet" x="484.5" y="-118.2"/>
<text text-anchor="start" x="499.5" y="-108.3" font-family="Helvetica,sans-Serif" font-size="11.00" fill="#000000">id</text>
<polygon fill="#ffffff" stroke="transparent" points="479.5,-79.2 479.5,-101.2 652.5,-101.2 652.5,-79.2 479.5,-79.2"/>
<polygon fill="none" stroke="#000000" points="479.5,-79.2 479.5,-101.2 652.5,-101.2 652.5,-79.2 479.5,-79.2"/>
<image xlink:href="../../images/foreignKeys.png" width="11px" height="12px" preserveAspectRatio="xMinYMin meet" x="484.5" y="-96.2"/>
<text text-anchor="start" x="499.5" y="-86.3" font-family="Helvetica,sans-Serif" font-size="11.00" fill="#000000">rasp_protection_rules_id</text>
<polygon fill="#ffffff" stroke="transparent" points="479.5,-57.2 479.5,-79.2 652.5,-79.2 652.5,-57.2 479.5,-57.2"/>
<polygon fill="none" stroke="#000000" points="479.5,-57.2 479.5,-79.2 652.5,-79.2 652.5,-57.2 479.5,-57.2"/>
<text text-anchor="start" x="499.5" y="-64.3" font-family="Helvetica,sans-Serif" font-size="11.00" fill="#000000">uuid</text>
<polygon fill="#ffffff" stroke="transparent" points="479.5,-38.2 479.5,-57.2 551.5,-57.2 551.5,-38.2 479.5,-38.2"/>
<polygon fill="none" stroke="#000000" points="479.5,-38.2 479.5,-57.2 551.5,-57.2 551.5,-38.2 479.5,-38.2"/>
<text text-anchor="start" x="482.5" y="-44.3" font-family="Helvetica,sans-Serif" font-size="11.00" fill="#000000">&lt; 1</text>
<polygon fill="#ffffff" stroke="transparent" points="551.5,-38.2 551.5,-57.2 614.5,-57.2 614.5,-38.2 551.5,-38.2"/>
<polygon fill="none" stroke="#000000" points="551.5,-38.2 551.5,-57.2 614.5,-57.2 614.5,-38.2 551.5,-38.2"/>
<text text-anchor="start" x="579.1105" y="-44.3" font-family="Helvetica,sans-Serif" font-size="11.00" fill="#000000">0 rows</text>
<polygon fill="#ffffff" stroke="transparent" points="614.5,-38.2 614.5,-57.2 652.5,-57.2 652.5,-38.2 614.5,-38.2"/>
<polygon fill="none" stroke="#000000" points="614.5,-38.2 614.5,-57.2 652.5,-57.2 652.5,-38.2 614.5,-38.2"/>
<text text-anchor="start" x="643.3862" y="-44.3" font-family="Helvetica,sans-Serif" font-size="11.00" fill="#000000"> &#160;</text>
</a>
</g>
</g>
<!-- rasp_protection_rules_cve&#45;&gt;rasp_protection_rules -->
<g id="edge21" class="edge">
<title>rasp_protection_rules_cve:w&#45;&gt;rasp_protection_rules:e</title>
<path fill="none" stroke="#000000" d="M465.1689,-93.8544C390.0609,-136.8203 499.9158,-544.2 403,-544.2"/>
<polygon fill="#000000" stroke="#000000" points="471.7481,-92.1768 480.3896,-93.6884 475.624,-91.1884 479.5,-90.2 479.5,-90.2 479.5,-90.2 475.624,-91.1884 478.6104,-86.7116 471.7481,-92.1768 471.7481,-92.1768"/>
<ellipse fill="none" stroke="#000000" cx="468.6473" cy="-92.9675" rx="3.2" ry="3.2"/>
</g>
<!-- rasp_protection_rules_env_configs -->
<g id="node17" class="node">
<title>rasp_protection_rules_env_configs</title>
<g id="a_node17"><a xlink:href="../../tables/rasp_protection_rules_env_configs.html" xlink:title="rasp_protection_rules_env_configs" target="_top">
<polygon fill="#ffffff" stroke="transparent" points="454,-944.7 454,-1071.7 677,-1071.7 677,-944.7 454,-944.7"/>
<polygon fill="#f5f5f5" stroke="transparent" points="454.5,-1048.2 454.5,-1071.2 677.5,-1071.2 677.5,-1048.2 454.5,-1048.2"/>
<polygon fill="none" stroke="#000000" points="454.5,-1048.2 454.5,-1071.2 677.5,-1071.2 677.5,-1048.2 454.5,-1048.2"/>
<text text-anchor="start" x="459.5" y="-1057.3" font-family="Helvetica,sans-Serif" font-weight="bold" font-size="11.00" fill="#000000">rasp_protection_rules_env_configs</text>
<text text-anchor="start" x="642.5437" y="-1056.3" font-family="Helvetica,sans-Serif" font-size="11.00" fill="#000000">[table]</text>
<polygon fill="none" stroke="#000000" points="454.5,-1026.2 454.5,-1048.2 677.5,-1048.2 677.5,-1026.2 454.5,-1026.2"/>
<image xlink:href="../../images/primaryKeys.png" width="11px" height="12px" preserveAspectRatio="xMinYMin meet" x="459.5" y="-1043.2"/>
<text text-anchor="start" x="474.5" y="-1033.3" font-family="Helvetica,sans-Serif" font-size="11.00" fill="#000000">id</text>
<polygon fill="#ffffff" stroke="transparent" points="454.5,-1004.2 454.5,-1026.2 677.5,-1026.2 677.5,-1004.2 454.5,-1004.2"/>
<polygon fill="none" stroke="#000000" points="454.5,-1004.2 454.5,-1026.2 677.5,-1026.2 677.5,-1004.2 454.5,-1004.2"/>
<image xlink:href="../../images/foreignKeys.png" width="11px" height="12px" preserveAspectRatio="xMinYMin meet" x="459.5" y="-1021.2"/>
<text text-anchor="start" x="474.5" y="-1011.3" font-family="Helvetica,sans-Serif" font-size="11.00" fill="#000000">applications_id</text>
<polygon fill="#ffffff" stroke="transparent" points="454.5,-982.2 454.5,-1004.2 677.5,-1004.2 677.5,-982.2 454.5,-982.2"/>
<polygon fill="none" stroke="#000000" points="454.5,-982.2 454.5,-1004.2 677.5,-1004.2 677.5,-982.2 454.5,-982.2"/>
<image xlink:href="../../images/foreignKeys.png" width="11px" height="12px" preserveAspectRatio="xMinYMin meet" x="459.5" y="-999.2"/>
<text text-anchor="start" x="474.5" y="-989.3" font-family="Helvetica,sans-Serif" font-size="11.00" fill="#000000">rasp_protection_rules_id</text>
<polygon fill="none" stroke="#000000" points="454.5,-963.2 454.5,-982.2 677.5,-982.2 677.5,-963.2 454.5,-963.2"/>
<text text-anchor="start" x="457.5" y="-969.3" font-family="Helvetica,sans-Serif" font-size="11.00" fill="#000000">...</text>
<polygon fill="#ffffff" stroke="transparent" points="454.5,-944.2 454.5,-963.2 551.5,-963.2 551.5,-944.2 454.5,-944.2"/>
<polygon fill="none" stroke="#000000" points="454.5,-944.2 454.5,-963.2 551.5,-963.2 551.5,-944.2 454.5,-944.2"/>
<text text-anchor="start" x="457.5" y="-950.3" font-family="Helvetica,sans-Serif" font-size="11.00" fill="#000000">&lt; 2</text>
<polygon fill="#ffffff" stroke="transparent" points="551.5,-944.2 551.5,-963.2 627.5,-963.2 627.5,-944.2 551.5,-944.2"/>
<polygon fill="none" stroke="#000000" points="551.5,-944.2 551.5,-963.2 627.5,-963.2 627.5,-944.2 551.5,-944.2"/>
<text text-anchor="start" x="592.1105" y="-950.3" font-family="Helvetica,sans-Serif" font-size="11.00" fill="#000000">0 rows</text>
<polygon fill="#ffffff" stroke="transparent" points="627.5,-944.2 627.5,-963.2 677.5,-963.2 677.5,-944.2 627.5,-944.2"/>
<polygon fill="none" stroke="#000000" points="627.5,-944.2 627.5,-963.2 677.5,-963.2 677.5,-944.2 627.5,-944.2"/>
<text text-anchor="start" x="668.3862" y="-950.3" font-family="Helvetica,sans-Serif" font-size="11.00" fill="#000000"> &#160;</text>
</a>
</g>
</g>
<!-- rasp_protection_rules_env_configs&#45;&gt;applications -->
<g id="edge22" class="edge">
<title>rasp_protection_rules_env_configs:w&#45;&gt;applications:e</title>
<path fill="none" stroke="#000000" d="M439.863,-1016.9533C376.3882,-1033.5386 414.5092,-1162.2 336,-1162.2"/>
<polygon fill="#000000" stroke="#000000" points="446.5568,-1016.1515 454.9282,-1018.7744 450.5284,-1015.6758 454.5,-1015.2 454.5,-1015.2 454.5,-1015.2 450.5284,-1015.6758 454.0718,-1011.6256 446.5568,-1016.1515 446.5568,-1016.1515"/>
<ellipse fill="none" stroke="#000000" cx="443.3795" cy="-1016.5321" rx="3.2" ry="3.2"/>
</g>
<!-- rasp_protection_rules_env_configs&#45;&gt;rasp_protection_rules -->
<g id="edge23" class="edge">
<title>rasp_protection_rules_env_configs:w&#45;&gt;rasp_protection_rules:e</title>
<path fill="none" stroke="#000000" d="M440.1824,-989.3184C369.6576,-945.4335 497.9396,-544.2 403,-544.2"/>
<polygon fill="#000000" stroke="#000000" points="446.7787,-991.1067 453.558,-996.6746 450.6394,-992.1533 454.5,-993.2 454.5,-993.2 454.5,-993.2 450.6394,-992.1533 455.442,-989.7254 446.7787,-991.1067 446.7787,-991.1067"/>
<ellipse fill="none" stroke="#000000" cx="443.6902" cy="-990.2693" rx="3.2" ry="3.2"/>
</g>
<!-- rasp_protection_rules_languages -->
<g id="node18" class="node">
<title>rasp_protection_rules_languages</title>
<g id="a_node18"><a xlink:href="../../tables/rasp_protection_rules_languages.html" xlink:title="rasp_protection_rules_languages" target="_top">
<polygon fill="#ffffff" stroke="transparent" points="459,-492.2 459,-600.2 672,-600.2 672,-492.2 459,-492.2"/>
<polygon fill="#f5f5f5" stroke="transparent" points="459.5,-577.2 459.5,-600.2 672.5,-600.2 672.5,-577.2 459.5,-577.2"/>
<polygon fill="none" stroke="#000000" points="459.5,-577.2 459.5,-600.2 672.5,-600.2 672.5,-577.2 459.5,-577.2"/>
<text text-anchor="start" x="464.5" y="-586.3" font-family="Helvetica,sans-Serif" font-weight="bold" font-size="11.00" fill="#000000">rasp_protection_rules_languages</text>
<text text-anchor="start" x="637.5437" y="-585.3" font-family="Helvetica,sans-Serif" font-size="11.00" fill="#000000">[table]</text>
<polygon fill="none" stroke="#000000" points="459.5,-555.2 459.5,-577.2 672.5,-577.2 672.5,-555.2 459.5,-555.2"/>
<image xlink:href="../../images/primaryKeys.png" width="11px" height="12px" preserveAspectRatio="xMinYMin meet" x="464.5" y="-572.2"/>
<text text-anchor="start" x="479.5" y="-562.3" font-family="Helvetica,sans-Serif" font-size="11.00" fill="#000000">id</text>
<polygon fill="#ffffff" stroke="transparent" points="459.5,-533.2 459.5,-555.2 672.5,-555.2 672.5,-533.2 459.5,-533.2"/>
<polygon fill="none" stroke="#000000" points="459.5,-533.2 459.5,-555.2 672.5,-555.2 672.5,-533.2 459.5,-533.2"/>
<image xlink:href="../../images/foreignKeys.png" width="11px" height="12px" preserveAspectRatio="xMinYMin meet" x="464.5" y="-550.2"/>
<text text-anchor="start" x="479.5" y="-540.3" font-family="Helvetica,sans-Serif" font-size="11.00" fill="#000000">protection_rules_id</text>
<polygon fill="#ffffff" stroke="transparent" points="459.5,-511.2 459.5,-533.2 672.5,-533.2 672.5,-511.2 459.5,-511.2"/>
<polygon fill="none" stroke="#000000" points="459.5,-511.2 459.5,-533.2 672.5,-533.2 672.5,-511.2 459.5,-511.2"/>
<text text-anchor="start" x="479.5" y="-518.3" font-family="Helvetica,sans-Serif" font-size="11.00" fill="#000000">agent_language</text>
<polygon fill="#ffffff" stroke="transparent" points="459.5,-492.2 459.5,-511.2 545.5,-511.2 545.5,-492.2 459.5,-492.2"/>
<polygon fill="none" stroke="#000000" points="459.5,-492.2 459.5,-511.2 545.5,-511.2 545.5,-492.2 459.5,-492.2"/>
<text text-anchor="start" x="462.5" y="-498.3" font-family="Helvetica,sans-Serif" font-size="11.00" fill="#000000">&lt; 1</text>
<polygon fill="#ffffff" stroke="transparent" points="545.5,-492.2 545.5,-511.2 627.5,-511.2 627.5,-492.2 545.5,-492.2"/>
<polygon fill="none" stroke="#000000" points="545.5,-492.2 545.5,-511.2 627.5,-511.2 627.5,-492.2 545.5,-492.2"/>
<text text-anchor="start" x="579.8807" y="-498.3" font-family="Helvetica,sans-Serif" font-size="11.00" fill="#000000">128 rows</text>
<polygon fill="#ffffff" stroke="transparent" points="627.5,-492.2 627.5,-511.2 672.5,-511.2 672.5,-492.2 627.5,-492.2"/>
<polygon fill="none" stroke="#000000" points="627.5,-492.2 627.5,-511.2 672.5,-511.2 672.5,-492.2 627.5,-492.2"/>
<text text-anchor="start" x="663.3862" y="-498.3" font-family="Helvetica,sans-Serif" font-size="11.00" fill="#000000"> &#160;</text>
</a>
</g>
</g>
<!-- rasp_protection_rules_languages&#45;&gt;rasp_protection_rules -->
<g id="edge24" class="edge">
<title>rasp_protection_rules_languages:w&#45;&gt;rasp_protection_rules:e</title>
<path fill="none" stroke="#000000" d="M444.8944,-544.2C430.5775,-544.2 422.4219,-544.2 403,-544.2"/>
<polygon fill="#000000" stroke="#000000" points="451.5,-544.2001 459.5,-547.8 455.5,-544.2 459.5,-544.2 459.5,-544.2 459.5,-544.2 455.5,-544.2 459.5,-540.6 451.5,-544.2001 451.5,-544.2001"/>
<ellipse fill="none" stroke="#000000" cx="448.3" cy="-544.2001" rx="3.2" ry="3.2"/>
</g>
<!-- rasp_protection_rules_org_config -->
<g id="node19" class="node">
<title>rasp_protection_rules_org_config</title>
<g id="a_node19"><a xlink:href="../../tables/rasp_protection_rules_org_config.html" xlink:title="rasp_protection_rules_org_config" target="_top">
<polygon fill="#ffffff" stroke="transparent" points="458,-796.7 458,-923.7 673,-923.7 673,-796.7 458,-796.7"/>
<polygon fill="#f5f5f5" stroke="transparent" points="458.5,-900.2 458.5,-923.2 673.5,-923.2 673.5,-900.2 458.5,-900.2"/>
<polygon fill="none" stroke="#000000" points="458.5,-900.2 458.5,-923.2 673.5,-923.2 673.5,-900.2 458.5,-900.2"/>
<text text-anchor="start" x="463.5" y="-909.3" font-family="Helvetica,sans-Serif" font-weight="bold" font-size="11.00" fill="#000000">rasp_protection_rules_org_config</text>
<text text-anchor="start" x="638.5437" y="-908.3" font-family="Helvetica,sans-Serif" font-size="11.00" fill="#000000">[table]</text>
<polygon fill="none" stroke="#000000" points="458.5,-878.2 458.5,-900.2 673.5,-900.2 673.5,-878.2 458.5,-878.2"/>
<image xlink:href="../../images/primaryKeys.png" width="11px" height="12px" preserveAspectRatio="xMinYMin meet" x="463.5" y="-895.2"/>
<text text-anchor="start" x="478.5" y="-885.3" font-family="Helvetica,sans-Serif" font-size="11.00" fill="#000000">id</text>
<polygon fill="#ffffff" stroke="transparent" points="458.5,-856.2 458.5,-878.2 673.5,-878.2 673.5,-856.2 458.5,-856.2"/>
<polygon fill="none" stroke="#000000" points="458.5,-856.2 458.5,-878.2 673.5,-878.2 673.5,-856.2 458.5,-856.2"/>
<image xlink:href="../../images/foreignKeys.png" width="11px" height="12px" preserveAspectRatio="xMinYMin meet" x="463.5" y="-873.2"/>
<text text-anchor="start" x="478.5" y="-863.3" font-family="Helvetica,sans-Serif" font-size="11.00" fill="#000000">rasp_protection_rules_id</text>
<polygon fill="#ffffff" stroke="transparent" points="458.5,-834.2 458.5,-856.2 673.5,-856.2 673.5,-834.2 458.5,-834.2"/>
<polygon fill="none" stroke="#000000" points="458.5,-834.2 458.5,-856.2 673.5,-856.2 673.5,-834.2 458.5,-834.2"/>
<image xlink:href="../../images/foreignKeys.png" width="11px" height="12px" preserveAspectRatio="xMinYMin meet" x="463.5" y="-851.2"/>
<text text-anchor="start" x="478.5" y="-841.3" font-family="Helvetica,sans-Serif" font-size="11.00" fill="#000000">organization_id</text>
<polygon fill="none" stroke="#000000" points="458.5,-815.2 458.5,-834.2 673.5,-834.2 673.5,-815.2 458.5,-815.2"/>
<text text-anchor="start" x="461.5" y="-821.3" font-family="Helvetica,sans-Serif" font-size="11.00" fill="#000000">...</text>
<polygon fill="#ffffff" stroke="transparent" points="458.5,-796.2 458.5,-815.2 551.5,-815.2 551.5,-796.2 458.5,-796.2"/>
<polygon fill="none" stroke="#000000" points="458.5,-796.2 458.5,-815.2 551.5,-815.2 551.5,-796.2 458.5,-796.2"/>
<text text-anchor="start" x="461.5" y="-802.3" font-family="Helvetica,sans-Serif" font-size="11.00" fill="#000000">&lt; 2</text>
<polygon fill="#ffffff" stroke="transparent" points="551.5,-796.2 551.5,-815.2 625.5,-815.2 625.5,-796.2 551.5,-796.2"/>
<polygon fill="none" stroke="#000000" points="551.5,-796.2 551.5,-815.2 625.5,-815.2 625.5,-796.2 551.5,-796.2"/>
<text text-anchor="start" x="590.1105" y="-802.3" font-family="Helvetica,sans-Serif" font-size="11.00" fill="#000000">0 rows</text>
<polygon fill="#ffffff" stroke="transparent" points="625.5,-796.2 625.5,-815.2 673.5,-815.2 673.5,-796.2 625.5,-796.2"/>
<polygon fill="none" stroke="#000000" points="625.5,-796.2 625.5,-815.2 673.5,-815.2 673.5,-796.2 625.5,-796.2"/>
<text text-anchor="start" x="664.3862" y="-802.3" font-family="Helvetica,sans-Serif" font-size="11.00" fill="#000000"> &#160;</text>
</a>
</g>
</g>
<!-- rasp_protection_rules_org_config&#45;&gt;organizations -->
<g id="edge25" class="edge">
<title>rasp_protection_rules_org_config:w&#45;&gt;organizations:e</title>
<path fill="none" stroke="#000000" d="M443.9596,-845.5438C276.6396,-853.6506 287.2887,-1003.5396 157,-1124.2 138.7712,-1141.0817 140.8452,-1162.2 116,-1162.2"/>
<polygon fill="#000000" stroke="#000000" points="450.5022,-845.3891 458.5851,-848.799 454.5011,-845.2946 458.5,-845.2 458.5,-845.2 458.5,-845.2 454.5011,-845.2946 458.4149,-841.601 450.5022,-845.3891 450.5022,-845.3891"/>
<ellipse fill="none" stroke="#000000" cx="447.3031" cy="-845.4648" rx="3.2" ry="3.2"/>
</g>
<!-- rasp_protection_rules_org_config&#45;&gt;rasp_protection_rules -->
<g id="edge26" class="edge">
<title>rasp_protection_rules_org_config:w&#45;&gt;rasp_protection_rules:e</title>
<path fill="none" stroke="#000000" d="M444.8442,-862.1264C398.1555,-821.0339 470.4243,-544.2 403,-544.2"/>
<polygon fill="#000000" stroke="#000000" points="451.0008,-864.4138 457.2462,-870.5746 454.7504,-865.8069 458.5,-867.2 458.5,-867.2 458.5,-867.2 454.7504,-865.8069 459.7538,-863.8254 451.0008,-864.4138 451.0008,-864.4138"/>
<ellipse fill="none" stroke="#000000" cx="448.0012" cy="-863.2993" rx="3.2" ry="3.2"/>
</g>
<!-- rasp_protection_rules_profile -->
<g id="node20" class="node">
<title>rasp_protection_rules_profile</title>
<g id="a_node20"><a xlink:href="../../tables/rasp_protection_rules_profile.html" xlink:title="rasp_protection_rules_profile" target="_top">
<polygon fill="#ffffff" stroke="transparent" points="470.5,-343.7 470.5,-470.7 660.5,-470.7 660.5,-343.7 470.5,-343.7"/>
<polygon fill="#f5f5f5" stroke="transparent" points="470.5,-447.2 470.5,-470.2 660.5,-470.2 660.5,-447.2 470.5,-447.2"/>
<polygon fill="none" stroke="#000000" points="470.5,-447.2 470.5,-470.2 660.5,-470.2 660.5,-447.2 470.5,-447.2"/>
<text text-anchor="start" x="475.5" y="-456.3" font-family="Helvetica,sans-Serif" font-weight="bold" font-size="11.00" fill="#000000">rasp_protection_rules_profile</text>
<text text-anchor="start" x="625.5437" y="-455.3" font-family="Helvetica,sans-Serif" font-size="11.00" fill="#000000">[table]</text>
<polygon fill="none" stroke="#000000" points="470.5,-425.2 470.5,-447.2 660.5,-447.2 660.5,-425.2 470.5,-425.2"/>
<image xlink:href="../../images/primaryKeys.png" width="11px" height="12px" preserveAspectRatio="xMinYMin meet" x="475.5" y="-442.2"/>
<text text-anchor="start" x="490.5" y="-432.3" font-family="Helvetica,sans-Serif" font-size="11.00" fill="#000000">id</text>
<polygon fill="#ffffff" stroke="transparent" points="470.5,-403.2 470.5,-425.2 660.5,-425.2 660.5,-403.2 470.5,-403.2"/>
<polygon fill="none" stroke="#000000" points="470.5,-403.2 470.5,-425.2 660.5,-425.2 660.5,-403.2 470.5,-403.2"/>
<text text-anchor="start" x="490.5" y="-410.3" font-family="Helvetica,sans-Serif" font-size="11.00" fill="#000000">profile_name</text>
<polygon fill="#ffffff" stroke="transparent" points="470.5,-381.2 470.5,-403.2 660.5,-403.2 660.5,-381.2 470.5,-381.2"/>
<polygon fill="none" stroke="#000000" points="470.5,-381.2 470.5,-403.2 660.5,-403.2 660.5,-381.2 470.5,-381.2"/>
<image xlink:href="../../images/foreignKeys.png" width="11px" height="12px" preserveAspectRatio="xMinYMin meet" x="475.5" y="-398.2"/>
<text text-anchor="start" x="490.5" y="-388.3" font-family="Helvetica,sans-Serif" font-size="11.00" fill="#000000">rasp_protection_rules_id</text>
<polygon fill="none" stroke="#000000" points="470.5,-362.2 470.5,-381.2 660.5,-381.2 660.5,-362.2 470.5,-362.2"/>
<text text-anchor="start" x="473.5" y="-368.3" font-family="Helvetica,sans-Serif" font-size="11.00" fill="#000000">...</text>
<polygon fill="#ffffff" stroke="transparent" points="470.5,-343.2 470.5,-362.2 550.5,-362.2 550.5,-343.2 470.5,-343.2"/>
<polygon fill="none" stroke="#000000" points="470.5,-343.2 470.5,-362.2 550.5,-362.2 550.5,-343.2 470.5,-343.2"/>
<text text-anchor="start" x="473.5" y="-349.3" font-family="Helvetica,sans-Serif" font-size="11.00" fill="#000000">&lt; 1</text>
<polygon fill="#ffffff" stroke="transparent" points="550.5,-343.2 550.5,-362.2 618.5,-362.2 618.5,-343.2 550.5,-343.2"/>
<polygon fill="none" stroke="#000000" points="550.5,-343.2 550.5,-362.2 618.5,-362.2 618.5,-343.2 550.5,-343.2"/>
<text text-anchor="start" x="583.1105" y="-349.3" font-family="Helvetica,sans-Serif" font-size="11.00" fill="#000000">0 rows</text>
<polygon fill="#ffffff" stroke="transparent" points="618.5,-343.2 618.5,-362.2 660.5,-362.2 660.5,-343.2 618.5,-343.2"/>
<polygon fill="none" stroke="#000000" points="618.5,-343.2 618.5,-362.2 660.5,-362.2 660.5,-343.2 618.5,-343.2"/>
<text text-anchor="start" x="651.3862" y="-349.3" font-family="Helvetica,sans-Serif" font-size="11.00" fill="#000000"> &#160;</text>
</a>
</g>
</g>
<!-- rasp_protection_rules_profile&#45;&gt;rasp_protection_rules -->
<g id="edge27" class="edge">
<title>rasp_protection_rules_profile:w&#45;&gt;rasp_protection_rules:e</title>
<path fill="none" stroke="#000000" d="M456.1574,-394.7114C407.9262,-414.4743 471.2868,-544.2 403,-544.2"/>
<polygon fill="#000000" stroke="#000000" points="462.6199,-393.5799 471.1209,-395.746 466.5599,-392.8899 470.5,-392.2 470.5,-392.2 470.5,-392.2 466.5599,-392.8899 469.8791,-388.654 462.6199,-393.5799 462.6199,-393.5799"/>
<ellipse fill="none" stroke="#000000" cx="459.4678" cy="-394.1318" rx="3.2" ry="3.2"/>
</g>
<!-- rules_exclusions_protection_rules -->
<g id="node21" class="node">
<title>rules_exclusions_protection_rules</title>
<g id="a_node21"><a xlink:href="../../tables/rules_exclusions_protection_rules.html" xlink:title="rules_exclusions_protection_rules" target="_top">
<polygon fill="#ffffff" stroke="transparent" points="733,-649.2 733,-735.2 952,-735.2 952,-649.2 733,-649.2"/>
<polygon fill="#f5f5f5" stroke="transparent" points="733.5,-712.2 733.5,-735.2 952.5,-735.2 952.5,-712.2 733.5,-712.2"/>
<polygon fill="none" stroke="#000000" points="733.5,-712.2 733.5,-735.2 952.5,-735.2 952.5,-712.2 733.5,-712.2"/>
<text text-anchor="start" x="738.5" y="-721.3" font-family="Helvetica,sans-Serif" font-weight="bold" font-size="11.00" fill="#000000">rules_exclusions_protection_rules</text>
<text text-anchor="start" x="917.5437" y="-720.3" font-family="Helvetica,sans-Serif" font-size="11.00" fill="#000000">[table]</text>
<polygon fill="none" stroke="#000000" points="733.5,-690.2 733.5,-712.2 952.5,-712.2 952.5,-690.2 733.5,-690.2"/>
<image xlink:href="../../images/primaryKeys.png" width="11px" height="12px" preserveAspectRatio="xMinYMin meet" x="738.5" y="-707.2"/>
<text text-anchor="start" x="753.5" y="-697.3" font-family="Helvetica,sans-Serif" font-size="11.00" fill="#000000">rules_exclusions_id</text>
<polygon fill="none" stroke="#000000" points="733.5,-668.2 733.5,-690.2 952.5,-690.2 952.5,-668.2 733.5,-668.2"/>
<image xlink:href="../../images/primaryKeys.png" width="11px" height="12px" preserveAspectRatio="xMinYMin meet" x="738.5" y="-685.2"/>
<text text-anchor="start" x="753.5" y="-675.3" font-family="Helvetica,sans-Serif" font-size="11.00" fill="#000000">rasp_protection_rules_id</text>
<polygon fill="#ffffff" stroke="transparent" points="733.5,-649.2 733.5,-668.2 828.5,-668.2 828.5,-649.2 733.5,-649.2"/>
<polygon fill="none" stroke="#000000" points="733.5,-649.2 733.5,-668.2 828.5,-668.2 828.5,-649.2 733.5,-649.2"/>
<text text-anchor="start" x="736.5" y="-655.3" font-family="Helvetica,sans-Serif" font-size="11.00" fill="#000000">&lt; 2</text>
<polygon fill="#ffffff" stroke="transparent" points="828.5,-649.2 828.5,-668.2 903.5,-668.2 903.5,-649.2 828.5,-649.2"/>
<polygon fill="none" stroke="#000000" points="828.5,-649.2 828.5,-668.2 903.5,-668.2 903.5,-649.2 828.5,-649.2"/>
<text text-anchor="start" x="868.1105" y="-655.3" font-family="Helvetica,sans-Serif" font-size="11.00" fill="#000000">0 rows</text>
<polygon fill="#ffffff" stroke="transparent" points="903.5,-649.2 903.5,-668.2 952.5,-668.2 952.5,-649.2 903.5,-649.2"/>
<polygon fill="none" stroke="#000000" points="903.5,-649.2 903.5,-668.2 952.5,-668.2 952.5,-649.2 903.5,-649.2"/>
<text text-anchor="start" x="943.3862" y="-655.3" font-family="Helvetica,sans-Serif" font-size="11.00" fill="#000000"> &#160;</text>
</a>
</g>
</g>
<!-- rules_exclusions_protection_rules&#45;&gt;rules_exclusions -->
<g id="edge30" class="edge">
<title>rules_exclusions_protection_rules:w&#45;&gt;rules_exclusions:e</title>
<path fill="none" stroke="#000000" d="M719.3856,-704.6827C657.8974,-738.8451 727.2803,-1014.2673 685,-1082.2 668.814,-1108.2064 658.132,-1120.2 627.5,-1120.2"/>
<polygon fill="#000000" stroke="#000000" points="725.733,-703.1166 734.3624,-704.6952 729.6165,-702.1583 733.5,-701.2 733.5,-701.2 733.5,-701.2 729.6165,-702.1583 732.6376,-697.7048 725.733,-703.1166 725.733,-703.1166"/>
<ellipse fill="none" stroke="#000000" cx="722.6261" cy="-703.8832" rx="3.2" ry="3.2"/>
</g>
<!-- rules_exclusions_protection_rules&#45;&gt;rasp_protection_rules -->
<g id="edge29" class="edge">
<title>rules_exclusions_protection_rules:w&#45;&gt;rasp_protection_rules:e</title>
<path fill="none" stroke="#000000" d="M719.467,-675.0113C667.4727,-638.915 739.4675,-380.5651 685,-333.2 644.9228,-298.3488 487.1343,-299.603 446,-333.2 371.8767,-393.7412 498.7053,-544.2 403,-544.2"/>
<polygon fill="#000000" stroke="#000000" points="725.8342,-676.9118 732.4703,-682.6496 729.6671,-678.0559 733.5,-679.2 733.5,-679.2 733.5,-679.2 729.6671,-678.0559 734.5297,-675.7504 725.8342,-676.9118 725.8342,-676.9118"/>
<ellipse fill="none" stroke="#000000" cx="722.7679" cy="-675.9965" rx="3.2" ry="3.2"/>
</g>
<!-- tags_rasp_attack_event -->
<g id="node22" class="node">
<title>tags_rasp_attack_event</title>
<g id="a_node22"><a xlink:href="../../tables/tags_rasp_attack_event.html" xlink:title="tags_rasp_attack_event" target="_top">
<polygon fill="#ffffff" stroke="transparent" points="1028.5,-1192.7 1028.5,-1253.7 1187.5,-1253.7 1187.5,-1192.7 1028.5,-1192.7"/>
<polygon fill="#f5f5f5" stroke="transparent" points="1029,-1230.2 1029,-1253.2 1188,-1253.2 1188,-1230.2 1029,-1230.2"/>
<polygon fill="none" stroke="#000000" points="1029,-1230.2 1029,-1253.2 1188,-1253.2 1188,-1230.2 1029,-1230.2"/>
<text text-anchor="start" x="1033.6159" y="-1239.3" font-family="Helvetica,sans-Serif" font-weight="bold" font-size="11.00" fill="#000000">tags_rasp_attack_event</text>
<text text-anchor="start" x="1153.5219" y="-1238.3" font-family="Helvetica,sans-Serif" font-size="11.00" fill="#000000">[table]</text>
<polygon fill="none" stroke="#000000" points="1029,-1211.2 1029,-1230.2 1188,-1230.2 1188,-1211.2 1029,-1211.2"/>
<text text-anchor="start" x="1032" y="-1217.3" font-family="Helvetica,sans-Serif" font-size="11.00" fill="#000000">...</text>
<polygon fill="#ffffff" stroke="transparent" points="1029,-1192.2 1029,-1211.2 1094,-1211.2 1094,-1192.2 1029,-1192.2"/>
<polygon fill="none" stroke="#000000" points="1029,-1192.2 1029,-1211.2 1094,-1211.2 1094,-1192.2 1029,-1192.2"/>
<text text-anchor="start" x="1032" y="-1198.3" font-family="Helvetica,sans-Serif" font-size="11.00" fill="#000000">&lt; 1</text>
<polygon fill="#ffffff" stroke="transparent" points="1094,-1192.2 1094,-1211.2 1154,-1211.2 1154,-1192.2 1094,-1192.2"/>
<polygon fill="none" stroke="#000000" points="1094,-1192.2 1094,-1211.2 1154,-1211.2 1154,-1192.2 1094,-1192.2"/>
<text text-anchor="start" x="1118.6105" y="-1198.3" font-family="Helvetica,sans-Serif" font-size="11.00" fill="#000000">0 rows</text>
<polygon fill="#ffffff" stroke="transparent" points="1154,-1192.2 1154,-1211.2 1188,-1211.2 1188,-1192.2 1154,-1192.2"/>
<polygon fill="none" stroke="#000000" points="1154,-1192.2 1154,-1211.2 1188,-1211.2 1188,-1192.2 1154,-1192.2"/>
<text text-anchor="start" x="1178.8862" y="-1198.3" font-family="Helvetica,sans-Serif" font-size="11.00" fill="#000000"> &#160;</text>
</a>
</g>
</g>
<!-- tags_rasp_attack_event&#45;&gt;rasp_attack_event -->
<g id="edge32" class="edge">
<title>tags_rasp_attack_event:w&#45;&gt;rasp_attack_event:e</title>
<path fill="none" stroke="#000000" d="M1014.6762,-1222.5184C961.497,-1242.4517 1033.0976,-1384.2 959.5,-1384.2"/>
<polygon fill="#000000" stroke="#000000" points="1021.1028,-1221.4782 1029.5752,-1223.7538 1025.0514,-1220.8391 1029,-1220.2 1029,-1220.2 1029,-1220.2 1025.0514,-1220.8391 1028.4248,-1216.6462 1021.1028,-1221.4782 1021.1028,-1221.4782"/>
<ellipse fill="none" stroke="#000000" cx="1017.9439" cy="-1221.9895" rx="3.2" ry="3.2"/>
</g>
</g>
</svg>
