<?xml version="1.0" encoding="UTF-8" standalone="no"?>
<!DOCTYPE svg PUBLIC "-//W3C//DTD SVG 1.1//EN"
 "http://www.w3.org/Graphics/SVG/1.1/DTD/svg11.dtd">
<!-- Generated by graphviz version 2.40.1 (20161225.0304)
 -->
<!-- Title: twoDegreesRelationshipsDiagram Pages: 1 -->
<svg width="478pt" height="819pt"
 viewBox="0.00 0.00 478.00 819.20" xmlns="http://www.w3.org/2000/svg" xmlns:xlink="http://www.w3.org/1999/xlink">
<g id="graph0" class="graph" transform="scale(1 1) rotate(0) translate(4 815.2)">
<title>twoDegreesRelationshipsDiagram</title>
<polygon fill="#ffffff" stroke="transparent" points="-4,4 -4,-815.2 474,-815.2 474,4 -4,4"/>
<text text-anchor="middle" x="72.4936" y="-7.3" font-family="Helvetica,sans-Serif" font-size="11.00" fill="#000000">Generated by SchemaSpy</text>
<!-- rasp_attack_event -->
<g id="node1" class="node">
<title>rasp_attack_event</title>
<g id="a_node1"><a xlink:href="../../tables/rasp_attack_event.html" xlink:title="rasp_attack_event" target="_top">
<polygon fill="#ffffff" stroke="transparent" points="274,-746.2 274,-807.2 406,-807.2 406,-746.2 274,-746.2"/>
<polygon fill="#f5f5f5" stroke="transparent" points="274,-783.7 274,-806.7 406,-806.7 406,-783.7 274,-783.7"/>
<polygon fill="none" stroke="#000000" points="274,-783.7 274,-806.7 406,-806.7 406,-783.7 274,-783.7"/>
<text text-anchor="start" x="278.5667" y="-792.8" font-family="Helvetica,sans-Serif" font-weight="bold" font-size="11.00" fill="#000000">rasp_attack_event</text>
<text text-anchor="start" x="371.5219" y="-791.8" font-family="Helvetica,sans-Serif" font-size="11.00" fill="#000000">[table]</text>
<polygon fill="none" stroke="#000000" points="274,-764.7 274,-783.7 406,-783.7 406,-764.7 274,-764.7"/>
<text text-anchor="start" x="277" y="-770.8" font-family="Helvetica,sans-Serif" font-size="11.00" fill="#000000">...</text>
<polygon fill="#ffffff" stroke="transparent" points="274,-745.7 274,-764.7 321,-764.7 321,-745.7 274,-745.7"/>
<polygon fill="none" stroke="#000000" points="274,-745.7 274,-764.7 321,-764.7 321,-745.7 274,-745.7"/>
<text text-anchor="start" x="277" y="-751.8" font-family="Helvetica,sans-Serif" font-size="11.00" fill="#000000">&lt; 7</text>
<polygon fill="#ffffff" stroke="transparent" points="321,-745.7 321,-764.7 372,-764.7 372,-745.7 321,-745.7"/>
<polygon fill="none" stroke="#000000" points="321,-745.7 321,-764.7 372,-764.7 372,-745.7 321,-745.7"/>
<text text-anchor="start" x="336.6105" y="-751.8" font-family="Helvetica,sans-Serif" font-size="11.00" fill="#000000">0 rows</text>
<polygon fill="#ffffff" stroke="transparent" points="372,-745.7 372,-764.7 406,-764.7 406,-745.7 372,-745.7"/>
<polygon fill="none" stroke="#000000" points="372,-745.7 372,-764.7 406,-764.7 406,-745.7 372,-745.7"/>
<text text-anchor="start" x="387.4053" y="-751.8" font-family="Helvetica,sans-Serif" font-size="11.00" fill="#000000">5 &gt;</text>
</a>
</g>
</g>
<!-- rasp_protection_rules -->
<g id="node2" class="node">
<title>rasp_protection_rules</title>
<g id="a_node2"><a xlink:href="../../tables/rasp_protection_rules.html" xlink:title="rasp_protection_rules" target="_top">
<polygon fill="#ffffff" stroke="transparent" points="8,-301.2 8,-428.2 169,-428.2 169,-301.2 8,-301.2"/>
<polygon fill="#f5f5f5" stroke="transparent" points="8.5,-404.7 8.5,-427.7 169.5,-427.7 169.5,-404.7 8.5,-404.7"/>
<polygon fill="none" stroke="#000000" points="8.5,-404.7 8.5,-427.7 169.5,-427.7 169.5,-404.7 8.5,-404.7"/>
<text text-anchor="start" x="13.5" y="-413.8" font-family="Helvetica,sans-Serif" font-weight="bold" font-size="11.00" fill="#000000">rasp_protection_rules</text>
<text text-anchor="start" x="134.5437" y="-412.8" font-family="Helvetica,sans-Serif" font-size="11.00" fill="#000000">[table]</text>
<polygon fill="none" stroke="#000000" points="8.5,-382.7 8.5,-404.7 169.5,-404.7 169.5,-382.7 8.5,-382.7"/>
<image xlink:href="../../images/primaryKeys.png" width="11px" height="12px" preserveAspectRatio="xMinYMin meet" x="13.5" y="-399.7"/>
<text text-anchor="start" x="28.5" y="-389.8" font-family="Helvetica,sans-Serif" font-size="11.00" fill="#000000">id</text>
<polygon fill="#ffffff" stroke="transparent" points="8.5,-360.7 8.5,-382.7 169.5,-382.7 169.5,-360.7 8.5,-360.7"/>
<polygon fill="none" stroke="#000000" points="8.5,-360.7 8.5,-382.7 169.5,-382.7 169.5,-360.7 8.5,-360.7"/>
<text text-anchor="start" x="28.5" y="-367.8" font-family="Helvetica,sans-Serif" font-size="11.00" fill="#000000">uuid</text>
<polygon fill="#ffffff" stroke="transparent" points="8.5,-338.7 8.5,-360.7 169.5,-360.7 169.5,-338.7 8.5,-338.7"/>
<polygon fill="none" stroke="#000000" points="8.5,-338.7 8.5,-360.7 169.5,-360.7 169.5,-338.7 8.5,-338.7"/>
<text text-anchor="start" x="28.5" y="-345.8" font-family="Helvetica,sans-Serif" font-size="11.00" fill="#000000">name</text>
<polygon fill="none" stroke="#000000" points="8.5,-319.7 8.5,-338.7 169.5,-338.7 169.5,-319.7 8.5,-319.7"/>
<text text-anchor="start" x="11.5" y="-325.8" font-family="Helvetica,sans-Serif" font-size="11.00" fill="#000000">...</text>
<polygon fill="#ffffff" stroke="transparent" points="8.5,-300.7 8.5,-319.7 62.5,-319.7 62.5,-300.7 8.5,-300.7"/>
<polygon fill="none" stroke="#000000" points="8.5,-300.7 8.5,-319.7 62.5,-319.7 62.5,-300.7 8.5,-300.7"/>
<text text-anchor="start" x="11.5" y="-306.8" font-family="Helvetica,sans-Serif" font-size="11.00" fill="#000000"> &#160;</text>
<polygon fill="#ffffff" stroke="transparent" points="62.5,-300.7 62.5,-319.7 127.5,-319.7 127.5,-300.7 62.5,-300.7"/>
<polygon fill="none" stroke="#000000" points="62.5,-300.7 62.5,-319.7 127.5,-319.7 127.5,-300.7 62.5,-300.7"/>
<text text-anchor="start" x="85.9956" y="-306.8" font-family="Helvetica,sans-Serif" font-size="11.00" fill="#000000">64 rows</text>
<polygon fill="#ffffff" stroke="transparent" points="127.5,-300.7 127.5,-319.7 169.5,-319.7 169.5,-300.7 127.5,-300.7"/>
<polygon fill="none" stroke="#000000" points="127.5,-300.7 127.5,-319.7 169.5,-319.7 169.5,-300.7 127.5,-300.7"/>
<text text-anchor="start" x="150.9053" y="-306.8" font-family="Helvetica,sans-Serif" font-size="11.00" fill="#000000">9 &gt;</text>
</a>
</g>
</g>
<!-- rasp_attack_event&#45;&gt;rasp_protection_rules -->
<g id="edge1" class="edge">
<title>rasp_attack_event:w&#45;&gt;rasp_protection_rules:e</title>
<path fill="none" stroke="#000000" d="M259.5555,-772.8805C236.659,-769.9639 225.1424,-758.9932 210,-735.7 168.2881,-671.5353 246.031,-393.7 169.5,-393.7"/>
<polygon fill="#000000" stroke="#000000" points="266.0128,-773.2468 273.7961,-777.2942 270.0064,-773.4734 274,-773.7 274,-773.7 274,-773.7 270.0064,-773.4734 274.2039,-770.1058 266.0128,-773.2468 266.0128,-773.2468"/>
<ellipse fill="none" stroke="#000000" cx="262.818" cy="-773.0655" rx="3.2" ry="3.2"/>
</g>
<!-- rasp_cve_shield_org_config -->
<g id="node3" class="node">
<title>rasp_cve_shield_org_config</title>
<g id="a_node3"><a xlink:href="../../tables/rasp_cve_shield_org_config.html" xlink:title="rasp_cve_shield_org_config" target="_top">
<polygon fill="#ffffff" stroke="transparent" points="250.5,-664.2 250.5,-725.2 429.5,-725.2 429.5,-664.2 250.5,-664.2"/>
<polygon fill="#f5f5f5" stroke="transparent" points="251,-701.7 251,-724.7 430,-724.7 430,-701.7 251,-701.7"/>
<polygon fill="none" stroke="#000000" points="251,-701.7 251,-724.7 430,-724.7 430,-701.7 251,-701.7"/>
<text text-anchor="start" x="255.5366" y="-710.8" font-family="Helvetica,sans-Serif" font-weight="bold" font-size="11.00" fill="#000000">rasp_cve_shield_org_config</text>
<text text-anchor="start" x="395.5219" y="-709.8" font-family="Helvetica,sans-Serif" font-size="11.00" fill="#000000">[table]</text>
<polygon fill="none" stroke="#000000" points="251,-682.7 251,-701.7 430,-701.7 430,-682.7 251,-682.7"/>
<text text-anchor="start" x="254" y="-688.8" font-family="Helvetica,sans-Serif" font-size="11.00" fill="#000000">...</text>
<polygon fill="#ffffff" stroke="transparent" points="251,-663.7 251,-682.7 326,-682.7 326,-663.7 251,-663.7"/>
<polygon fill="none" stroke="#000000" points="251,-663.7 251,-682.7 326,-682.7 326,-663.7 251,-663.7"/>
<text text-anchor="start" x="254" y="-669.8" font-family="Helvetica,sans-Serif" font-size="11.00" fill="#000000">&lt; 2</text>
<polygon fill="#ffffff" stroke="transparent" points="326,-663.7 326,-682.7 391,-682.7 391,-663.7 326,-663.7"/>
<polygon fill="none" stroke="#000000" points="326,-663.7 326,-682.7 391,-682.7 391,-663.7 326,-663.7"/>
<text text-anchor="start" x="355.6105" y="-669.8" font-family="Helvetica,sans-Serif" font-size="11.00" fill="#000000">0 rows</text>
<polygon fill="#ffffff" stroke="transparent" points="391,-663.7 391,-682.7 430,-682.7 430,-663.7 391,-663.7"/>
<polygon fill="none" stroke="#000000" points="391,-663.7 391,-682.7 430,-682.7 430,-663.7 391,-663.7"/>
<text text-anchor="start" x="420.8862" y="-669.8" font-family="Helvetica,sans-Serif" font-size="11.00" fill="#000000"> &#160;</text>
</a>
</g>
</g>
<!-- rasp_cve_shield_org_config&#45;&gt;rasp_protection_rules -->
<g id="edge2" class="edge">
<title>rasp_cve_shield_org_config:w&#45;&gt;rasp_protection_rules:e</title>
<path fill="none" stroke="#000000" d="M236.5313,-689.1837C223.6577,-683.8468 218.9345,-670.4933 210,-653.7 182.535,-602.0769 227.9745,-393.7 169.5,-393.7"/>
<polygon fill="#000000" stroke="#000000" points="243.1183,-690.3292 250.3832,-695.2468 247.0592,-691.0146 251,-691.7 251,-691.7 251,-691.7 247.0592,-691.0146 251.6168,-688.1532 243.1183,-690.3292 243.1183,-690.3292"/>
<ellipse fill="none" stroke="#000000" cx="239.9656" cy="-689.7809" rx="3.2" ry="3.2"/>
</g>
<!-- rasp_cve_shield_profile -->
<g id="node4" class="node">
<title>rasp_cve_shield_profile</title>
<g id="a_node4"><a xlink:href="../../tables/rasp_cve_shield_profile.html" xlink:title="rasp_cve_shield_profile" target="_top">
<polygon fill="#ffffff" stroke="transparent" points="261,-582.2 261,-643.2 419,-643.2 419,-582.2 261,-582.2"/>
<polygon fill="#f5f5f5" stroke="transparent" points="261,-619.7 261,-642.7 419,-642.7 419,-619.7 261,-619.7"/>
<polygon fill="none" stroke="#000000" points="261,-619.7 261,-642.7 419,-642.7 419,-619.7 261,-619.7"/>
<text text-anchor="start" x="265.7385" y="-628.8" font-family="Helvetica,sans-Serif" font-weight="bold" font-size="11.00" fill="#000000">rasp_cve_shield_profile</text>
<text text-anchor="start" x="384.5219" y="-627.8" font-family="Helvetica,sans-Serif" font-size="11.00" fill="#000000">[table]</text>
<polygon fill="none" stroke="#000000" points="261,-600.7 261,-619.7 419,-619.7 419,-600.7 261,-600.7"/>
<text text-anchor="start" x="264" y="-606.8" font-family="Helvetica,sans-Serif" font-size="11.00" fill="#000000">...</text>
<polygon fill="#ffffff" stroke="transparent" points="261,-581.7 261,-600.7 325,-600.7 325,-581.7 261,-581.7"/>
<polygon fill="none" stroke="#000000" points="261,-581.7 261,-600.7 325,-600.7 325,-581.7 261,-581.7"/>
<text text-anchor="start" x="264" y="-587.8" font-family="Helvetica,sans-Serif" font-size="11.00" fill="#000000">&lt; 1</text>
<polygon fill="#ffffff" stroke="transparent" points="325,-581.7 325,-600.7 385,-600.7 385,-581.7 325,-581.7"/>
<polygon fill="none" stroke="#000000" points="325,-581.7 325,-600.7 385,-600.7 385,-581.7 325,-581.7"/>
<text text-anchor="start" x="349.6105" y="-587.8" font-family="Helvetica,sans-Serif" font-size="11.00" fill="#000000">0 rows</text>
<polygon fill="#ffffff" stroke="transparent" points="385,-581.7 385,-600.7 419,-600.7 419,-581.7 385,-581.7"/>
<polygon fill="none" stroke="#000000" points="385,-581.7 385,-600.7 419,-600.7 419,-581.7 385,-581.7"/>
<text text-anchor="start" x="409.8862" y="-587.8" font-family="Helvetica,sans-Serif" font-size="11.00" fill="#000000"> &#160;</text>
</a>
</g>
</g>
<!-- rasp_cve_shield_profile&#45;&gt;rasp_protection_rules -->
<g id="edge3" class="edge">
<title>rasp_cve_shield_profile:w&#45;&gt;rasp_protection_rules:e</title>
<path fill="none" stroke="#000000" d="M246.619,-608.099C229.5678,-603.7521 222.4097,-590.7625 210,-571.7 165.7355,-503.7057 250.633,-393.7 169.5,-393.7"/>
<polygon fill="#000000" stroke="#000000" points="253.0491,-608.8148 260.6017,-613.2779 257.0246,-609.2574 261,-609.7 261,-609.7 261,-609.7 257.0246,-609.2574 261.3983,-606.1221 253.0491,-608.8148 253.0491,-608.8148"/>
<ellipse fill="none" stroke="#000000" cx="249.8688" cy="-608.4607" rx="3.2" ry="3.2"/>
</g>
<!-- rasp_protection_rules_cve -->
<g id="node5" class="node">
<title>rasp_protection_rules_cve</title>
<g id="a_node5"><a xlink:href="../../tables/rasp_protection_rules_cve.html" xlink:title="rasp_protection_rules_cve" target="_top">
<polygon fill="#ffffff" stroke="transparent" points="218,-448.7 218,-560.7 462,-560.7 462,-448.7 218,-448.7"/>
<polygon fill="#f5f5f5" stroke="transparent" points="220,-535.7 220,-558.7 460,-558.7 460,-535.7 220,-535.7"/>
<polygon fill="none" stroke="#000000" points="220,-535.7 220,-558.7 460,-558.7 460,-535.7 220,-535.7"/>
<text text-anchor="start" x="225" y="-544.8" font-family="Helvetica,sans-Serif" font-weight="bold" font-size="11.00" fill="#000000">rasp_protection_rules_cve</text>
<text text-anchor="start" x="425.0437" y="-543.8" font-family="Helvetica,sans-Serif" font-size="11.00" fill="#000000">[table]</text>
<polygon fill="none" stroke="#000000" points="220,-513.7 220,-535.7 393,-535.7 393,-513.7 220,-513.7"/>
<image xlink:href="../../images/primaryKeys.png" width="11px" height="12px" preserveAspectRatio="xMinYMin meet" x="225" y="-530.7"/>
<text text-anchor="start" x="240" y="-520.8" font-family="Helvetica,sans-Serif" font-size="11.00" fill="#000000">id</text>
<polygon fill="none" stroke="#000000" points="393,-513.7 393,-535.7 460,-535.7 460,-513.7 393,-513.7"/>
<text text-anchor="start" x="396" y="-521.4" font-family="Helvetica,sans-Serif" font-size="11.00" fill="#000000">int[10]</text>
<polygon fill="#ffffff" stroke="transparent" points="220,-491.7 220,-513.7 393,-513.7 393,-491.7 220,-491.7"/>
<polygon fill="none" stroke="#000000" points="220,-491.7 220,-513.7 393,-513.7 393,-491.7 220,-491.7"/>
<image xlink:href="../../images/foreignKeys.png" width="11px" height="12px" preserveAspectRatio="xMinYMin meet" x="225" y="-508.7"/>
<text text-anchor="start" x="240" y="-498.8" font-family="Helvetica,sans-Serif" font-size="11.00" fill="#000000">rasp_protection_rules_id</text>
<polygon fill="none" stroke="#000000" points="393,-491.7 393,-513.7 460,-513.7 460,-491.7 393,-491.7"/>
<text text-anchor="start" x="396" y="-499.4" font-family="Helvetica,sans-Serif" font-size="11.00" fill="#000000">int[10]</text>
<polygon fill="#ffffff" stroke="transparent" points="220,-469.7 220,-491.7 393,-491.7 393,-469.7 220,-469.7"/>
<polygon fill="none" stroke="#000000" points="220,-469.7 220,-491.7 393,-491.7 393,-469.7 220,-469.7"/>
<text text-anchor="start" x="240" y="-476.8" font-family="Helvetica,sans-Serif" font-size="11.00" fill="#000000">uuid</text>
<polygon fill="none" stroke="#000000" points="393,-469.7 393,-491.7 460,-491.7 460,-469.7 393,-469.7"/>
<text text-anchor="start" x="395.9365" y="-477.4" font-family="Helvetica,sans-Serif" font-size="11.00" fill="#000000">varchar[255]</text>
<polygon fill="#ffffff" stroke="transparent" points="220,-450.7 220,-469.7 298,-469.7 298,-450.7 220,-450.7"/>
<polygon fill="none" stroke="#000000" points="220,-450.7 220,-469.7 298,-469.7 298,-450.7 220,-450.7"/>
<text text-anchor="start" x="223" y="-456.8" font-family="Helvetica,sans-Serif" font-size="11.00" fill="#000000">&lt; 1</text>
<polygon fill="#ffffff" stroke="transparent" points="298,-450.7 298,-469.7 393,-469.7 393,-450.7 298,-450.7"/>
<polygon fill="none" stroke="#000000" points="298,-450.7 298,-469.7 393,-469.7 393,-450.7 298,-450.7"/>
<text text-anchor="start" x="357.6105" y="-456.8" font-family="Helvetica,sans-Serif" font-size="11.00" fill="#000000">0 rows</text>
<polygon fill="#ffffff" stroke="transparent" points="393,-450.7 393,-469.7 460,-469.7 460,-450.7 393,-450.7"/>
<polygon fill="none" stroke="#000000" points="393,-450.7 393,-469.7 460,-469.7 460,-450.7 393,-450.7"/>
<text text-anchor="start" x="441.4053" y="-456.8" font-family="Helvetica,sans-Serif" font-size="11.00" fill="#000000">0 &gt;</text>
<polygon fill="none" stroke="#000000" stroke-width="2" points="219,-449.7 219,-559.7 461,-559.7 461,-449.7 219,-449.7"/>
</a>
</g>
</g>
<!-- rasp_protection_rules_cve&#45;&gt;rasp_protection_rules -->
<g id="edge4" class="edge">
<title>rasp_protection_rules_cve:w&#45;&gt;rasp_protection_rules:e</title>
<path fill="none" stroke="#000000" d="M205.7587,-498.8206C177.9529,-479.4034 216.843,-393.7 169.5,-393.7"/>
<polygon fill="#000000" stroke="#000000" points="212.2813,-500.5974 219.0538,-506.1734 216.1406,-501.6487 220,-502.7 220,-502.7 220,-502.7 216.1406,-501.6487 220.9462,-499.2266 212.2813,-500.5974 212.2813,-500.5974"/>
<ellipse fill="none" stroke="#000000" cx="209.1938" cy="-499.7563" rx="3.2" ry="3.2"/>
</g>
<!-- rasp_protection_rules_env_configs -->
<g id="node6" class="node">
<title>rasp_protection_rules_env_configs</title>
<g id="a_node6"><a xlink:href="../../tables/rasp_protection_rules_env_configs.html" xlink:title="rasp_protection_rules_env_configs" target="_top">
<polygon fill="#ffffff" stroke="transparent" points="233.5,-366.2 233.5,-427.2 446.5,-427.2 446.5,-366.2 233.5,-366.2"/>
<polygon fill="#f5f5f5" stroke="transparent" points="234,-403.7 234,-426.7 447,-426.7 447,-403.7 234,-403.7"/>
<polygon fill="none" stroke="#000000" points="234,-403.7 234,-426.7 447,-426.7 447,-403.7 234,-403.7"/>
<text text-anchor="start" x="238.7264" y="-412.8" font-family="Helvetica,sans-Serif" font-weight="bold" font-size="11.00" fill="#000000">rasp_protection_rules_env_configs</text>
<text text-anchor="start" x="412.5219" y="-411.8" font-family="Helvetica,sans-Serif" font-size="11.00" fill="#000000">[table]</text>
<polygon fill="none" stroke="#000000" points="234,-384.7 234,-403.7 447,-403.7 447,-384.7 234,-384.7"/>
<text text-anchor="start" x="237" y="-390.8" font-family="Helvetica,sans-Serif" font-size="11.00" fill="#000000">...</text>
<polygon fill="#ffffff" stroke="transparent" points="234,-365.7 234,-384.7 326,-384.7 326,-365.7 234,-365.7"/>
<polygon fill="none" stroke="#000000" points="234,-365.7 234,-384.7 326,-384.7 326,-365.7 234,-365.7"/>
<text text-anchor="start" x="237" y="-371.8" font-family="Helvetica,sans-Serif" font-size="11.00" fill="#000000">&lt; 2</text>
<polygon fill="#ffffff" stroke="transparent" points="326,-365.7 326,-384.7 399,-384.7 399,-365.7 326,-365.7"/>
<polygon fill="none" stroke="#000000" points="326,-365.7 326,-384.7 399,-384.7 399,-365.7 326,-365.7"/>
<text text-anchor="start" x="363.6105" y="-371.8" font-family="Helvetica,sans-Serif" font-size="11.00" fill="#000000">0 rows</text>
<polygon fill="#ffffff" stroke="transparent" points="399,-365.7 399,-384.7 447,-384.7 447,-365.7 399,-365.7"/>
<polygon fill="none" stroke="#000000" points="399,-365.7 399,-384.7 447,-384.7 447,-365.7 399,-365.7"/>
<text text-anchor="start" x="437.8862" y="-371.8" font-family="Helvetica,sans-Serif" font-size="11.00" fill="#000000"> &#160;</text>
</a>
</g>
</g>
<!-- rasp_protection_rules_env_configs&#45;&gt;rasp_protection_rules -->
<g id="edge5" class="edge">
<title>rasp_protection_rules_env_configs:w&#45;&gt;rasp_protection_rules:e</title>
<path fill="none" stroke="#000000" d="M219.3432,-393.7C201.7137,-393.7 192.5677,-393.7 169.5,-393.7"/>
<polygon fill="#000000" stroke="#000000" points="226,-393.7001 234,-397.3 230,-393.7 234,-393.7 234,-393.7 234,-393.7 230,-393.7 234,-390.1 226,-393.7001 226,-393.7001"/>
<ellipse fill="none" stroke="#000000" cx="222.8" cy="-393.7001" rx="3.2" ry="3.2"/>
</g>
<!-- rasp_protection_rules_languages -->
<g id="node7" class="node">
<title>rasp_protection_rules_languages</title>
<g id="a_node7"><a xlink:href="../../tables/rasp_protection_rules_languages.html" xlink:title="rasp_protection_rules_languages" target="_top">
<polygon fill="#ffffff" stroke="transparent" points="237.5,-284.2 237.5,-345.2 442.5,-345.2 442.5,-284.2 237.5,-284.2"/>
<polygon fill="#f5f5f5" stroke="transparent" points="238,-321.7 238,-344.7 443,-344.7 443,-321.7 238,-321.7"/>
<polygon fill="none" stroke="#000000" points="238,-321.7 238,-344.7 443,-344.7 443,-321.7 238,-321.7"/>
<text text-anchor="start" x="242.6974" y="-330.8" font-family="Helvetica,sans-Serif" font-weight="bold" font-size="11.00" fill="#000000">rasp_protection_rules_languages</text>
<text text-anchor="start" x="408.5219" y="-329.8" font-family="Helvetica,sans-Serif" font-size="11.00" fill="#000000">[table]</text>
<polygon fill="none" stroke="#000000" points="238,-302.7 238,-321.7 443,-321.7 443,-302.7 238,-302.7"/>
<text text-anchor="start" x="241" y="-308.8" font-family="Helvetica,sans-Serif" font-size="11.00" fill="#000000">...</text>
<polygon fill="#ffffff" stroke="transparent" points="238,-283.7 238,-302.7 320,-302.7 320,-283.7 238,-283.7"/>
<polygon fill="none" stroke="#000000" points="238,-283.7 238,-302.7 320,-302.7 320,-283.7 238,-283.7"/>
<text text-anchor="start" x="241" y="-289.8" font-family="Helvetica,sans-Serif" font-size="11.00" fill="#000000">&lt; 1</text>
<polygon fill="#ffffff" stroke="transparent" points="320,-283.7 320,-302.7 400,-302.7 400,-283.7 320,-283.7"/>
<polygon fill="none" stroke="#000000" points="320,-283.7 320,-302.7 400,-302.7 400,-283.7 320,-283.7"/>
<text text-anchor="start" x="352.3807" y="-289.8" font-family="Helvetica,sans-Serif" font-size="11.00" fill="#000000">128 rows</text>
<polygon fill="#ffffff" stroke="transparent" points="400,-283.7 400,-302.7 443,-302.7 443,-283.7 400,-283.7"/>
<polygon fill="none" stroke="#000000" points="400,-283.7 400,-302.7 443,-302.7 443,-283.7 400,-283.7"/>
<text text-anchor="start" x="433.8862" y="-289.8" font-family="Helvetica,sans-Serif" font-size="11.00" fill="#000000"> &#160;</text>
</a>
</g>
</g>
<!-- rasp_protection_rules_languages&#45;&gt;rasp_protection_rules -->
<g id="edge6" class="edge">
<title>rasp_protection_rules_languages:w&#45;&gt;rasp_protection_rules:e</title>
<path fill="none" stroke="#000000" d="M223.7397,-315.0161C195.8399,-330.357 211.2371,-393.7 169.5,-393.7"/>
<polygon fill="#000000" stroke="#000000" points="230.2079,-313.512 238.8154,-315.2064 234.1039,-312.606 238,-311.7 238,-311.7 238,-311.7 234.1039,-312.606 237.1846,-308.1936 230.2079,-313.512 230.2079,-313.512"/>
<ellipse fill="none" stroke="#000000" cx="227.0911" cy="-314.2368" rx="3.2" ry="3.2"/>
</g>
<!-- rasp_protection_rules_org_config -->
<g id="node8" class="node">
<title>rasp_protection_rules_org_config</title>
<g id="a_node8"><a xlink:href="../../tables/rasp_protection_rules_org_config.html" xlink:title="rasp_protection_rules_org_config" target="_top">
<polygon fill="#ffffff" stroke="transparent" points="237,-202.2 237,-263.2 443,-263.2 443,-202.2 237,-202.2"/>
<polygon fill="#f5f5f5" stroke="transparent" points="237,-239.7 237,-262.7 443,-262.7 443,-239.7 237,-239.7"/>
<polygon fill="none" stroke="#000000" points="237,-239.7 237,-262.7 443,-262.7 443,-239.7 237,-239.7"/>
<text text-anchor="start" x="241.8954" y="-248.8" font-family="Helvetica,sans-Serif" font-weight="bold" font-size="11.00" fill="#000000">rasp_protection_rules_org_config</text>
<text text-anchor="start" x="408.5219" y="-247.8" font-family="Helvetica,sans-Serif" font-size="11.00" fill="#000000">[table]</text>
<polygon fill="none" stroke="#000000" points="237,-220.7 237,-239.7 443,-239.7 443,-220.7 237,-220.7"/>
<text text-anchor="start" x="240" y="-226.8" font-family="Helvetica,sans-Serif" font-size="11.00" fill="#000000">...</text>
<polygon fill="#ffffff" stroke="transparent" points="237,-201.7 237,-220.7 325,-220.7 325,-201.7 237,-201.7"/>
<polygon fill="none" stroke="#000000" points="237,-201.7 237,-220.7 325,-220.7 325,-201.7 237,-201.7"/>
<text text-anchor="start" x="240" y="-207.8" font-family="Helvetica,sans-Serif" font-size="11.00" fill="#000000">&lt; 2</text>
<polygon fill="#ffffff" stroke="transparent" points="325,-201.7 325,-220.7 397,-220.7 397,-201.7 325,-201.7"/>
<polygon fill="none" stroke="#000000" points="325,-201.7 325,-220.7 397,-220.7 397,-201.7 325,-201.7"/>
<text text-anchor="start" x="361.6105" y="-207.8" font-family="Helvetica,sans-Serif" font-size="11.00" fill="#000000">0 rows</text>
<polygon fill="#ffffff" stroke="transparent" points="397,-201.7 397,-220.7 443,-220.7 443,-201.7 397,-201.7"/>
<polygon fill="none" stroke="#000000" points="397,-201.7 397,-220.7 443,-220.7 443,-201.7 397,-201.7"/>
<text text-anchor="start" x="433.8862" y="-207.8" font-family="Helvetica,sans-Serif" font-size="11.00" fill="#000000"> &#160;</text>
</a>
</g>
</g>
<!-- rasp_protection_rules_org_config&#45;&gt;rasp_protection_rules -->
<g id="edge7" class="edge">
<title>rasp_protection_rules_org_config:w&#45;&gt;rasp_protection_rules:e</title>
<path fill="none" stroke="#000000" d="M222.7622,-232.0184C170.0197,-251.9517 242.7791,-393.7 169.5,-393.7"/>
<polygon fill="#000000" stroke="#000000" points="229.104,-230.9858 237.5786,-233.2532 233.052,-230.3429 237,-229.7 237,-229.7 237,-229.7 233.052,-230.3429 236.4214,-226.1468 229.104,-230.9858 229.104,-230.9858"/>
<ellipse fill="none" stroke="#000000" cx="225.9456" cy="-231.5001" rx="3.2" ry="3.2"/>
</g>
<!-- rasp_protection_rules_profile -->
<g id="node9" class="node">
<title>rasp_protection_rules_profile</title>
<g id="a_node9"><a xlink:href="../../tables/rasp_protection_rules_profile.html" xlink:title="rasp_protection_rules_profile" target="_top">
<polygon fill="#ffffff" stroke="transparent" points="248,-120.2 248,-181.2 432,-181.2 432,-120.2 248,-120.2"/>
<polygon fill="#f5f5f5" stroke="transparent" points="248,-157.7 248,-180.7 432,-180.7 432,-157.7 248,-157.7"/>
<polygon fill="none" stroke="#000000" points="248,-157.7 248,-180.7 432,-180.7 432,-157.7 248,-157.7"/>
<text text-anchor="start" x="252.5973" y="-166.8" font-family="Helvetica,sans-Serif" font-weight="bold" font-size="11.00" fill="#000000">rasp_protection_rules_profile</text>
<text text-anchor="start" x="397.5219" y="-165.8" font-family="Helvetica,sans-Serif" font-size="11.00" fill="#000000">[table]</text>
<polygon fill="none" stroke="#000000" points="248,-138.7 248,-157.7 432,-157.7 432,-138.7 248,-138.7"/>
<text text-anchor="start" x="251" y="-144.8" font-family="Helvetica,sans-Serif" font-size="11.00" fill="#000000">...</text>
<polygon fill="#ffffff" stroke="transparent" points="248,-119.7 248,-138.7 325,-138.7 325,-119.7 248,-119.7"/>
<polygon fill="none" stroke="#000000" points="248,-119.7 248,-138.7 325,-138.7 325,-119.7 248,-119.7"/>
<text text-anchor="start" x="251" y="-125.8" font-family="Helvetica,sans-Serif" font-size="11.00" fill="#000000">&lt; 1</text>
<polygon fill="#ffffff" stroke="transparent" points="325,-119.7 325,-138.7 391,-138.7 391,-119.7 325,-119.7"/>
<polygon fill="none" stroke="#000000" points="325,-119.7 325,-138.7 391,-138.7 391,-119.7 325,-119.7"/>
<text text-anchor="start" x="355.6105" y="-125.8" font-family="Helvetica,sans-Serif" font-size="11.00" fill="#000000">0 rows</text>
<polygon fill="#ffffff" stroke="transparent" points="391,-119.7 391,-138.7 432,-138.7 432,-119.7 391,-119.7"/>
<polygon fill="none" stroke="#000000" points="391,-119.7 391,-138.7 432,-138.7 432,-119.7 391,-119.7"/>
<text text-anchor="start" x="422.8862" y="-125.8" font-family="Helvetica,sans-Serif" font-size="11.00" fill="#000000"> &#160;</text>
</a>
</g>
</g>
<!-- rasp_protection_rules_profile&#45;&gt;rasp_protection_rules -->
<g id="edge8" class="edge">
<title>rasp_protection_rules_profile:w&#45;&gt;rasp_protection_rules:e</title>
<path fill="none" stroke="#000000" d="M233.879,-150.688C221.2553,-157.2451 218.7846,-173.7494 210,-191.7 189.8757,-232.8221 215.2822,-393.7 169.5,-393.7"/>
<polygon fill="#000000" stroke="#000000" points="240.1733,-149.3562 248.7453,-151.222 244.0866,-148.5281 248,-147.7 248,-147.7 248,-147.7 244.0866,-148.5281 247.2547,-144.178 240.1733,-149.3562 240.1733,-149.3562"/>
<ellipse fill="none" stroke="#000000" cx="237.0426" cy="-150.0186" rx="3.2" ry="3.2"/>
</g>
<!-- rules_exclusions_protection_rules -->
<g id="node10" class="node">
<title>rules_exclusions_protection_rules</title>
<g id="a_node10"><a xlink:href="../../tables/rules_exclusions_protection_rules.html" xlink:title="rules_exclusions_protection_rules" target="_top">
<polygon fill="#ffffff" stroke="transparent" points="236,-38.2 236,-99.2 444,-99.2 444,-38.2 236,-38.2"/>
<polygon fill="#f5f5f5" stroke="transparent" points="236,-75.7 236,-98.7 444,-98.7 444,-75.7 236,-75.7"/>
<polygon fill="none" stroke="#000000" points="236,-75.7 236,-98.7 444,-98.7 444,-75.7 236,-75.7"/>
<text text-anchor="start" x="240.6788" y="-84.8" font-family="Helvetica,sans-Serif" font-weight="bold" font-size="11.00" fill="#000000">rules_exclusions_protection_rules</text>
<text text-anchor="start" x="409.5219" y="-83.8" font-family="Helvetica,sans-Serif" font-size="11.00" fill="#000000">[table]</text>
<polygon fill="none" stroke="#000000" points="236,-56.7 236,-75.7 444,-75.7 444,-56.7 236,-56.7"/>
<text text-anchor="start" x="239" y="-62.8" font-family="Helvetica,sans-Serif" font-size="11.00" fill="#000000">...</text>
<polygon fill="#ffffff" stroke="transparent" points="236,-37.7 236,-56.7 325,-56.7 325,-37.7 236,-37.7"/>
<polygon fill="none" stroke="#000000" points="236,-37.7 236,-56.7 325,-56.7 325,-37.7 236,-37.7"/>
<text text-anchor="start" x="239" y="-43.8" font-family="Helvetica,sans-Serif" font-size="11.00" fill="#000000">&lt; 2</text>
<polygon fill="#ffffff" stroke="transparent" points="325,-37.7 325,-56.7 397,-56.7 397,-37.7 325,-37.7"/>
<polygon fill="none" stroke="#000000" points="325,-37.7 325,-56.7 397,-56.7 397,-37.7 325,-37.7"/>
<text text-anchor="start" x="361.6105" y="-43.8" font-family="Helvetica,sans-Serif" font-size="11.00" fill="#000000">0 rows</text>
<polygon fill="#ffffff" stroke="transparent" points="397,-37.7 397,-56.7 444,-56.7 444,-37.7 397,-37.7"/>
<polygon fill="none" stroke="#000000" points="397,-37.7 397,-56.7 444,-56.7 444,-37.7 397,-37.7"/>
<text text-anchor="start" x="434.8862" y="-43.8" font-family="Helvetica,sans-Serif" font-size="11.00" fill="#000000"> &#160;</text>
</a>
</g>
</g>
<!-- rules_exclusions_protection_rules&#45;&gt;rasp_protection_rules -->
<g id="edge9" class="edge">
<title>rules_exclusions_protection_rules:w&#45;&gt;rasp_protection_rules:e</title>
<path fill="none" stroke="#000000" d="M222.2119,-70.5912C172.697,-111.3933 238.4973,-393.7 169.5,-393.7"/>
<polygon fill="#000000" stroke="#000000" points="228.4603,-68.3747 237.2036,-69.0928 232.2302,-67.0373 236,-65.7 236,-65.7 236,-65.7 232.2302,-67.0373 234.7964,-62.3072 228.4603,-68.3747 228.4603,-68.3747"/>
<ellipse fill="none" stroke="#000000" cx="225.4445" cy="-69.4445" rx="3.2" ry="3.2"/>
</g>
</g>
</svg>
