<?xml version="1.0" encoding="UTF-8" standalone="no"?>
<!DOCTYPE svg PUBLIC "-//W3C//DTD SVG 1.1//EN"
 "http://www.w3.org/Graphics/SVG/1.1/DTD/svg11.dtd">
<!-- Generated by graphviz version 2.40.1 (20161225.0304)
 -->
<!-- Title: oneDegreeRelationshipsDiagram Pages: 1 -->
<svg width="485pt" height="223pt"
 viewBox="0.00 0.00 485.00 222.70" xmlns="http://www.w3.org/2000/svg" xmlns:xlink="http://www.w3.org/1999/xlink">
<g id="graph0" class="graph" transform="scale(1 1) rotate(0) translate(4 218.7)">
<title>oneDegreeRelationshipsDiagram</title>
<polygon fill="#ffffff" stroke="transparent" points="-4,4 -4,-218.7 481,-218.7 481,4 -4,4"/>
<text text-anchor="middle" x="72.4936" y="-7.3" font-family="Helvetica,sans-Serif" font-size="11.00" fill="#000000">Generated by SchemaSpy</text>
<!-- rasp_cve_shield_profile -->
<g id="node1" class="node">
<title>rasp_cve_shield_profile</title>
<g id="a_node1"><a xlink:href="../../tables/rasp_cve_shield_profile.html" xlink:title="rasp_cve_shield_profile" target="_top">
<polygon fill="#ffffff" stroke="transparent" points="218,-76.7 218,-210.7 469,-210.7 469,-76.7 218,-76.7"/>
<polygon fill="#f5f5f5" stroke="transparent" points="220.5,-185.7 220.5,-208.7 467.5,-208.7 467.5,-185.7 220.5,-185.7"/>
<polygon fill="none" stroke="#000000" points="220.5,-185.7 220.5,-208.7 467.5,-208.7 467.5,-185.7 220.5,-185.7"/>
<text text-anchor="start" x="225.5" y="-194.8" font-family="Helvetica,sans-Serif" font-weight="bold" font-size="11.00" fill="#000000">rasp_cve_shield_profile</text>
<text text-anchor="start" x="432.5437" y="-193.8" font-family="Helvetica,sans-Serif" font-size="11.00" fill="#000000">[table]</text>
<polygon fill="none" stroke="#000000" points="220.5,-163.7 220.5,-185.7 384.5,-185.7 384.5,-163.7 220.5,-163.7"/>
<image xlink:href="../../images/primaryKeys.png" width="11px" height="12px" preserveAspectRatio="xMinYMin meet" x="225.5" y="-180.7"/>
<text text-anchor="start" x="240.5" y="-170.8" font-family="Helvetica,sans-Serif" font-size="11.00" fill="#000000">id</text>
<polygon fill="none" stroke="#000000" points="384.5,-163.7 384.5,-185.7 467.5,-185.7 467.5,-163.7 384.5,-163.7"/>
<text text-anchor="start" x="387.1783" y="-171.4" font-family="Helvetica,sans-Serif" font-size="11.00" fill="#000000">int unsigned[10]</text>
<polygon fill="#ffffff" stroke="transparent" points="220.5,-141.7 220.5,-163.7 384.5,-163.7 384.5,-141.7 220.5,-141.7"/>
<polygon fill="none" stroke="#000000" points="220.5,-141.7 220.5,-163.7 384.5,-163.7 384.5,-141.7 220.5,-141.7"/>
<text text-anchor="start" x="240.5" y="-148.8" font-family="Helvetica,sans-Serif" font-size="11.00" fill="#000000">profile_name</text>
<polygon fill="none" stroke="#000000" points="384.5,-141.7 384.5,-163.7 467.5,-163.7 467.5,-141.7 384.5,-141.7"/>
<text text-anchor="start" x="387.5" y="-149.4" font-family="Helvetica,sans-Serif" font-size="11.00" fill="#000000">varchar[1]</text>
<polygon fill="#ffffff" stroke="transparent" points="220.5,-119.7 220.5,-141.7 384.5,-141.7 384.5,-119.7 220.5,-119.7"/>
<polygon fill="none" stroke="#000000" points="220.5,-119.7 220.5,-141.7 384.5,-141.7 384.5,-119.7 220.5,-119.7"/>
<image xlink:href="../../images/foreignKeys.png" width="11px" height="12px" preserveAspectRatio="xMinYMin meet" x="225.5" y="-136.7"/>
<text text-anchor="start" x="240.5" y="-126.8" font-family="Helvetica,sans-Serif" font-size="11.00" fill="#000000">rasp_protection_rules_id</text>
<polygon fill="none" stroke="#000000" points="384.5,-119.7 384.5,-141.7 467.5,-141.7 467.5,-119.7 384.5,-119.7"/>
<text text-anchor="start" x="387.5" y="-127.4" font-family="Helvetica,sans-Serif" font-size="11.00" fill="#000000">int[10]</text>
<polygon fill="none" stroke="#000000" points="220.5,-97.7 220.5,-119.7 384.5,-119.7 384.5,-97.7 220.5,-97.7"/>
<text text-anchor="start" x="240.5" y="-104.8" font-family="Helvetica,sans-Serif" font-size="11.00" fill="#000000">protect_mode</text>
<polygon fill="none" stroke="#000000" points="384.5,-97.7 384.5,-119.7 467.5,-119.7 467.5,-97.7 384.5,-97.7"/>
<text text-anchor="start" x="387.5" y="-105.4" font-family="Helvetica,sans-Serif" font-size="11.00" fill="#000000">varchar[2]</text>
<polygon fill="#ffffff" stroke="transparent" points="220.5,-78.7 220.5,-97.7 293.5,-97.7 293.5,-78.7 220.5,-78.7"/>
<polygon fill="none" stroke="#000000" points="220.5,-78.7 220.5,-97.7 293.5,-97.7 293.5,-78.7 220.5,-78.7"/>
<text text-anchor="start" x="223.5" y="-84.8" font-family="Helvetica,sans-Serif" font-size="11.00" fill="#000000">&lt; 1</text>
<polygon fill="#ffffff" stroke="transparent" points="293.5,-78.7 293.5,-97.7 384.5,-97.7 384.5,-78.7 293.5,-78.7"/>
<polygon fill="none" stroke="#000000" points="293.5,-78.7 293.5,-97.7 384.5,-97.7 384.5,-78.7 293.5,-78.7"/>
<text text-anchor="start" x="349.1105" y="-84.8" font-family="Helvetica,sans-Serif" font-size="11.00" fill="#000000">0 rows</text>
<polygon fill="#ffffff" stroke="transparent" points="384.5,-78.7 384.5,-97.7 467.5,-97.7 467.5,-78.7 384.5,-78.7"/>
<polygon fill="none" stroke="#000000" points="384.5,-78.7 384.5,-97.7 467.5,-97.7 467.5,-78.7 384.5,-78.7"/>
<text text-anchor="start" x="448.9053" y="-84.8" font-family="Helvetica,sans-Serif" font-size="11.00" fill="#000000">0 &gt;</text>
<polygon fill="none" stroke="#000000" stroke-width="2" points="219,-77.7 219,-209.7 468,-209.7 468,-77.7 219,-77.7"/>
</a>
</g>
</g>
<!-- rasp_protection_rules -->
<g id="node2" class="node">
<title>rasp_protection_rules</title>
<g id="a_node2"><a xlink:href="../../tables/rasp_protection_rules.html" xlink:title="rasp_protection_rules" target="_top">
<polygon fill="#ffffff" stroke="transparent" points="8,-38.2 8,-165.2 169,-165.2 169,-38.2 8,-38.2"/>
<polygon fill="#f5f5f5" stroke="transparent" points="8.5,-141.7 8.5,-164.7 169.5,-164.7 169.5,-141.7 8.5,-141.7"/>
<polygon fill="none" stroke="#000000" points="8.5,-141.7 8.5,-164.7 169.5,-164.7 169.5,-141.7 8.5,-141.7"/>
<text text-anchor="start" x="13.5" y="-150.8" font-family="Helvetica,sans-Serif" font-weight="bold" font-size="11.00" fill="#000000">rasp_protection_rules</text>
<text text-anchor="start" x="134.5437" y="-149.8" font-family="Helvetica,sans-Serif" font-size="11.00" fill="#000000">[table]</text>
<polygon fill="none" stroke="#000000" points="8.5,-119.7 8.5,-141.7 169.5,-141.7 169.5,-119.7 8.5,-119.7"/>
<image xlink:href="../../images/primaryKeys.png" width="11px" height="12px" preserveAspectRatio="xMinYMin meet" x="13.5" y="-136.7"/>
<text text-anchor="start" x="28.5" y="-126.8" font-family="Helvetica,sans-Serif" font-size="11.00" fill="#000000">id</text>
<polygon fill="#ffffff" stroke="transparent" points="8.5,-97.7 8.5,-119.7 169.5,-119.7 169.5,-97.7 8.5,-97.7"/>
<polygon fill="none" stroke="#000000" points="8.5,-97.7 8.5,-119.7 169.5,-119.7 169.5,-97.7 8.5,-97.7"/>
<text text-anchor="start" x="28.5" y="-104.8" font-family="Helvetica,sans-Serif" font-size="11.00" fill="#000000">uuid</text>
<polygon fill="#ffffff" stroke="transparent" points="8.5,-75.7 8.5,-97.7 169.5,-97.7 169.5,-75.7 8.5,-75.7"/>
<polygon fill="none" stroke="#000000" points="8.5,-75.7 8.5,-97.7 169.5,-97.7 169.5,-75.7 8.5,-75.7"/>
<text text-anchor="start" x="28.5" y="-82.8" font-family="Helvetica,sans-Serif" font-size="11.00" fill="#000000">name</text>
<polygon fill="none" stroke="#000000" points="8.5,-56.7 8.5,-75.7 169.5,-75.7 169.5,-56.7 8.5,-56.7"/>
<text text-anchor="start" x="11.5" y="-62.8" font-family="Helvetica,sans-Serif" font-size="11.00" fill="#000000">...</text>
<polygon fill="#ffffff" stroke="transparent" points="8.5,-37.7 8.5,-56.7 62.5,-56.7 62.5,-37.7 8.5,-37.7"/>
<polygon fill="none" stroke="#000000" points="8.5,-37.7 8.5,-56.7 62.5,-56.7 62.5,-37.7 8.5,-37.7"/>
<text text-anchor="start" x="11.5" y="-43.8" font-family="Helvetica,sans-Serif" font-size="11.00" fill="#000000"> &#160;</text>
<polygon fill="#ffffff" stroke="transparent" points="62.5,-37.7 62.5,-56.7 127.5,-56.7 127.5,-37.7 62.5,-37.7"/>
<polygon fill="none" stroke="#000000" points="62.5,-37.7 62.5,-56.7 127.5,-56.7 127.5,-37.7 62.5,-37.7"/>
<text text-anchor="start" x="85.9956" y="-43.8" font-family="Helvetica,sans-Serif" font-size="11.00" fill="#000000">64 rows</text>
<polygon fill="#ffffff" stroke="transparent" points="127.5,-37.7 127.5,-56.7 169.5,-56.7 169.5,-37.7 127.5,-37.7"/>
<polygon fill="none" stroke="#000000" points="127.5,-37.7 127.5,-56.7 169.5,-56.7 169.5,-37.7 127.5,-37.7"/>
<text text-anchor="start" x="150.9053" y="-43.8" font-family="Helvetica,sans-Serif" font-size="11.00" fill="#000000">9 &gt;</text>
</a>
</g>
</g>
<!-- rasp_cve_shield_profile&#45;&gt;rasp_protection_rules -->
<g id="edge1" class="edge">
<title>rasp_cve_shield_profile:w&#45;&gt;rasp_protection_rules:e</title>
<path fill="none" stroke="#000000" d="M205.776,-130.7C193.7815,-130.7 186.3229,-130.7 169.5,-130.7"/>
<polygon fill="#000000" stroke="#000000" points="212.5,-130.7001 220.5,-134.3 216.5,-130.7 220.5,-130.7 220.5,-130.7 220.5,-130.7 216.5,-130.7 220.5,-127.1 212.5,-130.7001 212.5,-130.7001"/>
<ellipse fill="none" stroke="#000000" cx="209.3" cy="-130.7001" rx="3.2" ry="3.2"/>
</g>
</g>
</svg>
