<?xml version="1.0" encoding="UTF-8" standalone="no"?>
<!DOCTYPE svg PUBLIC "-//W3C//DTD SVG 1.1//EN"
 "http://www.w3.org/Graphics/SVG/1.1/DTD/svg11.dtd">
<!-- Generated by graphviz version 2.40.1 (20161225.0304)
 -->
<!-- Title: oneDegreeRelationshipsDiagram Pages: 1 -->
<svg width="745pt" height="287pt"
 viewBox="0.00 0.00 745.00 287.20" xmlns="http://www.w3.org/2000/svg" xmlns:xlink="http://www.w3.org/1999/xlink">
<g id="graph0" class="graph" transform="scale(1 1) rotate(0) translate(4 283.2)">
<title>oneDegreeRelationshipsDiagram</title>
<polygon fill="#ffffff" stroke="transparent" points="-4,4 -4,-283.2 741,-283.2 741,4 -4,4"/>
<text text-anchor="middle" x="72.4936" y="-7.3" font-family="Helvetica,sans-Serif" font-size="11.00" fill="#000000">Generated by SchemaSpy</text>
<!-- rasp_alert_attacks_triggers -->
<g id="node1" class="node">
<title>rasp_alert_attacks_triggers</title>
<g id="a_node1"><a xlink:href="../../tables/rasp_alert_attacks_triggers.html" xlink:title="rasp_alert_attacks_triggers" target="_top">
<polygon fill="#ffffff" stroke="transparent" points="189,-78.2 189,-190.2 453,-190.2 453,-78.2 189,-78.2"/>
<polygon fill="#f5f5f5" stroke="transparent" points="191,-165.2 191,-188.2 451,-188.2 451,-165.2 191,-165.2"/>
<polygon fill="none" stroke="#000000" points="191,-165.2 191,-188.2 451,-188.2 451,-165.2 191,-165.2"/>
<text text-anchor="start" x="196" y="-174.3" font-family="Helvetica,sans-Serif" font-weight="bold" font-size="11.00" fill="#000000">rasp_alert_attacks_triggers</text>
<text text-anchor="start" x="416.0437" y="-173.3" font-family="Helvetica,sans-Serif" font-size="11.00" fill="#000000">[table]</text>
<polygon fill="none" stroke="#000000" points="191,-143.2 191,-165.2 368,-165.2 368,-143.2 191,-143.2"/>
<image xlink:href="../../images/primaryKeys.png" width="11px" height="12px" preserveAspectRatio="xMinYMin meet" x="196" y="-160.2"/>
<text text-anchor="start" x="211" y="-150.3" font-family="Helvetica,sans-Serif" font-size="11.00" fill="#000000">id</text>
<polygon fill="none" stroke="#000000" points="368,-143.2 368,-165.2 451,-165.2 451,-143.2 368,-143.2"/>
<text text-anchor="start" x="370.6783" y="-150.9" font-family="Helvetica,sans-Serif" font-size="11.00" fill="#000000">int unsigned[10]</text>
<polygon fill="#ffffff" stroke="transparent" points="191,-121.2 191,-143.2 368,-143.2 368,-121.2 191,-121.2"/>
<polygon fill="none" stroke="#000000" points="191,-121.2 191,-143.2 368,-143.2 368,-121.2 191,-121.2"/>
<image xlink:href="../../images/foreignKeys.png" width="11px" height="12px" preserveAspectRatio="xMinYMin meet" x="196" y="-138.2"/>
<text text-anchor="start" x="211" y="-128.3" font-family="Helvetica,sans-Serif" font-size="11.00" fill="#000000">rasp_alert_attacks_id</text>
<polygon fill="none" stroke="#000000" points="368,-121.2 368,-143.2 451,-143.2 451,-121.2 368,-121.2"/>
<text text-anchor="start" x="371" y="-128.9" font-family="Helvetica,sans-Serif" font-size="11.00" fill="#000000">varchar[255]</text>
<polygon fill="#ffffff" stroke="transparent" points="191,-99.2 191,-121.2 368,-121.2 368,-99.2 191,-99.2"/>
<polygon fill="none" stroke="#000000" points="191,-99.2 191,-121.2 368,-121.2 368,-99.2 191,-99.2"/>
<text text-anchor="start" x="211" y="-106.3" font-family="Helvetica,sans-Serif" font-size="11.00" fill="#000000">trigger_type</text>
<polygon fill="none" stroke="#000000" points="368,-99.2 368,-121.2 451,-121.2 451,-99.2 368,-99.2"/>
<text text-anchor="start" x="371" y="-106.9" font-family="Helvetica,sans-Serif" font-size="11.00" fill="#000000">tinyint[3]</text>
<polygon fill="#ffffff" stroke="transparent" points="191,-80.2 191,-99.2 271,-99.2 271,-80.2 191,-80.2"/>
<polygon fill="none" stroke="#000000" points="191,-80.2 191,-99.2 271,-99.2 271,-80.2 191,-80.2"/>
<text text-anchor="start" x="194" y="-86.3" font-family="Helvetica,sans-Serif" font-size="11.00" fill="#000000">&lt; 1</text>
<polygon fill="#ffffff" stroke="transparent" points="271,-80.2 271,-99.2 368,-99.2 368,-80.2 271,-80.2"/>
<polygon fill="none" stroke="#000000" points="271,-80.2 271,-99.2 368,-99.2 368,-80.2 271,-80.2"/>
<text text-anchor="start" x="332.6105" y="-86.3" font-family="Helvetica,sans-Serif" font-size="11.00" fill="#000000">0 rows</text>
<polygon fill="#ffffff" stroke="transparent" points="368,-80.2 368,-99.2 451,-99.2 451,-80.2 368,-80.2"/>
<polygon fill="none" stroke="#000000" points="368,-80.2 368,-99.2 451,-99.2 451,-80.2 368,-80.2"/>
<text text-anchor="start" x="432.4053" y="-86.3" font-family="Helvetica,sans-Serif" font-size="11.00" fill="#000000">2 &gt;</text>
<polygon fill="none" stroke="#000000" stroke-width="2" points="190,-79.2 190,-189.2 452,-189.2 452,-79.2 190,-79.2"/>
</a>
</g>
</g>
<!-- rasp_alert_attacks -->
<g id="node2" class="node">
<title>rasp_alert_attacks</title>
<g id="a_node2"><a xlink:href="../../tables/rasp_alert_attacks.html" xlink:title="rasp_alert_attacks" target="_top">
<polygon fill="#ffffff" stroke="transparent" points="8,-61.7 8,-166.7 140,-166.7 140,-61.7 8,-61.7"/>
<polygon fill="#f5f5f5" stroke="transparent" points="8,-143.2 8,-166.2 140,-166.2 140,-143.2 8,-143.2"/>
<polygon fill="none" stroke="#000000" points="8,-143.2 8,-166.2 140,-166.2 140,-143.2 8,-143.2"/>
<text text-anchor="start" x="12.5727" y="-152.3" font-family="Helvetica,sans-Serif" font-weight="bold" font-size="11.00" fill="#000000">rasp_alert_attacks</text>
<text text-anchor="start" x="105.5219" y="-151.3" font-family="Helvetica,sans-Serif" font-size="11.00" fill="#000000">[table]</text>
<polygon fill="none" stroke="#000000" points="8,-121.2 8,-143.2 140,-143.2 140,-121.2 8,-121.2"/>
<image xlink:href="../../images/primaryKeys.png" width="11px" height="12px" preserveAspectRatio="xMinYMin meet" x="13" y="-138.2"/>
<text text-anchor="start" x="31" y="-128.3" font-family="Helvetica,sans-Serif" font-size="11.00" fill="#000000">id</text>
<polygon fill="#ffffff" stroke="transparent" points="8,-99.2 8,-121.2 140,-121.2 140,-99.2 8,-99.2"/>
<polygon fill="none" stroke="#000000" points="8,-99.2 8,-121.2 140,-121.2 140,-99.2 8,-99.2"/>
<image xlink:href="../../images/foreignKeys.png" width="11px" height="12px" preserveAspectRatio="xMinYMin meet" x="13" y="-116.2"/>
<text text-anchor="start" x="31" y="-106.3" font-family="Helvetica,sans-Serif" font-size="11.00" fill="#000000">organizations_id</text>
<polygon fill="none" stroke="#000000" points="8,-80.2 8,-99.2 140,-99.2 140,-80.2 8,-80.2"/>
<text text-anchor="start" x="11" y="-86.3" font-family="Helvetica,sans-Serif" font-size="11.00" fill="#000000">...</text>
<polygon fill="#ffffff" stroke="transparent" points="8,-61.2 8,-80.2 55,-80.2 55,-61.2 8,-61.2"/>
<polygon fill="none" stroke="#000000" points="8,-61.2 8,-80.2 55,-80.2 55,-61.2 8,-61.2"/>
<text text-anchor="start" x="11" y="-67.3" font-family="Helvetica,sans-Serif" font-size="11.00" fill="#000000">&lt; 1</text>
<polygon fill="#ffffff" stroke="transparent" points="55,-61.2 55,-80.2 106,-80.2 106,-61.2 55,-61.2"/>
<polygon fill="none" stroke="#000000" points="55,-61.2 55,-80.2 106,-80.2 106,-61.2 55,-61.2"/>
<text text-anchor="start" x="70.6105" y="-67.3" font-family="Helvetica,sans-Serif" font-size="11.00" fill="#000000">0 rows</text>
<polygon fill="#ffffff" stroke="transparent" points="106,-61.2 106,-80.2 140,-80.2 140,-61.2 106,-61.2"/>
<polygon fill="none" stroke="#000000" points="106,-61.2 106,-80.2 140,-80.2 140,-61.2 106,-61.2"/>
<text text-anchor="start" x="121.4053" y="-67.3" font-family="Helvetica,sans-Serif" font-size="11.00" fill="#000000">4 &gt;</text>
</a>
</g>
</g>
<!-- rasp_alert_attacks_triggers&#45;&gt;rasp_alert_attacks -->
<g id="edge1" class="edge">
<title>rasp_alert_attacks_triggers:w&#45;&gt;rasp_alert_attacks:e</title>
<path fill="none" stroke="#000000" d="M176.276,-132.2C164.2815,-132.2 156.8229,-132.2 140,-132.2"/>
<polygon fill="#000000" stroke="#000000" points="183,-132.2001 191,-135.8 187,-132.2 191,-132.2 191,-132.2 191,-132.2 187,-132.2 191,-128.6 183,-132.2001 183,-132.2001"/>
<ellipse fill="none" stroke="#000000" cx="179.8" cy="-132.2001" rx="3.2" ry="3.2"/>
</g>
<!-- rasp_alert_attacks_triggers_interval -->
<g id="node3" class="node">
<title>rasp_alert_attacks_triggers_interval</title>
<g id="a_node3"><a xlink:href="../../tables/rasp_alert_attacks_triggers_interval.html" xlink:title="rasp_alert_attacks_triggers_interval" target="_top">
<polygon fill="#ffffff" stroke="transparent" points="502,-167.2 502,-275.2 729,-275.2 729,-167.2 502,-167.2"/>
<polygon fill="#f5f5f5" stroke="transparent" points="502.5,-252.2 502.5,-275.2 729.5,-275.2 729.5,-252.2 502.5,-252.2"/>
<polygon fill="none" stroke="#000000" points="502.5,-252.2 502.5,-275.2 729.5,-275.2 729.5,-252.2 502.5,-252.2"/>
<text text-anchor="start" x="507.5" y="-261.3" font-family="Helvetica,sans-Serif" font-weight="bold" font-size="11.00" fill="#000000">rasp_alert_attacks_triggers_interval</text>
<text text-anchor="start" x="694.5437" y="-260.3" font-family="Helvetica,sans-Serif" font-size="11.00" fill="#000000">[table]</text>
<polygon fill="none" stroke="#000000" points="502.5,-230.2 502.5,-252.2 729.5,-252.2 729.5,-230.2 502.5,-230.2"/>
<image xlink:href="../../images/primaryKeys.png" width="11px" height="12px" preserveAspectRatio="xMinYMin meet" x="507.5" y="-247.2"/>
<text text-anchor="start" x="522.5" y="-237.3" font-family="Helvetica,sans-Serif" font-size="11.00" fill="#000000">id</text>
<polygon fill="#ffffff" stroke="transparent" points="502.5,-208.2 502.5,-230.2 729.5,-230.2 729.5,-208.2 502.5,-208.2"/>
<polygon fill="none" stroke="#000000" points="502.5,-208.2 502.5,-230.2 729.5,-230.2 729.5,-208.2 502.5,-208.2"/>
<image xlink:href="../../images/foreignKeys.png" width="11px" height="12px" preserveAspectRatio="xMinYMin meet" x="507.5" y="-225.2"/>
<text text-anchor="start" x="522.5" y="-215.3" font-family="Helvetica,sans-Serif" font-size="11.00" fill="#000000">rasp_alert_attacks_triggers_id</text>
<polygon fill="#ffffff" stroke="transparent" points="502.5,-186.2 502.5,-208.2 729.5,-208.2 729.5,-186.2 502.5,-186.2"/>
<polygon fill="none" stroke="#000000" points="502.5,-186.2 502.5,-208.2 729.5,-208.2 729.5,-186.2 502.5,-186.2"/>
<text text-anchor="start" x="522.5" y="-193.3" font-family="Helvetica,sans-Serif" font-size="11.00" fill="#000000">trigger_interval</text>
<polygon fill="#ffffff" stroke="transparent" points="502.5,-167.2 502.5,-186.2 601.5,-186.2 601.5,-167.2 502.5,-167.2"/>
<polygon fill="none" stroke="#000000" points="502.5,-167.2 502.5,-186.2 601.5,-186.2 601.5,-167.2 502.5,-167.2"/>
<text text-anchor="start" x="505.5" y="-173.3" font-family="Helvetica,sans-Serif" font-size="11.00" fill="#000000">&lt; 1</text>
<polygon fill="#ffffff" stroke="transparent" points="601.5,-167.2 601.5,-186.2 678.5,-186.2 678.5,-167.2 601.5,-167.2"/>
<polygon fill="none" stroke="#000000" points="601.5,-167.2 601.5,-186.2 678.5,-186.2 678.5,-167.2 601.5,-167.2"/>
<text text-anchor="start" x="643.1105" y="-173.3" font-family="Helvetica,sans-Serif" font-size="11.00" fill="#000000">0 rows</text>
<polygon fill="#ffffff" stroke="transparent" points="678.5,-167.2 678.5,-186.2 729.5,-186.2 729.5,-167.2 678.5,-167.2"/>
<polygon fill="none" stroke="#000000" points="678.5,-167.2 678.5,-186.2 729.5,-186.2 729.5,-167.2 678.5,-167.2"/>
<text text-anchor="start" x="720.3862" y="-173.3" font-family="Helvetica,sans-Serif" font-size="11.00" fill="#000000"> &#160;</text>
</a>
</g>
</g>
<!-- rasp_alert_attacks_triggers_interval&#45;&gt;rasp_alert_attacks_triggers -->
<g id="edge2" class="edge">
<title>rasp_alert_attacks_triggers_interval:w&#45;&gt;rasp_alert_attacks_triggers:e</title>
<path fill="none" stroke="#000000" d="M488.6076,-214.5254C471.3418,-199.6214 481.8105,-154.2 451,-154.2"/>
<polygon fill="#000000" stroke="#000000" points="494.9177,-216.6486 501.3519,-222.612 498.7089,-217.9243 502.5,-219.2 502.5,-219.2 502.5,-219.2 498.7089,-217.9243 503.6481,-215.788 494.9177,-216.6486 494.9177,-216.6486"/>
<ellipse fill="none" stroke="#000000" cx="491.8848" cy="-215.6281" rx="3.2" ry="3.2"/>
</g>
<!-- rasp_alert_attacks_triggers_status -->
<g id="node4" class="node">
<title>rasp_alert_attacks_triggers_status</title>
<g id="a_node4"><a xlink:href="../../tables/rasp_alert_attacks_triggers_status.html" xlink:title="rasp_alert_attacks_triggers_status" target="_top">
<polygon fill="#ffffff" stroke="transparent" points="506,-38.2 506,-146.2 725,-146.2 725,-38.2 506,-38.2"/>
<polygon fill="#f5f5f5" stroke="transparent" points="506.5,-123.2 506.5,-146.2 725.5,-146.2 725.5,-123.2 506.5,-123.2"/>
<polygon fill="none" stroke="#000000" points="506.5,-123.2 506.5,-146.2 725.5,-146.2 725.5,-123.2 506.5,-123.2"/>
<text text-anchor="start" x="511.5" y="-132.3" font-family="Helvetica,sans-Serif" font-weight="bold" font-size="11.00" fill="#000000">rasp_alert_attacks_triggers_status</text>
<text text-anchor="start" x="690.5437" y="-131.3" font-family="Helvetica,sans-Serif" font-size="11.00" fill="#000000">[table]</text>
<polygon fill="none" stroke="#000000" points="506.5,-101.2 506.5,-123.2 725.5,-123.2 725.5,-101.2 506.5,-101.2"/>
<image xlink:href="../../images/primaryKeys.png" width="11px" height="12px" preserveAspectRatio="xMinYMin meet" x="511.5" y="-118.2"/>
<text text-anchor="start" x="526.5" y="-108.3" font-family="Helvetica,sans-Serif" font-size="11.00" fill="#000000">id</text>
<polygon fill="#ffffff" stroke="transparent" points="506.5,-79.2 506.5,-101.2 725.5,-101.2 725.5,-79.2 506.5,-79.2"/>
<polygon fill="none" stroke="#000000" points="506.5,-79.2 506.5,-101.2 725.5,-101.2 725.5,-79.2 506.5,-79.2"/>
<image xlink:href="../../images/foreignKeys.png" width="11px" height="12px" preserveAspectRatio="xMinYMin meet" x="511.5" y="-96.2"/>
<text text-anchor="start" x="526.5" y="-86.3" font-family="Helvetica,sans-Serif" font-size="11.00" fill="#000000">rasp_alert_attacks_triggers_id</text>
<polygon fill="#ffffff" stroke="transparent" points="506.5,-57.2 506.5,-79.2 725.5,-79.2 725.5,-57.2 506.5,-57.2"/>
<polygon fill="none" stroke="#000000" points="506.5,-57.2 506.5,-79.2 725.5,-79.2 725.5,-57.2 506.5,-57.2"/>
<text text-anchor="start" x="526.5" y="-64.3" font-family="Helvetica,sans-Serif" font-size="11.00" fill="#000000">trigger_status</text>
<polygon fill="#ffffff" stroke="transparent" points="506.5,-38.2 506.5,-57.2 601.5,-57.2 601.5,-38.2 506.5,-38.2"/>
<polygon fill="none" stroke="#000000" points="506.5,-38.2 506.5,-57.2 601.5,-57.2 601.5,-38.2 506.5,-38.2"/>
<text text-anchor="start" x="509.5" y="-44.3" font-family="Helvetica,sans-Serif" font-size="11.00" fill="#000000">&lt; 1</text>
<polygon fill="#ffffff" stroke="transparent" points="601.5,-38.2 601.5,-57.2 676.5,-57.2 676.5,-38.2 601.5,-38.2"/>
<polygon fill="none" stroke="#000000" points="601.5,-38.2 601.5,-57.2 676.5,-57.2 676.5,-38.2 601.5,-38.2"/>
<text text-anchor="start" x="641.1105" y="-44.3" font-family="Helvetica,sans-Serif" font-size="11.00" fill="#000000">0 rows</text>
<polygon fill="#ffffff" stroke="transparent" points="676.5,-38.2 676.5,-57.2 725.5,-57.2 725.5,-38.2 676.5,-38.2"/>
<polygon fill="none" stroke="#000000" points="676.5,-38.2 676.5,-57.2 725.5,-57.2 725.5,-38.2 676.5,-38.2"/>
<text text-anchor="start" x="716.3862" y="-44.3" font-family="Helvetica,sans-Serif" font-size="11.00" fill="#000000"> &#160;</text>
</a>
</g>
</g>
<!-- rasp_alert_attacks_triggers_status&#45;&gt;rasp_alert_attacks_triggers -->
<g id="edge3" class="edge">
<title>rasp_alert_attacks_triggers_status:w&#45;&gt;rasp_alert_attacks_triggers:e</title>
<path fill="none" stroke="#000000" d="M492.621,-94.3992C473.6349,-108.6375 482.7673,-154.2 451,-154.2"/>
<polygon fill="#000000" stroke="#000000" points="498.8428,-92.5168 507.5426,-93.6457 502.6714,-91.3584 506.5,-90.2 506.5,-90.2 506.5,-90.2 502.6714,-91.3584 505.4574,-86.7543 498.8428,-92.5168 498.8428,-92.5168"/>
<ellipse fill="none" stroke="#000000" cx="495.7799" cy="-93.4435" rx="3.2" ry="3.2"/>
</g>
</g>
</svg>
