<?xml version="1.0" encoding="UTF-8" standalone="no"?>
<!DOCTYPE svg PUBLIC "-//W3C//DTD SVG 1.1//EN"
 "http://www.w3.org/Graphics/SVG/1.1/DTD/svg11.dtd">
<!-- Generated by graphviz version 2.40.1 (20161225.0304)
 -->
<!-- Title: oneDegreeRelationshipsDiagram Pages: 1 -->
<svg width="676pt" height="523pt"
 viewBox="0.00 0.00 676.00 523.20" xmlns="http://www.w3.org/2000/svg" xmlns:xlink="http://www.w3.org/1999/xlink">
<g id="graph0" class="graph" transform="scale(1 1) rotate(0) translate(4 519.2)">
<title>oneDegreeRelationshipsDiagram</title>
<polygon fill="#ffffff" stroke="transparent" points="-4,4 -4,-519.2 672,-519.2 672,4 -4,4"/>
<text text-anchor="middle" x="72.4936" y="-7.3" font-family="Helvetica,sans-Serif" font-size="11.00" fill="#000000">Generated by SchemaSpy</text>
<!-- rasp_user_messages_events_notes_viewed -->
<g id="node1" class="node">
<title>rasp_user_messages_events_notes_viewed</title>
<g id="a_node1"><a xlink:href="../../tables/rasp_user_messages_events_notes_viewed.html" xlink:title="rasp_user_messages_events_notes_viewed" target="_top">
<polygon fill="#ffffff" stroke="transparent" points="290,-326.7 290,-460.7 660,-460.7 660,-326.7 290,-326.7"/>
<polygon fill="#f5f5f5" stroke="transparent" points="292,-435.7 292,-458.7 658,-458.7 658,-435.7 292,-435.7"/>
<polygon fill="none" stroke="#000000" points="292,-435.7 292,-458.7 658,-458.7 658,-435.7 292,-435.7"/>
<text text-anchor="start" x="297" y="-444.8" font-family="Helvetica,sans-Serif" font-weight="bold" font-size="11.00" fill="#000000">rasp_user_messages_events_notes_viewed</text>
<text text-anchor="start" x="623.0437" y="-443.8" font-family="Helvetica,sans-Serif" font-size="11.00" fill="#000000">[table]</text>
<polygon fill="none" stroke="#000000" points="292,-413.7 292,-435.7 575,-435.7 575,-413.7 292,-413.7"/>
<image xlink:href="../../images/primaryKeys.png" width="11px" height="12px" preserveAspectRatio="xMinYMin meet" x="297" y="-430.7"/>
<text text-anchor="start" x="312" y="-420.8" font-family="Helvetica,sans-Serif" font-size="11.00" fill="#000000">id</text>
<polygon fill="none" stroke="#000000" points="575,-413.7 575,-435.7 658,-435.7 658,-413.7 575,-413.7"/>
<text text-anchor="start" x="577.6783" y="-421.4" font-family="Helvetica,sans-Serif" font-size="11.00" fill="#000000">int unsigned[10]</text>
<polygon fill="#ffffff" stroke="transparent" points="292,-391.7 292,-413.7 575,-413.7 575,-391.7 292,-391.7"/>
<polygon fill="none" stroke="#000000" points="292,-391.7 292,-413.7 575,-413.7 575,-391.7 292,-391.7"/>
<image xlink:href="../../images/foreignKeys.png" width="11px" height="12px" preserveAspectRatio="xMinYMin meet" x="297" y="-408.7"/>
<text text-anchor="start" x="312" y="-398.8" font-family="Helvetica,sans-Serif" font-size="11.00" fill="#000000">users_id</text>
<polygon fill="none" stroke="#000000" points="575,-391.7 575,-413.7 658,-413.7 658,-391.7 575,-391.7"/>
<text text-anchor="start" x="578" y="-399.4" font-family="Helvetica,sans-Serif" font-size="11.00" fill="#000000">varchar[255]</text>
<polygon fill="#ffffff" stroke="transparent" points="292,-369.7 292,-391.7 575,-391.7 575,-369.7 292,-369.7"/>
<polygon fill="none" stroke="#000000" points="292,-369.7 292,-391.7 575,-391.7 575,-369.7 292,-369.7"/>
<image xlink:href="../../images/foreignKeys.png" width="11px" height="12px" preserveAspectRatio="xMinYMin meet" x="297" y="-386.7"/>
<text text-anchor="start" x="312" y="-376.8" font-family="Helvetica,sans-Serif" font-size="11.00" fill="#000000">rasp_messages_protection_rules_samples_id</text>
<polygon fill="none" stroke="#000000" points="575,-369.7 575,-391.7 658,-391.7 658,-369.7 575,-369.7"/>
<text text-anchor="start" x="578" y="-377.4" font-family="Helvetica,sans-Serif" font-size="11.00" fill="#000000">bigint[19]</text>
<polygon fill="none" stroke="#000000" points="292,-347.7 292,-369.7 575,-369.7 575,-347.7 292,-347.7"/>
<text text-anchor="start" x="312" y="-354.8" font-family="Helvetica,sans-Serif" font-size="11.00" fill="#000000">dt_last_viewed</text>
<polygon fill="none" stroke="#000000" points="575,-347.7 575,-369.7 658,-369.7 658,-347.7 575,-347.7"/>
<text text-anchor="start" x="578" y="-355.4" font-family="Helvetica,sans-Serif" font-size="11.00" fill="#000000">bigint[19]</text>
<polygon fill="#ffffff" stroke="transparent" points="292,-328.7 292,-347.7 425,-347.7 425,-328.7 292,-328.7"/>
<polygon fill="none" stroke="#000000" points="292,-328.7 292,-347.7 425,-347.7 425,-328.7 292,-328.7"/>
<text text-anchor="start" x="295" y="-334.8" font-family="Helvetica,sans-Serif" font-size="11.00" fill="#000000">&lt; 2</text>
<polygon fill="#ffffff" stroke="transparent" points="425,-328.7 425,-347.7 575,-347.7 575,-328.7 425,-328.7"/>
<polygon fill="none" stroke="#000000" points="425,-328.7 425,-347.7 575,-347.7 575,-328.7 425,-328.7"/>
<text text-anchor="start" x="539.6105" y="-334.8" font-family="Helvetica,sans-Serif" font-size="11.00" fill="#000000">0 rows</text>
<polygon fill="#ffffff" stroke="transparent" points="575,-328.7 575,-347.7 658,-347.7 658,-328.7 575,-328.7"/>
<polygon fill="none" stroke="#000000" points="575,-328.7 575,-347.7 658,-347.7 658,-328.7 575,-328.7"/>
<text text-anchor="start" x="639.4053" y="-334.8" font-family="Helvetica,sans-Serif" font-size="11.00" fill="#000000">0 &gt;</text>
<polygon fill="none" stroke="#000000" stroke-width="2" points="291,-327.7 291,-459.7 659,-459.7 659,-327.7 291,-327.7"/>
</a>
</g>
</g>
<!-- rasp_attack_samples -->
<g id="node2" class="node">
<title>rasp_attack_samples</title>
<g id="a_node2"><a xlink:href="../../tables/rasp_attack_samples.html" xlink:title="rasp_attack_samples" target="_top">
<polygon fill="#ffffff" stroke="transparent" points="8,-38.2 8,-341.2 241,-341.2 241,-38.2 8,-38.2"/>
<polygon fill="#f5f5f5" stroke="transparent" points="8.5,-317.7 8.5,-340.7 241.5,-340.7 241.5,-317.7 8.5,-317.7"/>
<polygon fill="none" stroke="#000000" points="8.5,-317.7 8.5,-340.7 241.5,-340.7 241.5,-317.7 8.5,-317.7"/>
<text text-anchor="start" x="13.5" y="-326.8" font-family="Helvetica,sans-Serif" font-weight="bold" font-size="11.00" fill="#000000">rasp_attack_samples</text>
<text text-anchor="start" x="206.5437" y="-325.8" font-family="Helvetica,sans-Serif" font-size="11.00" fill="#000000">[table]</text>
<polygon fill="none" stroke="#000000" points="8.5,-295.7 8.5,-317.7 241.5,-317.7 241.5,-295.7 8.5,-295.7"/>
<image xlink:href="../../images/primaryKeys.png" width="11px" height="12px" preserveAspectRatio="xMinYMin meet" x="13.5" y="-312.7"/>
<text text-anchor="start" x="28.5" y="-302.8" font-family="Helvetica,sans-Serif" font-size="11.00" fill="#000000">id</text>
<polygon fill="#ffffff" stroke="transparent" points="8.5,-273.7 8.5,-295.7 241.5,-295.7 241.5,-273.7 8.5,-273.7"/>
<polygon fill="none" stroke="#000000" points="8.5,-273.7 8.5,-295.7 241.5,-295.7 241.5,-273.7 8.5,-273.7"/>
<image xlink:href="../../images/foreignKeys.png" width="11px" height="12px" preserveAspectRatio="xMinYMin meet" x="13.5" y="-290.7"/>
<text text-anchor="start" x="28.5" y="-280.8" font-family="Helvetica,sans-Serif" font-size="11.00" fill="#000000">rasp_attacks_id</text>
<polygon fill="#ffffff" stroke="transparent" points="8.5,-251.7 8.5,-273.7 241.5,-273.7 241.5,-251.7 8.5,-251.7"/>
<polygon fill="none" stroke="#000000" points="8.5,-251.7 8.5,-273.7 241.5,-273.7 241.5,-251.7 8.5,-251.7"/>
<image xlink:href="../../images/foreignKeys.png" width="11px" height="12px" preserveAspectRatio="xMinYMin meet" x="13.5" y="-268.7"/>
<text text-anchor="start" x="28.5" y="-258.8" font-family="Helvetica,sans-Serif" font-size="11.00" fill="#000000">rasp_attacks_applications_id</text>
<polygon fill="#ffffff" stroke="transparent" points="8.5,-229.7 8.5,-251.7 241.5,-251.7 241.5,-229.7 8.5,-229.7"/>
<polygon fill="none" stroke="#000000" points="8.5,-229.7 8.5,-251.7 241.5,-251.7 241.5,-229.7 8.5,-229.7"/>
<text text-anchor="start" x="28.5" y="-236.8" font-family="Helvetica,sans-Serif" font-size="11.00" fill="#000000">status</text>
<polygon fill="#ffffff" stroke="transparent" points="8.5,-207.7 8.5,-229.7 241.5,-229.7 241.5,-207.7 8.5,-207.7"/>
<polygon fill="none" stroke="#000000" points="8.5,-207.7 8.5,-229.7 241.5,-229.7 241.5,-207.7 8.5,-207.7"/>
<text text-anchor="start" x="28.5" y="-214.8" font-family="Helvetica,sans-Serif" font-size="11.00" fill="#000000">timestamp_server</text>
<polygon fill="#ffffff" stroke="transparent" points="8.5,-185.7 8.5,-207.7 241.5,-207.7 241.5,-185.7 8.5,-185.7"/>
<polygon fill="none" stroke="#000000" points="8.5,-185.7 8.5,-207.7 241.5,-207.7 241.5,-185.7 8.5,-185.7"/>
<image xlink:href="../../images/foreignKeys.png" width="11px" height="12px" preserveAspectRatio="xMinYMin meet" x="13.5" y="-202.7"/>
<text text-anchor="start" x="28.5" y="-192.8" font-family="Helvetica,sans-Serif" font-size="11.00" fill="#000000">applications_id</text>
<polygon fill="#ffffff" stroke="transparent" points="8.5,-163.7 8.5,-185.7 241.5,-185.7 241.5,-163.7 8.5,-163.7"/>
<polygon fill="none" stroke="#000000" points="8.5,-163.7 8.5,-185.7 241.5,-185.7 241.5,-163.7 8.5,-163.7"/>
<image xlink:href="../../images/foreignKeys.png" width="11px" height="12px" preserveAspectRatio="xMinYMin meet" x="13.5" y="-180.7"/>
<text text-anchor="start" x="28.5" y="-170.8" font-family="Helvetica,sans-Serif" font-size="11.00" fill="#000000">servers_id</text>
<polygon fill="#ffffff" stroke="transparent" points="8.5,-141.7 8.5,-163.7 241.5,-163.7 241.5,-141.7 8.5,-141.7"/>
<polygon fill="none" stroke="#000000" points="8.5,-141.7 8.5,-163.7 241.5,-163.7 241.5,-141.7 8.5,-141.7"/>
<text text-anchor="start" x="28.5" y="-148.8" font-family="Helvetica,sans-Serif" font-size="11.00" fill="#000000">uuid</text>
<polygon fill="#ffffff" stroke="transparent" points="8.5,-119.7 8.5,-141.7 241.5,-141.7 241.5,-119.7 8.5,-119.7"/>
<polygon fill="none" stroke="#000000" points="8.5,-119.7 8.5,-141.7 241.5,-141.7 241.5,-119.7 8.5,-119.7"/>
<image xlink:href="../../images/foreignKeys.png" width="11px" height="12px" preserveAspectRatio="xMinYMin meet" x="13.5" y="-136.7"/>
<text text-anchor="start" x="28.5" y="-126.8" font-family="Helvetica,sans-Serif" font-size="11.00" fill="#000000">rasp_protection_rules_exceptions_id</text>
<polygon fill="#ffffff" stroke="transparent" points="8.5,-97.7 8.5,-119.7 241.5,-119.7 241.5,-97.7 8.5,-97.7"/>
<polygon fill="none" stroke="#000000" points="8.5,-97.7 8.5,-119.7 241.5,-119.7 241.5,-97.7 8.5,-97.7"/>
<image xlink:href="../../images/foreignKeys.png" width="11px" height="12px" preserveAspectRatio="xMinYMin meet" x="13.5" y="-114.7"/>
<text text-anchor="start" x="28.5" y="-104.8" font-family="Helvetica,sans-Serif" font-size="11.00" fill="#000000">rasp_messages_id</text>
<polygon fill="#ffffff" stroke="transparent" points="8.5,-75.7 8.5,-97.7 241.5,-97.7 241.5,-75.7 8.5,-75.7"/>
<polygon fill="none" stroke="#000000" points="8.5,-75.7 8.5,-97.7 241.5,-97.7 241.5,-75.7 8.5,-75.7"/>
<image xlink:href="../../images/foreignKeys.png" width="11px" height="12px" preserveAspectRatio="xMinYMin meet" x="13.5" y="-92.7"/>
<text text-anchor="start" x="28.5" y="-82.8" font-family="Helvetica,sans-Serif" font-size="11.00" fill="#000000">rasp_protection_rules_id</text>
<polygon fill="none" stroke="#000000" points="8.5,-56.7 8.5,-75.7 241.5,-75.7 241.5,-56.7 8.5,-56.7"/>
<text text-anchor="start" x="11.5" y="-62.8" font-family="Helvetica,sans-Serif" font-size="11.00" fill="#000000">...</text>
<polygon fill="#ffffff" stroke="transparent" points="8.5,-37.7 8.5,-56.7 105.5,-56.7 105.5,-37.7 8.5,-37.7"/>
<polygon fill="none" stroke="#000000" points="8.5,-37.7 8.5,-56.7 105.5,-56.7 105.5,-37.7 8.5,-37.7"/>
<text text-anchor="start" x="11.5" y="-43.8" font-family="Helvetica,sans-Serif" font-size="11.00" fill="#000000">&lt; 7</text>
<polygon fill="#ffffff" stroke="transparent" points="105.5,-37.7 105.5,-56.7 181.5,-56.7 181.5,-37.7 105.5,-37.7"/>
<polygon fill="none" stroke="#000000" points="105.5,-37.7 105.5,-56.7 181.5,-56.7 181.5,-37.7 105.5,-37.7"/>
<text text-anchor="start" x="146.1105" y="-43.8" font-family="Helvetica,sans-Serif" font-size="11.00" fill="#000000">0 rows</text>
<polygon fill="#ffffff" stroke="transparent" points="181.5,-37.7 181.5,-56.7 241.5,-56.7 241.5,-37.7 181.5,-37.7"/>
<polygon fill="none" stroke="#000000" points="181.5,-37.7 181.5,-56.7 241.5,-56.7 241.5,-37.7 181.5,-37.7"/>
<text text-anchor="start" x="222.9053" y="-43.8" font-family="Helvetica,sans-Serif" font-size="11.00" fill="#000000">3 &gt;</text>
</a>
</g>
</g>
<!-- rasp_user_messages_events_notes_viewed&#45;&gt;rasp_attack_samples -->
<g id="edge1" class="edge">
<title>rasp_user_messages_events_notes_viewed:w&#45;&gt;rasp_attack_samples:e</title>
<path fill="none" stroke="#000000" d="M278.1154,-376.071C259.4593,-359.8706 275.2515,-306.7 241.5,-306.7"/>
<polygon fill="#000000" stroke="#000000" points="284.4107,-378.1697 290.8614,-384.1152 288.2053,-379.4349 292,-380.7 292,-380.7 292,-380.7 288.2053,-379.4349 293.1386,-377.2848 284.4107,-378.1697 284.4107,-378.1697"/>
<ellipse fill="none" stroke="#000000" cx="281.3749" cy="-377.1576" rx="3.2" ry="3.2"/>
</g>
<!-- users -->
<g id="node3" class="node">
<title>users</title>
<g id="a_node3"><a xlink:href="../../tables/users.html" xlink:title="users" target="_top">
<polygon fill="#ffffff" stroke="transparent" points="12,-362.2 12,-511.2 237,-511.2 237,-362.2 12,-362.2"/>
<polygon fill="#f5f5f5" stroke="transparent" points="12.5,-487.7 12.5,-510.7 237.5,-510.7 237.5,-487.7 12.5,-487.7"/>
<polygon fill="none" stroke="#000000" points="12.5,-487.7 12.5,-510.7 237.5,-510.7 237.5,-487.7 12.5,-487.7"/>
<text text-anchor="start" x="17.5" y="-496.8" font-family="Helvetica,sans-Serif" font-weight="bold" font-size="11.00" fill="#000000">users</text>
<text text-anchor="start" x="202.5437" y="-495.8" font-family="Helvetica,sans-Serif" font-size="11.00" fill="#000000">[table]</text>
<polygon fill="none" stroke="#000000" points="12.5,-465.7 12.5,-487.7 237.5,-487.7 237.5,-465.7 12.5,-465.7"/>
<image xlink:href="../../images/primaryKeys.png" width="11px" height="12px" preserveAspectRatio="xMinYMin meet" x="17.5" y="-482.7"/>
<text text-anchor="start" x="32.5" y="-472.8" font-family="Helvetica,sans-Serif" font-size="11.00" fill="#000000">user_id</text>
<polygon fill="#ffffff" stroke="transparent" points="12.5,-443.7 12.5,-465.7 237.5,-465.7 237.5,-443.7 12.5,-443.7"/>
<polygon fill="none" stroke="#000000" points="12.5,-443.7 12.5,-465.7 237.5,-465.7 237.5,-443.7 12.5,-443.7"/>
<text text-anchor="start" x="32.5" y="-450.8" font-family="Helvetica,sans-Serif" font-size="11.00" fill="#000000">user_uid</text>
<polygon fill="#ffffff" stroke="transparent" points="12.5,-421.7 12.5,-443.7 237.5,-443.7 237.5,-421.7 12.5,-421.7"/>
<polygon fill="none" stroke="#000000" points="12.5,-421.7 12.5,-443.7 237.5,-443.7 237.5,-421.7 12.5,-421.7"/>
<image xlink:href="../../images/foreignKeys.png" width="11px" height="12px" preserveAspectRatio="xMinYMin meet" x="17.5" y="-438.7"/>
<text text-anchor="start" x="32.5" y="-428.8" font-family="Helvetica,sans-Serif" font-size="11.00" fill="#000000">default_org</text>
<polygon fill="#ffffff" stroke="transparent" points="12.5,-399.7 12.5,-421.7 237.5,-421.7 237.5,-399.7 12.5,-399.7"/>
<polygon fill="none" stroke="#000000" points="12.5,-399.7 12.5,-421.7 237.5,-421.7 237.5,-399.7 12.5,-399.7"/>
<text text-anchor="start" x="32.5" y="-406.8" font-family="Helvetica,sans-Serif" font-size="11.00" fill="#000000">type</text>
<polygon fill="none" stroke="#000000" points="12.5,-380.7 12.5,-399.7 237.5,-399.7 237.5,-380.7 12.5,-380.7"/>
<text text-anchor="start" x="15.5" y="-386.8" font-family="Helvetica,sans-Serif" font-size="11.00" fill="#000000">...</text>
<polygon fill="#ffffff" stroke="transparent" points="12.5,-361.7 12.5,-380.7 102.5,-380.7 102.5,-361.7 12.5,-361.7"/>
<polygon fill="none" stroke="#000000" points="12.5,-361.7 12.5,-380.7 102.5,-380.7 102.5,-361.7 12.5,-361.7"/>
<text text-anchor="start" x="15.5" y="-367.8" font-family="Helvetica,sans-Serif" font-size="11.00" fill="#000000">&lt; 1</text>
<polygon fill="#ffffff" stroke="transparent" points="102.5,-361.7 102.5,-380.7 175.5,-380.7 175.5,-361.7 102.5,-361.7"/>
<polygon fill="none" stroke="#000000" points="102.5,-361.7 102.5,-380.7 175.5,-380.7 175.5,-361.7 102.5,-361.7"/>
<text text-anchor="start" x="140.1105" y="-367.8" font-family="Helvetica,sans-Serif" font-size="11.00" fill="#000000">8 rows</text>
<polygon fill="#ffffff" stroke="transparent" points="175.5,-361.7 175.5,-380.7 237.5,-380.7 237.5,-361.7 175.5,-361.7"/>
<polygon fill="none" stroke="#000000" points="175.5,-361.7 175.5,-380.7 237.5,-380.7 237.5,-361.7 175.5,-361.7"/>
<text text-anchor="start" x="212.7904" y="-367.8" font-family="Helvetica,sans-Serif" font-size="11.00" fill="#000000">37 &gt;</text>
</a>
</g>
</g>
<!-- rasp_user_messages_events_notes_viewed&#45;&gt;users -->
<g id="edge2" class="edge">
<title>rasp_user_messages_events_notes_viewed:w&#45;&gt;users:e</title>
<path fill="none" stroke="#000000" d="M278.1424,-406.8906C257.5929,-422.5448 272.4425,-476.7 237.5,-476.7"/>
<polygon fill="#000000" stroke="#000000" points="284.3425,-405.0157 293.0421,-406.1459 288.1712,-403.8579 292,-402.7 292,-402.7 292,-402.7 288.1712,-403.8579 290.9579,-399.2541 284.3425,-405.0157 284.3425,-405.0157"/>
<ellipse fill="none" stroke="#000000" cx="281.2795" cy="-405.942" rx="3.2" ry="3.2"/>
</g>
</g>
</svg>
