<?xml version="1.0" encoding="UTF-8" standalone="no"?>
<!DOCTYPE svg PUBLIC "-//W3C//DTD SVG 1.1//EN"
 "http://www.w3.org/Graphics/SVG/1.1/DTD/svg11.dtd">
<!-- Generated by graphviz version 2.40.1 (20161225.0304)
 -->
<!-- Title: oneDegreeRelationshipsDiagram Pages: 1 -->
<svg width="478pt" height="201pt"
 viewBox="0.00 0.00 478.00 200.70" xmlns="http://www.w3.org/2000/svg" xmlns:xlink="http://www.w3.org/1999/xlink">
<g id="graph0" class="graph" transform="scale(1 1) rotate(0) translate(4 196.7)">
<title>oneDegreeRelationshipsDiagram</title>
<polygon fill="#ffffff" stroke="transparent" points="-4,4 -4,-196.7 474,-196.7 474,4 -4,4"/>
<text text-anchor="middle" x="72.4936" y="-7.3" font-family="Helvetica,sans-Serif" font-size="11.00" fill="#000000">Generated by SchemaSpy</text>
<!-- rasp_protection_rules_cve -->
<g id="node1" class="node">
<title>rasp_protection_rules_cve</title>
<g id="a_node1"><a xlink:href="../../tables/rasp_protection_rules_cve.html" xlink:title="rasp_protection_rules_cve" target="_top">
<polygon fill="#ffffff" stroke="transparent" points="218,-76.7 218,-188.7 462,-188.7 462,-76.7 218,-76.7"/>
<polygon fill="#f5f5f5" stroke="transparent" points="220,-163.7 220,-186.7 460,-186.7 460,-163.7 220,-163.7"/>
<polygon fill="none" stroke="#000000" points="220,-163.7 220,-186.7 460,-186.7 460,-163.7 220,-163.7"/>
<text text-anchor="start" x="225" y="-172.8" font-family="Helvetica,sans-Serif" font-weight="bold" font-size="11.00" fill="#000000">rasp_protection_rules_cve</text>
<text text-anchor="start" x="425.0437" y="-171.8" font-family="Helvetica,sans-Serif" font-size="11.00" fill="#000000">[table]</text>
<polygon fill="none" stroke="#000000" points="220,-141.7 220,-163.7 393,-163.7 393,-141.7 220,-141.7"/>
<image xlink:href="../../images/primaryKeys.png" width="11px" height="12px" preserveAspectRatio="xMinYMin meet" x="225" y="-158.7"/>
<text text-anchor="start" x="240" y="-148.8" font-family="Helvetica,sans-Serif" font-size="11.00" fill="#000000">id</text>
<polygon fill="none" stroke="#000000" points="393,-141.7 393,-163.7 460,-163.7 460,-141.7 393,-141.7"/>
<text text-anchor="start" x="396" y="-149.4" font-family="Helvetica,sans-Serif" font-size="11.00" fill="#000000">int[10]</text>
<polygon fill="#ffffff" stroke="transparent" points="220,-119.7 220,-141.7 393,-141.7 393,-119.7 220,-119.7"/>
<polygon fill="none" stroke="#000000" points="220,-119.7 220,-141.7 393,-141.7 393,-119.7 220,-119.7"/>
<image xlink:href="../../images/foreignKeys.png" width="11px" height="12px" preserveAspectRatio="xMinYMin meet" x="225" y="-136.7"/>
<text text-anchor="start" x="240" y="-126.8" font-family="Helvetica,sans-Serif" font-size="11.00" fill="#000000">rasp_protection_rules_id</text>
<polygon fill="none" stroke="#000000" points="393,-119.7 393,-141.7 460,-141.7 460,-119.7 393,-119.7"/>
<text text-anchor="start" x="396" y="-127.4" font-family="Helvetica,sans-Serif" font-size="11.00" fill="#000000">int[10]</text>
<polygon fill="#ffffff" stroke="transparent" points="220,-97.7 220,-119.7 393,-119.7 393,-97.7 220,-97.7"/>
<polygon fill="none" stroke="#000000" points="220,-97.7 220,-119.7 393,-119.7 393,-97.7 220,-97.7"/>
<text text-anchor="start" x="240" y="-104.8" font-family="Helvetica,sans-Serif" font-size="11.00" fill="#000000">uuid</text>
<polygon fill="none" stroke="#000000" points="393,-97.7 393,-119.7 460,-119.7 460,-97.7 393,-97.7"/>
<text text-anchor="start" x="395.9365" y="-105.4" font-family="Helvetica,sans-Serif" font-size="11.00" fill="#000000">varchar[255]</text>
<polygon fill="#ffffff" stroke="transparent" points="220,-78.7 220,-97.7 298,-97.7 298,-78.7 220,-78.7"/>
<polygon fill="none" stroke="#000000" points="220,-78.7 220,-97.7 298,-97.7 298,-78.7 220,-78.7"/>
<text text-anchor="start" x="223" y="-84.8" font-family="Helvetica,sans-Serif" font-size="11.00" fill="#000000">&lt; 1</text>
<polygon fill="#ffffff" stroke="transparent" points="298,-78.7 298,-97.7 393,-97.7 393,-78.7 298,-78.7"/>
<polygon fill="none" stroke="#000000" points="298,-78.7 298,-97.7 393,-97.7 393,-78.7 298,-78.7"/>
<text text-anchor="start" x="357.6105" y="-84.8" font-family="Helvetica,sans-Serif" font-size="11.00" fill="#000000">0 rows</text>
<polygon fill="#ffffff" stroke="transparent" points="393,-78.7 393,-97.7 460,-97.7 460,-78.7 393,-78.7"/>
<polygon fill="none" stroke="#000000" points="393,-78.7 393,-97.7 460,-97.7 460,-78.7 393,-78.7"/>
<text text-anchor="start" x="441.4053" y="-84.8" font-family="Helvetica,sans-Serif" font-size="11.00" fill="#000000">0 &gt;</text>
<polygon fill="none" stroke="#000000" stroke-width="2" points="219,-77.7 219,-187.7 461,-187.7 461,-77.7 219,-77.7"/>
</a>
</g>
</g>
<!-- rasp_protection_rules -->
<g id="node2" class="node">
<title>rasp_protection_rules</title>
<g id="a_node2"><a xlink:href="../../tables/rasp_protection_rules.html" xlink:title="rasp_protection_rules" target="_top">
<polygon fill="#ffffff" stroke="transparent" points="8,-38.2 8,-165.2 169,-165.2 169,-38.2 8,-38.2"/>
<polygon fill="#f5f5f5" stroke="transparent" points="8.5,-141.7 8.5,-164.7 169.5,-164.7 169.5,-141.7 8.5,-141.7"/>
<polygon fill="none" stroke="#000000" points="8.5,-141.7 8.5,-164.7 169.5,-164.7 169.5,-141.7 8.5,-141.7"/>
<text text-anchor="start" x="13.5" y="-150.8" font-family="Helvetica,sans-Serif" font-weight="bold" font-size="11.00" fill="#000000">rasp_protection_rules</text>
<text text-anchor="start" x="134.5437" y="-149.8" font-family="Helvetica,sans-Serif" font-size="11.00" fill="#000000">[table]</text>
<polygon fill="none" stroke="#000000" points="8.5,-119.7 8.5,-141.7 169.5,-141.7 169.5,-119.7 8.5,-119.7"/>
<image xlink:href="../../images/primaryKeys.png" width="11px" height="12px" preserveAspectRatio="xMinYMin meet" x="13.5" y="-136.7"/>
<text text-anchor="start" x="28.5" y="-126.8" font-family="Helvetica,sans-Serif" font-size="11.00" fill="#000000">id</text>
<polygon fill="#ffffff" stroke="transparent" points="8.5,-97.7 8.5,-119.7 169.5,-119.7 169.5,-97.7 8.5,-97.7"/>
<polygon fill="none" stroke="#000000" points="8.5,-97.7 8.5,-119.7 169.5,-119.7 169.5,-97.7 8.5,-97.7"/>
<text text-anchor="start" x="28.5" y="-104.8" font-family="Helvetica,sans-Serif" font-size="11.00" fill="#000000">uuid</text>
<polygon fill="#ffffff" stroke="transparent" points="8.5,-75.7 8.5,-97.7 169.5,-97.7 169.5,-75.7 8.5,-75.7"/>
<polygon fill="none" stroke="#000000" points="8.5,-75.7 8.5,-97.7 169.5,-97.7 169.5,-75.7 8.5,-75.7"/>
<text text-anchor="start" x="28.5" y="-82.8" font-family="Helvetica,sans-Serif" font-size="11.00" fill="#000000">name</text>
<polygon fill="none" stroke="#000000" points="8.5,-56.7 8.5,-75.7 169.5,-75.7 169.5,-56.7 8.5,-56.7"/>
<text text-anchor="start" x="11.5" y="-62.8" font-family="Helvetica,sans-Serif" font-size="11.00" fill="#000000">...</text>
<polygon fill="#ffffff" stroke="transparent" points="8.5,-37.7 8.5,-56.7 62.5,-56.7 62.5,-37.7 8.5,-37.7"/>
<polygon fill="none" stroke="#000000" points="8.5,-37.7 8.5,-56.7 62.5,-56.7 62.5,-37.7 8.5,-37.7"/>
<text text-anchor="start" x="11.5" y="-43.8" font-family="Helvetica,sans-Serif" font-size="11.00" fill="#000000"> &#160;</text>
<polygon fill="#ffffff" stroke="transparent" points="62.5,-37.7 62.5,-56.7 127.5,-56.7 127.5,-37.7 62.5,-37.7"/>
<polygon fill="none" stroke="#000000" points="62.5,-37.7 62.5,-56.7 127.5,-56.7 127.5,-37.7 62.5,-37.7"/>
<text text-anchor="start" x="85.9956" y="-43.8" font-family="Helvetica,sans-Serif" font-size="11.00" fill="#000000">64 rows</text>
<polygon fill="#ffffff" stroke="transparent" points="127.5,-37.7 127.5,-56.7 169.5,-56.7 169.5,-37.7 127.5,-37.7"/>
<polygon fill="none" stroke="#000000" points="127.5,-37.7 127.5,-56.7 169.5,-56.7 169.5,-37.7 127.5,-37.7"/>
<text text-anchor="start" x="150.9053" y="-43.8" font-family="Helvetica,sans-Serif" font-size="11.00" fill="#000000">9 &gt;</text>
</a>
</g>
</g>
<!-- rasp_protection_rules_cve&#45;&gt;rasp_protection_rules -->
<g id="edge1" class="edge">
<title>rasp_protection_rules_cve:w&#45;&gt;rasp_protection_rules:e</title>
<path fill="none" stroke="#000000" d="M205.4203,-130.7C193.5435,-130.7 186.158,-130.7 169.5,-130.7"/>
<polygon fill="#000000" stroke="#000000" points="212,-130.7001 220,-134.3 216,-130.7 220,-130.7 220,-130.7 220,-130.7 216,-130.7 220,-127.1 212,-130.7001 212,-130.7001"/>
<ellipse fill="none" stroke="#000000" cx="208.8" cy="-130.7001" rx="3.2" ry="3.2"/>
</g>
</g>
</svg>
