<?xml version="1.0" encoding="UTF-8" standalone="no"?>
<!DOCTYPE svg PUBLIC "-//W3C//DTD SVG 1.1//EN"
 "http://www.w3.org/Graphics/SVG/1.1/DTD/svg11.dtd">
<!-- Generated by graphviz version 2.40.1 (20161225.0304)
 -->
<!-- Title: twoDegreesRelationshipsDiagram Pages: 1 -->
<svg width="902pt" height="409pt"
 viewBox="0.00 0.00 902.00 409.20" xmlns="http://www.w3.org/2000/svg" xmlns:xlink="http://www.w3.org/1999/xlink">
<g id="graph0" class="graph" transform="scale(1 1) rotate(0) translate(4 405.2)">
<title>twoDegreesRelationshipsDiagram</title>
<polygon fill="#ffffff" stroke="transparent" points="-4,4 -4,-405.2 898,-405.2 898,4 -4,4"/>
<text text-anchor="middle" x="72.4936" y="-7.3" font-family="Helvetica,sans-Serif" font-size="11.00" fill="#000000">Generated by SchemaSpy</text>
<!-- rasp_alert_attacks -->
<g id="node1" class="node">
<title>rasp_alert_attacks</title>
<g id="a_node1"><a xlink:href="../../tables/rasp_alert_attacks.html" xlink:title="rasp_alert_attacks" target="_top">
<polygon fill="#ffffff" stroke="transparent" points="165,-157.2 165,-262.2 297,-262.2 297,-157.2 165,-157.2"/>
<polygon fill="#f5f5f5" stroke="transparent" points="165,-238.7 165,-261.7 297,-261.7 297,-238.7 165,-238.7"/>
<polygon fill="none" stroke="#000000" points="165,-238.7 165,-261.7 297,-261.7 297,-238.7 165,-238.7"/>
<text text-anchor="start" x="169.5727" y="-247.8" font-family="Helvetica,sans-Serif" font-weight="bold" font-size="11.00" fill="#000000">rasp_alert_attacks</text>
<text text-anchor="start" x="262.5219" y="-246.8" font-family="Helvetica,sans-Serif" font-size="11.00" fill="#000000">[table]</text>
<polygon fill="none" stroke="#000000" points="165,-216.7 165,-238.7 297,-238.7 297,-216.7 165,-216.7"/>
<image xlink:href="../../images/primaryKeys.png" width="11px" height="12px" preserveAspectRatio="xMinYMin meet" x="170" y="-233.7"/>
<text text-anchor="start" x="188" y="-223.8" font-family="Helvetica,sans-Serif" font-size="11.00" fill="#000000">id</text>
<polygon fill="#ffffff" stroke="transparent" points="165,-194.7 165,-216.7 297,-216.7 297,-194.7 165,-194.7"/>
<polygon fill="none" stroke="#000000" points="165,-194.7 165,-216.7 297,-216.7 297,-194.7 165,-194.7"/>
<image xlink:href="../../images/foreignKeys.png" width="11px" height="12px" preserveAspectRatio="xMinYMin meet" x="170" y="-211.7"/>
<text text-anchor="start" x="188" y="-201.8" font-family="Helvetica,sans-Serif" font-size="11.00" fill="#000000">organizations_id</text>
<polygon fill="none" stroke="#000000" points="165,-175.7 165,-194.7 297,-194.7 297,-175.7 165,-175.7"/>
<text text-anchor="start" x="168" y="-181.8" font-family="Helvetica,sans-Serif" font-size="11.00" fill="#000000">...</text>
<polygon fill="#ffffff" stroke="transparent" points="165,-156.7 165,-175.7 212,-175.7 212,-156.7 165,-156.7"/>
<polygon fill="none" stroke="#000000" points="165,-156.7 165,-175.7 212,-175.7 212,-156.7 165,-156.7"/>
<text text-anchor="start" x="168" y="-162.8" font-family="Helvetica,sans-Serif" font-size="11.00" fill="#000000">&lt; 1</text>
<polygon fill="#ffffff" stroke="transparent" points="212,-156.7 212,-175.7 263,-175.7 263,-156.7 212,-156.7"/>
<polygon fill="none" stroke="#000000" points="212,-156.7 212,-175.7 263,-175.7 263,-156.7 212,-156.7"/>
<text text-anchor="start" x="227.6105" y="-162.8" font-family="Helvetica,sans-Serif" font-size="11.00" fill="#000000">0 rows</text>
<polygon fill="#ffffff" stroke="transparent" points="263,-156.7 263,-175.7 297,-175.7 297,-156.7 263,-156.7"/>
<polygon fill="none" stroke="#000000" points="263,-156.7 263,-175.7 297,-175.7 297,-156.7 263,-156.7"/>
<text text-anchor="start" x="278.4053" y="-162.8" font-family="Helvetica,sans-Serif" font-size="11.00" fill="#000000">4 &gt;</text>
</a>
</g>
</g>
<!-- organizations -->
<g id="node2" class="node">
<title>organizations</title>
<g id="a_node2"><a xlink:href="../../tables/organizations.html" xlink:title="organizations" target="_top">
<polygon fill="#ffffff" stroke="transparent" points="8,-178.2 8,-239.2 116,-239.2 116,-178.2 8,-178.2"/>
<polygon fill="#f5f5f5" stroke="transparent" points="8,-215.7 8,-238.7 116,-238.7 116,-215.7 8,-215.7"/>
<polygon fill="none" stroke="#000000" points="8,-215.7 8,-238.7 116,-238.7 116,-215.7 8,-215.7"/>
<text text-anchor="start" x="12.7976" y="-224.8" font-family="Helvetica,sans-Serif" font-weight="bold" font-size="11.00" fill="#000000">organizations</text>
<text text-anchor="start" x="81.5219" y="-223.8" font-family="Helvetica,sans-Serif" font-size="11.00" fill="#000000">[table]</text>
<polygon fill="none" stroke="#000000" points="8,-196.7 8,-215.7 116,-215.7 116,-196.7 8,-196.7"/>
<text text-anchor="start" x="11" y="-202.8" font-family="Helvetica,sans-Serif" font-size="11.00" fill="#000000">...</text>
<polygon fill="#ffffff" stroke="transparent" points="8,-177.7 8,-196.7 40,-196.7 40,-177.7 8,-177.7"/>
<polygon fill="none" stroke="#000000" points="8,-177.7 8,-196.7 40,-196.7 40,-177.7 8,-177.7"/>
<text text-anchor="start" x="11" y="-183.8" font-family="Helvetica,sans-Serif" font-size="11.00" fill="#000000">&lt; 4</text>
<polygon fill="#ffffff" stroke="transparent" points="40,-177.7 40,-196.7 83,-196.7 83,-177.7 40,-177.7"/>
<polygon fill="none" stroke="#000000" points="40,-177.7 40,-196.7 83,-196.7 83,-177.7 40,-177.7"/>
<text text-anchor="start" x="47.6105" y="-183.8" font-family="Helvetica,sans-Serif" font-size="11.00" fill="#000000">3 rows</text>
<polygon fill="#ffffff" stroke="transparent" points="83,-177.7 83,-196.7 116,-196.7 116,-177.7 83,-177.7"/>
<polygon fill="none" stroke="#000000" points="83,-177.7 83,-196.7 116,-196.7 116,-177.7 83,-177.7"/>
<text text-anchor="start" x="91.2904" y="-183.8" font-family="Helvetica,sans-Serif" font-size="11.00" fill="#000000">81 &gt;</text>
</a>
</g>
</g>
<!-- rasp_alert_attacks&#45;&gt;organizations -->
<g id="edge1" class="edge">
<title>rasp_alert_attacks:w&#45;&gt;organizations:e</title>
<path fill="none" stroke="#000000" d="M150.4909,-205.7C139.1774,-205.7 131.9931,-205.7 116,-205.7"/>
<polygon fill="#000000" stroke="#000000" points="157,-205.7001 165,-209.3 161,-205.7 165,-205.7 165,-205.7 165,-205.7 161,-205.7 165,-202.1 157,-205.7001 157,-205.7001"/>
<ellipse fill="none" stroke="#000000" cx="153.8" cy="-205.7001" rx="3.2" ry="3.2"/>
</g>
<!-- rasp_alert_attacks_applications -->
<g id="node3" class="node">
<title>rasp_alert_attacks_applications</title>
<g id="a_node3"><a xlink:href="../../tables/rasp_alert_attacks_applications.html" xlink:title="rasp_alert_attacks_applications" target="_top">
<polygon fill="#ffffff" stroke="transparent" points="379.5,-336.2 379.5,-397.2 576.5,-397.2 576.5,-336.2 379.5,-336.2"/>
<polygon fill="#f5f5f5" stroke="transparent" points="380,-373.7 380,-396.7 577,-396.7 577,-373.7 380,-373.7"/>
<polygon fill="none" stroke="#000000" points="380,-373.7 380,-396.7 577,-396.7 577,-373.7 380,-373.7"/>
<text text-anchor="start" x="384.9808" y="-382.8" font-family="Helvetica,sans-Serif" font-weight="bold" font-size="11.00" fill="#000000">rasp_alert_attacks_applications</text>
<text text-anchor="start" x="542.5219" y="-381.8" font-family="Helvetica,sans-Serif" font-size="11.00" fill="#000000">[table]</text>
<polygon fill="none" stroke="#000000" points="380,-354.7 380,-373.7 577,-373.7 577,-354.7 380,-354.7"/>
<text text-anchor="start" x="383" y="-360.8" font-family="Helvetica,sans-Serif" font-size="11.00" fill="#000000">...</text>
<polygon fill="#ffffff" stroke="transparent" points="380,-335.7 380,-354.7 464,-354.7 464,-335.7 380,-335.7"/>
<polygon fill="none" stroke="#000000" points="380,-335.7 380,-354.7 464,-354.7 464,-335.7 380,-335.7"/>
<text text-anchor="start" x="383" y="-341.8" font-family="Helvetica,sans-Serif" font-size="11.00" fill="#000000">&lt; 2</text>
<polygon fill="#ffffff" stroke="transparent" points="464,-335.7 464,-354.7 533,-354.7 533,-335.7 464,-335.7"/>
<polygon fill="none" stroke="#000000" points="464,-335.7 464,-354.7 533,-354.7 533,-335.7 464,-335.7"/>
<text text-anchor="start" x="497.6105" y="-341.8" font-family="Helvetica,sans-Serif" font-size="11.00" fill="#000000">0 rows</text>
<polygon fill="#ffffff" stroke="transparent" points="533,-335.7 533,-354.7 577,-354.7 577,-335.7 533,-335.7"/>
<polygon fill="none" stroke="#000000" points="533,-335.7 533,-354.7 577,-354.7 577,-335.7 533,-335.7"/>
<text text-anchor="start" x="567.8862" y="-341.8" font-family="Helvetica,sans-Serif" font-size="11.00" fill="#000000"> &#160;</text>
</a>
</g>
</g>
<!-- rasp_alert_attacks_applications&#45;&gt;rasp_alert_attacks -->
<g id="edge2" class="edge">
<title>rasp_alert_attacks_applications:w&#45;&gt;rasp_alert_attacks:e</title>
<path fill="none" stroke="#000000" d="M365.6194,-361.009C353.082,-355.3497 349.1323,-341.4328 338,-325.7 310.7289,-287.1588 344.2137,-227.7 297,-227.7"/>
<polygon fill="#000000" stroke="#000000" points="372.1365,-362.2285 379.3378,-367.2386 376.0682,-362.9642 380,-363.7 380,-363.7 380,-363.7 376.0682,-362.9642 380.6622,-360.1614 372.1365,-362.2285 372.1365,-362.2285"/>
<ellipse fill="none" stroke="#000000" cx="368.9911" cy="-361.6398" rx="3.2" ry="3.2"/>
</g>
<!-- rasp_alert_attacks_recipients -->
<g id="node4" class="node">
<title>rasp_alert_attacks_recipients</title>
<g id="a_node4"><a xlink:href="../../tables/rasp_alert_attacks_recipients.html" xlink:title="rasp_alert_attacks_recipients" target="_top">
<polygon fill="#ffffff" stroke="transparent" points="385,-254.2 385,-315.2 571,-315.2 571,-254.2 385,-254.2"/>
<polygon fill="#f5f5f5" stroke="transparent" points="385,-291.7 385,-314.7 571,-314.7 571,-291.7 385,-291.7"/>
<polygon fill="none" stroke="#000000" points="385,-291.7 385,-314.7 571,-314.7 571,-291.7 385,-291.7"/>
<text text-anchor="start" x="389.9852" y="-300.8" font-family="Helvetica,sans-Serif" font-weight="bold" font-size="11.00" fill="#000000">rasp_alert_attacks_recipients</text>
<text text-anchor="start" x="536.5219" y="-299.8" font-family="Helvetica,sans-Serif" font-size="11.00" fill="#000000">[table]</text>
<polygon fill="none" stroke="#000000" points="385,-272.7 385,-291.7 571,-291.7 571,-272.7 385,-272.7"/>
<text text-anchor="start" x="388" y="-278.8" font-family="Helvetica,sans-Serif" font-size="11.00" fill="#000000">...</text>
<polygon fill="#ffffff" stroke="transparent" points="385,-253.7 385,-272.7 463,-272.7 463,-253.7 385,-253.7"/>
<polygon fill="none" stroke="#000000" points="385,-253.7 385,-272.7 463,-272.7 463,-253.7 385,-253.7"/>
<text text-anchor="start" x="388" y="-259.8" font-family="Helvetica,sans-Serif" font-size="11.00" fill="#000000">&lt; 2</text>
<polygon fill="#ffffff" stroke="transparent" points="463,-253.7 463,-272.7 530,-272.7 530,-253.7 463,-253.7"/>
<polygon fill="none" stroke="#000000" points="463,-253.7 463,-272.7 530,-272.7 530,-253.7 463,-253.7"/>
<text text-anchor="start" x="494.6105" y="-259.8" font-family="Helvetica,sans-Serif" font-size="11.00" fill="#000000">0 rows</text>
<polygon fill="#ffffff" stroke="transparent" points="530,-253.7 530,-272.7 571,-272.7 571,-253.7 530,-253.7"/>
<polygon fill="none" stroke="#000000" points="530,-253.7 530,-272.7 571,-272.7 571,-253.7 530,-253.7"/>
<text text-anchor="start" x="561.8862" y="-259.8" font-family="Helvetica,sans-Serif" font-size="11.00" fill="#000000"> &#160;</text>
</a>
</g>
</g>
<!-- rasp_alert_attacks_recipients&#45;&gt;rasp_alert_attacks -->
<g id="edge3" class="edge">
<title>rasp_alert_attacks_recipients:w&#45;&gt;rasp_alert_attacks:e</title>
<path fill="none" stroke="#000000" d="M370.3382,-279.5163C339.2984,-269.4137 337.331,-227.7 297,-227.7"/>
<polygon fill="#000000" stroke="#000000" points="377.0873,-280.5214 384.4696,-285.2607 381.0436,-281.1107 385,-281.7 385,-281.7 385,-281.7 381.0436,-281.1107 385.5304,-278.1393 377.0873,-280.5214 377.0873,-280.5214"/>
<ellipse fill="none" stroke="#000000" cx="373.9222" cy="-280.05" rx="3.2" ry="3.2"/>
</g>
<!-- rasp_alert_attacks_triggers -->
<g id="node5" class="node">
<title>rasp_alert_attacks_triggers</title>
<g id="a_node5"><a xlink:href="../../tables/rasp_alert_attacks_triggers.html" xlink:title="rasp_alert_attacks_triggers" target="_top">
<polygon fill="#ffffff" stroke="transparent" points="346,-120.7 346,-232.7 610,-232.7 610,-120.7 346,-120.7"/>
<polygon fill="#f5f5f5" stroke="transparent" points="348,-207.7 348,-230.7 608,-230.7 608,-207.7 348,-207.7"/>
<polygon fill="none" stroke="#000000" points="348,-207.7 348,-230.7 608,-230.7 608,-207.7 348,-207.7"/>
<text text-anchor="start" x="353" y="-216.8" font-family="Helvetica,sans-Serif" font-weight="bold" font-size="11.00" fill="#000000">rasp_alert_attacks_triggers</text>
<text text-anchor="start" x="573.0437" y="-215.8" font-family="Helvetica,sans-Serif" font-size="11.00" fill="#000000">[table]</text>
<polygon fill="none" stroke="#000000" points="348,-185.7 348,-207.7 525,-207.7 525,-185.7 348,-185.7"/>
<image xlink:href="../../images/primaryKeys.png" width="11px" height="12px" preserveAspectRatio="xMinYMin meet" x="353" y="-202.7"/>
<text text-anchor="start" x="368" y="-192.8" font-family="Helvetica,sans-Serif" font-size="11.00" fill="#000000">id</text>
<polygon fill="none" stroke="#000000" points="525,-185.7 525,-207.7 608,-207.7 608,-185.7 525,-185.7"/>
<text text-anchor="start" x="527.6783" y="-193.4" font-family="Helvetica,sans-Serif" font-size="11.00" fill="#000000">int unsigned[10]</text>
<polygon fill="#ffffff" stroke="transparent" points="348,-163.7 348,-185.7 525,-185.7 525,-163.7 348,-163.7"/>
<polygon fill="none" stroke="#000000" points="348,-163.7 348,-185.7 525,-185.7 525,-163.7 348,-163.7"/>
<image xlink:href="../../images/foreignKeys.png" width="11px" height="12px" preserveAspectRatio="xMinYMin meet" x="353" y="-180.7"/>
<text text-anchor="start" x="368" y="-170.8" font-family="Helvetica,sans-Serif" font-size="11.00" fill="#000000">rasp_alert_attacks_id</text>
<polygon fill="none" stroke="#000000" points="525,-163.7 525,-185.7 608,-185.7 608,-163.7 525,-163.7"/>
<text text-anchor="start" x="528" y="-171.4" font-family="Helvetica,sans-Serif" font-size="11.00" fill="#000000">varchar[255]</text>
<polygon fill="#ffffff" stroke="transparent" points="348,-141.7 348,-163.7 525,-163.7 525,-141.7 348,-141.7"/>
<polygon fill="none" stroke="#000000" points="348,-141.7 348,-163.7 525,-163.7 525,-141.7 348,-141.7"/>
<text text-anchor="start" x="368" y="-148.8" font-family="Helvetica,sans-Serif" font-size="11.00" fill="#000000">trigger_type</text>
<polygon fill="none" stroke="#000000" points="525,-141.7 525,-163.7 608,-163.7 608,-141.7 525,-141.7"/>
<text text-anchor="start" x="528" y="-149.4" font-family="Helvetica,sans-Serif" font-size="11.00" fill="#000000">tinyint[3]</text>
<polygon fill="#ffffff" stroke="transparent" points="348,-122.7 348,-141.7 428,-141.7 428,-122.7 348,-122.7"/>
<polygon fill="none" stroke="#000000" points="348,-122.7 348,-141.7 428,-141.7 428,-122.7 348,-122.7"/>
<text text-anchor="start" x="351" y="-128.8" font-family="Helvetica,sans-Serif" font-size="11.00" fill="#000000">&lt; 1</text>
<polygon fill="#ffffff" stroke="transparent" points="428,-122.7 428,-141.7 525,-141.7 525,-122.7 428,-122.7"/>
<polygon fill="none" stroke="#000000" points="428,-122.7 428,-141.7 525,-141.7 525,-122.7 428,-122.7"/>
<text text-anchor="start" x="489.6105" y="-128.8" font-family="Helvetica,sans-Serif" font-size="11.00" fill="#000000">0 rows</text>
<polygon fill="#ffffff" stroke="transparent" points="525,-122.7 525,-141.7 608,-141.7 608,-122.7 525,-122.7"/>
<polygon fill="none" stroke="#000000" points="525,-122.7 525,-141.7 608,-141.7 608,-122.7 525,-122.7"/>
<text text-anchor="start" x="589.4053" y="-128.8" font-family="Helvetica,sans-Serif" font-size="11.00" fill="#000000">2 &gt;</text>
<polygon fill="none" stroke="#000000" stroke-width="2" points="347,-121.7 347,-231.7 609,-231.7 609,-121.7 347,-121.7"/>
</a>
</g>
</g>
<!-- rasp_alert_attacks_triggers&#45;&gt;rasp_alert_attacks -->
<g id="edge4" class="edge">
<title>rasp_alert_attacks_triggers:w&#45;&gt;rasp_alert_attacks:e</title>
<path fill="none" stroke="#000000" d="M333.9557,-179.5911C319.0477,-192.7117 323.5607,-227.7 297,-227.7"/>
<polygon fill="#000000" stroke="#000000" points="340.445,-177.3311 349.184,-178.0997 344.2225,-176.0156 348,-174.7 348,-174.7 348,-174.7 344.2225,-176.0156 346.816,-171.3003 340.445,-177.3311 340.445,-177.3311"/>
<ellipse fill="none" stroke="#000000" cx="337.4231" cy="-178.3836" rx="3.2" ry="3.2"/>
</g>
<!-- rasp_alert_attacks_triggers_interval -->
<g id="node6" class="node">
<title>rasp_alert_attacks_triggers_interval</title>
<g id="a_node6"><a xlink:href="../../tables/rasp_alert_attacks_triggers_interval.html" xlink:title="rasp_alert_attacks_triggers_interval" target="_top">
<polygon fill="#ffffff" stroke="transparent" points="659,-208.7 659,-316.7 886,-316.7 886,-208.7 659,-208.7"/>
<polygon fill="#f5f5f5" stroke="transparent" points="659.5,-293.7 659.5,-316.7 886.5,-316.7 886.5,-293.7 659.5,-293.7"/>
<polygon fill="none" stroke="#000000" points="659.5,-293.7 659.5,-316.7 886.5,-316.7 886.5,-293.7 659.5,-293.7"/>
<text text-anchor="start" x="664.5" y="-302.8" font-family="Helvetica,sans-Serif" font-weight="bold" font-size="11.00" fill="#000000">rasp_alert_attacks_triggers_interval</text>
<text text-anchor="start" x="851.5437" y="-301.8" font-family="Helvetica,sans-Serif" font-size="11.00" fill="#000000">[table]</text>
<polygon fill="none" stroke="#000000" points="659.5,-271.7 659.5,-293.7 886.5,-293.7 886.5,-271.7 659.5,-271.7"/>
<image xlink:href="../../images/primaryKeys.png" width="11px" height="12px" preserveAspectRatio="xMinYMin meet" x="664.5" y="-288.7"/>
<text text-anchor="start" x="679.5" y="-278.8" font-family="Helvetica,sans-Serif" font-size="11.00" fill="#000000">id</text>
<polygon fill="#ffffff" stroke="transparent" points="659.5,-249.7 659.5,-271.7 886.5,-271.7 886.5,-249.7 659.5,-249.7"/>
<polygon fill="none" stroke="#000000" points="659.5,-249.7 659.5,-271.7 886.5,-271.7 886.5,-249.7 659.5,-249.7"/>
<image xlink:href="../../images/foreignKeys.png" width="11px" height="12px" preserveAspectRatio="xMinYMin meet" x="664.5" y="-266.7"/>
<text text-anchor="start" x="679.5" y="-256.8" font-family="Helvetica,sans-Serif" font-size="11.00" fill="#000000">rasp_alert_attacks_triggers_id</text>
<polygon fill="#ffffff" stroke="transparent" points="659.5,-227.7 659.5,-249.7 886.5,-249.7 886.5,-227.7 659.5,-227.7"/>
<polygon fill="none" stroke="#000000" points="659.5,-227.7 659.5,-249.7 886.5,-249.7 886.5,-227.7 659.5,-227.7"/>
<text text-anchor="start" x="679.5" y="-234.8" font-family="Helvetica,sans-Serif" font-size="11.00" fill="#000000">trigger_interval</text>
<polygon fill="#ffffff" stroke="transparent" points="659.5,-208.7 659.5,-227.7 758.5,-227.7 758.5,-208.7 659.5,-208.7"/>
<polygon fill="none" stroke="#000000" points="659.5,-208.7 659.5,-227.7 758.5,-227.7 758.5,-208.7 659.5,-208.7"/>
<text text-anchor="start" x="662.5" y="-214.8" font-family="Helvetica,sans-Serif" font-size="11.00" fill="#000000">&lt; 1</text>
<polygon fill="#ffffff" stroke="transparent" points="758.5,-208.7 758.5,-227.7 835.5,-227.7 835.5,-208.7 758.5,-208.7"/>
<polygon fill="none" stroke="#000000" points="758.5,-208.7 758.5,-227.7 835.5,-227.7 835.5,-208.7 758.5,-208.7"/>
<text text-anchor="start" x="800.1105" y="-214.8" font-family="Helvetica,sans-Serif" font-size="11.00" fill="#000000">0 rows</text>
<polygon fill="#ffffff" stroke="transparent" points="835.5,-208.7 835.5,-227.7 886.5,-227.7 886.5,-208.7 835.5,-208.7"/>
<polygon fill="none" stroke="#000000" points="835.5,-208.7 835.5,-227.7 886.5,-227.7 886.5,-208.7 835.5,-208.7"/>
<text text-anchor="start" x="877.3862" y="-214.8" font-family="Helvetica,sans-Serif" font-size="11.00" fill="#000000"> &#160;</text>
</a>
</g>
</g>
<!-- rasp_alert_attacks_triggers_interval&#45;&gt;rasp_alert_attacks_triggers -->
<g id="edge5" class="edge">
<title>rasp_alert_attacks_triggers_interval:w&#45;&gt;rasp_alert_attacks_triggers:e</title>
<path fill="none" stroke="#000000" d="M645.7036,-256.0973C628.4892,-241.4227 638.5202,-196.7 608,-196.7"/>
<polygon fill="#000000" stroke="#000000" points="651.9112,-258.1682 658.3607,-264.115 655.7056,-259.4341 659.5,-260.7 659.5,-260.7 659.5,-260.7 655.7056,-259.4341 660.6393,-257.285 651.9112,-258.1682 651.9112,-258.1682"/>
<ellipse fill="none" stroke="#000000" cx="648.8756" cy="-257.1555" rx="3.2" ry="3.2"/>
</g>
<!-- rasp_alert_attacks_triggers_status -->
<g id="node7" class="node">
<title>rasp_alert_attacks_triggers_status</title>
<g id="a_node7"><a xlink:href="../../tables/rasp_alert_attacks_triggers_status.html" xlink:title="rasp_alert_attacks_triggers_status" target="_top">
<polygon fill="#ffffff" stroke="transparent" points="663,-79.7 663,-187.7 882,-187.7 882,-79.7 663,-79.7"/>
<polygon fill="#f5f5f5" stroke="transparent" points="663.5,-164.7 663.5,-187.7 882.5,-187.7 882.5,-164.7 663.5,-164.7"/>
<polygon fill="none" stroke="#000000" points="663.5,-164.7 663.5,-187.7 882.5,-187.7 882.5,-164.7 663.5,-164.7"/>
<text text-anchor="start" x="668.5" y="-173.8" font-family="Helvetica,sans-Serif" font-weight="bold" font-size="11.00" fill="#000000">rasp_alert_attacks_triggers_status</text>
<text text-anchor="start" x="847.5437" y="-172.8" font-family="Helvetica,sans-Serif" font-size="11.00" fill="#000000">[table]</text>
<polygon fill="none" stroke="#000000" points="663.5,-142.7 663.5,-164.7 882.5,-164.7 882.5,-142.7 663.5,-142.7"/>
<image xlink:href="../../images/primaryKeys.png" width="11px" height="12px" preserveAspectRatio="xMinYMin meet" x="668.5" y="-159.7"/>
<text text-anchor="start" x="683.5" y="-149.8" font-family="Helvetica,sans-Serif" font-size="11.00" fill="#000000">id</text>
<polygon fill="#ffffff" stroke="transparent" points="663.5,-120.7 663.5,-142.7 882.5,-142.7 882.5,-120.7 663.5,-120.7"/>
<polygon fill="none" stroke="#000000" points="663.5,-120.7 663.5,-142.7 882.5,-142.7 882.5,-120.7 663.5,-120.7"/>
<image xlink:href="../../images/foreignKeys.png" width="11px" height="12px" preserveAspectRatio="xMinYMin meet" x="668.5" y="-137.7"/>
<text text-anchor="start" x="683.5" y="-127.8" font-family="Helvetica,sans-Serif" font-size="11.00" fill="#000000">rasp_alert_attacks_triggers_id</text>
<polygon fill="#ffffff" stroke="transparent" points="663.5,-98.7 663.5,-120.7 882.5,-120.7 882.5,-98.7 663.5,-98.7"/>
<polygon fill="none" stroke="#000000" points="663.5,-98.7 663.5,-120.7 882.5,-120.7 882.5,-98.7 663.5,-98.7"/>
<text text-anchor="start" x="683.5" y="-105.8" font-family="Helvetica,sans-Serif" font-size="11.00" fill="#000000">trigger_status</text>
<polygon fill="#ffffff" stroke="transparent" points="663.5,-79.7 663.5,-98.7 758.5,-98.7 758.5,-79.7 663.5,-79.7"/>
<polygon fill="none" stroke="#000000" points="663.5,-79.7 663.5,-98.7 758.5,-98.7 758.5,-79.7 663.5,-79.7"/>
<text text-anchor="start" x="666.5" y="-85.8" font-family="Helvetica,sans-Serif" font-size="11.00" fill="#000000">&lt; 1</text>
<polygon fill="#ffffff" stroke="transparent" points="758.5,-79.7 758.5,-98.7 833.5,-98.7 833.5,-79.7 758.5,-79.7"/>
<polygon fill="none" stroke="#000000" points="758.5,-79.7 758.5,-98.7 833.5,-98.7 833.5,-79.7 758.5,-79.7"/>
<text text-anchor="start" x="798.1105" y="-85.8" font-family="Helvetica,sans-Serif" font-size="11.00" fill="#000000">0 rows</text>
<polygon fill="#ffffff" stroke="transparent" points="833.5,-79.7 833.5,-98.7 882.5,-98.7 882.5,-79.7 833.5,-79.7"/>
<polygon fill="none" stroke="#000000" points="833.5,-79.7 833.5,-98.7 882.5,-98.7 882.5,-79.7 833.5,-79.7"/>
<text text-anchor="start" x="873.3862" y="-85.8" font-family="Helvetica,sans-Serif" font-size="11.00" fill="#000000"> &#160;</text>
</a>
</g>
</g>
<!-- rasp_alert_attacks_triggers_status&#45;&gt;rasp_alert_attacks_triggers -->
<g id="edge6" class="edge">
<title>rasp_alert_attacks_triggers_status:w&#45;&gt;rasp_alert_attacks_triggers:e</title>
<path fill="none" stroke="#000000" d="M649.5294,-135.9648C630.4839,-150.4256 640.0515,-196.7 608,-196.7"/>
<polygon fill="#000000" stroke="#000000" points="655.8486,-134.0358 664.5511,-135.1431 659.6743,-132.8679 663.5,-131.7 663.5,-131.7 663.5,-131.7 659.6743,-132.8679 662.4489,-128.2569 655.8486,-134.0358 655.8486,-134.0358"/>
<ellipse fill="none" stroke="#000000" cx="652.788" cy="-134.9701" rx="3.2" ry="3.2"/>
</g>
<!-- rasp_ip_blacklists_expiration_alert -->
<g id="node8" class="node">
<title>rasp_ip_blacklists_expiration_alert</title>
<g id="a_node8"><a xlink:href="../../tables/rasp_ip_blacklists_expiration_alert.html" xlink:title="rasp_ip_blacklists_expiration_alert" target="_top">
<polygon fill="#ffffff" stroke="transparent" points="372.5,-38.2 372.5,-99.2 583.5,-99.2 583.5,-38.2 372.5,-38.2"/>
<polygon fill="#f5f5f5" stroke="transparent" points="373,-75.7 373,-98.7 584,-98.7 584,-75.7 373,-75.7"/>
<polygon fill="none" stroke="#000000" points="373,-75.7 373,-98.7 584,-98.7 584,-75.7 373,-75.7"/>
<text text-anchor="start" x="377.9595" y="-84.8" font-family="Helvetica,sans-Serif" font-weight="bold" font-size="11.00" fill="#000000">rasp_ip_blacklists_expiration_alert</text>
<text text-anchor="start" x="549.5219" y="-83.8" font-family="Helvetica,sans-Serif" font-size="11.00" fill="#000000">[table]</text>
<polygon fill="none" stroke="#000000" points="373,-56.7 373,-75.7 584,-75.7 584,-56.7 373,-56.7"/>
<text text-anchor="start" x="376" y="-62.8" font-family="Helvetica,sans-Serif" font-size="11.00" fill="#000000">...</text>
<polygon fill="#ffffff" stroke="transparent" points="373,-37.7 373,-56.7 464,-56.7 464,-37.7 373,-37.7"/>
<polygon fill="none" stroke="#000000" points="373,-37.7 373,-56.7 464,-56.7 464,-37.7 373,-37.7"/>
<text text-anchor="start" x="376" y="-43.8" font-family="Helvetica,sans-Serif" font-size="11.00" fill="#000000">&lt; 2</text>
<polygon fill="#ffffff" stroke="transparent" points="464,-37.7 464,-56.7 537,-56.7 537,-37.7 464,-37.7"/>
<polygon fill="none" stroke="#000000" points="464,-37.7 464,-56.7 537,-56.7 537,-37.7 464,-37.7"/>
<text text-anchor="start" x="501.6105" y="-43.8" font-family="Helvetica,sans-Serif" font-size="11.00" fill="#000000">0 rows</text>
<polygon fill="#ffffff" stroke="transparent" points="537,-37.7 537,-56.7 584,-56.7 584,-37.7 537,-37.7"/>
<polygon fill="none" stroke="#000000" points="537,-37.7 537,-56.7 584,-56.7 584,-37.7 537,-37.7"/>
<text text-anchor="start" x="574.8862" y="-43.8" font-family="Helvetica,sans-Serif" font-size="11.00" fill="#000000"> &#160;</text>
</a>
</g>
</g>
<!-- rasp_ip_blacklists_expiration_alert&#45;&gt;rasp_alert_attacks -->
<g id="edge7" class="edge">
<title>rasp_ip_blacklists_expiration_alert:w&#45;&gt;rasp_alert_attacks:e</title>
<path fill="none" stroke="#000000" d="M358.5227,-67.9901C304.3469,-87.6803 370.9376,-227.7 297,-227.7"/>
<polygon fill="#000000" stroke="#000000" points="365.0982,-66.95 373.5625,-69.2558 369.0491,-66.325 373,-65.7 373,-65.7 373,-65.7 369.0491,-66.325 372.4375,-62.1442 365.0982,-66.95 365.0982,-66.95"/>
<ellipse fill="none" stroke="#000000" cx="361.9375" cy="-67.45" rx="3.2" ry="3.2"/>
</g>
</g>
</svg>
