<?xml version="1.0" encoding="UTF-8" standalone="no"?>
<!DOCTYPE svg PUBLIC "-//W3C//DTD SVG 1.1//EN"
 "http://www.w3.org/Graphics/SVG/1.1/DTD/svg11.dtd">
<!-- Generated by graphviz version 2.40.1 (20161225.0304)
 -->
<!-- Title: oneDegreeRelationshipsDiagram Pages: 1 -->
<svg width="881pt" height="294pt"
 viewBox="0.00 0.00 881.00 294.20" xmlns="http://www.w3.org/2000/svg" xmlns:xlink="http://www.w3.org/1999/xlink">
<g id="graph0" class="graph" transform="scale(1 1) rotate(0) translate(4 290.2)">
<title>oneDegreeRelationshipsDiagram</title>
<polygon fill="#ffffff" stroke="transparent" points="-4,4 -4,-290.2 877,-290.2 877,4 -4,4"/>
<text text-anchor="middle" x="72.4936" y="-7.3" font-family="Helvetica,sans-Serif" font-size="11.00" fill="#000000">Generated by SchemaSpy</text>
<!-- remediation_digest_last_sent -->
<g id="node1" class="node">
<title>remediation_digest_last_sent</title>
<g id="a_node1"><a xlink:href="../../tables/remediation_digest_last_sent.html" xlink:title="remediation_digest_last_sent" target="_top">
<polygon fill="#ffffff" stroke="transparent" points="589,-116.7 589,-250.7 865,-250.7 865,-116.7 589,-116.7"/>
<polygon fill="#f5f5f5" stroke="transparent" points="591,-225.7 591,-248.7 863,-248.7 863,-225.7 591,-225.7"/>
<polygon fill="none" stroke="#000000" points="591,-225.7 591,-248.7 863,-248.7 863,-225.7 591,-225.7"/>
<text text-anchor="start" x="596" y="-234.8" font-family="Helvetica,sans-Serif" font-weight="bold" font-size="11.00" fill="#000000">remediation_digest_last_sent</text>
<text text-anchor="start" x="828.0437" y="-233.8" font-family="Helvetica,sans-Serif" font-size="11.00" fill="#000000">[table]</text>
<polygon fill="none" stroke="#000000" points="591,-203.7 591,-225.7 780,-225.7 780,-203.7 591,-203.7"/>
<image xlink:href="../../images/primaryKeys.png" width="11px" height="12px" preserveAspectRatio="xMinYMin meet" x="596" y="-220.7"/>
<text text-anchor="start" x="611" y="-210.8" font-family="Helvetica,sans-Serif" font-size="11.00" fill="#000000">id</text>
<polygon fill="none" stroke="#000000" points="780,-203.7 780,-225.7 863,-225.7 863,-203.7 780,-203.7"/>
<text text-anchor="start" x="782.6783" y="-211.4" font-family="Helvetica,sans-Serif" font-size="11.00" fill="#000000">int unsigned[10]</text>
<polygon fill="#ffffff" stroke="transparent" points="591,-181.7 591,-203.7 780,-203.7 780,-181.7 591,-181.7"/>
<polygon fill="none" stroke="#000000" points="591,-181.7 591,-203.7 780,-203.7 780,-181.7 591,-181.7"/>
<image xlink:href="../../images/foreignKeys.png" width="11px" height="12px" preserveAspectRatio="xMinYMin meet" x="596" y="-198.7"/>
<text text-anchor="start" x="611" y="-188.8" font-family="Helvetica,sans-Serif" font-size="11.00" fill="#000000">organizations_id</text>
<polygon fill="none" stroke="#000000" points="780,-181.7 780,-203.7 863,-203.7 863,-181.7 780,-181.7"/>
<text text-anchor="start" x="782.6783" y="-189.4" font-family="Helvetica,sans-Serif" font-size="11.00" fill="#000000">int unsigned[10]</text>
<polygon fill="#ffffff" stroke="transparent" points="591,-159.7 591,-181.7 780,-181.7 780,-159.7 591,-159.7"/>
<polygon fill="none" stroke="#000000" points="591,-159.7 591,-181.7 780,-181.7 780,-159.7 591,-159.7"/>
<image xlink:href="../../images/foreignKeys.png" width="11px" height="12px" preserveAspectRatio="xMinYMin meet" x="596" y="-176.7"/>
<text text-anchor="start" x="611" y="-166.8" font-family="Helvetica,sans-Serif" font-size="11.00" fill="#000000">users_id</text>
<polygon fill="none" stroke="#000000" points="780,-159.7 780,-181.7 863,-181.7 863,-159.7 780,-159.7"/>
<text text-anchor="start" x="783" y="-167.4" font-family="Helvetica,sans-Serif" font-size="11.00" fill="#000000">varchar[255]</text>
<polygon fill="none" stroke="#000000" points="591,-137.7 591,-159.7 780,-159.7 780,-137.7 591,-137.7"/>
<text text-anchor="start" x="611" y="-144.8" font-family="Helvetica,sans-Serif" font-size="11.00" fill="#000000">last_sent</text>
<polygon fill="none" stroke="#000000" points="780,-137.7 780,-159.7 863,-159.7 863,-137.7 780,-137.7"/>
<text text-anchor="start" x="783" y="-145.4" font-family="Helvetica,sans-Serif" font-size="11.00" fill="#000000">bigint[19]</text>
<polygon fill="#ffffff" stroke="transparent" points="591,-118.7 591,-137.7 677,-137.7 677,-118.7 591,-118.7"/>
<polygon fill="none" stroke="#000000" points="591,-118.7 591,-137.7 677,-137.7 677,-118.7 591,-118.7"/>
<text text-anchor="start" x="594" y="-124.8" font-family="Helvetica,sans-Serif" font-size="11.00" fill="#000000">&lt; 2</text>
<polygon fill="#ffffff" stroke="transparent" points="677,-118.7 677,-137.7 780,-137.7 780,-118.7 677,-118.7"/>
<polygon fill="none" stroke="#000000" points="677,-118.7 677,-137.7 780,-137.7 780,-118.7 677,-118.7"/>
<text text-anchor="start" x="744.6105" y="-124.8" font-family="Helvetica,sans-Serif" font-size="11.00" fill="#000000">0 rows</text>
<polygon fill="#ffffff" stroke="transparent" points="780,-118.7 780,-137.7 863,-137.7 863,-118.7 780,-118.7"/>
<polygon fill="none" stroke="#000000" points="780,-118.7 780,-137.7 863,-137.7 863,-118.7 780,-118.7"/>
<text text-anchor="start" x="844.4053" y="-124.8" font-family="Helvetica,sans-Serif" font-size="11.00" fill="#000000">0 &gt;</text>
<polygon fill="none" stroke="#000000" stroke-width="2" points="590,-117.7 590,-249.7 864,-249.7 864,-117.7 590,-117.7"/>
</a>
</g>
</g>
<!-- organizations -->
<g id="node2" class="node">
<title>organizations</title>
<g id="a_node2"><a xlink:href="../../tables/organizations.html" xlink:title="organizations" target="_top">
<polygon fill="#ffffff" stroke="transparent" points="8,-67.2 8,-282.2 266,-282.2 266,-67.2 8,-67.2"/>
<polygon fill="#f5f5f5" stroke="transparent" points="8,-258.7 8,-281.7 266,-281.7 266,-258.7 8,-258.7"/>
<polygon fill="none" stroke="#000000" points="8,-258.7 8,-281.7 266,-281.7 266,-258.7 8,-258.7"/>
<text text-anchor="start" x="13" y="-267.8" font-family="Helvetica,sans-Serif" font-weight="bold" font-size="11.00" fill="#000000">organizations</text>
<text text-anchor="start" x="231.0437" y="-266.8" font-family="Helvetica,sans-Serif" font-size="11.00" fill="#000000">[table]</text>
<polygon fill="#ffffff" stroke="transparent" points="8,-236.7 8,-258.7 266,-258.7 266,-236.7 8,-236.7"/>
<polygon fill="none" stroke="#000000" points="8,-236.7 8,-258.7 266,-258.7 266,-236.7 8,-236.7"/>
<text text-anchor="start" x="28" y="-243.8" font-family="Helvetica,sans-Serif" font-size="11.00" fill="#000000">name</text>
<polygon fill="#ffffff" stroke="transparent" points="8,-214.7 8,-236.7 266,-236.7 266,-214.7 8,-214.7"/>
<polygon fill="none" stroke="#000000" points="8,-214.7 8,-236.7 266,-236.7 266,-214.7 8,-214.7"/>
<image xlink:href="../../images/foreignKeys.png" width="11px" height="12px" preserveAspectRatio="xMinYMin meet" x="13" y="-231.7"/>
<text text-anchor="start" x="28" y="-221.8" font-family="Helvetica,sans-Serif" font-size="11.00" fill="#000000">configKey_fk</text>
<polygon fill="#ffffff" stroke="transparent" points="8,-192.7 8,-214.7 266,-214.7 266,-192.7 8,-192.7"/>
<polygon fill="none" stroke="#000000" points="8,-192.7 8,-214.7 266,-214.7 266,-192.7 8,-192.7"/>
<image xlink:href="../../images/foreignKeys.png" width="11px" height="12px" preserveAspectRatio="xMinYMin meet" x="13" y="-209.7"/>
<text text-anchor="start" x="28" y="-199.8" font-family="Helvetica,sans-Serif" font-size="11.00" fill="#000000">passwordPolicy_fk</text>
<polygon fill="#ffffff" stroke="transparent" points="8,-170.7 8,-192.7 266,-192.7 266,-170.7 8,-170.7"/>
<polygon fill="none" stroke="#000000" points="8,-170.7 8,-192.7 266,-192.7 266,-170.7 8,-170.7"/>
<image xlink:href="../../images/foreignKeys.png" width="11px" height="12px" preserveAspectRatio="xMinYMin meet" x="13" y="-187.7"/>
<text text-anchor="start" x="28" y="-177.8" font-family="Helvetica,sans-Serif" font-size="11.00" fill="#000000">report_settings_fk</text>
<polygon fill="none" stroke="#000000" points="8,-148.7 8,-170.7 266,-170.7 266,-148.7 8,-148.7"/>
<image xlink:href="../../images/primaryKeys.png" width="11px" height="12px" preserveAspectRatio="xMinYMin meet" x="13" y="-165.7"/>
<text text-anchor="start" x="28" y="-155.8" font-family="Helvetica,sans-Serif" font-size="11.00" fill="#000000">id</text>
<polygon fill="#ffffff" stroke="transparent" points="8,-126.7 8,-148.7 266,-148.7 266,-126.7 8,-126.7"/>
<polygon fill="none" stroke="#000000" points="8,-126.7 8,-148.7 266,-148.7 266,-126.7 8,-126.7"/>
<text text-anchor="start" x="28" y="-133.8" font-family="Helvetica,sans-Serif" font-size="11.00" fill="#000000">uuid</text>
<polygon fill="#ffffff" stroke="transparent" points="8,-104.7 8,-126.7 266,-126.7 266,-104.7 8,-104.7"/>
<polygon fill="none" stroke="#000000" points="8,-104.7 8,-126.7 266,-126.7 266,-104.7 8,-104.7"/>
<image xlink:href="../../images/foreignKeys.png" width="11px" height="12px" preserveAspectRatio="xMinYMin meet" x="13" y="-121.7"/>
<text text-anchor="start" x="28" y="-111.8" font-family="Helvetica,sans-Serif" font-size="11.00" fill="#000000">saml_idp_config_fk</text>
<polygon fill="none" stroke="#000000" points="8,-85.7 8,-104.7 266,-104.7 266,-85.7 8,-85.7"/>
<text text-anchor="start" x="11" y="-91.8" font-family="Helvetica,sans-Serif" font-size="11.00" fill="#000000">...</text>
<polygon fill="#ffffff" stroke="transparent" points="8,-66.7 8,-85.7 115,-85.7 115,-66.7 8,-66.7"/>
<polygon fill="none" stroke="#000000" points="8,-66.7 8,-85.7 115,-85.7 115,-66.7 8,-66.7"/>
<text text-anchor="start" x="11" y="-72.8" font-family="Helvetica,sans-Serif" font-size="11.00" fill="#000000">&lt; 4</text>
<polygon fill="#ffffff" stroke="transparent" points="115,-66.7 115,-85.7 196,-85.7 196,-66.7 115,-66.7"/>
<polygon fill="none" stroke="#000000" points="115,-66.7 115,-85.7 196,-85.7 196,-66.7 115,-66.7"/>
<text text-anchor="start" x="160.6105" y="-72.8" font-family="Helvetica,sans-Serif" font-size="11.00" fill="#000000">3 rows</text>
<polygon fill="#ffffff" stroke="transparent" points="196,-66.7 196,-85.7 266,-85.7 266,-66.7 196,-66.7"/>
<polygon fill="none" stroke="#000000" points="196,-66.7 196,-85.7 266,-85.7 266,-66.7 196,-66.7"/>
<text text-anchor="start" x="241.2904" y="-72.8" font-family="Helvetica,sans-Serif" font-size="11.00" fill="#000000">81 &gt;</text>
</a>
</g>
</g>
<!-- remediation_digest_last_sent&#45;&gt;organizations -->
<g id="edge1" class="edge">
<title>remediation_digest_last_sent:w&#45;&gt;organizations:e</title>
<path fill="none" stroke="#000000" d="M576.3701,-193.6355C567.4837,-194.8585 561.2053,-196.9348 548,-197.7 441.0683,-203.8961 406.7178,-236.8043 307,-197.7 283.8697,-188.6295 290.8452,-159.7 266,-159.7"/>
<polygon fill="#000000" stroke="#000000" points="583.0163,-193.2106 591.2298,-196.2927 587.0082,-192.9553 591,-192.7 591,-192.7 591,-192.7 587.0082,-192.9553 590.7702,-189.1073 583.0163,-193.2106 583.0163,-193.2106"/>
<ellipse fill="none" stroke="#000000" cx="579.8228" cy="-193.4148" rx="3.2" ry="3.2"/>
</g>
<!-- users -->
<g id="node3" class="node">
<title>users</title>
<g id="a_node3"><a xlink:href="../../tables/users.html" xlink:title="users" target="_top">
<polygon fill="#ffffff" stroke="transparent" points="315,-38.2 315,-187.2 540,-187.2 540,-38.2 315,-38.2"/>
<polygon fill="#f5f5f5" stroke="transparent" points="315.5,-163.7 315.5,-186.7 540.5,-186.7 540.5,-163.7 315.5,-163.7"/>
<polygon fill="none" stroke="#000000" points="315.5,-163.7 315.5,-186.7 540.5,-186.7 540.5,-163.7 315.5,-163.7"/>
<text text-anchor="start" x="320.5" y="-172.8" font-family="Helvetica,sans-Serif" font-weight="bold" font-size="11.00" fill="#000000">users</text>
<text text-anchor="start" x="505.5437" y="-171.8" font-family="Helvetica,sans-Serif" font-size="11.00" fill="#000000">[table]</text>
<polygon fill="none" stroke="#000000" points="315.5,-141.7 315.5,-163.7 540.5,-163.7 540.5,-141.7 315.5,-141.7"/>
<image xlink:href="../../images/primaryKeys.png" width="11px" height="12px" preserveAspectRatio="xMinYMin meet" x="320.5" y="-158.7"/>
<text text-anchor="start" x="335.5" y="-148.8" font-family="Helvetica,sans-Serif" font-size="11.00" fill="#000000">user_id</text>
<polygon fill="#ffffff" stroke="transparent" points="315.5,-119.7 315.5,-141.7 540.5,-141.7 540.5,-119.7 315.5,-119.7"/>
<polygon fill="none" stroke="#000000" points="315.5,-119.7 315.5,-141.7 540.5,-141.7 540.5,-119.7 315.5,-119.7"/>
<text text-anchor="start" x="335.5" y="-126.8" font-family="Helvetica,sans-Serif" font-size="11.00" fill="#000000">user_uid</text>
<polygon fill="#ffffff" stroke="transparent" points="315.5,-97.7 315.5,-119.7 540.5,-119.7 540.5,-97.7 315.5,-97.7"/>
<polygon fill="none" stroke="#000000" points="315.5,-97.7 315.5,-119.7 540.5,-119.7 540.5,-97.7 315.5,-97.7"/>
<image xlink:href="../../images/foreignKeys.png" width="11px" height="12px" preserveAspectRatio="xMinYMin meet" x="320.5" y="-114.7"/>
<text text-anchor="start" x="335.5" y="-104.8" font-family="Helvetica,sans-Serif" font-size="11.00" fill="#000000">default_org</text>
<polygon fill="#ffffff" stroke="transparent" points="315.5,-75.7 315.5,-97.7 540.5,-97.7 540.5,-75.7 315.5,-75.7"/>
<polygon fill="none" stroke="#000000" points="315.5,-75.7 315.5,-97.7 540.5,-97.7 540.5,-75.7 315.5,-75.7"/>
<text text-anchor="start" x="335.5" y="-82.8" font-family="Helvetica,sans-Serif" font-size="11.00" fill="#000000">type</text>
<polygon fill="none" stroke="#000000" points="315.5,-56.7 315.5,-75.7 540.5,-75.7 540.5,-56.7 315.5,-56.7"/>
<text text-anchor="start" x="318.5" y="-62.8" font-family="Helvetica,sans-Serif" font-size="11.00" fill="#000000">...</text>
<polygon fill="#ffffff" stroke="transparent" points="315.5,-37.7 315.5,-56.7 405.5,-56.7 405.5,-37.7 315.5,-37.7"/>
<polygon fill="none" stroke="#000000" points="315.5,-37.7 315.5,-56.7 405.5,-56.7 405.5,-37.7 315.5,-37.7"/>
<text text-anchor="start" x="318.5" y="-43.8" font-family="Helvetica,sans-Serif" font-size="11.00" fill="#000000">&lt; 1</text>
<polygon fill="#ffffff" stroke="transparent" points="405.5,-37.7 405.5,-56.7 478.5,-56.7 478.5,-37.7 405.5,-37.7"/>
<polygon fill="none" stroke="#000000" points="405.5,-37.7 405.5,-56.7 478.5,-56.7 478.5,-37.7 405.5,-37.7"/>
<text text-anchor="start" x="443.1105" y="-43.8" font-family="Helvetica,sans-Serif" font-size="11.00" fill="#000000">6 rows</text>
<polygon fill="#ffffff" stroke="transparent" points="478.5,-37.7 478.5,-56.7 540.5,-56.7 540.5,-37.7 478.5,-37.7"/>
<polygon fill="none" stroke="#000000" points="478.5,-37.7 478.5,-56.7 540.5,-56.7 540.5,-37.7 478.5,-37.7"/>
<text text-anchor="start" x="515.7904" y="-43.8" font-family="Helvetica,sans-Serif" font-size="11.00" fill="#000000">33 &gt;</text>
</a>
</g>
</g>
<!-- remediation_digest_last_sent&#45;&gt;users -->
<g id="edge2" class="edge">
<title>remediation_digest_last_sent:w&#45;&gt;users:e</title>
<path fill="none" stroke="#000000" d="M576.7839,-168.044C564.5637,-163.037 558.5568,-152.7 540.5,-152.7"/>
<polygon fill="#000000" stroke="#000000" points="583.1361,-169.2308 590.3388,-174.2388 587.068,-169.9654 591,-170.7 591,-170.7 591,-170.7 587.068,-169.9654 591.6612,-167.1612 583.1361,-169.2308 583.1361,-169.2308"/>
<ellipse fill="none" stroke="#000000" cx="579.9905" cy="-168.6431" rx="3.2" ry="3.2"/>
</g>
<!-- users&#45;&gt;organizations -->
<g id="edge3" class="edge">
<title>users:w&#45;&gt;organizations:e</title>
<path fill="none" stroke="#000000" d="M301.4971,-113.7765C287.5276,-126.6764 291.4182,-159.7 266,-159.7"/>
<polygon fill="#000000" stroke="#000000" points="307.979,-111.4267 316.727,-112.0845 311.7395,-110.0633 315.5,-108.7 315.5,-108.7 315.5,-108.7 311.7395,-110.0633 314.273,-105.3155 307.979,-111.4267 307.979,-111.4267"/>
<ellipse fill="none" stroke="#000000" cx="304.9706" cy="-112.5173" rx="3.2" ry="3.2"/>
</g>
</g>
</svg>
