<?xml version="1.0" encoding="UTF-8" standalone="no"?>
<!DOCTYPE svg PUBLIC "-//W3C//DTD SVG 1.1//EN"
 "http://www.w3.org/Graphics/SVG/1.1/DTD/svg11.dtd">
<!-- Generated by graphviz version 2.40.1 (20161225.0304)
 -->
<!-- Title: oneDegreeRelationshipsDiagram Pages: 1 -->
<svg width="533pt" height="337pt"
 viewBox="0.00 0.00 533.00 336.70" xmlns="http://www.w3.org/2000/svg" xmlns:xlink="http://www.w3.org/1999/xlink">
<g id="graph0" class="graph" transform="scale(1 1) rotate(0) translate(4 332.7)">
<title>oneDegreeRelationshipsDiagram</title>
<polygon fill="#ffffff" stroke="transparent" points="-4,4 -4,-332.7 529,-332.7 529,4 -4,4"/>
<text text-anchor="middle" x="72.4936" y="-7.3" font-family="Helvetica,sans-Serif" font-size="11.00" fill="#000000">Generated by SchemaSpy</text>
<!-- organizations -->
<g id="node1" class="node">
<title>organizations</title>
<g id="a_node1"><a xlink:href="../../tables/organizations.html" xlink:title="organizations" target="_top">
<polygon fill="#ffffff" stroke="transparent" points="259,-109.7 259,-324.7 517,-324.7 517,-109.7 259,-109.7"/>
<polygon fill="#f5f5f5" stroke="transparent" points="259,-301.2 259,-324.2 517,-324.2 517,-301.2 259,-301.2"/>
<polygon fill="none" stroke="#000000" points="259,-301.2 259,-324.2 517,-324.2 517,-301.2 259,-301.2"/>
<text text-anchor="start" x="264" y="-310.3" font-family="Helvetica,sans-Serif" font-weight="bold" font-size="11.00" fill="#000000">organizations</text>
<text text-anchor="start" x="482.0437" y="-309.3" font-family="Helvetica,sans-Serif" font-size="11.00" fill="#000000">[table]</text>
<polygon fill="#ffffff" stroke="transparent" points="259,-279.2 259,-301.2 517,-301.2 517,-279.2 259,-279.2"/>
<polygon fill="none" stroke="#000000" points="259,-279.2 259,-301.2 517,-301.2 517,-279.2 259,-279.2"/>
<text text-anchor="start" x="279" y="-286.3" font-family="Helvetica,sans-Serif" font-size="11.00" fill="#000000">name</text>
<polygon fill="#ffffff" stroke="transparent" points="259,-257.2 259,-279.2 517,-279.2 517,-257.2 259,-257.2"/>
<polygon fill="none" stroke="#000000" points="259,-257.2 259,-279.2 517,-279.2 517,-257.2 259,-257.2"/>
<image xlink:href="../../images/foreignKeys.png" width="11px" height="12px" preserveAspectRatio="xMinYMin meet" x="264" y="-274.2"/>
<text text-anchor="start" x="279" y="-264.3" font-family="Helvetica,sans-Serif" font-size="11.00" fill="#000000">configKey_fk</text>
<polygon fill="#ffffff" stroke="transparent" points="259,-235.2 259,-257.2 517,-257.2 517,-235.2 259,-235.2"/>
<polygon fill="none" stroke="#000000" points="259,-235.2 259,-257.2 517,-257.2 517,-235.2 259,-235.2"/>
<image xlink:href="../../images/foreignKeys.png" width="11px" height="12px" preserveAspectRatio="xMinYMin meet" x="264" y="-252.2"/>
<text text-anchor="start" x="279" y="-242.3" font-family="Helvetica,sans-Serif" font-size="11.00" fill="#000000">passwordPolicy_fk</text>
<polygon fill="#ffffff" stroke="transparent" points="259,-213.2 259,-235.2 517,-235.2 517,-213.2 259,-213.2"/>
<polygon fill="none" stroke="#000000" points="259,-213.2 259,-235.2 517,-235.2 517,-213.2 259,-213.2"/>
<image xlink:href="../../images/foreignKeys.png" width="11px" height="12px" preserveAspectRatio="xMinYMin meet" x="264" y="-230.2"/>
<text text-anchor="start" x="279" y="-220.3" font-family="Helvetica,sans-Serif" font-size="11.00" fill="#000000">report_settings_fk</text>
<polygon fill="none" stroke="#000000" points="259,-191.2 259,-213.2 517,-213.2 517,-191.2 259,-191.2"/>
<image xlink:href="../../images/primaryKeys.png" width="11px" height="12px" preserveAspectRatio="xMinYMin meet" x="264" y="-208.2"/>
<text text-anchor="start" x="279" y="-198.3" font-family="Helvetica,sans-Serif" font-size="11.00" fill="#000000">id</text>
<polygon fill="#ffffff" stroke="transparent" points="259,-169.2 259,-191.2 517,-191.2 517,-169.2 259,-169.2"/>
<polygon fill="none" stroke="#000000" points="259,-169.2 259,-191.2 517,-191.2 517,-169.2 259,-169.2"/>
<text text-anchor="start" x="279" y="-176.3" font-family="Helvetica,sans-Serif" font-size="11.00" fill="#000000">uuid</text>
<polygon fill="#ffffff" stroke="transparent" points="259,-147.2 259,-169.2 517,-169.2 517,-147.2 259,-147.2"/>
<polygon fill="none" stroke="#000000" points="259,-147.2 259,-169.2 517,-169.2 517,-147.2 259,-147.2"/>
<image xlink:href="../../images/foreignKeys.png" width="11px" height="12px" preserveAspectRatio="xMinYMin meet" x="264" y="-164.2"/>
<text text-anchor="start" x="279" y="-154.3" font-family="Helvetica,sans-Serif" font-size="11.00" fill="#000000">saml_idp_config_fk</text>
<polygon fill="none" stroke="#000000" points="259,-128.2 259,-147.2 517,-147.2 517,-128.2 259,-128.2"/>
<text text-anchor="start" x="262" y="-134.3" font-family="Helvetica,sans-Serif" font-size="11.00" fill="#000000">...</text>
<polygon fill="#ffffff" stroke="transparent" points="259,-109.2 259,-128.2 366,-128.2 366,-109.2 259,-109.2"/>
<polygon fill="none" stroke="#000000" points="259,-109.2 259,-128.2 366,-128.2 366,-109.2 259,-109.2"/>
<text text-anchor="start" x="262" y="-115.3" font-family="Helvetica,sans-Serif" font-size="11.00" fill="#000000">&lt; 4</text>
<polygon fill="#ffffff" stroke="transparent" points="366,-109.2 366,-128.2 447,-128.2 447,-109.2 366,-109.2"/>
<polygon fill="none" stroke="#000000" points="366,-109.2 366,-128.2 447,-128.2 447,-109.2 366,-109.2"/>
<text text-anchor="start" x="411.6105" y="-115.3" font-family="Helvetica,sans-Serif" font-size="11.00" fill="#000000">3 rows</text>
<polygon fill="#ffffff" stroke="transparent" points="447,-109.2 447,-128.2 517,-128.2 517,-109.2 447,-109.2"/>
<polygon fill="none" stroke="#000000" points="447,-109.2 447,-128.2 517,-128.2 517,-109.2 447,-109.2"/>
<text text-anchor="start" x="492.2904" y="-115.3" font-family="Helvetica,sans-Serif" font-size="11.00" fill="#000000">81 &gt;</text>
</a>
</g>
</g>
<!-- report_settings -->
<g id="node2" class="node">
<title>report_settings</title>
<g id="a_node2"><a xlink:href="../../tables/report_settings.html" xlink:title="report_settings" target="_top">
<polygon fill="#ffffff" stroke="transparent" points="8,-38.2 8,-260.2 210,-260.2 210,-38.2 8,-38.2"/>
<polygon fill="#f5f5f5" stroke="transparent" points="10,-235.2 10,-258.2 208,-258.2 208,-235.2 10,-235.2"/>
<polygon fill="none" stroke="#000000" points="10,-235.2 10,-258.2 208,-258.2 208,-235.2 10,-235.2"/>
<text text-anchor="start" x="15" y="-244.3" font-family="Helvetica,sans-Serif" font-weight="bold" font-size="11.00" fill="#000000">report_settings</text>
<text text-anchor="start" x="173.0437" y="-243.3" font-family="Helvetica,sans-Serif" font-size="11.00" fill="#000000">[table]</text>
<polygon fill="none" stroke="#000000" points="10,-213.2 10,-235.2 135,-235.2 135,-213.2 10,-213.2"/>
<image xlink:href="../../images/primaryKeys.png" width="11px" height="12px" preserveAspectRatio="xMinYMin meet" x="15" y="-230.2"/>
<text text-anchor="start" x="30" y="-220.3" font-family="Helvetica,sans-Serif" font-size="11.00" fill="#000000">report_settings_id</text>
<polygon fill="none" stroke="#000000" points="135,-213.2 135,-235.2 208,-235.2 208,-213.2 135,-213.2"/>
<text text-anchor="start" x="138" y="-220.9" font-family="Helvetica,sans-Serif" font-size="11.00" fill="#000000">bigint[19]</text>
<polygon fill="none" stroke="#000000" points="10,-191.2 10,-213.2 135,-213.2 135,-191.2 10,-191.2"/>
<text text-anchor="start" x="30" y="-198.3" font-family="Helvetica,sans-Serif" font-size="11.00" fill="#000000">types</text>
<polygon fill="none" stroke="#000000" points="135,-191.2 135,-213.2 208,-213.2 208,-191.2 135,-191.2"/>
<text text-anchor="start" x="138" y="-198.9" font-family="Helvetica,sans-Serif" font-size="11.00" fill="#000000">varchar[255]</text>
<polygon fill="none" stroke="#000000" points="10,-169.2 10,-191.2 135,-191.2 135,-169.2 10,-169.2"/>
<text text-anchor="start" x="30" y="-176.3" font-family="Helvetica,sans-Serif" font-size="11.00" fill="#000000">traces</text>
<polygon fill="none" stroke="#000000" points="135,-169.2 135,-191.2 208,-191.2 208,-169.2 135,-169.2"/>
<text text-anchor="start" x="138" y="-176.9" font-family="Helvetica,sans-Serif" font-size="11.00" fill="#000000">varchar[255]</text>
<polygon fill="none" stroke="#000000" points="10,-147.2 10,-169.2 135,-169.2 135,-147.2 10,-147.2"/>
<text text-anchor="start" x="30" y="-154.3" font-family="Helvetica,sans-Serif" font-size="11.00" fill="#000000">custom_footer</text>
<polygon fill="none" stroke="#000000" points="135,-147.2 135,-169.2 208,-169.2 208,-147.2 135,-147.2"/>
<text text-anchor="start" x="137.8791" y="-154.9" font-family="Helvetica,sans-Serif" font-size="11.00" fill="#000000">varchar[4000]</text>
<polygon fill="none" stroke="#000000" points="10,-125.2 10,-147.2 135,-147.2 135,-125.2 10,-125.2"/>
<text text-anchor="start" x="30" y="-132.3" font-family="Helvetica,sans-Serif" font-size="11.00" fill="#000000">include_status</text>
<polygon fill="none" stroke="#000000" points="135,-125.2 135,-147.2 208,-147.2 208,-125.2 135,-125.2"/>
<text text-anchor="start" x="138" y="-132.9" font-family="Helvetica,sans-Serif" font-size="11.00" fill="#000000">bit[1]</text>
<polygon fill="none" stroke="#000000" points="10,-103.2 10,-125.2 135,-125.2 135,-103.2 10,-103.2"/>
<text text-anchor="start" x="30" y="-110.3" font-family="Helvetica,sans-Serif" font-size="11.00" fill="#000000">include_notes</text>
<polygon fill="none" stroke="#000000" points="135,-103.2 135,-125.2 208,-125.2 208,-103.2 135,-103.2"/>
<text text-anchor="start" x="138" y="-110.9" font-family="Helvetica,sans-Serif" font-size="11.00" fill="#000000">bit[1]</text>
<polygon fill="none" stroke="#000000" points="10,-81.2 10,-103.2 135,-103.2 135,-81.2 10,-81.2"/>
<text text-anchor="start" x="30" y="-88.3" font-family="Helvetica,sans-Serif" font-size="11.00" fill="#000000">tags</text>
<polygon fill="none" stroke="#000000" points="135,-81.2 135,-103.2 208,-103.2 208,-81.2 135,-81.2"/>
<text text-anchor="start" x="137.8791" y="-88.9" font-family="Helvetica,sans-Serif" font-size="11.00" fill="#000000">varchar[1000]</text>
<polygon fill="none" stroke="#000000" points="10,-59.2 10,-81.2 135,-81.2 135,-59.2 10,-59.2"/>
<text text-anchor="start" x="30" y="-66.3" font-family="Helvetica,sans-Serif" font-size="11.00" fill="#000000">severities</text>
<polygon fill="none" stroke="#000000" points="135,-59.2 135,-81.2 208,-81.2 208,-59.2 135,-59.2"/>
<text text-anchor="start" x="138" y="-66.9" font-family="Helvetica,sans-Serif" font-size="11.00" fill="#000000">varchar[255]</text>
<polygon fill="#ffffff" stroke="transparent" points="10,-40.2 10,-59.2 64,-59.2 64,-40.2 10,-40.2"/>
<polygon fill="none" stroke="#000000" points="10,-40.2 10,-59.2 64,-59.2 64,-40.2 10,-40.2"/>
<text text-anchor="start" x="13" y="-46.3" font-family="Helvetica,sans-Serif" font-size="11.00" fill="#000000">&lt; 0</text>
<polygon fill="#ffffff" stroke="transparent" points="64,-40.2 64,-59.2 135,-59.2 135,-40.2 64,-40.2"/>
<polygon fill="none" stroke="#000000" points="64,-40.2 64,-59.2 135,-59.2 135,-40.2 64,-40.2"/>
<text text-anchor="start" x="99.6105" y="-46.3" font-family="Helvetica,sans-Serif" font-size="11.00" fill="#000000">0 rows</text>
<polygon fill="#ffffff" stroke="transparent" points="135,-40.2 135,-59.2 208,-59.2 208,-40.2 135,-40.2"/>
<polygon fill="none" stroke="#000000" points="135,-40.2 135,-59.2 208,-59.2 208,-40.2 135,-40.2"/>
<text text-anchor="start" x="189.4053" y="-46.3" font-family="Helvetica,sans-Serif" font-size="11.00" fill="#000000">1 &gt;</text>
<polygon fill="none" stroke="#000000" stroke-width="2" points="9,-39.2 9,-259.2 209,-259.2 209,-39.2 9,-39.2"/>
</a>
</g>
</g>
<!-- organizations&#45;&gt;report_settings -->
<g id="edge1" class="edge">
<title>organizations:w&#45;&gt;report_settings:e</title>
<path fill="none" stroke="#000000" d="M244.276,-224.2C232.2815,-224.2 224.8229,-224.2 208,-224.2"/>
<polygon fill="#000000" stroke="#000000" points="251,-224.2001 259,-227.8 255,-224.2 259,-224.2 259,-224.2 259,-224.2 255,-224.2 259,-220.6 251,-224.2001 251,-224.2001"/>
<ellipse fill="none" stroke="#000000" cx="247.8" cy="-224.2001" rx="3.2" ry="3.2"/>
</g>
</g>
</svg>
