digraph "oneDegreeRelationshipsDiagram" {
  graph [
    rankdir="RL"
    bgcolor="#ffffff"
    label="\nGenerated by SchemaSpy"
    labeljust="l"
    nodesep="0.18"
    ranksep="0.46"
    fontname="Helvetica"
    fontsize="11"
    ration="compress"
  ];
  node [
    fontname="Helvetica"
    fontsize="11"
    shape="plaintext"
  ];
  edge [
    arrowsize="0.8"
  ];
  "route_coverage_snapshot":"applications_id":w -> "applications":"application_id":e [arrowhead=none dir=back arrowtail=crowodot];
  "applications" [
   label=<
    <TABLE BORDER="0" CELLBORDER="1" CELLSPACING="0" BGCOLOR="#ffffff">
      <TR><TD COLSPAN="3"  BGCOLOR="#f5f5f5"><TABLE BORDER="0" CELLSPACING="0"><TR><TD ALIGN="LEFT"><B>applications</B></TD><TD ALIGN="RIGHT">[table]</TD></TR></TABLE></TD></TR>
      <TR><TD PORT="application_id" COLSPAN="3" ALIGN="LEFT"><TABLE BORDER="0" CELLSPACING="0" ALIGN="LEFT"><TR ALIGN="LEFT"><TD ALIGN="LEFT" FIXEDSIZE="TRUE" WIDTH="15" HEIGHT="16"><IMG SRC="../../images/primaryKeys.png"/></TD><TD ALIGN="LEFT" FIXEDSIZE="TRUE" WIDTH="162" HEIGHT="16">application_id</TD></TR></TABLE></TD></TR>
      <TR><TD PORT="app_name" COLSPAN="3" BGCOLOR="#ffffff" ALIGN="LEFT"><TABLE BORDER="0" CELLSPACING="0" ALIGN="LEFT"><TR ALIGN="LEFT"><TD ALIGN="LEFT" FIXEDSIZE="TRUE" WIDTH="15" HEIGHT="16"></TD><TD ALIGN="LEFT" FIXEDSIZE="TRUE" WIDTH="162" HEIGHT="16">app_name</TD></TR></TABLE></TD></TR>
      <TR><TD PORT="app_short_name" COLSPAN="3" BGCOLOR="#ffffff" ALIGN="LEFT"><TABLE BORDER="0" CELLSPACING="0" ALIGN="LEFT"><TR ALIGN="LEFT"><TD ALIGN="LEFT" FIXEDSIZE="TRUE" WIDTH="15" HEIGHT="16"></TD><TD ALIGN="LEFT" FIXEDSIZE="TRUE" WIDTH="162" HEIGHT="16">app_short_name</TD></TR></TABLE></TD></TR>
      <TR><TD PORT="app_license_fk" COLSPAN="3" BGCOLOR="#ffffff" ALIGN="LEFT"><TABLE BORDER="0" CELLSPACING="0" ALIGN="LEFT"><TR ALIGN="LEFT"><TD ALIGN="LEFT" FIXEDSIZE="TRUE" WIDTH="15" HEIGHT="16"><IMG SRC="../../images/foreignKeys.png"/></TD><TD ALIGN="LEFT" FIXEDSIZE="TRUE" WIDTH="162" HEIGHT="16">app_license_fk</TD></TR></TABLE></TD></TR>
      <TR><TD PORT="app_parent_fk" COLSPAN="3" BGCOLOR="#ffffff" ALIGN="LEFT"><TABLE BORDER="0" CELLSPACING="0" ALIGN="LEFT"><TR ALIGN="LEFT"><TD ALIGN="LEFT" FIXEDSIZE="TRUE" WIDTH="15" HEIGHT="16"><IMG SRC="../../images/foreignKeys.png"/></TD><TD ALIGN="LEFT" FIXEDSIZE="TRUE" WIDTH="162" HEIGHT="16">app_parent_fk</TD></TR></TABLE></TD></TR>
      <TR><TD PORT="app_display_name" COLSPAN="3" BGCOLOR="#ffffff" ALIGN="LEFT"><TABLE BORDER="0" CELLSPACING="0" ALIGN="LEFT"><TR ALIGN="LEFT"><TD ALIGN="LEFT" FIXEDSIZE="TRUE" WIDTH="15" HEIGHT="16"></TD><TD ALIGN="LEFT" FIXEDSIZE="TRUE" WIDTH="162" HEIGHT="16">app_display_name</TD></TR></TABLE></TD></TR>
      <TR><TD PORT="importance" COLSPAN="3" BGCOLOR="#ffffff" ALIGN="LEFT"><TABLE BORDER="0" CELLSPACING="0" ALIGN="LEFT"><TR ALIGN="LEFT"><TD ALIGN="LEFT" FIXEDSIZE="TRUE" WIDTH="15" HEIGHT="16"></TD><TD ALIGN="LEFT" FIXEDSIZE="TRUE" WIDTH="162" HEIGHT="16">importance</TD></TR></TABLE></TD></TR>
      <TR><TD PORT="organizations_id" COLSPAN="3" BGCOLOR="#ffffff" ALIGN="LEFT"><TABLE BORDER="0" CELLSPACING="0" ALIGN="LEFT"><TR ALIGN="LEFT"><TD ALIGN="LEFT" FIXEDSIZE="TRUE" WIDTH="15" HEIGHT="16"><IMG SRC="../../images/foreignKeys.png"/></TD><TD ALIGN="LEFT" FIXEDSIZE="TRUE" WIDTH="162" HEIGHT="16">organizations_id</TD></TR></TABLE></TD></TR>
      <TR><TD PORT="agent_language" COLSPAN="3" BGCOLOR="#ffffff" ALIGN="LEFT"><TABLE BORDER="0" CELLSPACING="0" ALIGN="LEFT"><TR ALIGN="LEFT"><TD ALIGN="LEFT" FIXEDSIZE="TRUE" WIDTH="15" HEIGHT="16"></TD><TD ALIGN="LEFT" FIXEDSIZE="TRUE" WIDTH="162" HEIGHT="16">agent_language</TD></TR></TABLE></TD></TR>
      <TR><TD PORT="elipses" COLSPAN="3" ALIGN="LEFT">...</TD></TR>
      <TR><TD ALIGN="LEFT" BGCOLOR="#ffffff">&lt; 3</TD><TD ALIGN="RIGHT" BGCOLOR="#ffffff">0 rows</TD><TD ALIGN="RIGHT" BGCOLOR="#ffffff">57 &gt;</TD></TR>
    </TABLE>>
    URL="../../tables/applications.html"
    target="_top"
    tooltip="applications"
  ];
  "route_coverage_snapshot" [
   label=<
    <TABLE BORDER="2" CELLBORDER="1" CELLSPACING="0" BGCOLOR="#ffffff">
      <TR><TD COLSPAN="4"  BGCOLOR="#f5f5f5"><TABLE BORDER="0" CELLSPACING="0"><TR><TD ALIGN="LEFT"><B>route_coverage_snapshot</B></TD><TD ALIGN="RIGHT">[table]</TD></TR></TABLE></TD></TR>
      <TR><TD PORT="dt_timestamp" COLSPAN="2" ALIGN="LEFT"><TABLE BORDER="0" CELLSPACING="0" ALIGN="LEFT"><TR ALIGN="LEFT"><TD ALIGN="LEFT" FIXEDSIZE="TRUE" WIDTH="15" HEIGHT="16"><IMG SRC="../../images/primaryKeys.png"/></TD><TD ALIGN="LEFT" FIXEDSIZE="TRUE" WIDTH="149" HEIGHT="16">dt_timestamp</TD></TR></TABLE></TD><TD PORT="dt_timestamp.type" ALIGN="LEFT">bigint[19]</TD></TR>
      <TR><TD PORT="applications_id" COLSPAN="2" ALIGN="LEFT"><TABLE BORDER="0" CELLSPACING="0" ALIGN="LEFT"><TR ALIGN="LEFT"><TD ALIGN="LEFT" FIXEDSIZE="TRUE" WIDTH="15" HEIGHT="16"><IMG SRC="../../images/primaryKeys.png"/></TD><TD ALIGN="LEFT" FIXEDSIZE="TRUE" WIDTH="149" HEIGHT="16">applications_id</TD></TR></TABLE></TD><TD PORT="applications_id.type" ALIGN="LEFT">varchar[255]</TD></TR>
      <TR><TD PORT="discovered_routes" COLSPAN="2" ALIGN="LEFT"><TABLE BORDER="0" CELLSPACING="0" ALIGN="LEFT"><TR ALIGN="LEFT"><TD ALIGN="LEFT" FIXEDSIZE="TRUE" WIDTH="15" HEIGHT="16"></TD><TD ALIGN="LEFT" FIXEDSIZE="TRUE" WIDTH="149" HEIGHT="16">discovered_routes</TD></TR></TABLE></TD><TD PORT="discovered_routes.type" ALIGN="LEFT">mediumint[7]</TD></TR>
      <TR><TD PORT="exercised_routes" COLSPAN="2" ALIGN="LEFT"><TABLE BORDER="0" CELLSPACING="0" ALIGN="LEFT"><TR ALIGN="LEFT"><TD ALIGN="LEFT" FIXEDSIZE="TRUE" WIDTH="15" HEIGHT="16"></TD><TD ALIGN="LEFT" FIXEDSIZE="TRUE" WIDTH="149" HEIGHT="16">exercised_routes</TD></TR></TABLE></TD><TD PORT="exercised_routes.type" ALIGN="LEFT">mediumint[7]</TD></TR>
      <TR><TD PORT="vulnerable_routes" COLSPAN="2" ALIGN="LEFT"><TABLE BORDER="0" CELLSPACING="0" ALIGN="LEFT"><TR ALIGN="LEFT"><TD ALIGN="LEFT" FIXEDSIZE="TRUE" WIDTH="15" HEIGHT="16"></TD><TD ALIGN="LEFT" FIXEDSIZE="TRUE" WIDTH="149" HEIGHT="16">vulnerable_routes</TD></TR></TABLE></TD><TD PORT="vulnerable_routes.type" ALIGN="LEFT">mediumint[7]</TD></TR>
      <TR><TD ALIGN="LEFT" BGCOLOR="#ffffff">&lt; 1</TD><TD ALIGN="RIGHT" BGCOLOR="#ffffff">0 rows</TD><TD ALIGN="RIGHT" BGCOLOR="#ffffff">0 &gt;</TD></TR>
    </TABLE>>
    URL="../../tables/route_coverage_snapshot.html"
    target="_top"
    tooltip="route_coverage_snapshot"
  ];
}
