<?xml version="1.0" encoding="UTF-8" standalone="no"?>
<!DOCTYPE svg PUBLIC "-//W3C//DTD SVG 1.1//EN"
 "http://www.w3.org/Graphics/SVG/1.1/DTD/svg11.dtd">
<!-- Generated by graphviz version 2.40.1 (20161225.0304)
 -->
<!-- Title: twoDegreesRelationshipsDiagram Pages: 1 -->
<svg width="690pt" height="1043pt"
 viewBox="0.00 0.00 690.00 1043.20" xmlns="http://www.w3.org/2000/svg" xmlns:xlink="http://www.w3.org/1999/xlink">
<g id="graph0" class="graph" transform="scale(1 1) rotate(0) translate(4 1039.2)">
<title>twoDegreesRelationshipsDiagram</title>
<polygon fill="#ffffff" stroke="transparent" points="-4,4 -4,-1039.2 686,-1039.2 686,4 -4,4"/>
<text text-anchor="middle" x="72.4936" y="-7.3" font-family="Helvetica,sans-Serif" font-size="11.00" fill="#000000">Generated by SchemaSpy</text>
<!-- rasp_attack_event -->
<g id="node1" class="node">
<title>rasp_attack_event</title>
<g id="a_node1"><a xlink:href="../../tables/rasp_attack_event.html" xlink:title="rasp_attack_event" target="_top">
<polygon fill="#ffffff" stroke="transparent" points="455,-724.2 455,-785.2 587,-785.2 587,-724.2 455,-724.2"/>
<polygon fill="#f5f5f5" stroke="transparent" points="455,-761.7 455,-784.7 587,-784.7 587,-761.7 455,-761.7"/>
<polygon fill="none" stroke="#000000" points="455,-761.7 455,-784.7 587,-784.7 587,-761.7 455,-761.7"/>
<text text-anchor="start" x="459.5667" y="-770.8" font-family="Helvetica,sans-Serif" font-weight="bold" font-size="11.00" fill="#000000">rasp_attack_event</text>
<text text-anchor="start" x="552.5219" y="-769.8" font-family="Helvetica,sans-Serif" font-size="11.00" fill="#000000">[table]</text>
<polygon fill="none" stroke="#000000" points="455,-742.7 455,-761.7 587,-761.7 587,-742.7 455,-742.7"/>
<text text-anchor="start" x="458" y="-748.8" font-family="Helvetica,sans-Serif" font-size="11.00" fill="#000000">...</text>
<polygon fill="#ffffff" stroke="transparent" points="455,-723.7 455,-742.7 502,-742.7 502,-723.7 455,-723.7"/>
<polygon fill="none" stroke="#000000" points="455,-723.7 455,-742.7 502,-742.7 502,-723.7 455,-723.7"/>
<text text-anchor="start" x="458" y="-729.8" font-family="Helvetica,sans-Serif" font-size="11.00" fill="#000000">&lt; 7</text>
<polygon fill="#ffffff" stroke="transparent" points="502,-723.7 502,-742.7 553,-742.7 553,-723.7 502,-723.7"/>
<polygon fill="none" stroke="#000000" points="502,-723.7 502,-742.7 553,-742.7 553,-723.7 502,-723.7"/>
<text text-anchor="start" x="517.6105" y="-729.8" font-family="Helvetica,sans-Serif" font-size="11.00" fill="#000000">0 rows</text>
<polygon fill="#ffffff" stroke="transparent" points="553,-723.7 553,-742.7 587,-742.7 587,-723.7 553,-723.7"/>
<polygon fill="none" stroke="#000000" points="553,-723.7 553,-742.7 587,-742.7 587,-723.7 553,-723.7"/>
<text text-anchor="start" x="568.4053" y="-729.8" font-family="Helvetica,sans-Serif" font-size="11.00" fill="#000000">5 &gt;</text>
</a>
</g>
</g>
<!-- applications -->
<g id="node2" class="node">
<title>applications</title>
<g id="a_node2"><a xlink:href="../../tables/applications.html" xlink:title="applications" target="_top">
<polygon fill="#ffffff" stroke="transparent" points="8,-667.2 8,-728.2 109,-728.2 109,-667.2 8,-667.2"/>
<polygon fill="#f5f5f5" stroke="transparent" points="8.5,-704.7 8.5,-727.7 109.5,-727.7 109.5,-704.7 8.5,-704.7"/>
<polygon fill="none" stroke="#000000" points="8.5,-704.7 8.5,-727.7 109.5,-727.7 109.5,-704.7 8.5,-704.7"/>
<text text-anchor="start" x="13.4655" y="-713.8" font-family="Helvetica,sans-Serif" font-weight="bold" font-size="11.00" fill="#000000">applications</text>
<text text-anchor="start" x="75.0219" y="-712.8" font-family="Helvetica,sans-Serif" font-size="11.00" fill="#000000">[table]</text>
<polygon fill="none" stroke="#000000" points="8.5,-685.7 8.5,-704.7 109.5,-704.7 109.5,-685.7 8.5,-685.7"/>
<text text-anchor="start" x="11.5" y="-691.8" font-family="Helvetica,sans-Serif" font-size="11.00" fill="#000000">...</text>
<polygon fill="#ffffff" stroke="transparent" points="8.5,-666.7 8.5,-685.7 36.5,-685.7 36.5,-666.7 8.5,-666.7"/>
<polygon fill="none" stroke="#000000" points="8.5,-666.7 8.5,-685.7 36.5,-685.7 36.5,-666.7 8.5,-666.7"/>
<text text-anchor="start" x="11.5" y="-672.8" font-family="Helvetica,sans-Serif" font-size="11.00" fill="#000000">&lt; 3</text>
<polygon fill="#ffffff" stroke="transparent" points="36.5,-666.7 36.5,-685.7 78.5,-685.7 78.5,-666.7 36.5,-666.7"/>
<polygon fill="none" stroke="#000000" points="36.5,-666.7 36.5,-685.7 78.5,-685.7 78.5,-666.7 36.5,-666.7"/>
<text text-anchor="start" x="43.1105" y="-672.8" font-family="Helvetica,sans-Serif" font-size="11.00" fill="#000000">0 rows</text>
<polygon fill="#ffffff" stroke="transparent" points="78.5,-666.7 78.5,-685.7 109.5,-685.7 109.5,-666.7 78.5,-666.7"/>
<polygon fill="none" stroke="#000000" points="78.5,-666.7 78.5,-685.7 109.5,-685.7 109.5,-666.7 78.5,-666.7"/>
<text text-anchor="start" x="84.7904" y="-672.8" font-family="Helvetica,sans-Serif" font-size="11.00" fill="#000000">57 &gt;</text>
</a>
</g>
</g>
<!-- rasp_attack_event&#45;&gt;applications -->
<g id="edge1" class="edge">
<title>rasp_attack_event:w&#45;&gt;applications:e</title>
<path fill="none" stroke="#000000" d="M440.5919,-751.0364C393.0548,-746.4463 380.8248,-719.2854 327,-708.7 231.9539,-690.0079 206.3667,-694.7 109.5,-694.7"/>
<polygon fill="#000000" stroke="#000000" points="447.0085,-751.3319 454.8343,-755.2962 451.0042,-751.5159 455,-751.7 455,-751.7 455,-751.7 451.0042,-751.5159 455.1657,-748.1038 447.0085,-751.3319 447.0085,-751.3319"/>
<ellipse fill="none" stroke="#000000" cx="443.8119" cy="-751.1846" rx="3.2" ry="3.2"/>
</g>
<!-- rules_exclusions -->
<g id="node3" class="node">
<title>rules_exclusions</title>
<g id="a_node3"><a xlink:href="../../tables/rules_exclusions.html" xlink:title="rules_exclusions" target="_top">
<polygon fill="#ffffff" stroke="transparent" points="166,-719.2 166,-868.2 311,-868.2 311,-719.2 166,-719.2"/>
<polygon fill="#f5f5f5" stroke="transparent" points="166.5,-844.7 166.5,-867.7 311.5,-867.7 311.5,-844.7 166.5,-844.7"/>
<polygon fill="none" stroke="#000000" points="166.5,-844.7 166.5,-867.7 311.5,-867.7 311.5,-844.7 166.5,-844.7"/>
<text text-anchor="start" x="171.5" y="-853.8" font-family="Helvetica,sans-Serif" font-weight="bold" font-size="11.00" fill="#000000">rules_exclusions</text>
<text text-anchor="start" x="276.5437" y="-852.8" font-family="Helvetica,sans-Serif" font-size="11.00" fill="#000000">[table]</text>
<polygon fill="none" stroke="#000000" points="166.5,-822.7 166.5,-844.7 311.5,-844.7 311.5,-822.7 166.5,-822.7"/>
<image xlink:href="../../images/primaryKeys.png" width="11px" height="12px" preserveAspectRatio="xMinYMin meet" x="171.5" y="-839.7"/>
<text text-anchor="start" x="186.5" y="-829.8" font-family="Helvetica,sans-Serif" font-size="11.00" fill="#000000">id</text>
<polygon fill="#ffffff" stroke="transparent" points="166.5,-800.7 166.5,-822.7 311.5,-822.7 311.5,-800.7 166.5,-800.7"/>
<polygon fill="none" stroke="#000000" points="166.5,-800.7 166.5,-822.7 311.5,-822.7 311.5,-800.7 166.5,-800.7"/>
<text text-anchor="start" x="186.5" y="-807.8" font-family="Helvetica,sans-Serif" font-size="11.00" fill="#000000">name</text>
<polygon fill="#ffffff" stroke="transparent" points="166.5,-778.7 166.5,-800.7 311.5,-800.7 311.5,-778.7 166.5,-778.7"/>
<polygon fill="none" stroke="#000000" points="166.5,-778.7 166.5,-800.7 311.5,-800.7 311.5,-778.7 166.5,-778.7"/>
<image xlink:href="../../images/foreignKeys.png" width="11px" height="12px" preserveAspectRatio="xMinYMin meet" x="171.5" y="-795.7"/>
<text text-anchor="start" x="186.5" y="-785.8" font-family="Helvetica,sans-Serif" font-size="11.00" fill="#000000">applications_id</text>
<polygon fill="#ffffff" stroke="transparent" points="166.5,-756.7 166.5,-778.7 311.5,-778.7 311.5,-756.7 166.5,-756.7"/>
<polygon fill="none" stroke="#000000" points="166.5,-756.7 166.5,-778.7 311.5,-778.7 311.5,-756.7 166.5,-756.7"/>
<text text-anchor="start" x="186.5" y="-763.8" font-family="Helvetica,sans-Serif" font-size="11.00" fill="#000000">exclusion_hash</text>
<polygon fill="none" stroke="#000000" points="166.5,-737.7 166.5,-756.7 311.5,-756.7 311.5,-737.7 166.5,-737.7"/>
<text text-anchor="start" x="169.5" y="-743.8" font-family="Helvetica,sans-Serif" font-size="11.00" fill="#000000">...</text>
<polygon fill="#ffffff" stroke="transparent" points="166.5,-718.7 166.5,-737.7 219.5,-737.7 219.5,-718.7 166.5,-718.7"/>
<polygon fill="none" stroke="#000000" points="166.5,-718.7 166.5,-737.7 219.5,-737.7 219.5,-718.7 166.5,-718.7"/>
<text text-anchor="start" x="169.5" y="-724.8" font-family="Helvetica,sans-Serif" font-size="11.00" fill="#000000">&lt; 1</text>
<polygon fill="#ffffff" stroke="transparent" points="219.5,-718.7 219.5,-737.7 273.5,-737.7 273.5,-718.7 219.5,-718.7"/>
<polygon fill="none" stroke="#000000" points="219.5,-718.7 219.5,-737.7 273.5,-737.7 273.5,-718.7 219.5,-718.7"/>
<text text-anchor="start" x="238.1105" y="-724.8" font-family="Helvetica,sans-Serif" font-size="11.00" fill="#000000">0 rows</text>
<polygon fill="#ffffff" stroke="transparent" points="273.5,-718.7 273.5,-737.7 311.5,-737.7 311.5,-718.7 273.5,-718.7"/>
<polygon fill="none" stroke="#000000" points="273.5,-718.7 273.5,-737.7 311.5,-737.7 311.5,-718.7 273.5,-718.7"/>
<text text-anchor="start" x="292.9053" y="-724.8" font-family="Helvetica,sans-Serif" font-size="11.00" fill="#000000">5 &gt;</text>
</a>
</g>
</g>
<!-- rasp_attack_event&#45;&gt;rules_exclusions -->
<g id="edge2" class="edge">
<title>rasp_attack_event:w&#45;&gt;rules_exclusions:e</title>
<path fill="none" stroke="#000000" d="M440.5402,-752.4369C406.0831,-756.2247 395.1929,-774.1631 360,-795.7 336.6427,-809.9939 338.8839,-833.7 311.5,-833.7"/>
<polygon fill="#000000" stroke="#000000" points="447.0104,-752.1072 455.1832,-755.2953 451.0052,-751.9036 455,-751.7 455,-751.7 455,-751.7 451.0052,-751.9036 454.8168,-748.1047 447.0104,-752.1072 447.0104,-752.1072"/>
<ellipse fill="none" stroke="#000000" cx="443.8145" cy="-752.2701" rx="3.2" ry="3.2"/>
</g>
<!-- rasp_protection_rules -->
<g id="node4" class="node">
<title>rasp_protection_rules</title>
<g id="a_node4"><a xlink:href="../../tables/rasp_protection_rules.html" xlink:title="rasp_protection_rules" target="_top">
<polygon fill="#ffffff" stroke="transparent" points="158,-301.2 158,-428.2 319,-428.2 319,-301.2 158,-301.2"/>
<polygon fill="#f5f5f5" stroke="transparent" points="158.5,-404.7 158.5,-427.7 319.5,-427.7 319.5,-404.7 158.5,-404.7"/>
<polygon fill="none" stroke="#000000" points="158.5,-404.7 158.5,-427.7 319.5,-427.7 319.5,-404.7 158.5,-404.7"/>
<text text-anchor="start" x="163.5" y="-413.8" font-family="Helvetica,sans-Serif" font-weight="bold" font-size="11.00" fill="#000000">rasp_protection_rules</text>
<text text-anchor="start" x="284.5437" y="-412.8" font-family="Helvetica,sans-Serif" font-size="11.00" fill="#000000">[table]</text>
<polygon fill="none" stroke="#000000" points="158.5,-382.7 158.5,-404.7 319.5,-404.7 319.5,-382.7 158.5,-382.7"/>
<image xlink:href="../../images/primaryKeys.png" width="11px" height="12px" preserveAspectRatio="xMinYMin meet" x="163.5" y="-399.7"/>
<text text-anchor="start" x="178.5" y="-389.8" font-family="Helvetica,sans-Serif" font-size="11.00" fill="#000000">id</text>
<polygon fill="#ffffff" stroke="transparent" points="158.5,-360.7 158.5,-382.7 319.5,-382.7 319.5,-360.7 158.5,-360.7"/>
<polygon fill="none" stroke="#000000" points="158.5,-360.7 158.5,-382.7 319.5,-382.7 319.5,-360.7 158.5,-360.7"/>
<text text-anchor="start" x="178.5" y="-367.8" font-family="Helvetica,sans-Serif" font-size="11.00" fill="#000000">uuid</text>
<polygon fill="#ffffff" stroke="transparent" points="158.5,-338.7 158.5,-360.7 319.5,-360.7 319.5,-338.7 158.5,-338.7"/>
<polygon fill="none" stroke="#000000" points="158.5,-338.7 158.5,-360.7 319.5,-360.7 319.5,-338.7 158.5,-338.7"/>
<text text-anchor="start" x="178.5" y="-345.8" font-family="Helvetica,sans-Serif" font-size="11.00" fill="#000000">name</text>
<polygon fill="none" stroke="#000000" points="158.5,-319.7 158.5,-338.7 319.5,-338.7 319.5,-319.7 158.5,-319.7"/>
<text text-anchor="start" x="161.5" y="-325.8" font-family="Helvetica,sans-Serif" font-size="11.00" fill="#000000">...</text>
<polygon fill="#ffffff" stroke="transparent" points="158.5,-300.7 158.5,-319.7 212.5,-319.7 212.5,-300.7 158.5,-300.7"/>
<polygon fill="none" stroke="#000000" points="158.5,-300.7 158.5,-319.7 212.5,-319.7 212.5,-300.7 158.5,-300.7"/>
<text text-anchor="start" x="161.5" y="-306.8" font-family="Helvetica,sans-Serif" font-size="11.00" fill="#000000"> &#160;</text>
<polygon fill="#ffffff" stroke="transparent" points="212.5,-300.7 212.5,-319.7 277.5,-319.7 277.5,-300.7 212.5,-300.7"/>
<polygon fill="none" stroke="#000000" points="212.5,-300.7 212.5,-319.7 277.5,-319.7 277.5,-300.7 212.5,-300.7"/>
<text text-anchor="start" x="235.9956" y="-306.8" font-family="Helvetica,sans-Serif" font-size="11.00" fill="#000000">64 rows</text>
<polygon fill="#ffffff" stroke="transparent" points="277.5,-300.7 277.5,-319.7 319.5,-319.7 319.5,-300.7 277.5,-300.7"/>
<polygon fill="none" stroke="#000000" points="277.5,-300.7 277.5,-319.7 319.5,-319.7 319.5,-300.7 277.5,-300.7"/>
<text text-anchor="start" x="300.9053" y="-306.8" font-family="Helvetica,sans-Serif" font-size="11.00" fill="#000000">9 &gt;</text>
</a>
</g>
</g>
<!-- rasp_attack_event&#45;&gt;rasp_protection_rules -->
<g id="edge3" class="edge">
<title>rasp_attack_event:w&#45;&gt;rasp_protection_rules:e</title>
<path fill="none" stroke="#000000" d="M440.4171,-751.5757C404.5277,-750.8061 384.6621,-745.6022 360,-713.7 316.1609,-656.9909 391.1784,-393.7 319.5,-393.7"/>
<polygon fill="#000000" stroke="#000000" points="447.0003,-751.6318 454.9693,-755.2999 451.0001,-751.6659 455,-751.7 455,-751.7 455,-751.7 451.0001,-751.6659 455.0307,-748.1001 447.0003,-751.6318 447.0003,-751.6318"/>
<ellipse fill="none" stroke="#000000" cx="443.8004" cy="-751.6045" rx="3.2" ry="3.2"/>
</g>
<!-- rules_exclusions&#45;&gt;applications -->
<g id="edge12" class="edge">
<title>rules_exclusions:w&#45;&gt;applications:e</title>
<path fill="none" stroke="#000000" d="M152.2809,-785.8582C125.9761,-768.0852 152.7766,-694.7 109.5,-694.7"/>
<polygon fill="#000000" stroke="#000000" points="158.7769,-787.6133 165.561,-793.1754 162.6385,-788.6567 166.5,-789.7 166.5,-789.7 166.5,-789.7 162.6385,-788.6567 167.439,-786.2246 158.7769,-787.6133 158.7769,-787.6133"/>
<ellipse fill="none" stroke="#000000" cx="155.6877" cy="-786.7786" rx="3.2" ry="3.2"/>
</g>
<!-- rasp_cve_shield_org_config -->
<g id="node5" class="node">
<title>rasp_cve_shield_org_config</title>
<g id="a_node5"><a xlink:href="../../tables/rasp_cve_shield_org_config.html" xlink:title="rasp_cve_shield_org_config" target="_top">
<polygon fill="#ffffff" stroke="transparent" points="431.5,-448.2 431.5,-509.2 610.5,-509.2 610.5,-448.2 431.5,-448.2"/>
<polygon fill="#f5f5f5" stroke="transparent" points="432,-485.7 432,-508.7 611,-508.7 611,-485.7 432,-485.7"/>
<polygon fill="none" stroke="#000000" points="432,-485.7 432,-508.7 611,-508.7 611,-485.7 432,-485.7"/>
<text text-anchor="start" x="436.5366" y="-494.8" font-family="Helvetica,sans-Serif" font-weight="bold" font-size="11.00" fill="#000000">rasp_cve_shield_org_config</text>
<text text-anchor="start" x="576.5219" y="-493.8" font-family="Helvetica,sans-Serif" font-size="11.00" fill="#000000">[table]</text>
<polygon fill="none" stroke="#000000" points="432,-466.7 432,-485.7 611,-485.7 611,-466.7 432,-466.7"/>
<text text-anchor="start" x="435" y="-472.8" font-family="Helvetica,sans-Serif" font-size="11.00" fill="#000000">...</text>
<polygon fill="#ffffff" stroke="transparent" points="432,-447.7 432,-466.7 507,-466.7 507,-447.7 432,-447.7"/>
<polygon fill="none" stroke="#000000" points="432,-447.7 432,-466.7 507,-466.7 507,-447.7 432,-447.7"/>
<text text-anchor="start" x="435" y="-453.8" font-family="Helvetica,sans-Serif" font-size="11.00" fill="#000000">&lt; 2</text>
<polygon fill="#ffffff" stroke="transparent" points="507,-447.7 507,-466.7 572,-466.7 572,-447.7 507,-447.7"/>
<polygon fill="none" stroke="#000000" points="507,-447.7 507,-466.7 572,-466.7 572,-447.7 507,-447.7"/>
<text text-anchor="start" x="536.6105" y="-453.8" font-family="Helvetica,sans-Serif" font-size="11.00" fill="#000000">0 rows</text>
<polygon fill="#ffffff" stroke="transparent" points="572,-447.7 572,-466.7 611,-466.7 611,-447.7 572,-447.7"/>
<polygon fill="none" stroke="#000000" points="572,-447.7 572,-466.7 611,-466.7 611,-447.7 572,-447.7"/>
<text text-anchor="start" x="601.8862" y="-453.8" font-family="Helvetica,sans-Serif" font-size="11.00" fill="#000000"> &#160;</text>
</a>
</g>
</g>
<!-- rasp_cve_shield_org_config&#45;&gt;rasp_protection_rules -->
<g id="edge4" class="edge">
<title>rasp_cve_shield_org_config:w&#45;&gt;rasp_protection_rules:e</title>
<path fill="none" stroke="#000000" d="M417.3059,-474.6258C393.1392,-470.7054 384.301,-456.4129 360,-437.7 338.9415,-421.484 346.0786,-393.7 319.5,-393.7"/>
<polygon fill="#000000" stroke="#000000" points="424.0213,-475.1167 431.7375,-479.2904 428.0106,-475.4083 432,-475.7 432,-475.7 432,-475.7 428.0106,-475.4083 432.2625,-472.1096 424.0213,-475.1167 424.0213,-475.1167"/>
<ellipse fill="none" stroke="#000000" cx="420.8298" cy="-474.8834" rx="3.2" ry="3.2"/>
</g>
<!-- rasp_cve_shield_profile -->
<g id="node6" class="node">
<title>rasp_cve_shield_profile</title>
<g id="a_node6"><a xlink:href="../../tables/rasp_cve_shield_profile.html" xlink:title="rasp_cve_shield_profile" target="_top">
<polygon fill="#ffffff" stroke="transparent" points="442,-366.2 442,-427.2 600,-427.2 600,-366.2 442,-366.2"/>
<polygon fill="#f5f5f5" stroke="transparent" points="442,-403.7 442,-426.7 600,-426.7 600,-403.7 442,-403.7"/>
<polygon fill="none" stroke="#000000" points="442,-403.7 442,-426.7 600,-426.7 600,-403.7 442,-403.7"/>
<text text-anchor="start" x="446.7385" y="-412.8" font-family="Helvetica,sans-Serif" font-weight="bold" font-size="11.00" fill="#000000">rasp_cve_shield_profile</text>
<text text-anchor="start" x="565.5219" y="-411.8" font-family="Helvetica,sans-Serif" font-size="11.00" fill="#000000">[table]</text>
<polygon fill="none" stroke="#000000" points="442,-384.7 442,-403.7 600,-403.7 600,-384.7 442,-384.7"/>
<text text-anchor="start" x="445" y="-390.8" font-family="Helvetica,sans-Serif" font-size="11.00" fill="#000000">...</text>
<polygon fill="#ffffff" stroke="transparent" points="442,-365.7 442,-384.7 506,-384.7 506,-365.7 442,-365.7"/>
<polygon fill="none" stroke="#000000" points="442,-365.7 442,-384.7 506,-384.7 506,-365.7 442,-365.7"/>
<text text-anchor="start" x="445" y="-371.8" font-family="Helvetica,sans-Serif" font-size="11.00" fill="#000000">&lt; 1</text>
<polygon fill="#ffffff" stroke="transparent" points="506,-365.7 506,-384.7 566,-384.7 566,-365.7 506,-365.7"/>
<polygon fill="none" stroke="#000000" points="506,-365.7 506,-384.7 566,-384.7 566,-365.7 506,-365.7"/>
<text text-anchor="start" x="530.6105" y="-371.8" font-family="Helvetica,sans-Serif" font-size="11.00" fill="#000000">0 rows</text>
<polygon fill="#ffffff" stroke="transparent" points="566,-365.7 566,-384.7 600,-384.7 600,-365.7 566,-365.7"/>
<polygon fill="none" stroke="#000000" points="566,-365.7 566,-384.7 600,-384.7 600,-365.7 566,-365.7"/>
<text text-anchor="start" x="590.8862" y="-371.8" font-family="Helvetica,sans-Serif" font-size="11.00" fill="#000000"> &#160;</text>
</a>
</g>
</g>
<!-- rasp_cve_shield_profile&#45;&gt;rasp_protection_rules -->
<g id="edge5" class="edge">
<title>rasp_cve_shield_profile:w&#45;&gt;rasp_protection_rules:e</title>
<path fill="none" stroke="#000000" d="M427.4189,-393.7C384.5763,-393.7 368.7339,-393.7 319.5,-393.7"/>
<polygon fill="#000000" stroke="#000000" points="434,-393.7001 442,-397.3 438,-393.7 442,-393.7 442,-393.7 442,-393.7 438,-393.7 442,-390.1 434,-393.7001 434,-393.7001"/>
<ellipse fill="none" stroke="#000000" cx="430.8" cy="-393.7001" rx="3.2" ry="3.2"/>
</g>
<!-- rasp_protection_rules_cve -->
<g id="node7" class="node">
<title>rasp_protection_rules_cve</title>
<g id="a_node7"><a xlink:href="../../tables/rasp_protection_rules_cve.html" xlink:title="rasp_protection_rules_cve" target="_top">
<polygon fill="#ffffff" stroke="transparent" points="435.5,-284.2 435.5,-345.2 606.5,-345.2 606.5,-284.2 435.5,-284.2"/>
<polygon fill="#f5f5f5" stroke="transparent" points="436,-321.7 436,-344.7 607,-344.7 607,-321.7 436,-321.7"/>
<polygon fill="none" stroke="#000000" points="436,-321.7 436,-344.7 607,-344.7 607,-321.7 436,-321.7"/>
<text text-anchor="start" x="440.5125" y="-330.8" font-family="Helvetica,sans-Serif" font-weight="bold" font-size="11.00" fill="#000000">rasp_protection_rules_cve</text>
<text text-anchor="start" x="572.5219" y="-329.8" font-family="Helvetica,sans-Serif" font-size="11.00" fill="#000000">[table]</text>
<polygon fill="none" stroke="#000000" points="436,-302.7 436,-321.7 607,-321.7 607,-302.7 436,-302.7"/>
<text text-anchor="start" x="439" y="-308.8" font-family="Helvetica,sans-Serif" font-size="11.00" fill="#000000">...</text>
<polygon fill="#ffffff" stroke="transparent" points="436,-283.7 436,-302.7 507,-302.7 507,-283.7 436,-283.7"/>
<polygon fill="none" stroke="#000000" points="436,-283.7 436,-302.7 507,-302.7 507,-283.7 436,-283.7"/>
<text text-anchor="start" x="439" y="-289.8" font-family="Helvetica,sans-Serif" font-size="11.00" fill="#000000">&lt; 1</text>
<polygon fill="#ffffff" stroke="transparent" points="507,-283.7 507,-302.7 570,-302.7 570,-283.7 507,-283.7"/>
<polygon fill="none" stroke="#000000" points="507,-283.7 507,-302.7 570,-302.7 570,-283.7 507,-283.7"/>
<text text-anchor="start" x="534.6105" y="-289.8" font-family="Helvetica,sans-Serif" font-size="11.00" fill="#000000">0 rows</text>
<polygon fill="#ffffff" stroke="transparent" points="570,-283.7 570,-302.7 607,-302.7 607,-283.7 570,-283.7"/>
<polygon fill="none" stroke="#000000" points="570,-283.7 570,-302.7 607,-302.7 607,-283.7 570,-283.7"/>
<text text-anchor="start" x="597.8862" y="-289.8" font-family="Helvetica,sans-Serif" font-size="11.00" fill="#000000"> &#160;</text>
</a>
</g>
</g>
<!-- rasp_protection_rules_cve&#45;&gt;rasp_protection_rules -->
<g id="edge6" class="edge">
<title>rasp_protection_rules_cve:w&#45;&gt;rasp_protection_rules:e</title>
<path fill="none" stroke="#000000" d="M421.3505,-312.8786C394.8744,-317.5774 386.92,-335.6912 360,-355.7 340.19,-370.4241 344.1827,-393.7 319.5,-393.7"/>
<polygon fill="#000000" stroke="#000000" points="428.0258,-312.3416 436.2887,-315.2884 432.0129,-312.0208 436,-311.7 436,-311.7 436,-311.7 432.0129,-312.0208 435.7113,-308.1116 428.0258,-312.3416 428.0258,-312.3416"/>
<ellipse fill="none" stroke="#000000" cx="424.8361" cy="-312.5982" rx="3.2" ry="3.2"/>
</g>
<!-- rasp_protection_rules_env_configs -->
<g id="node8" class="node">
<title>rasp_protection_rules_env_configs</title>
<g id="a_node8"><a xlink:href="../../tables/rasp_protection_rules_env_configs.html" xlink:title="rasp_protection_rules_env_configs" target="_top">
<polygon fill="#ffffff" stroke="transparent" points="414.5,-38.2 414.5,-99.2 627.5,-99.2 627.5,-38.2 414.5,-38.2"/>
<polygon fill="#f5f5f5" stroke="transparent" points="415,-75.7 415,-98.7 628,-98.7 628,-75.7 415,-75.7"/>
<polygon fill="none" stroke="#000000" points="415,-75.7 415,-98.7 628,-98.7 628,-75.7 415,-75.7"/>
<text text-anchor="start" x="419.7264" y="-84.8" font-family="Helvetica,sans-Serif" font-weight="bold" font-size="11.00" fill="#000000">rasp_protection_rules_env_configs</text>
<text text-anchor="start" x="593.5219" y="-83.8" font-family="Helvetica,sans-Serif" font-size="11.00" fill="#000000">[table]</text>
<polygon fill="none" stroke="#000000" points="415,-56.7 415,-75.7 628,-75.7 628,-56.7 415,-56.7"/>
<text text-anchor="start" x="418" y="-62.8" font-family="Helvetica,sans-Serif" font-size="11.00" fill="#000000">...</text>
<polygon fill="#ffffff" stroke="transparent" points="415,-37.7 415,-56.7 507,-56.7 507,-37.7 415,-37.7"/>
<polygon fill="none" stroke="#000000" points="415,-37.7 415,-56.7 507,-56.7 507,-37.7 415,-37.7"/>
<text text-anchor="start" x="418" y="-43.8" font-family="Helvetica,sans-Serif" font-size="11.00" fill="#000000">&lt; 2</text>
<polygon fill="#ffffff" stroke="transparent" points="507,-37.7 507,-56.7 580,-56.7 580,-37.7 507,-37.7"/>
<polygon fill="none" stroke="#000000" points="507,-37.7 507,-56.7 580,-56.7 580,-37.7 507,-37.7"/>
<text text-anchor="start" x="544.6105" y="-43.8" font-family="Helvetica,sans-Serif" font-size="11.00" fill="#000000">0 rows</text>
<polygon fill="#ffffff" stroke="transparent" points="580,-37.7 580,-56.7 628,-56.7 628,-37.7 580,-37.7"/>
<polygon fill="none" stroke="#000000" points="580,-37.7 580,-56.7 628,-56.7 628,-37.7 580,-37.7"/>
<text text-anchor="start" x="618.8862" y="-43.8" font-family="Helvetica,sans-Serif" font-size="11.00" fill="#000000"> &#160;</text>
</a>
</g>
</g>
<!-- rasp_protection_rules_env_configs&#45;&gt;applications -->
<g id="edge7" class="edge">
<title>rasp_protection_rules_env_configs:w&#45;&gt;applications:e</title>
<path fill="none" stroke="#000000" d="M400.5214,-64.9199C346.7917,-60.0365 279.6686,-41.4307 150,-290.7 129.1805,-330.7226 154.6139,-694.7 109.5,-694.7"/>
<polygon fill="#000000" stroke="#000000" points="407.0116,-65.2695 414.8063,-69.2948 411.0058,-65.4848 415,-65.7 415,-65.7 415,-65.7 411.0058,-65.4848 415.1937,-62.1052 407.0116,-65.2695 407.0116,-65.2695"/>
<ellipse fill="none" stroke="#000000" cx="403.8162" cy="-65.0973" rx="3.2" ry="3.2"/>
</g>
<!-- rasp_protection_rules_env_configs&#45;&gt;rasp_protection_rules -->
<g id="edge8" class="edge">
<title>rasp_protection_rules_env_configs:w&#45;&gt;rasp_protection_rules:e</title>
<path fill="none" stroke="#000000" d="M400.4706,-67.2238C380.5955,-71.9322 372.7946,-87.2943 360,-109.7 328.3876,-165.0594 383.2496,-393.7 319.5,-393.7"/>
<polygon fill="#000000" stroke="#000000" points="407.0436,-66.5345 415.3755,-69.2804 411.0218,-66.1172 415,-65.7 415,-65.7 415,-65.7 411.0218,-66.1172 414.6245,-62.1196 407.0436,-66.5345 407.0436,-66.5345"/>
<ellipse fill="none" stroke="#000000" cx="403.8611" cy="-66.8683" rx="3.2" ry="3.2"/>
</g>
<!-- rasp_protection_rules_languages -->
<g id="node9" class="node">
<title>rasp_protection_rules_languages</title>
<g id="a_node9"><a xlink:href="../../tables/rasp_protection_rules_languages.html" xlink:title="rasp_protection_rules_languages" target="_top">
<polygon fill="#ffffff" stroke="transparent" points="418.5,-202.2 418.5,-263.2 623.5,-263.2 623.5,-202.2 418.5,-202.2"/>
<polygon fill="#f5f5f5" stroke="transparent" points="419,-239.7 419,-262.7 624,-262.7 624,-239.7 419,-239.7"/>
<polygon fill="none" stroke="#000000" points="419,-239.7 419,-262.7 624,-262.7 624,-239.7 419,-239.7"/>
<text text-anchor="start" x="423.6974" y="-248.8" font-family="Helvetica,sans-Serif" font-weight="bold" font-size="11.00" fill="#000000">rasp_protection_rules_languages</text>
<text text-anchor="start" x="589.5219" y="-247.8" font-family="Helvetica,sans-Serif" font-size="11.00" fill="#000000">[table]</text>
<polygon fill="none" stroke="#000000" points="419,-220.7 419,-239.7 624,-239.7 624,-220.7 419,-220.7"/>
<text text-anchor="start" x="422" y="-226.8" font-family="Helvetica,sans-Serif" font-size="11.00" fill="#000000">...</text>
<polygon fill="#ffffff" stroke="transparent" points="419,-201.7 419,-220.7 501,-220.7 501,-201.7 419,-201.7"/>
<polygon fill="none" stroke="#000000" points="419,-201.7 419,-220.7 501,-220.7 501,-201.7 419,-201.7"/>
<text text-anchor="start" x="422" y="-207.8" font-family="Helvetica,sans-Serif" font-size="11.00" fill="#000000">&lt; 1</text>
<polygon fill="#ffffff" stroke="transparent" points="501,-201.7 501,-220.7 581,-220.7 581,-201.7 501,-201.7"/>
<polygon fill="none" stroke="#000000" points="501,-201.7 501,-220.7 581,-220.7 581,-201.7 501,-201.7"/>
<text text-anchor="start" x="533.3807" y="-207.8" font-family="Helvetica,sans-Serif" font-size="11.00" fill="#000000">128 rows</text>
<polygon fill="#ffffff" stroke="transparent" points="581,-201.7 581,-220.7 624,-220.7 624,-201.7 581,-201.7"/>
<polygon fill="none" stroke="#000000" points="581,-201.7 581,-220.7 624,-220.7 624,-201.7 581,-201.7"/>
<text text-anchor="start" x="614.8862" y="-207.8" font-family="Helvetica,sans-Serif" font-size="11.00" fill="#000000"> &#160;</text>
</a>
</g>
</g>
<!-- rasp_protection_rules_languages&#45;&gt;rasp_protection_rules -->
<g id="edge9" class="edge">
<title>rasp_protection_rules_languages:w&#45;&gt;rasp_protection_rules:e</title>
<path fill="none" stroke="#000000" d="M404.5073,-231.1427C383.5691,-235.8399 375.9852,-251.6721 360,-273.7 326.9399,-319.2574 375.7889,-393.7 319.5,-393.7"/>
<polygon fill="#000000" stroke="#000000" points="411.0393,-230.4925 419.3566,-233.2823 415.0197,-230.0963 419,-229.7 419,-229.7 419,-229.7 415.0197,-230.0963 418.6434,-226.1177 411.0393,-230.4925 411.0393,-230.4925"/>
<ellipse fill="none" stroke="#000000" cx="407.8551" cy="-230.8095" rx="3.2" ry="3.2"/>
</g>
<!-- rasp_protection_rules_org_config -->
<g id="node10" class="node">
<title>rasp_protection_rules_org_config</title>
<g id="a_node10"><a xlink:href="../../tables/rasp_protection_rules_org_config.html" xlink:title="rasp_protection_rules_org_config" target="_top">
<polygon fill="#ffffff" stroke="transparent" points="418,-120.2 418,-181.2 624,-181.2 624,-120.2 418,-120.2"/>
<polygon fill="#f5f5f5" stroke="transparent" points="418,-157.7 418,-180.7 624,-180.7 624,-157.7 418,-157.7"/>
<polygon fill="none" stroke="#000000" points="418,-157.7 418,-180.7 624,-180.7 624,-157.7 418,-157.7"/>
<text text-anchor="start" x="422.8954" y="-166.8" font-family="Helvetica,sans-Serif" font-weight="bold" font-size="11.00" fill="#000000">rasp_protection_rules_org_config</text>
<text text-anchor="start" x="589.5219" y="-165.8" font-family="Helvetica,sans-Serif" font-size="11.00" fill="#000000">[table]</text>
<polygon fill="none" stroke="#000000" points="418,-138.7 418,-157.7 624,-157.7 624,-138.7 418,-138.7"/>
<text text-anchor="start" x="421" y="-144.8" font-family="Helvetica,sans-Serif" font-size="11.00" fill="#000000">...</text>
<polygon fill="#ffffff" stroke="transparent" points="418,-119.7 418,-138.7 506,-138.7 506,-119.7 418,-119.7"/>
<polygon fill="none" stroke="#000000" points="418,-119.7 418,-138.7 506,-138.7 506,-119.7 418,-119.7"/>
<text text-anchor="start" x="421" y="-125.8" font-family="Helvetica,sans-Serif" font-size="11.00" fill="#000000">&lt; 2</text>
<polygon fill="#ffffff" stroke="transparent" points="506,-119.7 506,-138.7 578,-138.7 578,-119.7 506,-119.7"/>
<polygon fill="none" stroke="#000000" points="506,-119.7 506,-138.7 578,-138.7 578,-119.7 506,-119.7"/>
<text text-anchor="start" x="542.6105" y="-125.8" font-family="Helvetica,sans-Serif" font-size="11.00" fill="#000000">0 rows</text>
<polygon fill="#ffffff" stroke="transparent" points="578,-119.7 578,-138.7 624,-138.7 624,-119.7 578,-119.7"/>
<polygon fill="none" stroke="#000000" points="578,-119.7 578,-138.7 624,-138.7 624,-119.7 578,-119.7"/>
<text text-anchor="start" x="614.8862" y="-125.8" font-family="Helvetica,sans-Serif" font-size="11.00" fill="#000000"> &#160;</text>
</a>
</g>
</g>
<!-- rasp_protection_rules_org_config&#45;&gt;rasp_protection_rules -->
<g id="edge10" class="edge">
<title>rasp_protection_rules_org_config:w&#45;&gt;rasp_protection_rules:e</title>
<path fill="none" stroke="#000000" d="M403.5635,-149.0764C382.5554,-153.5766 374.2965,-168.8885 360,-191.7 311.3749,-269.2864 411.0645,-393.7 319.5,-393.7"/>
<polygon fill="#000000" stroke="#000000" points="410.0361,-148.4593 418.3417,-151.2837 414.0181,-148.0797 418,-147.7 418,-147.7 418,-147.7 414.0181,-148.0797 417.6583,-144.1163 410.0361,-148.4593 410.0361,-148.4593"/>
<ellipse fill="none" stroke="#000000" cx="406.8506" cy="-148.7631" rx="3.2" ry="3.2"/>
</g>
<!-- rasp_protection_rules_profile -->
<g id="node11" class="node">
<title>rasp_protection_rules_profile</title>
<g id="a_node11"><a xlink:href="../../tables/rasp_protection_rules_profile.html" xlink:title="rasp_protection_rules_profile" target="_top">
<polygon fill="#ffffff" stroke="transparent" points="429,-530.2 429,-591.2 613,-591.2 613,-530.2 429,-530.2"/>
<polygon fill="#f5f5f5" stroke="transparent" points="429,-567.7 429,-590.7 613,-590.7 613,-567.7 429,-567.7"/>
<polygon fill="none" stroke="#000000" points="429,-567.7 429,-590.7 613,-590.7 613,-567.7 429,-567.7"/>
<text text-anchor="start" x="433.5973" y="-576.8" font-family="Helvetica,sans-Serif" font-weight="bold" font-size="11.00" fill="#000000">rasp_protection_rules_profile</text>
<text text-anchor="start" x="578.5219" y="-575.8" font-family="Helvetica,sans-Serif" font-size="11.00" fill="#000000">[table]</text>
<polygon fill="none" stroke="#000000" points="429,-548.7 429,-567.7 613,-567.7 613,-548.7 429,-548.7"/>
<text text-anchor="start" x="432" y="-554.8" font-family="Helvetica,sans-Serif" font-size="11.00" fill="#000000">...</text>
<polygon fill="#ffffff" stroke="transparent" points="429,-529.7 429,-548.7 506,-548.7 506,-529.7 429,-529.7"/>
<polygon fill="none" stroke="#000000" points="429,-529.7 429,-548.7 506,-548.7 506,-529.7 429,-529.7"/>
<text text-anchor="start" x="432" y="-535.8" font-family="Helvetica,sans-Serif" font-size="11.00" fill="#000000">&lt; 1</text>
<polygon fill="#ffffff" stroke="transparent" points="506,-529.7 506,-548.7 572,-548.7 572,-529.7 506,-529.7"/>
<polygon fill="none" stroke="#000000" points="506,-529.7 506,-548.7 572,-548.7 572,-529.7 506,-529.7"/>
<text text-anchor="start" x="536.6105" y="-535.8" font-family="Helvetica,sans-Serif" font-size="11.00" fill="#000000">0 rows</text>
<polygon fill="#ffffff" stroke="transparent" points="572,-529.7 572,-548.7 613,-548.7 613,-529.7 572,-529.7"/>
<polygon fill="none" stroke="#000000" points="572,-529.7 572,-548.7 613,-548.7 613,-529.7 572,-529.7"/>
<text text-anchor="start" x="603.8862" y="-535.8" font-family="Helvetica,sans-Serif" font-size="11.00" fill="#000000"> &#160;</text>
</a>
</g>
</g>
<!-- rasp_protection_rules_profile&#45;&gt;rasp_protection_rules -->
<g id="edge11" class="edge">
<title>rasp_protection_rules_profile:w&#45;&gt;rasp_protection_rules:e</title>
<path fill="none" stroke="#000000" d="M414.501,-556.9176C390.1727,-553.982 378.8716,-542.6028 360,-519.7 322.5942,-474.3039 378.3218,-393.7 319.5,-393.7"/>
<polygon fill="#000000" stroke="#000000" points="421.0116,-557.2689 428.806,-561.2948 425.0058,-557.4844 429,-557.7 429,-557.7 429,-557.7 425.0058,-557.4844 429.194,-554.1052 421.0116,-557.2689 421.0116,-557.2689"/>
<ellipse fill="none" stroke="#000000" cx="417.8163" cy="-557.0964" rx="3.2" ry="3.2"/>
</g>
<!-- rules_exclusions_assessment_rules -->
<g id="node12" class="node">
<title>rules_exclusions_assessment_rules</title>
<g id="a_node12"><a xlink:href="../../tables/rules_exclusions_assessment_rules.html" xlink:title="rules_exclusions_assessment_rules" target="_top">
<polygon fill="#ffffff" stroke="transparent" points="411.5,-888.2 411.5,-949.2 630.5,-949.2 630.5,-888.2 411.5,-888.2"/>
<polygon fill="#f5f5f5" stroke="transparent" points="412,-925.7 412,-948.7 631,-948.7 631,-925.7 412,-925.7"/>
<polygon fill="none" stroke="#000000" points="412,-925.7 412,-948.7 631,-948.7 631,-925.7 412,-925.7"/>
<text text-anchor="start" x="416.9852" y="-934.8" font-family="Helvetica,sans-Serif" font-weight="bold" font-size="11.00" fill="#000000">rules_exclusions_assessment_rules</text>
<text text-anchor="start" x="596.5219" y="-933.8" font-family="Helvetica,sans-Serif" font-size="11.00" fill="#000000">[table]</text>
<polygon fill="none" stroke="#000000" points="412,-906.7 412,-925.7 631,-925.7 631,-906.7 412,-906.7"/>
<text text-anchor="start" x="415" y="-912.8" font-family="Helvetica,sans-Serif" font-size="11.00" fill="#000000">...</text>
<polygon fill="#ffffff" stroke="transparent" points="412,-887.7 412,-906.7 507,-906.7 507,-887.7 412,-887.7"/>
<polygon fill="none" stroke="#000000" points="412,-887.7 412,-906.7 507,-906.7 507,-887.7 412,-887.7"/>
<text text-anchor="start" x="415" y="-893.8" font-family="Helvetica,sans-Serif" font-size="11.00" fill="#000000">&lt; 2</text>
<polygon fill="#ffffff" stroke="transparent" points="507,-887.7 507,-906.7 582,-906.7 582,-887.7 507,-887.7"/>
<polygon fill="none" stroke="#000000" points="507,-887.7 507,-906.7 582,-906.7 582,-887.7 507,-887.7"/>
<text text-anchor="start" x="546.6105" y="-893.8" font-family="Helvetica,sans-Serif" font-size="11.00" fill="#000000">0 rows</text>
<polygon fill="#ffffff" stroke="transparent" points="582,-887.7 582,-906.7 631,-906.7 631,-887.7 582,-887.7"/>
<polygon fill="none" stroke="#000000" points="582,-887.7 582,-906.7 631,-906.7 631,-887.7 582,-887.7"/>
<text text-anchor="start" x="621.8862" y="-893.8" font-family="Helvetica,sans-Serif" font-size="11.00" fill="#000000"> &#160;</text>
</a>
</g>
</g>
<!-- rules_exclusions_assessment_rules&#45;&gt;rules_exclusions -->
<g id="edge13" class="edge">
<title>rules_exclusions_assessment_rules:w&#45;&gt;rules_exclusions:e</title>
<path fill="none" stroke="#000000" d="M397.547,-913.4173C382.0262,-907.6854 377.6799,-892.1125 360,-877.7 337.4414,-859.3105 340.6043,-833.7 311.5,-833.7"/>
<polygon fill="#000000" stroke="#000000" points="404.098,-914.4519 411.4384,-919.2559 408.049,-915.076 412,-915.7 412,-915.7 412,-915.7 408.049,-915.076 412.5616,-912.1441 404.098,-914.4519 404.098,-914.4519"/>
<ellipse fill="none" stroke="#000000" cx="400.9371" cy="-913.9527" rx="3.2" ry="3.2"/>
</g>
<!-- rules_exclusions_codes -->
<g id="node13" class="node">
<title>rules_exclusions_codes</title>
<g id="a_node13"><a xlink:href="../../tables/rules_exclusions_codes.html" xlink:title="rules_exclusions_codes" target="_top">
<polygon fill="#ffffff" stroke="transparent" points="441.5,-806.2 441.5,-867.2 600.5,-867.2 600.5,-806.2 441.5,-806.2"/>
<polygon fill="#f5f5f5" stroke="transparent" points="442,-843.7 442,-866.7 601,-866.7 601,-843.7 442,-843.7"/>
<polygon fill="none" stroke="#000000" points="442,-843.7 442,-866.7 601,-866.7 601,-843.7 442,-843.7"/>
<text text-anchor="start" x="446.6258" y="-852.8" font-family="Helvetica,sans-Serif" font-weight="bold" font-size="11.00" fill="#000000">rules_exclusions_codes</text>
<text text-anchor="start" x="566.5219" y="-851.8" font-family="Helvetica,sans-Serif" font-size="11.00" fill="#000000">[table]</text>
<polygon fill="none" stroke="#000000" points="442,-824.7 442,-843.7 601,-843.7 601,-824.7 442,-824.7"/>
<text text-anchor="start" x="445" y="-830.8" font-family="Helvetica,sans-Serif" font-size="11.00" fill="#000000">...</text>
<polygon fill="#ffffff" stroke="transparent" points="442,-805.7 442,-824.7 507,-824.7 507,-805.7 442,-805.7"/>
<polygon fill="none" stroke="#000000" points="442,-805.7 442,-824.7 507,-824.7 507,-805.7 442,-805.7"/>
<text text-anchor="start" x="445" y="-811.8" font-family="Helvetica,sans-Serif" font-size="11.00" fill="#000000">&lt; 1</text>
<polygon fill="#ffffff" stroke="transparent" points="507,-805.7 507,-824.7 567,-824.7 567,-805.7 507,-805.7"/>
<polygon fill="none" stroke="#000000" points="507,-805.7 507,-824.7 567,-824.7 567,-805.7 507,-805.7"/>
<text text-anchor="start" x="531.6105" y="-811.8" font-family="Helvetica,sans-Serif" font-size="11.00" fill="#000000">0 rows</text>
<polygon fill="#ffffff" stroke="transparent" points="567,-805.7 567,-824.7 601,-824.7 601,-805.7 567,-805.7"/>
<polygon fill="none" stroke="#000000" points="567,-805.7 567,-824.7 601,-824.7 601,-805.7 567,-805.7"/>
<text text-anchor="start" x="591.8862" y="-811.8" font-family="Helvetica,sans-Serif" font-size="11.00" fill="#000000"> &#160;</text>
</a>
</g>
</g>
<!-- rules_exclusions_codes&#45;&gt;rules_exclusions -->
<g id="edge14" class="edge">
<title>rules_exclusions_codes:w&#45;&gt;rules_exclusions:e</title>
<path fill="none" stroke="#000000" d="M427.3575,-833.7C381.0434,-833.7 364.2891,-833.7 311.5,-833.7"/>
<polygon fill="#000000" stroke="#000000" points="434,-833.7001 442,-837.3 438,-833.7 442,-833.7 442,-833.7 442,-833.7 438,-833.7 442,-830.1 434,-833.7001 434,-833.7001"/>
<ellipse fill="none" stroke="#000000" cx="430.8" cy="-833.7001" rx="3.2" ry="3.2"/>
</g>
<!-- rules_exclusions_protection_rules -->
<g id="node14" class="node">
<title>rules_exclusions_protection_rules</title>
<g id="a_node14"><a xlink:href="../../tables/rules_exclusions_protection_rules.html" xlink:title="rules_exclusions_protection_rules" target="_top">
<polygon fill="#ffffff" stroke="transparent" points="368,-612.7 368,-702.7 674,-702.7 674,-612.7 368,-612.7"/>
<polygon fill="#f5f5f5" stroke="transparent" points="370,-677.7 370,-700.7 672,-700.7 672,-677.7 370,-677.7"/>
<polygon fill="none" stroke="#000000" points="370,-677.7 370,-700.7 672,-700.7 672,-677.7 370,-677.7"/>
<text text-anchor="start" x="375" y="-686.8" font-family="Helvetica,sans-Serif" font-weight="bold" font-size="11.00" fill="#000000">rules_exclusions_protection_rules</text>
<text text-anchor="start" x="637.0437" y="-685.8" font-family="Helvetica,sans-Serif" font-size="11.00" fill="#000000">[table]</text>
<polygon fill="none" stroke="#000000" points="370,-655.7 370,-677.7 589,-677.7 589,-655.7 370,-655.7"/>
<image xlink:href="../../images/primaryKeys.png" width="11px" height="12px" preserveAspectRatio="xMinYMin meet" x="375" y="-672.7"/>
<text text-anchor="start" x="390" y="-662.8" font-family="Helvetica,sans-Serif" font-size="11.00" fill="#000000">rules_exclusions_id</text>
<polygon fill="none" stroke="#000000" points="589,-655.7 589,-677.7 672,-677.7 672,-655.7 589,-655.7"/>
<text text-anchor="start" x="591.6783" y="-663.4" font-family="Helvetica,sans-Serif" font-size="11.00" fill="#000000">int unsigned[10]</text>
<polygon fill="none" stroke="#000000" points="370,-633.7 370,-655.7 589,-655.7 589,-633.7 370,-633.7"/>
<image xlink:href="../../images/primaryKeys.png" width="11px" height="12px" preserveAspectRatio="xMinYMin meet" x="375" y="-650.7"/>
<text text-anchor="start" x="390" y="-640.8" font-family="Helvetica,sans-Serif" font-size="11.00" fill="#000000">rasp_protection_rules_id</text>
<polygon fill="none" stroke="#000000" points="589,-633.7 589,-655.7 672,-655.7 672,-633.7 589,-633.7"/>
<text text-anchor="start" x="592" y="-641.4" font-family="Helvetica,sans-Serif" font-size="11.00" fill="#000000">int[10]</text>
<polygon fill="#ffffff" stroke="transparent" points="370,-614.7 370,-633.7 471,-633.7 471,-614.7 370,-614.7"/>
<polygon fill="none" stroke="#000000" points="370,-614.7 370,-633.7 471,-633.7 471,-614.7 370,-614.7"/>
<text text-anchor="start" x="373" y="-620.8" font-family="Helvetica,sans-Serif" font-size="11.00" fill="#000000">&lt; 2</text>
<polygon fill="#ffffff" stroke="transparent" points="471,-614.7 471,-633.7 589,-633.7 589,-614.7 471,-614.7"/>
<polygon fill="none" stroke="#000000" points="471,-614.7 471,-633.7 589,-633.7 589,-614.7 471,-614.7"/>
<text text-anchor="start" x="553.6105" y="-620.8" font-family="Helvetica,sans-Serif" font-size="11.00" fill="#000000">0 rows</text>
<polygon fill="#ffffff" stroke="transparent" points="589,-614.7 589,-633.7 672,-633.7 672,-614.7 589,-614.7"/>
<polygon fill="none" stroke="#000000" points="589,-614.7 589,-633.7 672,-633.7 672,-614.7 589,-614.7"/>
<text text-anchor="start" x="653.4053" y="-620.8" font-family="Helvetica,sans-Serif" font-size="11.00" fill="#000000">0 &gt;</text>
<polygon fill="none" stroke="#000000" stroke-width="2" points="369,-613.7 369,-701.7 673,-701.7 673,-613.7 369,-613.7"/>
</a>
</g>
</g>
<!-- rules_exclusions_protection_rules&#45;&gt;rules_exclusions -->
<g id="edge16" class="edge">
<title>rules_exclusions_protection_rules:w&#45;&gt;rules_exclusions:e</title>
<path fill="none" stroke="#000000" d="M355.5961,-669.1903C304.7071,-689.9646 384.4611,-833.7 311.5,-833.7"/>
<polygon fill="#000000" stroke="#000000" points="362.117,-668.063 370.6133,-670.2474 366.0585,-667.3815 370,-666.7 370,-666.7 370,-666.7 366.0585,-667.3815 369.3867,-663.1526 362.117,-668.063 362.117,-668.063"/>
<ellipse fill="none" stroke="#000000" cx="358.9637" cy="-668.6082" rx="3.2" ry="3.2"/>
</g>
<!-- rules_exclusions_protection_rules&#45;&gt;rasp_protection_rules -->
<g id="edge15" class="edge">
<title>rules_exclusions_protection_rules:w&#45;&gt;rasp_protection_rules:e</title>
<path fill="none" stroke="#000000" d="M355.5991,-643.0308C272.4903,-621.2532 427.8459,-393.7 319.5,-393.7"/>
<polygon fill="#000000" stroke="#000000" points="362.0532,-643.7788 369.5855,-648.2761 366.0266,-644.2394 370,-644.7 370,-644.7 370,-644.7 366.0266,-644.2394 370.4145,-641.1239 362.0532,-643.7788 362.0532,-643.7788"/>
<ellipse fill="none" stroke="#000000" cx="358.8745" cy="-643.4104" rx="3.2" ry="3.2"/>
</g>
<!-- rules_exclusions_urls -->
<g id="node15" class="node">
<title>rules_exclusions_urls</title>
<g id="a_node15"><a xlink:href="../../tables/rules_exclusions_urls.html" xlink:title="rules_exclusions_urls" target="_top">
<polygon fill="#ffffff" stroke="transparent" points="447,-970.2 447,-1031.2 595,-1031.2 595,-970.2 447,-970.2"/>
<polygon fill="#f5f5f5" stroke="transparent" points="447,-1007.7 447,-1030.7 595,-1030.7 595,-1007.7 447,-1007.7"/>
<polygon fill="none" stroke="#000000" points="447,-1007.7 447,-1030.7 595,-1030.7 595,-1007.7 447,-1007.7"/>
<text text-anchor="start" x="451.9393" y="-1016.8" font-family="Helvetica,sans-Serif" font-weight="bold" font-size="11.00" fill="#000000">rules_exclusions_urls</text>
<text text-anchor="start" x="560.5219" y="-1015.8" font-family="Helvetica,sans-Serif" font-size="11.00" fill="#000000">[table]</text>
<polygon fill="none" stroke="#000000" points="447,-988.7 447,-1007.7 595,-1007.7 595,-988.7 447,-988.7"/>
<text text-anchor="start" x="450" y="-994.8" font-family="Helvetica,sans-Serif" font-size="11.00" fill="#000000">...</text>
<polygon fill="#ffffff" stroke="transparent" points="447,-969.7 447,-988.7 506,-988.7 506,-969.7 447,-969.7"/>
<polygon fill="none" stroke="#000000" points="447,-969.7 447,-988.7 506,-988.7 506,-969.7 447,-969.7"/>
<text text-anchor="start" x="450" y="-975.8" font-family="Helvetica,sans-Serif" font-size="11.00" fill="#000000">&lt; 1</text>
<polygon fill="#ffffff" stroke="transparent" points="506,-969.7 506,-988.7 563,-988.7 563,-969.7 506,-969.7"/>
<polygon fill="none" stroke="#000000" points="506,-969.7 506,-988.7 563,-988.7 563,-969.7 506,-969.7"/>
<text text-anchor="start" x="527.6105" y="-975.8" font-family="Helvetica,sans-Serif" font-size="11.00" fill="#000000">0 rows</text>
<polygon fill="#ffffff" stroke="transparent" points="563,-969.7 563,-988.7 595,-988.7 595,-969.7 563,-969.7"/>
<polygon fill="none" stroke="#000000" points="563,-969.7 563,-988.7 595,-988.7 595,-969.7 563,-969.7"/>
<text text-anchor="start" x="585.8862" y="-975.8" font-family="Helvetica,sans-Serif" font-size="11.00" fill="#000000"> &#160;</text>
</a>
</g>
</g>
<!-- rules_exclusions_urls&#45;&gt;rules_exclusions -->
<g id="edge17" class="edge">
<title>rules_exclusions_urls:w&#45;&gt;rules_exclusions:e</title>
<path fill="none" stroke="#000000" d="M432.3437,-997.3178C400.6847,-995.4635 385.5208,-986.379 360,-959.7 318.5214,-916.3391 371.5053,-833.7 311.5,-833.7"/>
<polygon fill="#000000" stroke="#000000" points="439.0027,-997.4914 446.9061,-1001.2988 443.0014,-997.5957 447,-997.7 447,-997.7 447,-997.7 443.0014,-997.5957 447.0939,-994.1012 439.0027,-997.4914 439.0027,-997.4914"/>
<ellipse fill="none" stroke="#000000" cx="435.8038" cy="-997.4079" rx="3.2" ry="3.2"/>
</g>
</g>
</svg>
