<?xml version="1.0" encoding="UTF-8" standalone="no"?>
<!DOCTYPE svg PUBLIC "-//W3C//DTD SVG 1.1//EN"
 "http://www.w3.org/Graphics/SVG/1.1/DTD/svg11.dtd">
<!-- Generated by graphviz version 2.40.1 (20161225.0304)
 -->
<!-- Title: oneDegreeRelationshipsDiagram Pages: 1 -->
<svg width="412pt" height="201pt"
 viewBox="0.00 0.00 412.00 200.70" xmlns="http://www.w3.org/2000/svg" xmlns:xlink="http://www.w3.org/1999/xlink">
<g id="graph0" class="graph" transform="scale(1 1) rotate(0) translate(4 196.7)">
<title>oneDegreeRelationshipsDiagram</title>
<polygon fill="#ffffff" stroke="transparent" points="-4,4 -4,-196.7 408,-196.7 408,4 -4,4"/>
<text text-anchor="middle" x="72.4936" y="-7.3" font-family="Helvetica,sans-Serif" font-size="11.00" fill="#000000">Generated by SchemaSpy</text>
<!-- rule_references -->
<g id="node1" class="node">
<title>rule_references</title>
<g id="a_node1"><a xlink:href="../../tables/rule_references.html" xlink:title="rule_references" target="_top">
<polygon fill="#ffffff" stroke="transparent" points="184,-76.7 184,-188.7 396,-188.7 396,-76.7 184,-76.7"/>
<polygon fill="#f5f5f5" stroke="transparent" points="186,-163.7 186,-186.7 394,-186.7 394,-163.7 186,-163.7"/>
<polygon fill="none" stroke="#000000" points="186,-163.7 186,-186.7 394,-186.7 394,-163.7 186,-163.7"/>
<text text-anchor="start" x="191" y="-172.8" font-family="Helvetica,sans-Serif" font-weight="bold" font-size="11.00" fill="#000000">rule_references</text>
<text text-anchor="start" x="359.0437" y="-171.8" font-family="Helvetica,sans-Serif" font-size="11.00" fill="#000000">[table]</text>
<polygon fill="none" stroke="#000000" points="186,-141.7 186,-163.7 327,-163.7 327,-141.7 186,-141.7"/>
<text text-anchor="start" x="206" y="-148.8" font-family="Helvetica,sans-Serif" font-size="11.00" fill="#000000">reference</text>
<polygon fill="none" stroke="#000000" points="327,-141.7 327,-163.7 394,-163.7 394,-141.7 327,-141.7"/>
<text text-anchor="start" x="329.9365" y="-149.4" font-family="Helvetica,sans-Serif" font-size="11.00" fill="#000000">varchar[255]</text>
<polygon fill="none" stroke="#000000" points="186,-119.7 186,-141.7 327,-141.7 327,-119.7 186,-119.7"/>
<image xlink:href="../../images/primaryKeys.png" width="11px" height="12px" preserveAspectRatio="xMinYMin meet" x="191" y="-136.7"/>
<text text-anchor="start" x="206" y="-126.8" font-family="Helvetica,sans-Serif" font-size="11.00" fill="#000000">rule_reference_index</text>
<polygon fill="none" stroke="#000000" points="327,-119.7 327,-141.7 394,-141.7 394,-119.7 327,-119.7"/>
<text text-anchor="start" x="330" y="-127.4" font-family="Helvetica,sans-Serif" font-size="11.00" fill="#000000">int[10]</text>
<polygon fill="none" stroke="#000000" points="186,-97.7 186,-119.7 327,-119.7 327,-97.7 186,-97.7"/>
<image xlink:href="../../images/primaryKeys.png" width="11px" height="12px" preserveAspectRatio="xMinYMin meet" x="191" y="-114.7"/>
<text text-anchor="start" x="206" y="-104.8" font-family="Helvetica,sans-Serif" font-size="11.00" fill="#000000">rule_fk</text>
<polygon fill="none" stroke="#000000" points="327,-97.7 327,-119.7 394,-119.7 394,-97.7 327,-97.7"/>
<text text-anchor="start" x="329.9365" y="-105.4" font-family="Helvetica,sans-Serif" font-size="11.00" fill="#000000">varchar[255]</text>
<polygon fill="#ffffff" stroke="transparent" points="186,-78.7 186,-97.7 245,-97.7 245,-78.7 186,-78.7"/>
<polygon fill="none" stroke="#000000" points="186,-78.7 186,-97.7 245,-97.7 245,-78.7 186,-78.7"/>
<text text-anchor="start" x="189" y="-84.8" font-family="Helvetica,sans-Serif" font-size="11.00" fill="#000000">&lt; 1</text>
<polygon fill="#ffffff" stroke="transparent" points="245,-78.7 245,-97.7 327,-97.7 327,-78.7 245,-78.7"/>
<polygon fill="none" stroke="#000000" points="245,-78.7 245,-97.7 327,-97.7 327,-78.7 245,-78.7"/>
<text text-anchor="start" x="285.4956" y="-84.8" font-family="Helvetica,sans-Serif" font-size="11.00" fill="#000000">86 rows</text>
<polygon fill="#ffffff" stroke="transparent" points="327,-78.7 327,-97.7 394,-97.7 394,-78.7 327,-78.7"/>
<polygon fill="none" stroke="#000000" points="327,-78.7 327,-97.7 394,-97.7 394,-78.7 327,-78.7"/>
<text text-anchor="start" x="375.4053" y="-84.8" font-family="Helvetica,sans-Serif" font-size="11.00" fill="#000000">0 &gt;</text>
<polygon fill="none" stroke="#000000" stroke-width="2" points="185,-77.7 185,-187.7 395,-187.7 395,-77.7 185,-77.7"/>
</a>
</g>
</g>
<!-- rules -->
<g id="node2" class="node">
<title>rules</title>
<g id="a_node2"><a xlink:href="../../tables/rules.html" xlink:title="rules" target="_top">
<polygon fill="#ffffff" stroke="transparent" points="8,-38.2 8,-143.2 135,-143.2 135,-38.2 8,-38.2"/>
<polygon fill="#f5f5f5" stroke="transparent" points="8.5,-119.7 8.5,-142.7 135.5,-142.7 135.5,-119.7 8.5,-119.7"/>
<polygon fill="none" stroke="#000000" points="8.5,-119.7 8.5,-142.7 135.5,-142.7 135.5,-119.7 8.5,-119.7"/>
<text text-anchor="start" x="13.5" y="-128.8" font-family="Helvetica,sans-Serif" font-weight="bold" font-size="11.00" fill="#000000">rules</text>
<text text-anchor="start" x="100.5437" y="-127.8" font-family="Helvetica,sans-Serif" font-size="11.00" fill="#000000">[table]</text>
<polygon fill="none" stroke="#000000" points="8.5,-97.7 8.5,-119.7 135.5,-119.7 135.5,-97.7 8.5,-97.7"/>
<image xlink:href="../../images/primaryKeys.png" width="11px" height="12px" preserveAspectRatio="xMinYMin meet" x="13.5" y="-114.7"/>
<text text-anchor="start" x="28.5" y="-104.8" font-family="Helvetica,sans-Serif" font-size="11.00" fill="#000000">name</text>
<polygon fill="#ffffff" stroke="transparent" points="8.5,-75.7 8.5,-97.7 135.5,-97.7 135.5,-75.7 8.5,-75.7"/>
<polygon fill="none" stroke="#000000" points="8.5,-75.7 8.5,-97.7 135.5,-97.7 135.5,-75.7 8.5,-75.7"/>
<text text-anchor="start" x="28.5" y="-82.8" font-family="Helvetica,sans-Serif" font-size="11.00" fill="#000000">title</text>
<polygon fill="none" stroke="#000000" points="8.5,-56.7 8.5,-75.7 135.5,-75.7 135.5,-56.7 8.5,-56.7"/>
<text text-anchor="start" x="11.5" y="-62.8" font-family="Helvetica,sans-Serif" font-size="11.00" fill="#000000">...</text>
<polygon fill="#ffffff" stroke="transparent" points="8.5,-37.7 8.5,-56.7 42.5,-56.7 42.5,-37.7 8.5,-37.7"/>
<polygon fill="none" stroke="#000000" points="8.5,-37.7 8.5,-56.7 42.5,-56.7 42.5,-37.7 8.5,-37.7"/>
<text text-anchor="start" x="11.5" y="-43.8" font-family="Helvetica,sans-Serif" font-size="11.00" fill="#000000"> &#160;</text>
<polygon fill="#ffffff" stroke="transparent" points="42.5,-37.7 42.5,-56.7 97.5,-56.7 97.5,-37.7 42.5,-37.7"/>
<polygon fill="none" stroke="#000000" points="42.5,-37.7 42.5,-56.7 97.5,-56.7 97.5,-37.7 42.5,-37.7"/>
<text text-anchor="start" x="55.9956" y="-43.8" font-family="Helvetica,sans-Serif" font-size="11.00" fill="#000000">82 rows</text>
<polygon fill="#ffffff" stroke="transparent" points="97.5,-37.7 97.5,-56.7 135.5,-56.7 135.5,-37.7 97.5,-37.7"/>
<polygon fill="none" stroke="#000000" points="97.5,-37.7 97.5,-56.7 135.5,-56.7 135.5,-37.7 97.5,-37.7"/>
<text text-anchor="start" x="110.7904" y="-43.8" font-family="Helvetica,sans-Serif" font-size="11.00" fill="#000000">16 &gt;</text>
</a>
</g>
</g>
<!-- rule_references&#45;&gt;rules -->
<g id="edge1" class="edge">
<title>rule_references:w&#45;&gt;rules:e</title>
<path fill="none" stroke="#000000" d="M171.4203,-108.7C159.5435,-108.7 152.158,-108.7 135.5,-108.7"/>
<polygon fill="#000000" stroke="#000000" points="178,-108.7001 186,-112.3 182,-108.7 186,-108.7 186,-108.7 186,-108.7 182,-108.7 186,-105.1 178,-108.7001 178,-108.7001"/>
<ellipse fill="none" stroke="#000000" cx="174.8" cy="-108.7001" rx="3.2" ry="3.2"/>
</g>
</g>
</svg>
