<?xml version="1.0" encoding="UTF-8" standalone="no"?>
<!DOCTYPE svg PUBLIC "-//W3C//DTD SVG 1.1//EN"
 "http://www.w3.org/Graphics/SVG/1.1/DTD/svg11.dtd">
<!-- Generated by graphviz version 2.40.1 (20161225.0304)
 -->
<!-- Title: twoDegreesRelationshipsDiagram Pages: 1 -->
<svg width="602pt" height="469pt"
 viewBox="0.00 0.00 602.00 468.70" xmlns="http://www.w3.org/2000/svg" xmlns:xlink="http://www.w3.org/1999/xlink">
<g id="graph0" class="graph" transform="scale(1 1) rotate(0) translate(4 464.7)">
<title>twoDegreesRelationshipsDiagram</title>
<polygon fill="#ffffff" stroke="transparent" points="-4,4 -4,-464.7 598,-464.7 598,4 -4,4"/>
<text text-anchor="middle" x="72.4936" y="-7.3" font-family="Helvetica,sans-Serif" font-size="11.00" fill="#000000">Generated by SchemaSpy</text>
<!-- rasp_attack_event -->
<g id="node1" class="node">
<title>rasp_attack_event</title>
<g id="a_node1"><a xlink:href="../../tables/rasp_attack_event.html" xlink:title="rasp_attack_event" target="_top">
<polygon fill="#ffffff" stroke="transparent" points="403,-395.7 403,-456.7 535,-456.7 535,-395.7 403,-395.7"/>
<polygon fill="#f5f5f5" stroke="transparent" points="403,-433.2 403,-456.2 535,-456.2 535,-433.2 403,-433.2"/>
<polygon fill="none" stroke="#000000" points="403,-433.2 403,-456.2 535,-456.2 535,-433.2 403,-433.2"/>
<text text-anchor="start" x="407.5667" y="-442.3" font-family="Helvetica,sans-Serif" font-weight="bold" font-size="11.00" fill="#000000">rasp_attack_event</text>
<text text-anchor="start" x="500.5219" y="-441.3" font-family="Helvetica,sans-Serif" font-size="11.00" fill="#000000">[table]</text>
<polygon fill="none" stroke="#000000" points="403,-414.2 403,-433.2 535,-433.2 535,-414.2 403,-414.2"/>
<text text-anchor="start" x="406" y="-420.3" font-family="Helvetica,sans-Serif" font-size="11.00" fill="#000000">...</text>
<polygon fill="#ffffff" stroke="transparent" points="403,-395.2 403,-414.2 450,-414.2 450,-395.2 403,-395.2"/>
<polygon fill="none" stroke="#000000" points="403,-395.2 403,-414.2 450,-414.2 450,-395.2 403,-395.2"/>
<text text-anchor="start" x="406" y="-401.3" font-family="Helvetica,sans-Serif" font-size="11.00" fill="#000000">&lt; 7</text>
<polygon fill="#ffffff" stroke="transparent" points="450,-395.2 450,-414.2 501,-414.2 501,-395.2 450,-395.2"/>
<polygon fill="none" stroke="#000000" points="450,-395.2 450,-414.2 501,-414.2 501,-395.2 450,-395.2"/>
<text text-anchor="start" x="465.6105" y="-401.3" font-family="Helvetica,sans-Serif" font-size="11.00" fill="#000000">0 rows</text>
<polygon fill="#ffffff" stroke="transparent" points="501,-395.2 501,-414.2 535,-414.2 535,-395.2 501,-395.2"/>
<polygon fill="none" stroke="#000000" points="501,-395.2 501,-414.2 535,-414.2 535,-395.2 501,-395.2"/>
<text text-anchor="start" x="516.4053" y="-401.3" font-family="Helvetica,sans-Serif" font-size="11.00" fill="#000000">5 &gt;</text>
</a>
</g>
</g>
<!-- applications -->
<g id="node2" class="node">
<title>applications</title>
<g id="a_node2"><a xlink:href="../../tables/applications.html" xlink:title="applications" target="_top">
<polygon fill="#ffffff" stroke="transparent" points="8,-290.7 8,-351.7 109,-351.7 109,-290.7 8,-290.7"/>
<polygon fill="#f5f5f5" stroke="transparent" points="8.5,-328.2 8.5,-351.2 109.5,-351.2 109.5,-328.2 8.5,-328.2"/>
<polygon fill="none" stroke="#000000" points="8.5,-328.2 8.5,-351.2 109.5,-351.2 109.5,-328.2 8.5,-328.2"/>
<text text-anchor="start" x="13.4655" y="-337.3" font-family="Helvetica,sans-Serif" font-weight="bold" font-size="11.00" fill="#000000">applications</text>
<text text-anchor="start" x="75.0219" y="-336.3" font-family="Helvetica,sans-Serif" font-size="11.00" fill="#000000">[table]</text>
<polygon fill="none" stroke="#000000" points="8.5,-309.2 8.5,-328.2 109.5,-328.2 109.5,-309.2 8.5,-309.2"/>
<text text-anchor="start" x="11.5" y="-315.3" font-family="Helvetica,sans-Serif" font-size="11.00" fill="#000000">...</text>
<polygon fill="#ffffff" stroke="transparent" points="8.5,-290.2 8.5,-309.2 36.5,-309.2 36.5,-290.2 8.5,-290.2"/>
<polygon fill="none" stroke="#000000" points="8.5,-290.2 8.5,-309.2 36.5,-309.2 36.5,-290.2 8.5,-290.2"/>
<text text-anchor="start" x="11.5" y="-296.3" font-family="Helvetica,sans-Serif" font-size="11.00" fill="#000000">&lt; 3</text>
<polygon fill="#ffffff" stroke="transparent" points="36.5,-290.2 36.5,-309.2 78.5,-309.2 78.5,-290.2 36.5,-290.2"/>
<polygon fill="none" stroke="#000000" points="36.5,-290.2 36.5,-309.2 78.5,-309.2 78.5,-290.2 36.5,-290.2"/>
<text text-anchor="start" x="43.1105" y="-296.3" font-family="Helvetica,sans-Serif" font-size="11.00" fill="#000000">0 rows</text>
<polygon fill="#ffffff" stroke="transparent" points="78.5,-290.2 78.5,-309.2 109.5,-309.2 109.5,-290.2 78.5,-290.2"/>
<polygon fill="none" stroke="#000000" points="78.5,-290.2 78.5,-309.2 109.5,-309.2 109.5,-290.2 78.5,-290.2"/>
<text text-anchor="start" x="84.7904" y="-296.3" font-family="Helvetica,sans-Serif" font-size="11.00" fill="#000000">57 &gt;</text>
</a>
</g>
</g>
<!-- rasp_attack_event&#45;&gt;applications -->
<g id="edge1" class="edge">
<title>rasp_attack_event:w&#45;&gt;applications:e</title>
<path fill="none" stroke="#000000" d="M388.9016,-419.5857C331.0383,-401.1225 124.8897,-318.2 109.5,-318.2"/>
<polygon fill="#000000" stroke="#000000" points="395.2506,-421.2133 402.106,-426.6872 399.1253,-422.2066 403,-423.2 403,-423.2 403,-423.2 399.1253,-422.2066 403.894,-419.7128 395.2506,-421.2133 395.2506,-421.2133"/>
<ellipse fill="none" stroke="#000000" cx="392.1508" cy="-420.4186" rx="3.2" ry="3.2"/>
</g>
<!-- rules_exclusions -->
<g id="node3" class="node">
<title>rules_exclusions</title>
<g id="a_node3"><a xlink:href="../../tables/rules_exclusions.html" xlink:title="rules_exclusions" target="_top">
<polygon fill="#ffffff" stroke="transparent" points="158,-170.7 158,-319.7 303,-319.7 303,-170.7 158,-170.7"/>
<polygon fill="#f5f5f5" stroke="transparent" points="158.5,-296.2 158.5,-319.2 303.5,-319.2 303.5,-296.2 158.5,-296.2"/>
<polygon fill="none" stroke="#000000" points="158.5,-296.2 158.5,-319.2 303.5,-319.2 303.5,-296.2 158.5,-296.2"/>
<text text-anchor="start" x="163.5" y="-305.3" font-family="Helvetica,sans-Serif" font-weight="bold" font-size="11.00" fill="#000000">rules_exclusions</text>
<text text-anchor="start" x="268.5437" y="-304.3" font-family="Helvetica,sans-Serif" font-size="11.00" fill="#000000">[table]</text>
<polygon fill="none" stroke="#000000" points="158.5,-274.2 158.5,-296.2 303.5,-296.2 303.5,-274.2 158.5,-274.2"/>
<image xlink:href="../../images/primaryKeys.png" width="11px" height="12px" preserveAspectRatio="xMinYMin meet" x="163.5" y="-291.2"/>
<text text-anchor="start" x="178.5" y="-281.3" font-family="Helvetica,sans-Serif" font-size="11.00" fill="#000000">id</text>
<polygon fill="#ffffff" stroke="transparent" points="158.5,-252.2 158.5,-274.2 303.5,-274.2 303.5,-252.2 158.5,-252.2"/>
<polygon fill="none" stroke="#000000" points="158.5,-252.2 158.5,-274.2 303.5,-274.2 303.5,-252.2 158.5,-252.2"/>
<text text-anchor="start" x="178.5" y="-259.3" font-family="Helvetica,sans-Serif" font-size="11.00" fill="#000000">name</text>
<polygon fill="#ffffff" stroke="transparent" points="158.5,-230.2 158.5,-252.2 303.5,-252.2 303.5,-230.2 158.5,-230.2"/>
<polygon fill="none" stroke="#000000" points="158.5,-230.2 158.5,-252.2 303.5,-252.2 303.5,-230.2 158.5,-230.2"/>
<image xlink:href="../../images/foreignKeys.png" width="11px" height="12px" preserveAspectRatio="xMinYMin meet" x="163.5" y="-247.2"/>
<text text-anchor="start" x="178.5" y="-237.3" font-family="Helvetica,sans-Serif" font-size="11.00" fill="#000000">applications_id</text>
<polygon fill="#ffffff" stroke="transparent" points="158.5,-208.2 158.5,-230.2 303.5,-230.2 303.5,-208.2 158.5,-208.2"/>
<polygon fill="none" stroke="#000000" points="158.5,-208.2 158.5,-230.2 303.5,-230.2 303.5,-208.2 158.5,-208.2"/>
<text text-anchor="start" x="178.5" y="-215.3" font-family="Helvetica,sans-Serif" font-size="11.00" fill="#000000">exclusion_hash</text>
<polygon fill="none" stroke="#000000" points="158.5,-189.2 158.5,-208.2 303.5,-208.2 303.5,-189.2 158.5,-189.2"/>
<text text-anchor="start" x="161.5" y="-195.3" font-family="Helvetica,sans-Serif" font-size="11.00" fill="#000000">...</text>
<polygon fill="#ffffff" stroke="transparent" points="158.5,-170.2 158.5,-189.2 211.5,-189.2 211.5,-170.2 158.5,-170.2"/>
<polygon fill="none" stroke="#000000" points="158.5,-170.2 158.5,-189.2 211.5,-189.2 211.5,-170.2 158.5,-170.2"/>
<text text-anchor="start" x="161.5" y="-176.3" font-family="Helvetica,sans-Serif" font-size="11.00" fill="#000000">&lt; 1</text>
<polygon fill="#ffffff" stroke="transparent" points="211.5,-170.2 211.5,-189.2 265.5,-189.2 265.5,-170.2 211.5,-170.2"/>
<polygon fill="none" stroke="#000000" points="211.5,-170.2 211.5,-189.2 265.5,-189.2 265.5,-170.2 211.5,-170.2"/>
<text text-anchor="start" x="230.1105" y="-176.3" font-family="Helvetica,sans-Serif" font-size="11.00" fill="#000000">0 rows</text>
<polygon fill="#ffffff" stroke="transparent" points="265.5,-170.2 265.5,-189.2 303.5,-189.2 303.5,-170.2 265.5,-170.2"/>
<polygon fill="none" stroke="#000000" points="265.5,-170.2 265.5,-189.2 303.5,-189.2 303.5,-170.2 265.5,-170.2"/>
<text text-anchor="start" x="284.9053" y="-176.3" font-family="Helvetica,sans-Serif" font-size="11.00" fill="#000000">5 &gt;</text>
</a>
</g>
</g>
<!-- rasp_attack_event&#45;&gt;rules_exclusions -->
<g id="edge2" class="edge">
<title>rasp_attack_event:w&#45;&gt;rules_exclusions:e</title>
<path fill="none" stroke="#000000" d="M388.518,-421.9256C368.6569,-417.9754 360.3977,-404.999 344,-385.2 313.4143,-348.27 351.4511,-285.2 303.5,-285.2"/>
<polygon fill="#000000" stroke="#000000" points="395.0308,-422.4987 402.6844,-426.7861 399.0154,-422.8493 403,-423.2 403,-423.2 403,-423.2 399.0154,-422.8493 403.3156,-419.6139 395.0308,-422.4987 395.0308,-422.4987"/>
<ellipse fill="none" stroke="#000000" cx="391.8431" cy="-422.2181" rx="3.2" ry="3.2"/>
</g>
<!-- rules_exclusions&#45;&gt;applications -->
<g id="edge3" class="edge">
<title>rules_exclusions:w&#45;&gt;applications:e</title>
<path fill="none" stroke="#000000" d="M144.7659,-245.7861C125.8724,-262.3628 144.0427,-318.2 109.5,-318.2"/>
<polygon fill="#000000" stroke="#000000" points="150.9119,-243.7339 159.6402,-244.6147 154.7059,-242.4669 158.5,-241.2 158.5,-241.2 158.5,-241.2 154.7059,-242.4669 157.3598,-237.7853 150.9119,-243.7339 150.9119,-243.7339"/>
<ellipse fill="none" stroke="#000000" cx="147.8766" cy="-244.7474" rx="3.2" ry="3.2"/>
</g>
<!-- rules_exclusions_assessment_rules -->
<g id="node4" class="node">
<title>rules_exclusions_assessment_rules</title>
<g id="a_node4"><a xlink:href="../../tables/rules_exclusions_assessment_rules.html" xlink:title="rules_exclusions_assessment_rules" target="_top">
<polygon fill="#ffffff" stroke="transparent" points="359.5,-313.7 359.5,-374.7 578.5,-374.7 578.5,-313.7 359.5,-313.7"/>
<polygon fill="#f5f5f5" stroke="transparent" points="360,-351.2 360,-374.2 579,-374.2 579,-351.2 360,-351.2"/>
<polygon fill="none" stroke="#000000" points="360,-351.2 360,-374.2 579,-374.2 579,-351.2 360,-351.2"/>
<text text-anchor="start" x="364.9852" y="-360.3" font-family="Helvetica,sans-Serif" font-weight="bold" font-size="11.00" fill="#000000">rules_exclusions_assessment_rules</text>
<text text-anchor="start" x="544.5219" y="-359.3" font-family="Helvetica,sans-Serif" font-size="11.00" fill="#000000">[table]</text>
<polygon fill="none" stroke="#000000" points="360,-332.2 360,-351.2 579,-351.2 579,-332.2 360,-332.2"/>
<text text-anchor="start" x="363" y="-338.3" font-family="Helvetica,sans-Serif" font-size="11.00" fill="#000000">...</text>
<polygon fill="#ffffff" stroke="transparent" points="360,-313.2 360,-332.2 455,-332.2 455,-313.2 360,-313.2"/>
<polygon fill="none" stroke="#000000" points="360,-313.2 360,-332.2 455,-332.2 455,-313.2 360,-313.2"/>
<text text-anchor="start" x="363" y="-319.3" font-family="Helvetica,sans-Serif" font-size="11.00" fill="#000000">&lt; 2</text>
<polygon fill="#ffffff" stroke="transparent" points="455,-313.2 455,-332.2 530,-332.2 530,-313.2 455,-313.2"/>
<polygon fill="none" stroke="#000000" points="455,-313.2 455,-332.2 530,-332.2 530,-313.2 455,-313.2"/>
<text text-anchor="start" x="494.6105" y="-319.3" font-family="Helvetica,sans-Serif" font-size="11.00" fill="#000000">0 rows</text>
<polygon fill="#ffffff" stroke="transparent" points="530,-313.2 530,-332.2 579,-332.2 579,-313.2 530,-313.2"/>
<polygon fill="none" stroke="#000000" points="530,-313.2 530,-332.2 579,-332.2 579,-313.2 530,-313.2"/>
<text text-anchor="start" x="569.8862" y="-319.3" font-family="Helvetica,sans-Serif" font-size="11.00" fill="#000000"> &#160;</text>
</a>
</g>
</g>
<!-- rules_exclusions_assessment_rules&#45;&gt;rules_exclusions -->
<g id="edge4" class="edge">
<title>rules_exclusions_assessment_rules:w&#45;&gt;rules_exclusions:e</title>
<path fill="none" stroke="#000000" d="M346.1631,-337.1726C327.9732,-324.3323 333.0551,-285.2 303.5,-285.2"/>
<polygon fill="#000000" stroke="#000000" points="352.3187,-338.9642 358.9939,-344.6566 356.1594,-340.0821 360,-341.2 360,-341.2 360,-341.2 356.1594,-340.0821 361.0061,-337.7434 352.3187,-338.9642 352.3187,-338.9642"/>
<ellipse fill="none" stroke="#000000" cx="349.2462" cy="-338.0699" rx="3.2" ry="3.2"/>
</g>
<!-- rules_exclusions_codes -->
<g id="node5" class="node">
<title>rules_exclusions_codes</title>
<g id="a_node5"><a xlink:href="../../tables/rules_exclusions_codes.html" xlink:title="rules_exclusions_codes" target="_top">
<polygon fill="#ffffff" stroke="transparent" points="389.5,-231.7 389.5,-292.7 548.5,-292.7 548.5,-231.7 389.5,-231.7"/>
<polygon fill="#f5f5f5" stroke="transparent" points="390,-269.2 390,-292.2 549,-292.2 549,-269.2 390,-269.2"/>
<polygon fill="none" stroke="#000000" points="390,-269.2 390,-292.2 549,-292.2 549,-269.2 390,-269.2"/>
<text text-anchor="start" x="394.6258" y="-278.3" font-family="Helvetica,sans-Serif" font-weight="bold" font-size="11.00" fill="#000000">rules_exclusions_codes</text>
<text text-anchor="start" x="514.5219" y="-277.3" font-family="Helvetica,sans-Serif" font-size="11.00" fill="#000000">[table]</text>
<polygon fill="none" stroke="#000000" points="390,-250.2 390,-269.2 549,-269.2 549,-250.2 390,-250.2"/>
<text text-anchor="start" x="393" y="-256.3" font-family="Helvetica,sans-Serif" font-size="11.00" fill="#000000">...</text>
<polygon fill="#ffffff" stroke="transparent" points="390,-231.2 390,-250.2 455,-250.2 455,-231.2 390,-231.2"/>
<polygon fill="none" stroke="#000000" points="390,-231.2 390,-250.2 455,-250.2 455,-231.2 390,-231.2"/>
<text text-anchor="start" x="393" y="-237.3" font-family="Helvetica,sans-Serif" font-size="11.00" fill="#000000">&lt; 1</text>
<polygon fill="#ffffff" stroke="transparent" points="455,-231.2 455,-250.2 515,-250.2 515,-231.2 455,-231.2"/>
<polygon fill="none" stroke="#000000" points="455,-231.2 455,-250.2 515,-250.2 515,-231.2 455,-231.2"/>
<text text-anchor="start" x="479.6105" y="-237.3" font-family="Helvetica,sans-Serif" font-size="11.00" fill="#000000">0 rows</text>
<polygon fill="#ffffff" stroke="transparent" points="515,-231.2 515,-250.2 549,-250.2 549,-231.2 515,-231.2"/>
<polygon fill="none" stroke="#000000" points="515,-231.2 515,-250.2 549,-250.2 549,-231.2 515,-231.2"/>
<text text-anchor="start" x="539.8862" y="-237.3" font-family="Helvetica,sans-Serif" font-size="11.00" fill="#000000"> &#160;</text>
</a>
</g>
</g>
<!-- rules_exclusions_codes&#45;&gt;rules_exclusions -->
<g id="edge5" class="edge">
<title>rules_exclusions_codes:w&#45;&gt;rules_exclusions:e</title>
<path fill="none" stroke="#000000" d="M375.6418,-260.454C347.6076,-265.6476 338.312,-285.2 303.5,-285.2"/>
<polygon fill="#000000" stroke="#000000" points="382.0303,-259.8961 390.3133,-262.7863 386.0152,-259.5481 390,-259.2 390,-259.2 390,-259.2 386.0152,-259.5481 389.6867,-255.6137 382.0303,-259.8961 382.0303,-259.8961"/>
<ellipse fill="none" stroke="#000000" cx="378.8425" cy="-260.1746" rx="3.2" ry="3.2"/>
</g>
<!-- rules_exclusions_protection_rules -->
<g id="node6" class="node">
<title>rules_exclusions_protection_rules</title>
<g id="a_node6"><a xlink:href="../../tables/rules_exclusions_protection_rules.html" xlink:title="rules_exclusions_protection_rules" target="_top">
<polygon fill="#ffffff" stroke="transparent" points="365,-149.7 365,-210.7 573,-210.7 573,-149.7 365,-149.7"/>
<polygon fill="#f5f5f5" stroke="transparent" points="365,-187.2 365,-210.2 573,-210.2 573,-187.2 365,-187.2"/>
<polygon fill="none" stroke="#000000" points="365,-187.2 365,-210.2 573,-210.2 573,-187.2 365,-187.2"/>
<text text-anchor="start" x="369.6788" y="-196.3" font-family="Helvetica,sans-Serif" font-weight="bold" font-size="11.00" fill="#000000">rules_exclusions_protection_rules</text>
<text text-anchor="start" x="538.5219" y="-195.3" font-family="Helvetica,sans-Serif" font-size="11.00" fill="#000000">[table]</text>
<polygon fill="none" stroke="#000000" points="365,-168.2 365,-187.2 573,-187.2 573,-168.2 365,-168.2"/>
<text text-anchor="start" x="368" y="-174.3" font-family="Helvetica,sans-Serif" font-size="11.00" fill="#000000">...</text>
<polygon fill="#ffffff" stroke="transparent" points="365,-149.2 365,-168.2 454,-168.2 454,-149.2 365,-149.2"/>
<polygon fill="none" stroke="#000000" points="365,-149.2 365,-168.2 454,-168.2 454,-149.2 365,-149.2"/>
<text text-anchor="start" x="368" y="-155.3" font-family="Helvetica,sans-Serif" font-size="11.00" fill="#000000">&lt; 2</text>
<polygon fill="#ffffff" stroke="transparent" points="454,-149.2 454,-168.2 526,-168.2 526,-149.2 454,-149.2"/>
<polygon fill="none" stroke="#000000" points="454,-149.2 454,-168.2 526,-168.2 526,-149.2 454,-149.2"/>
<text text-anchor="start" x="490.6105" y="-155.3" font-family="Helvetica,sans-Serif" font-size="11.00" fill="#000000">0 rows</text>
<polygon fill="#ffffff" stroke="transparent" points="526,-149.2 526,-168.2 573,-168.2 573,-149.2 526,-149.2"/>
<polygon fill="none" stroke="#000000" points="526,-149.2 526,-168.2 573,-168.2 573,-149.2 526,-149.2"/>
<text text-anchor="start" x="563.8862" y="-155.3" font-family="Helvetica,sans-Serif" font-size="11.00" fill="#000000"> &#160;</text>
</a>
</g>
</g>
<!-- rules_exclusions_protection_rules&#45;&gt;rules_exclusions -->
<g id="edge6" class="edge">
<title>rules_exclusions_protection_rules:w&#45;&gt;rules_exclusions:e</title>
<path fill="none" stroke="#000000" d="M350.7558,-180.5507C318.9343,-198.7799 352.9111,-285.2 303.5,-285.2"/>
<polygon fill="#000000" stroke="#000000" points="357.2125,-179.0319 365.8243,-180.7044 361.1063,-178.1159 365,-177.2 365,-177.2 365,-177.2 361.1063,-178.1159 364.1757,-173.6956 357.2125,-179.0319 357.2125,-179.0319"/>
<ellipse fill="none" stroke="#000000" cx="354.0976" cy="-179.7646" rx="3.2" ry="3.2"/>
</g>
<!-- rules_exclusions_urls -->
<g id="node7" class="node">
<title>rules_exclusions_urls</title>
<g id="a_node7"><a xlink:href="../../tables/rules_exclusions_urls.html" xlink:title="rules_exclusions_urls" target="_top">
<polygon fill="#ffffff" stroke="transparent" points="352,-38.2 352,-128.2 586,-128.2 586,-38.2 352,-38.2"/>
<polygon fill="#f5f5f5" stroke="transparent" points="354,-103.2 354,-126.2 584,-126.2 584,-103.2 354,-103.2"/>
<polygon fill="none" stroke="#000000" points="354,-103.2 354,-126.2 584,-126.2 584,-103.2 354,-103.2"/>
<text text-anchor="start" x="359" y="-112.3" font-family="Helvetica,sans-Serif" font-weight="bold" font-size="11.00" fill="#000000">rules_exclusions_urls</text>
<text text-anchor="start" x="549.0437" y="-111.3" font-family="Helvetica,sans-Serif" font-size="11.00" fill="#000000">[table]</text>
<polygon fill="none" stroke="#000000" points="354,-81.2 354,-103.2 501,-103.2 501,-81.2 354,-81.2"/>
<image xlink:href="../../images/primaryKeys.png" width="11px" height="12px" preserveAspectRatio="xMinYMin meet" x="359" y="-98.2"/>
<text text-anchor="start" x="374" y="-88.3" font-family="Helvetica,sans-Serif" font-size="11.00" fill="#000000">rules_exclusions_id</text>
<polygon fill="none" stroke="#000000" points="501,-81.2 501,-103.2 584,-103.2 584,-81.2 501,-81.2"/>
<text text-anchor="start" x="503.6783" y="-88.9" font-family="Helvetica,sans-Serif" font-size="11.00" fill="#000000">int unsigned[10]</text>
<polygon fill="none" stroke="#000000" points="354,-59.2 354,-81.2 501,-81.2 501,-59.2 354,-59.2"/>
<image xlink:href="../../images/primaryKeys.png" width="11px" height="12px" preserveAspectRatio="xMinYMin meet" x="359" y="-76.2"/>
<text text-anchor="start" x="374" y="-66.3" font-family="Helvetica,sans-Serif" font-size="11.00" fill="#000000">exclusion_url</text>
<polygon fill="none" stroke="#000000" points="501,-59.2 501,-81.2 584,-81.2 584,-59.2 501,-59.2"/>
<text text-anchor="start" x="504" y="-66.9" font-family="Helvetica,sans-Serif" font-size="11.00" fill="#000000">varchar[255]</text>
<polygon fill="#ffffff" stroke="transparent" points="354,-40.2 354,-59.2 419,-59.2 419,-40.2 354,-40.2"/>
<polygon fill="none" stroke="#000000" points="354,-40.2 354,-59.2 419,-59.2 419,-40.2 354,-40.2"/>
<text text-anchor="start" x="357" y="-46.3" font-family="Helvetica,sans-Serif" font-size="11.00" fill="#000000">&lt; 1</text>
<polygon fill="#ffffff" stroke="transparent" points="419,-40.2 419,-59.2 501,-59.2 501,-40.2 419,-40.2"/>
<polygon fill="none" stroke="#000000" points="419,-40.2 419,-59.2 501,-59.2 501,-40.2 419,-40.2"/>
<text text-anchor="start" x="465.6105" y="-46.3" font-family="Helvetica,sans-Serif" font-size="11.00" fill="#000000">0 rows</text>
<polygon fill="#ffffff" stroke="transparent" points="501,-40.2 501,-59.2 584,-59.2 584,-40.2 501,-40.2"/>
<polygon fill="none" stroke="#000000" points="501,-40.2 501,-59.2 584,-59.2 584,-40.2 501,-40.2"/>
<text text-anchor="start" x="565.4053" y="-46.3" font-family="Helvetica,sans-Serif" font-size="11.00" fill="#000000">0 &gt;</text>
<polygon fill="none" stroke="#000000" stroke-width="2" points="353,-39.2 353,-127.2 585,-127.2 585,-39.2 353,-39.2"/>
</a>
</g>
</g>
<!-- rules_exclusions_urls&#45;&gt;rules_exclusions -->
<g id="edge7" class="edge">
<title>rules_exclusions_urls:w&#45;&gt;rules_exclusions:e</title>
<path fill="none" stroke="#000000" d="M339.4259,-94.5019C280.7886,-116.2771 386.4508,-285.2 303.5,-285.2"/>
<polygon fill="#000000" stroke="#000000" points="346.098,-93.4482 354.5617,-95.7559 350.049,-92.8241 354,-92.2 354,-92.2 354,-92.2 350.049,-92.8241 353.4383,-88.6441 346.098,-93.4482 346.098,-93.4482"/>
<ellipse fill="none" stroke="#000000" cx="342.9371" cy="-93.9474" rx="3.2" ry="3.2"/>
</g>
</g>
</svg>
