<?xml version="1.0" encoding="UTF-8" standalone="no"?>
<!DOCTYPE svg PUBLIC "-//W3C//DTD SVG 1.1//EN"
 "http://www.w3.org/Graphics/SVG/1.1/DTD/svg11.dtd">
<!-- Generated by graphviz version 2.40.1 (20161225.0304)
 -->
<!-- Title: twoDegreesRelationshipsDiagram Pages: 1 -->
<svg width="1109pt" height="1859pt"
 viewBox="0.00 0.00 1109.00 1859.20" xmlns="http://www.w3.org/2000/svg" xmlns:xlink="http://www.w3.org/1999/xlink">
<g id="graph0" class="graph" transform="scale(1 1) rotate(0) translate(4 1855.2)">
<title>twoDegreesRelationshipsDiagram</title>
<polygon fill="#ffffff" stroke="transparent" points="-4,4 -4,-1855.2 1105,-1855.2 1105,4 -4,4"/>
<text text-anchor="middle" x="72.4936" y="-7.3" font-family="Helvetica,sans-Serif" font-size="11.00" fill="#000000">Generated by SchemaSpy</text>
<!-- agent_activity_server_day_aggs -->
<g id="node1" class="node">
<title>agent_activity_server_day_aggs</title>
<g id="a_node1"><a xlink:href="../../tables/agent_activity_server_day_aggs.html" xlink:title="agent_activity_server_day_aggs" target="_top">
<polygon fill="#ffffff" stroke="transparent" points="622.5,-804.2 622.5,-865.2 822.5,-865.2 822.5,-804.2 622.5,-804.2"/>
<polygon fill="#f5f5f5" stroke="transparent" points="622.5,-841.7 622.5,-864.7 822.5,-864.7 822.5,-841.7 622.5,-841.7"/>
<polygon fill="none" stroke="#000000" points="622.5,-841.7 622.5,-864.7 822.5,-864.7 822.5,-841.7 622.5,-841.7"/>
<text text-anchor="start" x="627.1427" y="-850.8" font-family="Helvetica,sans-Serif" font-weight="bold" font-size="11.00" fill="#000000">agent_activity_server_day_aggs</text>
<text text-anchor="start" x="788.0219" y="-849.8" font-family="Helvetica,sans-Serif" font-size="11.00" fill="#000000">[table]</text>
<polygon fill="none" stroke="#000000" points="622.5,-822.7 622.5,-841.7 822.5,-841.7 822.5,-822.7 622.5,-822.7"/>
<text text-anchor="start" x="625.5" y="-828.8" font-family="Helvetica,sans-Serif" font-size="11.00" fill="#000000">...</text>
<polygon fill="#ffffff" stroke="transparent" points="622.5,-803.7 622.5,-822.7 707.5,-822.7 707.5,-803.7 622.5,-803.7"/>
<polygon fill="none" stroke="#000000" points="622.5,-803.7 622.5,-822.7 707.5,-822.7 707.5,-803.7 622.5,-803.7"/>
<text text-anchor="start" x="625.5" y="-809.8" font-family="Helvetica,sans-Serif" font-size="11.00" fill="#000000">&lt; 1</text>
<polygon fill="#ffffff" stroke="transparent" points="707.5,-803.7 707.5,-822.7 777.5,-822.7 777.5,-803.7 707.5,-803.7"/>
<polygon fill="none" stroke="#000000" points="707.5,-803.7 707.5,-822.7 777.5,-822.7 777.5,-803.7 707.5,-803.7"/>
<text text-anchor="start" x="742.1105" y="-809.8" font-family="Helvetica,sans-Serif" font-size="11.00" fill="#000000">0 rows</text>
<polygon fill="#ffffff" stroke="transparent" points="777.5,-803.7 777.5,-822.7 822.5,-822.7 822.5,-803.7 777.5,-803.7"/>
<polygon fill="none" stroke="#000000" points="777.5,-803.7 777.5,-822.7 822.5,-822.7 822.5,-803.7 777.5,-803.7"/>
<text text-anchor="start" x="813.3862" y="-809.8" font-family="Helvetica,sans-Serif" font-size="11.00" fill="#000000"> &#160;</text>
</a>
</g>
</g>
<!-- servers -->
<g id="node2" class="node">
<title>servers</title>
<g id="a_node2"><a xlink:href="../../tables/servers.html" xlink:title="servers" target="_top">
<polygon fill="#ffffff" stroke="transparent" points="355,-500.2 355,-825.2 554,-825.2 554,-500.2 355,-500.2"/>
<polygon fill="#f5f5f5" stroke="transparent" points="355.5,-801.7 355.5,-824.7 554.5,-824.7 554.5,-801.7 355.5,-801.7"/>
<polygon fill="none" stroke="#000000" points="355.5,-801.7 355.5,-824.7 554.5,-824.7 554.5,-801.7 355.5,-801.7"/>
<text text-anchor="start" x="360.5" y="-810.8" font-family="Helvetica,sans-Serif" font-weight="bold" font-size="11.00" fill="#000000">servers</text>
<text text-anchor="start" x="519.5437" y="-809.8" font-family="Helvetica,sans-Serif" font-size="11.00" fill="#000000">[table]</text>
<polygon fill="none" stroke="#000000" points="355.5,-779.7 355.5,-801.7 554.5,-801.7 554.5,-779.7 355.5,-779.7"/>
<image xlink:href="../../images/primaryKeys.png" width="11px" height="12px" preserveAspectRatio="xMinYMin meet" x="360.5" y="-796.7"/>
<text text-anchor="start" x="375.5" y="-786.8" font-family="Helvetica,sans-Serif" font-size="11.00" fill="#000000">server_id</text>
<polygon fill="#ffffff" stroke="transparent" points="355.5,-757.7 355.5,-779.7 554.5,-779.7 554.5,-757.7 355.5,-757.7"/>
<polygon fill="none" stroke="#000000" points="355.5,-757.7 355.5,-779.7 554.5,-779.7 554.5,-757.7 355.5,-757.7"/>
<text text-anchor="start" x="375.5" y="-764.8" font-family="Helvetica,sans-Serif" font-size="11.00" fill="#000000">enabled</text>
<polygon fill="#ffffff" stroke="transparent" points="355.5,-735.7 355.5,-757.7 554.5,-757.7 554.5,-735.7 355.5,-735.7"/>
<polygon fill="none" stroke="#000000" points="355.5,-735.7 355.5,-757.7 554.5,-757.7 554.5,-735.7 355.5,-735.7"/>
<text text-anchor="start" x="375.5" y="-742.8" font-family="Helvetica,sans-Serif" font-size="11.00" fill="#000000">hostname</text>
<polygon fill="#ffffff" stroke="transparent" points="355.5,-713.7 355.5,-735.7 554.5,-735.7 554.5,-713.7 355.5,-713.7"/>
<polygon fill="none" stroke="#000000" points="355.5,-713.7 355.5,-735.7 554.5,-735.7 554.5,-713.7 355.5,-713.7"/>
<text text-anchor="start" x="375.5" y="-720.8" font-family="Helvetica,sans-Serif" font-size="11.00" fill="#000000">serverpath</text>
<polygon fill="#ffffff" stroke="transparent" points="355.5,-691.7 355.5,-713.7 554.5,-713.7 554.5,-691.7 355.5,-691.7"/>
<polygon fill="none" stroke="#000000" points="355.5,-691.7 355.5,-713.7 554.5,-713.7 554.5,-691.7 355.5,-691.7"/>
<image xlink:href="../../images/foreignKeys.png" width="11px" height="12px" preserveAspectRatio="xMinYMin meet" x="360.5" y="-708.7"/>
<text text-anchor="start" x="375.5" y="-698.8" font-family="Helvetica,sans-Serif" font-size="11.00" fill="#000000">organizations_id</text>
<polygon fill="#ffffff" stroke="transparent" points="355.5,-669.7 355.5,-691.7 554.5,-691.7 554.5,-669.7 355.5,-669.7"/>
<polygon fill="none" stroke="#000000" points="355.5,-669.7 355.5,-691.7 554.5,-691.7 554.5,-669.7 355.5,-669.7"/>
<text text-anchor="start" x="375.5" y="-676.8" font-family="Helvetica,sans-Serif" font-size="11.00" fill="#000000">name</text>
<polygon fill="#ffffff" stroke="transparent" points="355.5,-647.7 355.5,-669.7 554.5,-669.7 554.5,-647.7 355.5,-647.7"/>
<polygon fill="none" stroke="#000000" points="355.5,-647.7 355.5,-669.7 554.5,-669.7 554.5,-647.7 355.5,-647.7"/>
<image xlink:href="../../images/foreignKeys.png" width="11px" height="12px" preserveAspectRatio="xMinYMin meet" x="360.5" y="-664.7"/>
<text text-anchor="start" x="375.5" y="-654.8" font-family="Helvetica,sans-Serif" font-size="11.00" fill="#000000">rasp_server_license_id</text>
<polygon fill="#ffffff" stroke="transparent" points="355.5,-625.7 355.5,-647.7 554.5,-647.7 554.5,-625.7 355.5,-625.7"/>
<polygon fill="none" stroke="#000000" points="355.5,-625.7 355.5,-647.7 554.5,-647.7 554.5,-625.7 355.5,-625.7"/>
<text text-anchor="start" x="375.5" y="-632.8" font-family="Helvetica,sans-Serif" font-size="11.00" fill="#000000">environment</text>
<polygon fill="#ffffff" stroke="transparent" points="355.5,-603.7 355.5,-625.7 554.5,-625.7 554.5,-603.7 355.5,-603.7"/>
<polygon fill="none" stroke="#000000" points="355.5,-603.7 355.5,-625.7 554.5,-625.7 554.5,-603.7 355.5,-603.7"/>
<text text-anchor="start" x="375.5" y="-610.8" font-family="Helvetica,sans-Serif" font-size="11.00" fill="#000000">dt_creation_time</text>
<polygon fill="#ffffff" stroke="transparent" points="355.5,-581.7 355.5,-603.7 554.5,-603.7 554.5,-581.7 355.5,-581.7"/>
<polygon fill="none" stroke="#000000" points="355.5,-581.7 355.5,-603.7 554.5,-603.7 554.5,-581.7 355.5,-581.7"/>
<text text-anchor="start" x="375.5" y="-588.8" font-family="Helvetica,sans-Serif" font-size="11.00" fill="#000000">uuid</text>
<polygon fill="#ffffff" stroke="transparent" points="355.5,-559.7 355.5,-581.7 554.5,-581.7 554.5,-559.7 355.5,-559.7"/>
<polygon fill="none" stroke="#000000" points="355.5,-559.7 355.5,-581.7 554.5,-581.7 554.5,-559.7 355.5,-559.7"/>
<text text-anchor="start" x="375.5" y="-566.8" font-family="Helvetica,sans-Serif" font-size="11.00" fill="#000000">agent_language</text>
<polygon fill="#ffffff" stroke="transparent" points="355.5,-537.7 355.5,-559.7 554.5,-559.7 554.5,-537.7 355.5,-537.7"/>
<polygon fill="none" stroke="#000000" points="355.5,-537.7 355.5,-559.7 554.5,-559.7 554.5,-537.7 355.5,-537.7"/>
<text text-anchor="start" x="375.5" y="-544.8" font-family="Helvetica,sans-Serif" font-size="11.00" fill="#000000">numeric_hash</text>
<polygon fill="none" stroke="#000000" points="355.5,-518.7 355.5,-537.7 554.5,-537.7 554.5,-518.7 355.5,-518.7"/>
<text text-anchor="start" x="358.5" y="-524.8" font-family="Helvetica,sans-Serif" font-size="11.00" fill="#000000">...</text>
<polygon fill="#ffffff" stroke="transparent" points="355.5,-499.7 355.5,-518.7 432.5,-518.7 432.5,-499.7 355.5,-499.7"/>
<polygon fill="none" stroke="#000000" points="355.5,-499.7 355.5,-518.7 432.5,-518.7 432.5,-499.7 355.5,-499.7"/>
<text text-anchor="start" x="358.5" y="-505.8" font-family="Helvetica,sans-Serif" font-size="11.00" fill="#000000">&lt; 2</text>
<polygon fill="#ffffff" stroke="transparent" points="432.5,-499.7 432.5,-518.7 498.5,-518.7 498.5,-499.7 432.5,-499.7"/>
<polygon fill="none" stroke="#000000" points="432.5,-499.7 432.5,-518.7 498.5,-518.7 498.5,-499.7 432.5,-499.7"/>
<text text-anchor="start" x="463.1105" y="-505.8" font-family="Helvetica,sans-Serif" font-size="11.00" fill="#000000">0 rows</text>
<polygon fill="#ffffff" stroke="transparent" points="498.5,-499.7 498.5,-518.7 554.5,-518.7 554.5,-499.7 498.5,-499.7"/>
<polygon fill="none" stroke="#000000" points="498.5,-499.7 498.5,-518.7 554.5,-518.7 554.5,-499.7 498.5,-499.7"/>
<text text-anchor="start" x="529.7904" y="-505.8" font-family="Helvetica,sans-Serif" font-size="11.00" fill="#000000">21 &gt;</text>
</a>
</g>
</g>
<!-- agent_activity_server_day_aggs&#45;&gt;servers -->
<g id="edge1" class="edge">
<title>agent_activity_server_day_aggs:w&#45;&gt;servers:e</title>
<path fill="none" stroke="#000000" d="M608.147,-828.8819C587.0647,-819.6188 584.1387,-790.7 554.5,-790.7"/>
<polygon fill="#000000" stroke="#000000" points="614.6499,-830.1586 621.8064,-835.2326 618.5749,-830.9293 622.5,-831.7 622.5,-831.7 622.5,-831.7 618.5749,-830.9293 623.1936,-828.1674 614.6499,-830.1586 614.6499,-830.1586"/>
<ellipse fill="none" stroke="#000000" cx="611.5098" cy="-829.5421" rx="3.2" ry="3.2"/>
</g>
<!-- organizations -->
<g id="node4" class="node">
<title>organizations</title>
<g id="a_node4"><a xlink:href="../../tables/organizations.html" xlink:title="organizations" target="_top">
<polygon fill="#ffffff" stroke="transparent" points="8,-617.2 8,-678.2 116,-678.2 116,-617.2 8,-617.2"/>
<polygon fill="#f5f5f5" stroke="transparent" points="8,-654.7 8,-677.7 116,-677.7 116,-654.7 8,-654.7"/>
<polygon fill="none" stroke="#000000" points="8,-654.7 8,-677.7 116,-677.7 116,-654.7 8,-654.7"/>
<text text-anchor="start" x="12.7976" y="-663.8" font-family="Helvetica,sans-Serif" font-weight="bold" font-size="11.00" fill="#000000">organizations</text>
<text text-anchor="start" x="81.5219" y="-662.8" font-family="Helvetica,sans-Serif" font-size="11.00" fill="#000000">[table]</text>
<polygon fill="none" stroke="#000000" points="8,-635.7 8,-654.7 116,-654.7 116,-635.7 8,-635.7"/>
<text text-anchor="start" x="11" y="-641.8" font-family="Helvetica,sans-Serif" font-size="11.00" fill="#000000">...</text>
<polygon fill="#ffffff" stroke="transparent" points="8,-616.7 8,-635.7 40,-635.7 40,-616.7 8,-616.7"/>
<polygon fill="none" stroke="#000000" points="8,-616.7 8,-635.7 40,-635.7 40,-616.7 8,-616.7"/>
<text text-anchor="start" x="11" y="-622.8" font-family="Helvetica,sans-Serif" font-size="11.00" fill="#000000">&lt; 4</text>
<polygon fill="#ffffff" stroke="transparent" points="40,-616.7 40,-635.7 83,-635.7 83,-616.7 40,-616.7"/>
<polygon fill="none" stroke="#000000" points="40,-616.7 40,-635.7 83,-635.7 83,-616.7 40,-616.7"/>
<text text-anchor="start" x="47.6105" y="-622.8" font-family="Helvetica,sans-Serif" font-size="11.00" fill="#000000">3 rows</text>
<polygon fill="#ffffff" stroke="transparent" points="83,-616.7 83,-635.7 116,-635.7 116,-616.7 83,-616.7"/>
<polygon fill="none" stroke="#000000" points="83,-616.7 83,-635.7 116,-635.7 116,-616.7 83,-616.7"/>
<text text-anchor="start" x="91.2904" y="-622.8" font-family="Helvetica,sans-Serif" font-size="11.00" fill="#000000">81 &gt;</text>
</a>
</g>
</g>
<!-- servers&#45;&gt;organizations -->
<g id="edge28" class="edge">
<title>servers:w&#45;&gt;organizations:e</title>
<path fill="none" stroke="#000000" d="M341.0123,-702.9164C263.4727,-705.232 232.287,-724.655 157,-688.7 132.8799,-677.1809 142.7296,-644.7 116,-644.7"/>
<polygon fill="#000000" stroke="#000000" points="347.5009,-702.8195 355.5538,-706.2996 351.5004,-702.7598 355.5,-702.7 355.5,-702.7 355.5,-702.7 351.5004,-702.7598 355.4462,-699.1004 347.5009,-702.8195 347.5009,-702.8195"/>
<ellipse fill="none" stroke="#000000" cx="344.3012" cy="-702.8673" rx="3.2" ry="3.2"/>
</g>
<!-- rasp_server_license -->
<g id="node17" class="node">
<title>rasp_server_license</title>
<g id="a_node17"><a xlink:href="../../tables/rasp_server_license.html" xlink:title="rasp_server_license" target="_top">
<polygon fill="#ffffff" stroke="transparent" points="165,-617.2 165,-678.2 306,-678.2 306,-617.2 165,-617.2"/>
<polygon fill="#f5f5f5" stroke="transparent" points="165.5,-654.7 165.5,-677.7 306.5,-677.7 306.5,-654.7 165.5,-654.7"/>
<polygon fill="none" stroke="#000000" points="165.5,-654.7 165.5,-677.7 306.5,-677.7 306.5,-654.7 165.5,-654.7"/>
<text text-anchor="start" x="170.2992" y="-663.8" font-family="Helvetica,sans-Serif" font-weight="bold" font-size="11.00" fill="#000000">rasp_server_license</text>
<text text-anchor="start" x="272.0219" y="-662.8" font-family="Helvetica,sans-Serif" font-size="11.00" fill="#000000">[table]</text>
<polygon fill="none" stroke="#000000" points="165.5,-635.7 165.5,-654.7 306.5,-654.7 306.5,-635.7 165.5,-635.7"/>
<text text-anchor="start" x="168.5" y="-641.8" font-family="Helvetica,sans-Serif" font-size="11.00" fill="#000000">...</text>
<polygon fill="#ffffff" stroke="transparent" points="165.5,-616.7 165.5,-635.7 216.5,-635.7 216.5,-616.7 165.5,-616.7"/>
<polygon fill="none" stroke="#000000" points="165.5,-616.7 165.5,-635.7 216.5,-635.7 216.5,-616.7 165.5,-616.7"/>
<text text-anchor="start" x="168.5" y="-622.8" font-family="Helvetica,sans-Serif" font-size="11.00" fill="#000000">&lt; 1</text>
<polygon fill="#ffffff" stroke="transparent" points="216.5,-616.7 216.5,-635.7 269.5,-635.7 269.5,-616.7 216.5,-616.7"/>
<polygon fill="none" stroke="#000000" points="216.5,-616.7 216.5,-635.7 269.5,-635.7 269.5,-616.7 216.5,-616.7"/>
<text text-anchor="start" x="234.1105" y="-622.8" font-family="Helvetica,sans-Serif" font-size="11.00" fill="#000000">0 rows</text>
<polygon fill="#ffffff" stroke="transparent" points="269.5,-616.7 269.5,-635.7 306.5,-635.7 306.5,-616.7 269.5,-616.7"/>
<polygon fill="none" stroke="#000000" points="269.5,-616.7 269.5,-635.7 306.5,-635.7 306.5,-616.7 269.5,-616.7"/>
<text text-anchor="start" x="287.9053" y="-622.8" font-family="Helvetica,sans-Serif" font-size="11.00" fill="#000000">1 &gt;</text>
</a>
</g>
</g>
<!-- servers&#45;&gt;rasp_server_license -->
<g id="edge29" class="edge">
<title>servers:w&#45;&gt;rasp_server_license:e</title>
<path fill="none" stroke="#000000" d="M344.9061,-657.5064C330.9088,-654.1208 325.0794,-644.7 306.5,-644.7"/>
<polygon fill="#000000" stroke="#000000" points="355.1529,-654.6356 354.2571,-662.5853 352.6672,-662.4061 353.563,-654.4564 355.1529,-654.6356"/>
<polyline fill="none" stroke="#000000" points="355.5,-658.7 351.5252,-658.2521 "/>
<ellipse fill="none" stroke="#000000" cx="348.3453" cy="-657.8938" rx="3.2" ry="3.2"/>
</g>
<!-- app_instrumentation_state -->
<g id="node3" class="node">
<title>app_instrumentation_state</title>
<g id="a_node3"><a xlink:href="../../tables/app_instrumentation_state.html" xlink:title="app_instrumentation_state" target="_top">
<polygon fill="#ffffff" stroke="transparent" points="636.5,-1786.2 636.5,-1847.2 808.5,-1847.2 808.5,-1786.2 636.5,-1786.2"/>
<polygon fill="#f5f5f5" stroke="transparent" points="636.5,-1823.7 636.5,-1846.7 808.5,-1846.7 808.5,-1823.7 636.5,-1823.7"/>
<polygon fill="none" stroke="#000000" points="636.5,-1823.7 636.5,-1846.7 808.5,-1846.7 808.5,-1823.7 636.5,-1823.7"/>
<text text-anchor="start" x="641.2007" y="-1832.8" font-family="Helvetica,sans-Serif" font-weight="bold" font-size="11.00" fill="#000000">app_instrumentation_state</text>
<text text-anchor="start" x="774.0219" y="-1831.8" font-family="Helvetica,sans-Serif" font-size="11.00" fill="#000000">[table]</text>
<polygon fill="none" stroke="#000000" points="636.5,-1804.7 636.5,-1823.7 808.5,-1823.7 808.5,-1804.7 636.5,-1804.7"/>
<text text-anchor="start" x="639.5" y="-1810.8" font-family="Helvetica,sans-Serif" font-size="11.00" fill="#000000">...</text>
<polygon fill="#ffffff" stroke="transparent" points="636.5,-1785.7 636.5,-1804.7 707.5,-1804.7 707.5,-1785.7 636.5,-1785.7"/>
<polygon fill="none" stroke="#000000" points="636.5,-1785.7 636.5,-1804.7 707.5,-1804.7 707.5,-1785.7 636.5,-1785.7"/>
<text text-anchor="start" x="639.5" y="-1791.8" font-family="Helvetica,sans-Serif" font-size="11.00" fill="#000000">&lt; 3</text>
<polygon fill="#ffffff" stroke="transparent" points="707.5,-1785.7 707.5,-1804.7 770.5,-1804.7 770.5,-1785.7 707.5,-1785.7"/>
<polygon fill="none" stroke="#000000" points="707.5,-1785.7 707.5,-1804.7 770.5,-1804.7 770.5,-1785.7 707.5,-1785.7"/>
<text text-anchor="start" x="735.1105" y="-1791.8" font-family="Helvetica,sans-Serif" font-size="11.00" fill="#000000">0 rows</text>
<polygon fill="#ffffff" stroke="transparent" points="770.5,-1785.7 770.5,-1804.7 808.5,-1804.7 808.5,-1785.7 770.5,-1785.7"/>
<polygon fill="none" stroke="#000000" points="770.5,-1785.7 770.5,-1804.7 808.5,-1804.7 808.5,-1785.7 770.5,-1785.7"/>
<text text-anchor="start" x="799.3862" y="-1791.8" font-family="Helvetica,sans-Serif" font-size="11.00" fill="#000000"> &#160;</text>
</a>
</g>
</g>
<!-- app_instrumentation_state&#45;&gt;servers -->
<g id="edge3" class="edge">
<title>app_instrumentation_state:w&#45;&gt;servers:e</title>
<path fill="none" stroke="#000000" d="M622.1621,-1811.4331C608.5607,-1806.3793 603.1555,-1793.2393 595,-1775.7 571.9079,-1726.0378 609.2685,-790.7 554.5,-790.7"/>
<polygon fill="#000000" stroke="#000000" points="628.5982,-1812.4506 635.9378,-1817.2558 632.5491,-1813.0753 636.5,-1813.7 636.5,-1813.7 636.5,-1813.7 632.5491,-1813.0753 637.0622,-1810.1442 628.5982,-1812.4506 628.5982,-1812.4506"/>
<ellipse fill="none" stroke="#000000" cx="625.4374" cy="-1811.9508" rx="3.2" ry="3.2"/>
</g>
<!-- app_instrumentation_state&#45;&gt;organizations -->
<g id="edge2" class="edge">
<title>app_instrumentation_state:w&#45;&gt;organizations:e</title>
<path fill="none" stroke="#000000" d="M622.0315,-1813.5355C220.487,-1804.3046 253.7764,-1408.1069 157,-1007.7 147.4642,-968.2462 156.5898,-644.7 116,-644.7"/>
<polygon fill="#000000" stroke="#000000" points="628.5005,-1813.609 636.459,-1817.2998 632.5003,-1813.6545 636.5,-1813.7 636.5,-1813.7 636.5,-1813.7 632.5003,-1813.6545 636.541,-1810.1002 628.5005,-1813.609 628.5005,-1813.609"/>
<ellipse fill="none" stroke="#000000" cx="625.3007" cy="-1813.5726" rx="3.2" ry="3.2"/>
</g>
<!-- app_libraries_servers -->
<g id="node5" class="node">
<title>app_libraries_servers</title>
<g id="a_node5"><a xlink:href="../../tables/app_libraries_servers.html" xlink:title="app_libraries_servers" target="_top">
<polygon fill="#ffffff" stroke="transparent" points="648.5,-722.2 648.5,-783.2 796.5,-783.2 796.5,-722.2 648.5,-722.2"/>
<polygon fill="#f5f5f5" stroke="transparent" points="648.5,-759.7 648.5,-782.7 796.5,-782.7 796.5,-759.7 648.5,-759.7"/>
<polygon fill="none" stroke="#000000" points="648.5,-759.7 648.5,-782.7 796.5,-782.7 796.5,-759.7 648.5,-759.7"/>
<text text-anchor="start" x="653.4404" y="-768.8" font-family="Helvetica,sans-Serif" font-weight="bold" font-size="11.00" fill="#000000">app_libraries_servers</text>
<text text-anchor="start" x="762.0219" y="-767.8" font-family="Helvetica,sans-Serif" font-size="11.00" fill="#000000">[table]</text>
<polygon fill="none" stroke="#000000" points="648.5,-740.7 648.5,-759.7 796.5,-759.7 796.5,-740.7 648.5,-740.7"/>
<text text-anchor="start" x="651.5" y="-746.8" font-family="Helvetica,sans-Serif" font-size="11.00" fill="#000000">...</text>
<polygon fill="#ffffff" stroke="transparent" points="648.5,-721.7 648.5,-740.7 707.5,-740.7 707.5,-721.7 648.5,-721.7"/>
<polygon fill="none" stroke="#000000" points="648.5,-721.7 648.5,-740.7 707.5,-740.7 707.5,-721.7 648.5,-721.7"/>
<text text-anchor="start" x="651.5" y="-727.8" font-family="Helvetica,sans-Serif" font-size="11.00" fill="#000000">&lt; 2</text>
<polygon fill="#ffffff" stroke="transparent" points="707.5,-721.7 707.5,-740.7 764.5,-740.7 764.5,-721.7 707.5,-721.7"/>
<polygon fill="none" stroke="#000000" points="707.5,-721.7 707.5,-740.7 764.5,-740.7 764.5,-721.7 707.5,-721.7"/>
<text text-anchor="start" x="729.1105" y="-727.8" font-family="Helvetica,sans-Serif" font-size="11.00" fill="#000000">0 rows</text>
<polygon fill="#ffffff" stroke="transparent" points="764.5,-721.7 764.5,-740.7 796.5,-740.7 796.5,-721.7 764.5,-721.7"/>
<polygon fill="none" stroke="#000000" points="764.5,-721.7 764.5,-740.7 796.5,-740.7 796.5,-721.7 764.5,-721.7"/>
<text text-anchor="start" x="787.3862" y="-727.8" font-family="Helvetica,sans-Serif" font-size="11.00" fill="#000000"> &#160;</text>
</a>
</g>
</g>
<!-- app_libraries_servers&#45;&gt;servers -->
<g id="edge4" class="edge">
<title>app_libraries_servers:w&#45;&gt;servers:e</title>
<path fill="none" stroke="#000000" d="M634.0993,-751.2572C601.6681,-758.7463 594.7376,-790.7 554.5,-790.7"/>
<polygon fill="#000000" stroke="#000000" points="640.5464,-750.5601 648.887,-753.2791 644.5232,-750.13 648.5,-749.7 648.5,-749.7 648.5,-749.7 644.5232,-750.13 648.113,-746.1209 640.5464,-750.5601 640.5464,-750.5601"/>
<ellipse fill="none" stroke="#000000" cx="637.3649" cy="-750.9041" rx="3.2" ry="3.2"/>
</g>
<!-- apps_servers -->
<g id="node6" class="node">
<title>apps_servers</title>
<g id="a_node6"><a xlink:href="../../tables/apps_servers.html" xlink:title="apps_servers" target="_top">
<polygon fill="#ffffff" stroke="transparent" points="668,-640.2 668,-701.2 777,-701.2 777,-640.2 668,-640.2"/>
<polygon fill="#f5f5f5" stroke="transparent" points="668.5,-677.7 668.5,-700.7 777.5,-700.7 777.5,-677.7 668.5,-677.7"/>
<polygon fill="none" stroke="#000000" points="668.5,-677.7 668.5,-700.7 777.5,-700.7 777.5,-677.7 668.5,-677.7"/>
<text text-anchor="start" x="673.4934" y="-686.8" font-family="Helvetica,sans-Serif" font-weight="bold" font-size="11.00" fill="#000000">apps_servers</text>
<text text-anchor="start" x="743.0219" y="-685.8" font-family="Helvetica,sans-Serif" font-size="11.00" fill="#000000">[table]</text>
<polygon fill="none" stroke="#000000" points="668.5,-658.7 668.5,-677.7 777.5,-677.7 777.5,-658.7 668.5,-658.7"/>
<text text-anchor="start" x="671.5" y="-664.8" font-family="Helvetica,sans-Serif" font-size="11.00" fill="#000000">...</text>
<polygon fill="#ffffff" stroke="transparent" points="668.5,-639.7 668.5,-658.7 708.5,-658.7 708.5,-639.7 668.5,-639.7"/>
<polygon fill="none" stroke="#000000" points="668.5,-639.7 668.5,-658.7 708.5,-658.7 708.5,-639.7 668.5,-639.7"/>
<text text-anchor="start" x="671.5" y="-645.8" font-family="Helvetica,sans-Serif" font-size="11.00" fill="#000000">&lt; 2</text>
<polygon fill="#ffffff" stroke="transparent" points="708.5,-639.7 708.5,-658.7 755.5,-658.7 755.5,-639.7 708.5,-639.7"/>
<polygon fill="none" stroke="#000000" points="708.5,-639.7 708.5,-658.7 755.5,-658.7 755.5,-639.7 708.5,-639.7"/>
<text text-anchor="start" x="720.1105" y="-645.8" font-family="Helvetica,sans-Serif" font-size="11.00" fill="#000000">0 rows</text>
<polygon fill="#ffffff" stroke="transparent" points="755.5,-639.7 755.5,-658.7 777.5,-658.7 777.5,-639.7 755.5,-639.7"/>
<polygon fill="none" stroke="#000000" points="755.5,-639.7 755.5,-658.7 777.5,-658.7 777.5,-639.7 755.5,-639.7"/>
<text text-anchor="start" x="768.3862" y="-645.8" font-family="Helvetica,sans-Serif" font-size="11.00" fill="#000000"> &#160;</text>
</a>
</g>
</g>
<!-- apps_servers&#45;&gt;servers -->
<g id="edge5" class="edge">
<title>apps_servers:w&#45;&gt;servers:e</title>
<path fill="none" stroke="#000000" d="M654.0129,-668.6487C627.4536,-672.4878 617.3633,-687.817 595,-711.7 568.0316,-740.501 593.9562,-790.7 554.5,-790.7"/>
<polygon fill="#000000" stroke="#000000" points="660.5171,-668.2228 668.7353,-671.2923 664.5086,-667.9614 668.5,-667.7 668.5,-667.7 668.5,-667.7 664.5086,-667.9614 668.2647,-664.1077 660.5171,-668.2228 660.5171,-668.2228"/>
<ellipse fill="none" stroke="#000000" cx="657.3239" cy="-668.432" rx="3.2" ry="3.2"/>
</g>
<!-- notifications_messages -->
<g id="node7" class="node">
<title>notifications_messages</title>
<g id="a_node7"><a xlink:href="../../tables/notifications_messages.html" xlink:title="notifications_messages" target="_top">
<polygon fill="#ffffff" stroke="transparent" points="644,-1704.2 644,-1765.2 801,-1765.2 801,-1704.2 644,-1704.2"/>
<polygon fill="#f5f5f5" stroke="transparent" points="644.5,-1741.7 644.5,-1764.7 801.5,-1764.7 801.5,-1741.7 644.5,-1741.7"/>
<polygon fill="none" stroke="#000000" points="644.5,-1741.7 644.5,-1764.7 801.5,-1764.7 801.5,-1741.7 644.5,-1741.7"/>
<text text-anchor="start" x="649.3479" y="-1750.8" font-family="Helvetica,sans-Serif" font-weight="bold" font-size="11.00" fill="#000000">notifications_messages</text>
<text text-anchor="start" x="767.0219" y="-1749.8" font-family="Helvetica,sans-Serif" font-size="11.00" fill="#000000">[table]</text>
<polygon fill="none" stroke="#000000" points="644.5,-1722.7 644.5,-1741.7 801.5,-1741.7 801.5,-1722.7 644.5,-1722.7"/>
<text text-anchor="start" x="647.5" y="-1728.8" font-family="Helvetica,sans-Serif" font-size="11.00" fill="#000000">...</text>
<polygon fill="#ffffff" stroke="transparent" points="644.5,-1703.7 644.5,-1722.7 703.5,-1722.7 703.5,-1703.7 644.5,-1703.7"/>
<polygon fill="none" stroke="#000000" points="644.5,-1703.7 644.5,-1722.7 703.5,-1722.7 703.5,-1703.7 644.5,-1703.7"/>
<text text-anchor="start" x="647.5" y="-1709.8" font-family="Helvetica,sans-Serif" font-size="11.00" fill="#000000">&lt; 9</text>
<polygon fill="#ffffff" stroke="transparent" points="703.5,-1703.7 703.5,-1722.7 760.5,-1722.7 760.5,-1703.7 703.5,-1703.7"/>
<polygon fill="none" stroke="#000000" points="703.5,-1703.7 703.5,-1722.7 760.5,-1722.7 760.5,-1703.7 703.5,-1703.7"/>
<text text-anchor="start" x="725.1105" y="-1709.8" font-family="Helvetica,sans-Serif" font-size="11.00" fill="#000000">0 rows</text>
<polygon fill="#ffffff" stroke="transparent" points="760.5,-1703.7 760.5,-1722.7 801.5,-1722.7 801.5,-1703.7 760.5,-1703.7"/>
<polygon fill="none" stroke="#000000" points="760.5,-1703.7 760.5,-1722.7 801.5,-1722.7 801.5,-1703.7 760.5,-1703.7"/>
<text text-anchor="start" x="782.9053" y="-1709.8" font-family="Helvetica,sans-Serif" font-size="11.00" fill="#000000">4 &gt;</text>
</a>
</g>
</g>
<!-- notifications_messages&#45;&gt;servers -->
<g id="edge7" class="edge">
<title>notifications_messages:w&#45;&gt;servers:e</title>
<path fill="none" stroke="#000000" d="M629.7347,-1730.0593C612.9707,-1725.7926 605.2148,-1713.2992 595,-1693.7 571.7908,-1649.1681 604.7171,-790.7 554.5,-790.7"/>
<polygon fill="#000000" stroke="#000000" points="636.5489,-1730.8165 644.1024,-1735.278 640.5245,-1731.2582 644.5,-1731.7 644.5,-1731.7 644.5,-1731.7 640.5245,-1731.2582 644.8976,-1728.122 636.5489,-1730.8165 636.5489,-1730.8165"/>
<ellipse fill="none" stroke="#000000" cx="633.3685" cy="-1730.463" rx="3.2" ry="3.2"/>
</g>
<!-- notifications_messages&#45;&gt;organizations -->
<g id="edge6" class="edge">
<title>notifications_messages:w&#45;&gt;organizations:e</title>
<path fill="none" stroke="#000000" d="M629.7926,-1731.8609C562.7614,-1731.8284 486.7796,-1701.0229 157,-806.7 131.3044,-737.0165 190.2701,-644.7 116,-644.7"/>
<polygon fill="#000000" stroke="#000000" points="636.5005,-1731.7876 644.5394,-1735.2998 640.5002,-1731.7438 644.5,-1731.7 644.5,-1731.7 644.5,-1731.7 640.5002,-1731.7438 644.4606,-1728.1002 636.5005,-1731.7876 636.5005,-1731.7876"/>
<ellipse fill="none" stroke="#000000" cx="633.3007" cy="-1731.8226" rx="3.2" ry="3.2"/>
</g>
<!-- protect_license_usage -->
<g id="node8" class="node">
<title>protect_license_usage</title>
<g id="a_node8"><a xlink:href="../../tables/protect_license_usage.html" xlink:title="protect_license_usage" target="_top">
<polygon fill="#ffffff" stroke="transparent" points="646,-1622.2 646,-1683.2 799,-1683.2 799,-1622.2 646,-1622.2"/>
<polygon fill="#f5f5f5" stroke="transparent" points="646.5,-1659.7 646.5,-1682.7 799.5,-1682.7 799.5,-1659.7 646.5,-1659.7"/>
<polygon fill="none" stroke="#000000" points="646.5,-1659.7 646.5,-1682.7 799.5,-1682.7 799.5,-1659.7 646.5,-1659.7"/>
<text text-anchor="start" x="651.4819" y="-1668.8" font-family="Helvetica,sans-Serif" font-weight="bold" font-size="11.00" fill="#000000">protect_license_usage</text>
<text text-anchor="start" x="765.0219" y="-1667.8" font-family="Helvetica,sans-Serif" font-size="11.00" fill="#000000">[table]</text>
<polygon fill="none" stroke="#000000" points="646.5,-1640.7 646.5,-1659.7 799.5,-1659.7 799.5,-1640.7 646.5,-1640.7"/>
<text text-anchor="start" x="649.5" y="-1646.8" font-family="Helvetica,sans-Serif" font-size="11.00" fill="#000000">...</text>
<polygon fill="#ffffff" stroke="transparent" points="646.5,-1621.7 646.5,-1640.7 708.5,-1640.7 708.5,-1621.7 646.5,-1621.7"/>
<polygon fill="none" stroke="#000000" points="646.5,-1621.7 646.5,-1640.7 708.5,-1640.7 708.5,-1621.7 646.5,-1621.7"/>
<text text-anchor="start" x="649.5" y="-1627.8" font-family="Helvetica,sans-Serif" font-size="11.00" fill="#000000">&lt; 2</text>
<polygon fill="#ffffff" stroke="transparent" points="708.5,-1621.7 708.5,-1640.7 766.5,-1640.7 766.5,-1621.7 708.5,-1621.7"/>
<polygon fill="none" stroke="#000000" points="708.5,-1621.7 708.5,-1640.7 766.5,-1640.7 766.5,-1621.7 708.5,-1621.7"/>
<text text-anchor="start" x="731.1105" y="-1627.8" font-family="Helvetica,sans-Serif" font-size="11.00" fill="#000000">0 rows</text>
<polygon fill="#ffffff" stroke="transparent" points="766.5,-1621.7 766.5,-1640.7 799.5,-1640.7 799.5,-1621.7 766.5,-1621.7"/>
<polygon fill="none" stroke="#000000" points="766.5,-1621.7 766.5,-1640.7 799.5,-1640.7 799.5,-1621.7 766.5,-1621.7"/>
<text text-anchor="start" x="790.3862" y="-1627.8" font-family="Helvetica,sans-Serif" font-size="11.00" fill="#000000"> &#160;</text>
</a>
</g>
</g>
<!-- protect_license_usage&#45;&gt;servers -->
<g id="edge9" class="edge">
<title>protect_license_usage:w&#45;&gt;servers:e</title>
<path fill="none" stroke="#000000" d="M632.0772,-1648.2843C614.2346,-1644.3051 605.8693,-1631.9704 595,-1611.7 573.4196,-1571.4542 600.1666,-790.7 554.5,-790.7"/>
<polygon fill="#000000" stroke="#000000" points="638.5383,-1648.9185 646.1483,-1653.2828 642.5191,-1649.3092 646.5,-1649.7 646.5,-1649.7 646.5,-1649.7 642.5191,-1649.3092 646.8517,-1646.1172 638.5383,-1648.9185 638.5383,-1648.9185"/>
<ellipse fill="none" stroke="#000000" cx="635.3536" cy="-1648.6058" rx="3.2" ry="3.2"/>
</g>
<!-- protect_license_usage&#45;&gt;organizations -->
<g id="edge8" class="edge">
<title>protect_license_usage:w&#45;&gt;organizations:e</title>
<path fill="none" stroke="#000000" d="M632.1166,-1648.2627C614.3719,-1644.2299 606.228,-1631.774 595,-1611.7 510.516,-1460.6548 625.49,-1384.7007 562,-1223.7 455.1774,-952.8143 325.7341,-946.0161 157,-708.7 137.4251,-681.1689 149.7807,-644.7 116,-644.7"/>
<polygon fill="#000000" stroke="#000000" points="638.5396,-1648.9045 646.142,-1653.2822 642.5198,-1649.3022 646.5,-1649.7 646.5,-1649.7 646.5,-1649.7 642.5198,-1649.3022 646.858,-1646.1178 638.5396,-1648.9045 638.5396,-1648.9045"/>
<ellipse fill="none" stroke="#000000" cx="635.3555" cy="-1648.5863" rx="3.2" ry="3.2"/>
</g>
<!-- rasp_application_request_activity -->
<g id="node9" class="node">
<title>rasp_application_request_activity</title>
<g id="a_node9"><a xlink:href="../../tables/rasp_application_request_activity.html" xlink:title="rasp_application_request_activity" target="_top">
<polygon fill="#ffffff" stroke="transparent" points="620,-558.2 620,-619.2 825,-619.2 825,-558.2 620,-558.2"/>
<polygon fill="#f5f5f5" stroke="transparent" points="620.5,-595.7 620.5,-618.7 825.5,-618.7 825.5,-595.7 620.5,-595.7"/>
<polygon fill="none" stroke="#000000" points="620.5,-595.7 620.5,-618.7 825.5,-618.7 825.5,-595.7 620.5,-595.7"/>
<text text-anchor="start" x="625.2029" y="-604.8" font-family="Helvetica,sans-Serif" font-weight="bold" font-size="11.00" fill="#000000">rasp_application_request_activity</text>
<text text-anchor="start" x="791.0219" y="-603.8" font-family="Helvetica,sans-Serif" font-size="11.00" fill="#000000">[table]</text>
<polygon fill="none" stroke="#000000" points="620.5,-576.7 620.5,-595.7 825.5,-595.7 825.5,-576.7 620.5,-576.7"/>
<text text-anchor="start" x="623.5" y="-582.8" font-family="Helvetica,sans-Serif" font-size="11.00" fill="#000000">...</text>
<polygon fill="#ffffff" stroke="transparent" points="620.5,-557.7 620.5,-576.7 708.5,-576.7 708.5,-557.7 620.5,-557.7"/>
<polygon fill="none" stroke="#000000" points="620.5,-557.7 620.5,-576.7 708.5,-576.7 708.5,-557.7 620.5,-557.7"/>
<text text-anchor="start" x="623.5" y="-563.8" font-family="Helvetica,sans-Serif" font-size="11.00" fill="#000000">&lt; 2</text>
<polygon fill="#ffffff" stroke="transparent" points="708.5,-557.7 708.5,-576.7 779.5,-576.7 779.5,-557.7 708.5,-557.7"/>
<polygon fill="none" stroke="#000000" points="708.5,-557.7 708.5,-576.7 779.5,-576.7 779.5,-557.7 708.5,-557.7"/>
<text text-anchor="start" x="744.1105" y="-563.8" font-family="Helvetica,sans-Serif" font-size="11.00" fill="#000000">0 rows</text>
<polygon fill="#ffffff" stroke="transparent" points="779.5,-557.7 779.5,-576.7 825.5,-576.7 825.5,-557.7 779.5,-557.7"/>
<polygon fill="none" stroke="#000000" points="779.5,-557.7 779.5,-576.7 825.5,-576.7 825.5,-557.7 779.5,-557.7"/>
<text text-anchor="start" x="816.3862" y="-563.8" font-family="Helvetica,sans-Serif" font-size="11.00" fill="#000000"> &#160;</text>
</a>
</g>
</g>
<!-- rasp_application_request_activity&#45;&gt;servers -->
<g id="edge10" class="edge">
<title>rasp_application_request_activity:w&#45;&gt;servers:e</title>
<path fill="none" stroke="#000000" d="M605.8636,-587.729C538.7233,-609.0196 644.6083,-790.7 554.5,-790.7"/>
<polygon fill="#000000" stroke="#000000" points="612.5758,-586.7985 620.9943,-589.2659 616.5379,-586.2493 620.5,-585.7 620.5,-585.7 620.5,-585.7 616.5379,-586.2493 620.0057,-582.1341 612.5758,-586.7985 612.5758,-586.7985"/>
<ellipse fill="none" stroke="#000000" cx="609.4061" cy="-587.2379" rx="3.2" ry="3.2"/>
</g>
<!-- rasp_attack_event -->
<g id="node10" class="node">
<title>rasp_attack_event</title>
<g id="a_node10"><a xlink:href="../../tables/rasp_attack_event.html" xlink:title="rasp_attack_event" target="_top">
<polygon fill="#ffffff" stroke="transparent" points="926,-450.2 926,-511.2 1058,-511.2 1058,-450.2 926,-450.2"/>
<polygon fill="#f5f5f5" stroke="transparent" points="926,-487.7 926,-510.7 1058,-510.7 1058,-487.7 926,-487.7"/>
<polygon fill="none" stroke="#000000" points="926,-487.7 926,-510.7 1058,-510.7 1058,-487.7 926,-487.7"/>
<text text-anchor="start" x="930.5667" y="-496.8" font-family="Helvetica,sans-Serif" font-weight="bold" font-size="11.00" fill="#000000">rasp_attack_event</text>
<text text-anchor="start" x="1023.5219" y="-495.8" font-family="Helvetica,sans-Serif" font-size="11.00" fill="#000000">[table]</text>
<polygon fill="none" stroke="#000000" points="926,-468.7 926,-487.7 1058,-487.7 1058,-468.7 926,-468.7"/>
<text text-anchor="start" x="929" y="-474.8" font-family="Helvetica,sans-Serif" font-size="11.00" fill="#000000">...</text>
<polygon fill="#ffffff" stroke="transparent" points="926,-449.7 926,-468.7 973,-468.7 973,-449.7 926,-449.7"/>
<polygon fill="none" stroke="#000000" points="926,-449.7 926,-468.7 973,-468.7 973,-449.7 926,-449.7"/>
<text text-anchor="start" x="929" y="-455.8" font-family="Helvetica,sans-Serif" font-size="11.00" fill="#000000">&lt; 7</text>
<polygon fill="#ffffff" stroke="transparent" points="973,-449.7 973,-468.7 1024,-468.7 1024,-449.7 973,-449.7"/>
<polygon fill="none" stroke="#000000" points="973,-449.7 973,-468.7 1024,-468.7 1024,-449.7 973,-449.7"/>
<text text-anchor="start" x="988.6105" y="-455.8" font-family="Helvetica,sans-Serif" font-size="11.00" fill="#000000">0 rows</text>
<polygon fill="#ffffff" stroke="transparent" points="1024,-449.7 1024,-468.7 1058,-468.7 1058,-449.7 1024,-449.7"/>
<polygon fill="none" stroke="#000000" points="1024,-449.7 1024,-468.7 1058,-468.7 1058,-449.7 1024,-449.7"/>
<text text-anchor="start" x="1039.4053" y="-455.8" font-family="Helvetica,sans-Serif" font-size="11.00" fill="#000000">5 &gt;</text>
</a>
</g>
</g>
<!-- rasp_attack_event&#45;&gt;servers -->
<g id="edge12" class="edge">
<title>rasp_attack_event:w&#45;&gt;servers:e</title>
<path fill="none" stroke="#000000" d="M911.3906,-477.0481C888.6568,-474.8836 878.6315,-467.9465 850,-465.7 793.507,-461.2675 637.4747,-428.1898 595,-465.7 540.4469,-513.8769 627.2808,-790.7 554.5,-790.7"/>
<polygon fill="#000000" stroke="#000000" points="918.008,-477.3433 925.8395,-481.2964 922.004,-477.5217 926,-477.7 926,-477.7 926,-477.7 922.004,-477.5217 926.1605,-474.1036 918.008,-477.3433 918.008,-477.3433"/>
<ellipse fill="none" stroke="#000000" cx="914.8111" cy="-477.2006" rx="3.2" ry="3.2"/>
</g>
<!-- rasp_messages -->
<g id="node11" class="node">
<title>rasp_messages</title>
<g id="a_node11"><a xlink:href="../../tables/rasp_messages.html" xlink:title="rasp_messages" target="_top">
<polygon fill="#ffffff" stroke="transparent" points="662.5,-476.2 662.5,-537.2 782.5,-537.2 782.5,-476.2 662.5,-476.2"/>
<polygon fill="#f5f5f5" stroke="transparent" points="662.5,-513.7 662.5,-536.7 782.5,-536.7 782.5,-513.7 662.5,-513.7"/>
<polygon fill="none" stroke="#000000" points="662.5,-513.7 662.5,-536.7 782.5,-536.7 782.5,-513.7 662.5,-513.7"/>
<text text-anchor="start" x="667.186" y="-522.8" font-family="Helvetica,sans-Serif" font-weight="bold" font-size="11.00" fill="#000000">rasp_messages</text>
<text text-anchor="start" x="748.0219" y="-521.8" font-family="Helvetica,sans-Serif" font-size="11.00" fill="#000000">[table]</text>
<polygon fill="none" stroke="#000000" points="662.5,-494.7 662.5,-513.7 782.5,-513.7 782.5,-494.7 662.5,-494.7"/>
<text text-anchor="start" x="665.5" y="-500.8" font-family="Helvetica,sans-Serif" font-size="11.00" fill="#000000">...</text>
<polygon fill="#ffffff" stroke="transparent" points="662.5,-475.7 662.5,-494.7 703.5,-494.7 703.5,-475.7 662.5,-475.7"/>
<polygon fill="none" stroke="#000000" points="662.5,-475.7 662.5,-494.7 703.5,-494.7 703.5,-475.7 662.5,-475.7"/>
<text text-anchor="start" x="665.5" y="-481.8" font-family="Helvetica,sans-Serif" font-size="11.00" fill="#000000">&lt; 2</text>
<polygon fill="#ffffff" stroke="transparent" points="703.5,-475.7 703.5,-494.7 751.5,-494.7 751.5,-475.7 703.5,-475.7"/>
<polygon fill="none" stroke="#000000" points="703.5,-475.7 703.5,-494.7 751.5,-494.7 751.5,-475.7 703.5,-475.7"/>
<text text-anchor="start" x="716.1105" y="-481.8" font-family="Helvetica,sans-Serif" font-size="11.00" fill="#000000">0 rows</text>
<polygon fill="#ffffff" stroke="transparent" points="751.5,-475.7 751.5,-494.7 782.5,-494.7 782.5,-475.7 751.5,-475.7"/>
<polygon fill="none" stroke="#000000" points="751.5,-475.7 751.5,-494.7 782.5,-494.7 782.5,-475.7 751.5,-475.7"/>
<text text-anchor="start" x="763.9053" y="-481.8" font-family="Helvetica,sans-Serif" font-size="11.00" fill="#000000">3 &gt;</text>
</a>
</g>
</g>
<!-- rasp_attack_event&#45;&gt;rasp_messages -->
<g id="edge11" class="edge">
<title>rasp_attack_event:w&#45;&gt;rasp_messages:e</title>
<path fill="none" stroke="#000000" d="M911.3567,-478.1735C858.6361,-481.6973 842.1258,-503.7 782.5,-503.7"/>
<polygon fill="#000000" stroke="#000000" points="918.0042,-477.9586 926.1164,-481.2981 922.0021,-477.8293 926,-477.7 926,-477.7 926,-477.7 922.0021,-477.8293 925.8836,-474.1019 918.0042,-477.9586 918.0042,-477.9586"/>
<ellipse fill="none" stroke="#000000" cx="914.8059" cy="-478.062" rx="3.2" ry="3.2"/>
</g>
<!-- rasp_messages&#45;&gt;servers -->
<g id="edge14" class="edge">
<title>rasp_messages:w&#45;&gt;servers:e</title>
<path fill="none" stroke="#000000" d="M648.0188,-504.6336C622.9345,-508.216 611.69,-522.1774 595,-547.7 565.0381,-593.518 609.2449,-790.7 554.5,-790.7"/>
<polygon fill="#000000" stroke="#000000" points="654.5166,-504.2147 662.7316,-507.2925 658.5083,-503.9574 662.5,-503.7 662.5,-503.7 662.5,-503.7 658.5083,-503.9574 662.2684,-500.1075 654.5166,-504.2147 654.5166,-504.2147"/>
<ellipse fill="none" stroke="#000000" cx="651.3232" cy="-504.4206" rx="3.2" ry="3.2"/>
</g>
<!-- rasp_attacks_applications_servers_map -->
<g id="node12" class="node">
<title>rasp_attacks_applications_servers_map</title>
<g id="a_node12"><a xlink:href="../../tables/rasp_attacks_applications_servers_map.html" xlink:title="rasp_attacks_applications_servers_map" target="_top">
<polygon fill="#ffffff" stroke="transparent" points="603,-366.2 603,-427.2 842,-427.2 842,-366.2 603,-366.2"/>
<polygon fill="#f5f5f5" stroke="transparent" points="603.5,-403.7 603.5,-426.7 842.5,-426.7 842.5,-403.7 603.5,-403.7"/>
<polygon fill="none" stroke="#000000" points="603.5,-403.7 603.5,-426.7 842.5,-426.7 842.5,-403.7 603.5,-403.7"/>
<text text-anchor="start" x="608.3954" y="-412.8" font-family="Helvetica,sans-Serif" font-weight="bold" font-size="11.00" fill="#000000">rasp_attacks_applications_servers_map</text>
<text text-anchor="start" x="808.0219" y="-411.8" font-family="Helvetica,sans-Serif" font-size="11.00" fill="#000000">[table]</text>
<polygon fill="none" stroke="#000000" points="603.5,-384.7 603.5,-403.7 842.5,-403.7 842.5,-384.7 603.5,-384.7"/>
<text text-anchor="start" x="606.5" y="-390.8" font-family="Helvetica,sans-Serif" font-size="11.00" fill="#000000">...</text>
<polygon fill="#ffffff" stroke="transparent" points="603.5,-365.7 603.5,-384.7 708.5,-384.7 708.5,-365.7 603.5,-365.7"/>
<polygon fill="none" stroke="#000000" points="603.5,-365.7 603.5,-384.7 708.5,-384.7 708.5,-365.7 603.5,-365.7"/>
<text text-anchor="start" x="606.5" y="-371.8" font-family="Helvetica,sans-Serif" font-size="11.00" fill="#000000">&lt; 2</text>
<polygon fill="#ffffff" stroke="transparent" points="708.5,-365.7 708.5,-384.7 788.5,-384.7 788.5,-365.7 708.5,-365.7"/>
<polygon fill="none" stroke="#000000" points="708.5,-365.7 708.5,-384.7 788.5,-384.7 788.5,-365.7 708.5,-365.7"/>
<text text-anchor="start" x="753.1105" y="-371.8" font-family="Helvetica,sans-Serif" font-size="11.00" fill="#000000">0 rows</text>
<polygon fill="#ffffff" stroke="transparent" points="788.5,-365.7 788.5,-384.7 842.5,-384.7 842.5,-365.7 788.5,-365.7"/>
<polygon fill="none" stroke="#000000" points="788.5,-365.7 788.5,-384.7 842.5,-384.7 842.5,-365.7 788.5,-365.7"/>
<text text-anchor="start" x="833.3862" y="-371.8" font-family="Helvetica,sans-Serif" font-size="11.00" fill="#000000"> &#160;</text>
</a>
</g>
</g>
<!-- rasp_attacks_applications_servers_map&#45;&gt;servers -->
<g id="edge13" class="edge">
<title>rasp_attacks_applications_servers_map:w&#45;&gt;servers:e</title>
<path fill="none" stroke="#000000" d="M589.651,-397.8899C529.4052,-440.3188 638.0096,-790.7 554.5,-790.7"/>
<polygon fill="#000000" stroke="#000000" points="595.8428,-396.0167 604.5425,-397.1458 599.6714,-394.8583 603.5,-393.7 603.5,-393.7 603.5,-393.7 599.6714,-394.8583 602.4575,-390.2542 595.8428,-396.0167 595.8428,-396.0167"/>
<ellipse fill="none" stroke="#000000" cx="592.7799" cy="-396.9433" rx="3.2" ry="3.2"/>
</g>
<!-- rasp_messages_day_aggs -->
<g id="node13" class="node">
<title>rasp_messages_day_aggs</title>
<g id="a_node13"><a xlink:href="../../tables/rasp_messages_day_aggs.html" xlink:title="rasp_messages_day_aggs" target="_top">
<polygon fill="#ffffff" stroke="transparent" points="635.5,-284.2 635.5,-345.2 809.5,-345.2 809.5,-284.2 635.5,-284.2"/>
<polygon fill="#f5f5f5" stroke="transparent" points="635.5,-321.7 635.5,-344.7 809.5,-344.7 809.5,-321.7 635.5,-321.7"/>
<polygon fill="none" stroke="#000000" points="635.5,-321.7 635.5,-344.7 809.5,-344.7 809.5,-321.7 635.5,-321.7"/>
<text text-anchor="start" x="640.2838" y="-330.8" font-family="Helvetica,sans-Serif" font-weight="bold" font-size="11.00" fill="#000000">rasp_messages_day_aggs</text>
<text text-anchor="start" x="775.0219" y="-329.8" font-family="Helvetica,sans-Serif" font-size="11.00" fill="#000000">[table]</text>
<polygon fill="none" stroke="#000000" points="635.5,-302.7 635.5,-321.7 809.5,-321.7 809.5,-302.7 635.5,-302.7"/>
<text text-anchor="start" x="638.5" y="-308.8" font-family="Helvetica,sans-Serif" font-size="11.00" fill="#000000">...</text>
<polygon fill="#ffffff" stroke="transparent" points="635.5,-283.7 635.5,-302.7 707.5,-302.7 707.5,-283.7 635.5,-283.7"/>
<polygon fill="none" stroke="#000000" points="635.5,-283.7 635.5,-302.7 707.5,-302.7 707.5,-283.7 635.5,-283.7"/>
<text text-anchor="start" x="638.5" y="-289.8" font-family="Helvetica,sans-Serif" font-size="11.00" fill="#000000">&lt; 3</text>
<polygon fill="#ffffff" stroke="transparent" points="707.5,-283.7 707.5,-302.7 771.5,-302.7 771.5,-283.7 707.5,-283.7"/>
<polygon fill="none" stroke="#000000" points="707.5,-283.7 707.5,-302.7 771.5,-302.7 771.5,-283.7 707.5,-283.7"/>
<text text-anchor="start" x="736.1105" y="-289.8" font-family="Helvetica,sans-Serif" font-size="11.00" fill="#000000">0 rows</text>
<polygon fill="#ffffff" stroke="transparent" points="771.5,-283.7 771.5,-302.7 809.5,-302.7 809.5,-283.7 771.5,-283.7"/>
<polygon fill="none" stroke="#000000" points="771.5,-283.7 771.5,-302.7 809.5,-302.7 809.5,-283.7 771.5,-283.7"/>
<text text-anchor="start" x="800.3862" y="-289.8" font-family="Helvetica,sans-Serif" font-size="11.00" fill="#000000"> &#160;</text>
</a>
</g>
</g>
<!-- rasp_messages_day_aggs&#45;&gt;servers -->
<g id="edge16" class="edge">
<title>rasp_messages_day_aggs:w&#45;&gt;servers:e</title>
<path fill="none" stroke="#000000" d="M621.0992,-314.3716C607.1881,-320.5438 603.437,-336.7268 595,-355.7 575.2765,-400.0547 603.0424,-790.7 554.5,-790.7"/>
<polygon fill="#000000" stroke="#000000" points="627.6342,-313.1593 636.1567,-315.2396 631.5671,-312.4296 635.5,-311.7 635.5,-311.7 635.5,-311.7 631.5671,-312.4296 634.8433,-308.1604 627.6342,-313.1593 627.6342,-313.1593"/>
<ellipse fill="none" stroke="#000000" cx="624.4879" cy="-313.743" rx="3.2" ry="3.2"/>
</g>
<!-- rasp_messages_day_aggs&#45;&gt;organizations -->
<g id="edge15" class="edge">
<title>rasp_messages_day_aggs:w&#45;&gt;organizations:e</title>
<path fill="none" stroke="#000000" d="M621.1066,-313.5997C586.4037,-324.0529 598.7248,-375.1661 562,-404.7 481.9282,-469.0935 438.8781,-443.6952 347,-489.7 258.3242,-534.1013 235.9666,-546.7072 157,-606.7 137.2166,-621.7299 140.8452,-644.7 116,-644.7"/>
<polygon fill="#000000" stroke="#000000" points="627.5688,-312.7468 635.9711,-315.269 631.5344,-312.2234 635.5,-311.7 635.5,-311.7 635.5,-311.7 631.5344,-312.2234 635.0289,-308.131 627.5688,-312.7468 627.5688,-312.7468"/>
<ellipse fill="none" stroke="#000000" cx="624.3963" cy="-313.1656" rx="3.2" ry="3.2"/>
</g>
<!-- rasp_messages_hour_aggs -->
<g id="node14" class="node">
<title>rasp_messages_hour_aggs</title>
<g id="a_node14"><a xlink:href="../../tables/rasp_messages_hour_aggs.html" xlink:title="rasp_messages_hour_aggs" target="_top">
<polygon fill="#ffffff" stroke="transparent" points="633.5,-202.2 633.5,-263.2 811.5,-263.2 811.5,-202.2 633.5,-202.2"/>
<polygon fill="#f5f5f5" stroke="transparent" points="633.5,-239.7 633.5,-262.7 811.5,-262.7 811.5,-239.7 633.5,-239.7"/>
<polygon fill="none" stroke="#000000" points="633.5,-239.7 633.5,-262.7 811.5,-262.7 811.5,-239.7 633.5,-239.7"/>
<text text-anchor="start" x="638.1454" y="-248.8" font-family="Helvetica,sans-Serif" font-weight="bold" font-size="11.00" fill="#000000">rasp_messages_hour_aggs</text>
<text text-anchor="start" x="777.0219" y="-247.8" font-family="Helvetica,sans-Serif" font-size="11.00" fill="#000000">[table]</text>
<polygon fill="none" stroke="#000000" points="633.5,-220.7 633.5,-239.7 811.5,-239.7 811.5,-220.7 633.5,-220.7"/>
<text text-anchor="start" x="636.5" y="-226.8" font-family="Helvetica,sans-Serif" font-size="11.00" fill="#000000">...</text>
<polygon fill="#ffffff" stroke="transparent" points="633.5,-201.7 633.5,-220.7 707.5,-220.7 707.5,-201.7 633.5,-201.7"/>
<polygon fill="none" stroke="#000000" points="633.5,-201.7 633.5,-220.7 707.5,-220.7 707.5,-201.7 633.5,-201.7"/>
<text text-anchor="start" x="636.5" y="-207.8" font-family="Helvetica,sans-Serif" font-size="11.00" fill="#000000">&lt; 3</text>
<polygon fill="#ffffff" stroke="transparent" points="707.5,-201.7 707.5,-220.7 772.5,-220.7 772.5,-201.7 707.5,-201.7"/>
<polygon fill="none" stroke="#000000" points="707.5,-201.7 707.5,-220.7 772.5,-220.7 772.5,-201.7 707.5,-201.7"/>
<text text-anchor="start" x="737.1105" y="-207.8" font-family="Helvetica,sans-Serif" font-size="11.00" fill="#000000">0 rows</text>
<polygon fill="#ffffff" stroke="transparent" points="772.5,-201.7 772.5,-220.7 811.5,-220.7 811.5,-201.7 772.5,-201.7"/>
<polygon fill="none" stroke="#000000" points="772.5,-201.7 772.5,-220.7 811.5,-220.7 811.5,-201.7 772.5,-201.7"/>
<text text-anchor="start" x="802.3862" y="-207.8" font-family="Helvetica,sans-Serif" font-size="11.00" fill="#000000"> &#160;</text>
</a>
</g>
</g>
<!-- rasp_messages_hour_aggs&#45;&gt;servers -->
<g id="edge18" class="edge">
<title>rasp_messages_hour_aggs:w&#45;&gt;servers:e</title>
<path fill="none" stroke="#000000" d="M619.1025,-232.5999C606.0204,-238.9858 602.7987,-255.1772 595,-273.7 572.641,-326.8055 612.1204,-790.7 554.5,-790.7"/>
<polygon fill="#000000" stroke="#000000" points="625.6575,-231.2796 634.2108,-233.2291 629.5787,-230.4898 633.5,-229.7 633.5,-229.7 633.5,-229.7 629.5787,-230.4898 632.7892,-226.1709 625.6575,-231.2796 625.6575,-231.2796"/>
<ellipse fill="none" stroke="#000000" cx="622.5205" cy="-231.9115" rx="3.2" ry="3.2"/>
</g>
<!-- rasp_messages_hour_aggs&#45;&gt;organizations -->
<g id="edge17" class="edge">
<title>rasp_messages_hour_aggs:w&#45;&gt;organizations:e</title>
<path fill="none" stroke="#000000" d="M619.0476,-231.7234C589.4094,-241.2109 595.0403,-281.8305 562,-305.7 399.4305,-423.146 284.3001,-349.7255 157,-504.7 115.8464,-554.8002 180.8356,-644.7 116,-644.7"/>
<polygon fill="#000000" stroke="#000000" points="625.5773,-230.8093 633.9992,-233.2652 629.5386,-230.2546 633.5,-229.7 633.5,-229.7 633.5,-229.7 629.5386,-230.2546 633.0008,-226.1348 625.5773,-230.8093 625.5773,-230.8093"/>
<ellipse fill="none" stroke="#000000" cx="622.4082" cy="-231.253" rx="3.2" ry="3.2"/>
</g>
<!-- rasp_messages_minute_aggs -->
<g id="node15" class="node">
<title>rasp_messages_minute_aggs</title>
<g id="a_node15"><a xlink:href="../../tables/rasp_messages_minute_aggs.html" xlink:title="rasp_messages_minute_aggs" target="_top">
<polygon fill="#ffffff" stroke="transparent" points="628,-120.2 628,-181.2 817,-181.2 817,-120.2 628,-120.2"/>
<polygon fill="#f5f5f5" stroke="transparent" points="628.5,-157.7 628.5,-180.7 817.5,-180.7 817.5,-157.7 628.5,-157.7"/>
<polygon fill="none" stroke="#000000" points="628.5,-157.7 628.5,-180.7 817.5,-180.7 817.5,-157.7 628.5,-157.7"/>
<text text-anchor="start" x="633.1465" y="-166.8" font-family="Helvetica,sans-Serif" font-weight="bold" font-size="11.00" fill="#000000">rasp_messages_minute_aggs</text>
<text text-anchor="start" x="783.0219" y="-165.8" font-family="Helvetica,sans-Serif" font-size="11.00" fill="#000000">[table]</text>
<polygon fill="none" stroke="#000000" points="628.5,-138.7 628.5,-157.7 817.5,-157.7 817.5,-138.7 628.5,-138.7"/>
<text text-anchor="start" x="631.5" y="-144.8" font-family="Helvetica,sans-Serif" font-size="11.00" fill="#000000">...</text>
<polygon fill="#ffffff" stroke="transparent" points="628.5,-119.7 628.5,-138.7 708.5,-138.7 708.5,-119.7 628.5,-119.7"/>
<polygon fill="none" stroke="#000000" points="628.5,-119.7 628.5,-138.7 708.5,-138.7 708.5,-119.7 628.5,-119.7"/>
<text text-anchor="start" x="631.5" y="-125.8" font-family="Helvetica,sans-Serif" font-size="11.00" fill="#000000">&lt; 3</text>
<polygon fill="#ffffff" stroke="transparent" points="708.5,-119.7 708.5,-138.7 775.5,-138.7 775.5,-119.7 708.5,-119.7"/>
<polygon fill="none" stroke="#000000" points="708.5,-119.7 708.5,-138.7 775.5,-138.7 775.5,-119.7 708.5,-119.7"/>
<text text-anchor="start" x="740.1105" y="-125.8" font-family="Helvetica,sans-Serif" font-size="11.00" fill="#000000">0 rows</text>
<polygon fill="#ffffff" stroke="transparent" points="775.5,-119.7 775.5,-138.7 817.5,-138.7 817.5,-119.7 775.5,-119.7"/>
<polygon fill="none" stroke="#000000" points="775.5,-119.7 775.5,-138.7 817.5,-138.7 817.5,-119.7 775.5,-119.7"/>
<text text-anchor="start" x="808.3862" y="-125.8" font-family="Helvetica,sans-Serif" font-size="11.00" fill="#000000"> &#160;</text>
</a>
</g>
</g>
<!-- rasp_messages_minute_aggs&#45;&gt;servers -->
<g id="edge20" class="edge">
<title>rasp_messages_minute_aggs:w&#45;&gt;servers:e</title>
<path fill="none" stroke="#000000" d="M614.4535,-151.124C603.2942,-157.9853 601.5461,-174.2624 595,-191.7 571.5555,-254.152 621.2075,-790.7 554.5,-790.7"/>
<polygon fill="#000000" stroke="#000000" points="620.7276,-149.5946 629.3526,-151.1976 624.6138,-148.6473 628.5,-147.7 628.5,-147.7 628.5,-147.7 624.6138,-148.6473 627.6474,-144.2024 620.7276,-149.5946 620.7276,-149.5946"/>
<ellipse fill="none" stroke="#000000" cx="617.6186" cy="-150.3525" rx="3.2" ry="3.2"/>
</g>
<!-- rasp_messages_minute_aggs&#45;&gt;organizations -->
<g id="edge19" class="edge">
<title>rasp_messages_minute_aggs:w&#45;&gt;organizations:e</title>
<path fill="none" stroke="#000000" d="M614.0841,-147.7732C387.3647,-150.1148 292.7218,-209.1398 157,-397.7 124.4959,-442.8584 171.6399,-644.7 116,-644.7"/>
<polygon fill="#000000" stroke="#000000" points="620.5001,-147.7407 628.5183,-151.3 624.5001,-147.7203 628.5,-147.7 628.5,-147.7 628.5,-147.7 624.5001,-147.7203 628.4817,-144.1 620.5001,-147.7407 620.5001,-147.7407"/>
<ellipse fill="none" stroke="#000000" cx="617.3001" cy="-147.757" rx="3.2" ry="3.2"/>
</g>
<!-- rasp_messages_second_aggs -->
<g id="node16" class="node">
<title>rasp_messages_second_aggs</title>
<g id="a_node16"><a xlink:href="../../tables/rasp_messages_second_aggs.html" xlink:title="rasp_messages_second_aggs" target="_top">
<polygon fill="#ffffff" stroke="transparent" points="626.5,-38.2 626.5,-99.2 818.5,-99.2 818.5,-38.2 626.5,-38.2"/>
<polygon fill="#f5f5f5" stroke="transparent" points="626.5,-75.7 626.5,-98.7 818.5,-98.7 818.5,-75.7 626.5,-75.7"/>
<polygon fill="none" stroke="#000000" points="626.5,-75.7 626.5,-98.7 818.5,-98.7 818.5,-75.7 626.5,-75.7"/>
<text text-anchor="start" x="631.4189" y="-84.8" font-family="Helvetica,sans-Serif" font-weight="bold" font-size="11.00" fill="#000000">rasp_messages_second_aggs</text>
<text text-anchor="start" x="784.0219" y="-83.8" font-family="Helvetica,sans-Serif" font-size="11.00" fill="#000000">[table]</text>
<polygon fill="none" stroke="#000000" points="626.5,-56.7 626.5,-75.7 818.5,-75.7 818.5,-56.7 626.5,-56.7"/>
<text text-anchor="start" x="629.5" y="-62.8" font-family="Helvetica,sans-Serif" font-size="11.00" fill="#000000">...</text>
<polygon fill="#ffffff" stroke="transparent" points="626.5,-37.7 626.5,-56.7 707.5,-56.7 707.5,-37.7 626.5,-37.7"/>
<polygon fill="none" stroke="#000000" points="626.5,-37.7 626.5,-56.7 707.5,-56.7 707.5,-37.7 626.5,-37.7"/>
<text text-anchor="start" x="629.5" y="-43.8" font-family="Helvetica,sans-Serif" font-size="11.00" fill="#000000">&lt; 3</text>
<polygon fill="#ffffff" stroke="transparent" points="707.5,-37.7 707.5,-56.7 775.5,-56.7 775.5,-37.7 707.5,-37.7"/>
<polygon fill="none" stroke="#000000" points="707.5,-37.7 707.5,-56.7 775.5,-56.7 775.5,-37.7 707.5,-37.7"/>
<text text-anchor="start" x="740.1105" y="-43.8" font-family="Helvetica,sans-Serif" font-size="11.00" fill="#000000">0 rows</text>
<polygon fill="#ffffff" stroke="transparent" points="775.5,-37.7 775.5,-56.7 818.5,-56.7 818.5,-37.7 775.5,-37.7"/>
<polygon fill="none" stroke="#000000" points="775.5,-37.7 775.5,-56.7 818.5,-56.7 818.5,-37.7 775.5,-37.7"/>
<text text-anchor="start" x="809.3862" y="-43.8" font-family="Helvetica,sans-Serif" font-size="11.00" fill="#000000"> &#160;</text>
</a>
</g>
</g>
<!-- rasp_messages_second_aggs&#45;&gt;servers -->
<g id="edge22" class="edge">
<title>rasp_messages_second_aggs:w&#45;&gt;servers:e</title>
<path fill="none" stroke="#000000" d="M612.5609,-69.3869C602.2012,-76.4485 601.0215,-92.697 595,-109.7 569.6957,-181.152 630.3004,-790.7 554.5,-790.7"/>
<polygon fill="#000000" stroke="#000000" points="618.766,-67.7457 627.4206,-69.1803 622.633,-66.7229 626.5,-65.7 626.5,-65.7 626.5,-65.7 622.633,-66.7229 625.5794,-62.2197 618.766,-67.7457 618.766,-67.7457"/>
<ellipse fill="none" stroke="#000000" cx="615.6724" cy="-68.564" rx="3.2" ry="3.2"/>
</g>
<!-- rasp_messages_second_aggs&#45;&gt;organizations -->
<g id="edge21" class="edge">
<title>rasp_messages_second_aggs:w&#45;&gt;organizations:e</title>
<path fill="none" stroke="#000000" d="M612.0871,-65.6799C400.4093,-65.1178 284.4138,-54.2432 157,-228.7 102.2127,-303.7156 208.8923,-644.7 116,-644.7"/>
<polygon fill="#000000" stroke="#000000" points="618.5,-65.6888 626.495,-69.3 622.5,-65.6944 626.5,-65.7 626.5,-65.7 626.5,-65.7 622.5,-65.6944 626.505,-62.1 618.5,-65.6888 618.5,-65.6888"/>
<ellipse fill="none" stroke="#000000" cx="615.3" cy="-65.6843" rx="3.2" ry="3.2"/>
</g>
<!-- rasp_server_license&#45;&gt;organizations -->
<g id="edge23" class="edge">
<title>rasp_server_license:w&#45;&gt;organizations:e</title>
<path fill="none" stroke="#000000" d="M150.8428,-644.7C139.4139,-644.7 132.1563,-644.7 116,-644.7"/>
<polygon fill="#000000" stroke="#000000" points="157.5,-644.7001 165.5,-648.3 161.5,-644.7 165.5,-644.7 165.5,-644.7 165.5,-644.7 161.5,-644.7 165.5,-641.1 157.5,-644.7001 157.5,-644.7001"/>
<ellipse fill="none" stroke="#000000" cx="154.3" cy="-644.7001" rx="3.2" ry="3.2"/>
</g>
<!-- route_coverage_server_analytics -->
<g id="node18" class="node">
<title>route_coverage_server_analytics</title>
<g id="a_node18"><a xlink:href="../../tables/route_coverage_server_analytics.html" xlink:title="route_coverage_server_analytics" target="_top">
<polygon fill="#ffffff" stroke="transparent" points="620.5,-1540.2 620.5,-1601.2 824.5,-1601.2 824.5,-1540.2 620.5,-1540.2"/>
<polygon fill="#f5f5f5" stroke="transparent" points="620.5,-1577.7 620.5,-1600.7 824.5,-1600.7 824.5,-1577.7 620.5,-1577.7"/>
<polygon fill="none" stroke="#000000" points="620.5,-1577.7 620.5,-1600.7 824.5,-1600.7 824.5,-1577.7 620.5,-1577.7"/>
<text text-anchor="start" x="625.0092" y="-1586.8" font-family="Helvetica,sans-Serif" font-weight="bold" font-size="11.00" fill="#000000">route_coverage_server_analytics</text>
<text text-anchor="start" x="790.0219" y="-1585.8" font-family="Helvetica,sans-Serif" font-size="11.00" fill="#000000">[table]</text>
<polygon fill="none" stroke="#000000" points="620.5,-1558.7 620.5,-1577.7 824.5,-1577.7 824.5,-1558.7 620.5,-1558.7"/>
<text text-anchor="start" x="623.5" y="-1564.8" font-family="Helvetica,sans-Serif" font-size="11.00" fill="#000000">...</text>
<polygon fill="#ffffff" stroke="transparent" points="620.5,-1539.7 620.5,-1558.7 707.5,-1558.7 707.5,-1539.7 620.5,-1539.7"/>
<polygon fill="none" stroke="#000000" points="620.5,-1539.7 620.5,-1558.7 707.5,-1558.7 707.5,-1539.7 620.5,-1539.7"/>
<text text-anchor="start" x="623.5" y="-1545.8" font-family="Helvetica,sans-Serif" font-size="11.00" fill="#000000">&lt; 2</text>
<polygon fill="#ffffff" stroke="transparent" points="707.5,-1539.7 707.5,-1558.7 778.5,-1558.7 778.5,-1539.7 707.5,-1539.7"/>
<polygon fill="none" stroke="#000000" points="707.5,-1539.7 707.5,-1558.7 778.5,-1558.7 778.5,-1539.7 707.5,-1539.7"/>
<text text-anchor="start" x="743.1105" y="-1545.8" font-family="Helvetica,sans-Serif" font-size="11.00" fill="#000000">0 rows</text>
<polygon fill="#ffffff" stroke="transparent" points="778.5,-1539.7 778.5,-1558.7 824.5,-1558.7 824.5,-1539.7 778.5,-1539.7"/>
<polygon fill="none" stroke="#000000" points="778.5,-1539.7 778.5,-1558.7 824.5,-1558.7 824.5,-1539.7 778.5,-1539.7"/>
<text text-anchor="start" x="815.3862" y="-1545.8" font-family="Helvetica,sans-Serif" font-size="11.00" fill="#000000"> &#160;</text>
</a>
</g>
</g>
<!-- route_coverage_server_analytics&#45;&gt;servers -->
<g id="edge24" class="edge">
<title>route_coverage_server_analytics:w&#45;&gt;servers:e</title>
<path fill="none" stroke="#000000" d="M606.873,-1562.7714C600.2124,-1555.9488 599.437,-1542.9605 595,-1529.7 581.9531,-1490.7077 595.6172,-790.7 554.5,-790.7"/>
<polygon fill="#000000" stroke="#000000" points="612.9769,-1564.979 619.2756,-1571.0854 616.7385,-1566.3395 620.5,-1567.7 620.5,-1567.7 620.5,-1567.7 616.7385,-1566.3395 621.7244,-1564.3146 612.9769,-1564.979 612.9769,-1564.979"/>
<ellipse fill="none" stroke="#000000" cx="609.9677" cy="-1563.8907" rx="3.2" ry="3.2"/>
</g>
<!-- server_properties -->
<g id="node19" class="node">
<title>server_properties</title>
<g id="a_node19"><a xlink:href="../../tables/server_properties.html" xlink:title="server_properties" target="_top">
<polygon fill="#ffffff" stroke="transparent" points="658.5,-1458.2 658.5,-1519.2 786.5,-1519.2 786.5,-1458.2 658.5,-1458.2"/>
<polygon fill="#f5f5f5" stroke="transparent" points="658.5,-1495.7 658.5,-1518.7 786.5,-1518.7 786.5,-1495.7 658.5,-1495.7"/>
<polygon fill="none" stroke="#000000" points="658.5,-1495.7 658.5,-1518.7 786.5,-1518.7 786.5,-1495.7 658.5,-1495.7"/>
<text text-anchor="start" x="663.2177" y="-1504.8" font-family="Helvetica,sans-Serif" font-weight="bold" font-size="11.00" fill="#000000">server_properties</text>
<text text-anchor="start" x="752.0219" y="-1503.8" font-family="Helvetica,sans-Serif" font-size="11.00" fill="#000000">[table]</text>
<polygon fill="none" stroke="#000000" points="658.5,-1476.7 658.5,-1495.7 786.5,-1495.7 786.5,-1476.7 658.5,-1476.7"/>
<text text-anchor="start" x="661.5" y="-1482.8" font-family="Helvetica,sans-Serif" font-size="11.00" fill="#000000">...</text>
<polygon fill="#ffffff" stroke="transparent" points="658.5,-1457.7 658.5,-1476.7 707.5,-1476.7 707.5,-1457.7 658.5,-1457.7"/>
<polygon fill="none" stroke="#000000" points="658.5,-1457.7 658.5,-1476.7 707.5,-1476.7 707.5,-1457.7 658.5,-1457.7"/>
<text text-anchor="start" x="661.5" y="-1463.8" font-family="Helvetica,sans-Serif" font-size="11.00" fill="#000000">&lt; 1</text>
<polygon fill="#ffffff" stroke="transparent" points="707.5,-1457.7 707.5,-1476.7 759.5,-1476.7 759.5,-1457.7 707.5,-1457.7"/>
<polygon fill="none" stroke="#000000" points="707.5,-1457.7 707.5,-1476.7 759.5,-1476.7 759.5,-1457.7 707.5,-1457.7"/>
<text text-anchor="start" x="724.1105" y="-1463.8" font-family="Helvetica,sans-Serif" font-size="11.00" fill="#000000">0 rows</text>
<polygon fill="#ffffff" stroke="transparent" points="759.5,-1457.7 759.5,-1476.7 786.5,-1476.7 786.5,-1457.7 759.5,-1457.7"/>
<polygon fill="none" stroke="#000000" points="759.5,-1457.7 759.5,-1476.7 786.5,-1476.7 786.5,-1457.7 759.5,-1457.7"/>
<text text-anchor="start" x="777.3862" y="-1463.8" font-family="Helvetica,sans-Serif" font-size="11.00" fill="#000000"> &#160;</text>
</a>
</g>
</g>
<!-- server_properties&#45;&gt;servers -->
<g id="edge25" class="edge">
<title>server_properties:w&#45;&gt;servers:e</title>
<path fill="none" stroke="#000000" d="M648.0351,-1485.3067C622.5022,-1483.2231 610.1577,-1472.6153 595,-1447.7 556.9867,-1385.2161 627.6386,-790.7 554.5,-790.7"/>
<polygon fill="#000000" stroke="#000000" points="657.8508,-1481.6728 657.5503,-1489.6671 655.9514,-1489.607 656.2519,-1481.6127 657.8508,-1481.6728"/>
<polyline fill="none" stroke="#000000" points="658.5,-1485.7 654.5028,-1485.5498 "/>
<ellipse fill="none" stroke="#000000" cx="651.3051" cy="-1485.4296" rx="3.2" ry="3.2"/>
</g>
<!-- server_syslog -->
<g id="node20" class="node">
<title>server_syslog</title>
<g id="a_node20"><a xlink:href="../../tables/server_syslog.html" xlink:title="server_syslog" target="_top">
<polygon fill="#ffffff" stroke="transparent" points="612,-1214.7 612,-1436.7 833,-1436.7 833,-1214.7 612,-1214.7"/>
<polygon fill="#f5f5f5" stroke="transparent" points="614.5,-1411.7 614.5,-1434.7 831.5,-1434.7 831.5,-1411.7 614.5,-1411.7"/>
<polygon fill="none" stroke="#000000" points="614.5,-1411.7 614.5,-1434.7 831.5,-1434.7 831.5,-1411.7 614.5,-1411.7"/>
<text text-anchor="start" x="619.5" y="-1420.8" font-family="Helvetica,sans-Serif" font-weight="bold" font-size="11.00" fill="#000000">server_syslog</text>
<text text-anchor="start" x="796.5437" y="-1419.8" font-family="Helvetica,sans-Serif" font-size="11.00" fill="#000000">[table]</text>
<polygon fill="none" stroke="#000000" points="614.5,-1389.7 614.5,-1411.7 733.5,-1411.7 733.5,-1389.7 614.5,-1389.7"/>
<image xlink:href="../../images/primaryKeys.png" width="11px" height="12px" preserveAspectRatio="xMinYMin meet" x="619.5" y="-1406.7"/>
<text text-anchor="start" x="634.5" y="-1396.8" font-family="Helvetica,sans-Serif" font-size="11.00" fill="#000000">server_syslog_id</text>
<polygon fill="none" stroke="#000000" points="733.5,-1389.7 733.5,-1411.7 831.5,-1411.7 831.5,-1389.7 733.5,-1389.7"/>
<text text-anchor="start" x="736.3429" y="-1397.4" font-family="Helvetica,sans-Serif" font-size="11.00" fill="#000000">bigint unsigned[20]</text>
<polygon fill="#ffffff" stroke="transparent" points="614.5,-1367.7 614.5,-1389.7 733.5,-1389.7 733.5,-1367.7 614.5,-1367.7"/>
<polygon fill="none" stroke="#000000" points="614.5,-1367.7 614.5,-1389.7 733.5,-1389.7 733.5,-1367.7 614.5,-1367.7"/>
<image xlink:href="../../images/foreignKeys.png" width="11px" height="12px" preserveAspectRatio="xMinYMin meet" x="619.5" y="-1384.7"/>
<text text-anchor="start" x="634.5" y="-1374.8" font-family="Helvetica,sans-Serif" font-size="11.00" fill="#000000">server_id</text>
<polygon fill="none" stroke="#000000" points="733.5,-1367.7 733.5,-1389.7 831.5,-1389.7 831.5,-1367.7 733.5,-1367.7"/>
<text text-anchor="start" x="736.5" y="-1375.4" font-family="Helvetica,sans-Serif" font-size="11.00" fill="#000000">bigint[19]</text>
<polygon fill="none" stroke="#000000" points="614.5,-1345.7 614.5,-1367.7 733.5,-1367.7 733.5,-1345.7 614.5,-1345.7"/>
<text text-anchor="start" x="634.5" y="-1352.8" font-family="Helvetica,sans-Serif" font-size="11.00" fill="#000000">enabled</text>
<polygon fill="none" stroke="#000000" points="733.5,-1345.7 733.5,-1367.7 831.5,-1367.7 831.5,-1345.7 733.5,-1345.7"/>
<text text-anchor="start" x="736.5" y="-1353.4" font-family="Helvetica,sans-Serif" font-size="11.00" fill="#000000">bit[1]</text>
<polygon fill="none" stroke="#000000" points="614.5,-1323.7 614.5,-1345.7 733.5,-1345.7 733.5,-1323.7 614.5,-1323.7"/>
<text text-anchor="start" x="634.5" y="-1330.8" font-family="Helvetica,sans-Serif" font-size="11.00" fill="#000000">host</text>
<polygon fill="none" stroke="#000000" points="733.5,-1323.7 733.5,-1345.7 831.5,-1345.7 831.5,-1323.7 733.5,-1323.7"/>
<text text-anchor="start" x="736.5" y="-1331.4" font-family="Helvetica,sans-Serif" font-size="11.00" fill="#000000">varchar[255]</text>
<polygon fill="none" stroke="#000000" points="614.5,-1301.7 614.5,-1323.7 733.5,-1323.7 733.5,-1301.7 614.5,-1301.7"/>
<text text-anchor="start" x="634.5" y="-1308.8" font-family="Helvetica,sans-Serif" font-size="11.00" fill="#000000">port_number</text>
<polygon fill="none" stroke="#000000" points="733.5,-1301.7 733.5,-1323.7 831.5,-1323.7 831.5,-1301.7 733.5,-1301.7"/>
<text text-anchor="start" x="736.5" y="-1309.4" font-family="Helvetica,sans-Serif" font-size="11.00" fill="#000000">int[10]</text>
<polygon fill="none" stroke="#000000" points="614.5,-1279.7 614.5,-1301.7 733.5,-1301.7 733.5,-1279.7 614.5,-1279.7"/>
<text text-anchor="start" x="634.5" y="-1286.8" font-family="Helvetica,sans-Serif" font-size="11.00" fill="#000000">facility_code</text>
<polygon fill="none" stroke="#000000" points="733.5,-1279.7 733.5,-1301.7 831.5,-1301.7 831.5,-1279.7 733.5,-1279.7"/>
<text text-anchor="start" x="736.5" y="-1287.4" font-family="Helvetica,sans-Serif" font-size="11.00" fill="#000000">tinyint[3]</text>
<polygon fill="none" stroke="#000000" points="614.5,-1257.7 614.5,-1279.7 733.5,-1279.7 733.5,-1257.7 614.5,-1257.7"/>
<text text-anchor="start" x="634.5" y="-1264.8" font-family="Helvetica,sans-Serif" font-size="11.00" fill="#000000">connection_type</text>
<polygon fill="none" stroke="#000000" points="733.5,-1257.7 733.5,-1279.7 831.5,-1279.7 831.5,-1257.7 733.5,-1257.7"/>
<text text-anchor="start" x="736.5" y="-1265.4" font-family="Helvetica,sans-Serif" font-size="11.00" fill="#000000">varchar[40]</text>
<polygon fill="none" stroke="#000000" points="614.5,-1235.7 614.5,-1257.7 733.5,-1257.7 733.5,-1235.7 614.5,-1235.7"/>
<text text-anchor="start" x="634.5" y="-1242.8" font-family="Helvetica,sans-Serif" font-size="11.00" fill="#000000">protocol</text>
<polygon fill="none" stroke="#000000" points="733.5,-1235.7 733.5,-1257.7 831.5,-1257.7 831.5,-1235.7 733.5,-1235.7"/>
<text text-anchor="start" x="736.5" y="-1243.4" font-family="Helvetica,sans-Serif" font-size="11.00" fill="#000000">varchar[40]</text>
<polygon fill="#ffffff" stroke="transparent" points="614.5,-1216.7 614.5,-1235.7 665.5,-1235.7 665.5,-1216.7 614.5,-1216.7"/>
<polygon fill="none" stroke="#000000" points="614.5,-1216.7 614.5,-1235.7 665.5,-1235.7 665.5,-1216.7 614.5,-1216.7"/>
<text text-anchor="start" x="617.5" y="-1222.8" font-family="Helvetica,sans-Serif" font-size="11.00" fill="#000000">&lt; 1</text>
<polygon fill="#ffffff" stroke="transparent" points="665.5,-1216.7 665.5,-1235.7 733.5,-1235.7 733.5,-1216.7 665.5,-1216.7"/>
<polygon fill="none" stroke="#000000" points="665.5,-1216.7 665.5,-1235.7 733.5,-1235.7 733.5,-1216.7 665.5,-1216.7"/>
<text text-anchor="start" x="698.1105" y="-1222.8" font-family="Helvetica,sans-Serif" font-size="11.00" fill="#000000">0 rows</text>
<polygon fill="#ffffff" stroke="transparent" points="733.5,-1216.7 733.5,-1235.7 831.5,-1235.7 831.5,-1216.7 733.5,-1216.7"/>
<polygon fill="none" stroke="#000000" points="733.5,-1216.7 733.5,-1235.7 831.5,-1235.7 831.5,-1216.7 733.5,-1216.7"/>
<text text-anchor="start" x="812.9053" y="-1222.8" font-family="Helvetica,sans-Serif" font-size="11.00" fill="#000000">1 &gt;</text>
<polygon fill="none" stroke="#000000" stroke-width="2" points="613,-1215.7 613,-1435.7 832,-1435.7 832,-1215.7 613,-1215.7"/>
</a>
</g>
</g>
<!-- server_syslog&#45;&gt;servers -->
<g id="edge26" class="edge">
<title>server_syslog:w&#45;&gt;servers:e</title>
<path fill="none" stroke="#000000" d="M605.2133,-1373.9669C555.9711,-1318.3196 616.7094,-790.7 554.5,-790.7"/>
<polygon fill="#000000" stroke="#000000" points="615.6036,-1374.7729 611.9709,-1381.9006 610.5453,-1381.174 614.1781,-1374.0463 615.6036,-1374.7729"/>
<polyline fill="none" stroke="#000000" points="614.5,-1378.7 610.9362,-1376.8836 "/>
<ellipse fill="none" stroke="#000000" cx="608.0851" cy="-1375.4305" rx="3.2" ry="3.2"/>
</g>
<!-- server_syslog_configuration -->
<g id="node21" class="node">
<title>server_syslog_configuration</title>
<g id="a_node21"><a xlink:href="../../tables/server_syslog_configuration.html" xlink:title="server_syslog_configuration" target="_top">
<polygon fill="#ffffff" stroke="transparent" points="891,-1330.2 891,-1457.2 1093,-1457.2 1093,-1330.2 891,-1330.2"/>
<polygon fill="#f5f5f5" stroke="transparent" points="891,-1433.7 891,-1456.7 1093,-1456.7 1093,-1433.7 891,-1433.7"/>
<polygon fill="none" stroke="#000000" points="891,-1433.7 891,-1456.7 1093,-1456.7 1093,-1433.7 891,-1433.7"/>
<text text-anchor="start" x="896" y="-1442.8" font-family="Helvetica,sans-Serif" font-weight="bold" font-size="11.00" fill="#000000">server_syslog_configuration</text>
<text text-anchor="start" x="1058.0437" y="-1441.8" font-family="Helvetica,sans-Serif" font-size="11.00" fill="#000000">[table]</text>
<polygon fill="none" stroke="#000000" points="891,-1411.7 891,-1433.7 1093,-1433.7 1093,-1411.7 891,-1411.7"/>
<image xlink:href="../../images/primaryKeys.png" width="11px" height="12px" preserveAspectRatio="xMinYMin meet" x="896" y="-1428.7"/>
<text text-anchor="start" x="911" y="-1418.8" font-family="Helvetica,sans-Serif" font-size="11.00" fill="#000000">server_syslog_configuration_id</text>
<polygon fill="#ffffff" stroke="transparent" points="891,-1389.7 891,-1411.7 1093,-1411.7 1093,-1389.7 891,-1389.7"/>
<polygon fill="none" stroke="#000000" points="891,-1389.7 891,-1411.7 1093,-1411.7 1093,-1389.7 891,-1389.7"/>
<image xlink:href="../../images/foreignKeys.png" width="11px" height="12px" preserveAspectRatio="xMinYMin meet" x="896" y="-1406.7"/>
<text text-anchor="start" x="911" y="-1396.8" font-family="Helvetica,sans-Serif" font-size="11.00" fill="#000000">server_syslog_id</text>
<polygon fill="#ffffff" stroke="transparent" points="891,-1367.7 891,-1389.7 1093,-1389.7 1093,-1367.7 891,-1367.7"/>
<polygon fill="none" stroke="#000000" points="891,-1367.7 891,-1389.7 1093,-1389.7 1093,-1367.7 891,-1367.7"/>
<text text-anchor="start" x="911" y="-1374.8" font-family="Helvetica,sans-Serif" font-size="11.00" fill="#000000">attack_status</text>
<polygon fill="none" stroke="#000000" points="891,-1348.7 891,-1367.7 1093,-1367.7 1093,-1348.7 891,-1348.7"/>
<text text-anchor="start" x="894" y="-1354.8" font-family="Helvetica,sans-Serif" font-size="11.00" fill="#000000">...</text>
<polygon fill="#ffffff" stroke="transparent" points="891,-1329.7 891,-1348.7 977,-1348.7 977,-1329.7 891,-1329.7"/>
<polygon fill="none" stroke="#000000" points="891,-1329.7 891,-1348.7 977,-1348.7 977,-1329.7 891,-1329.7"/>
<text text-anchor="start" x="894" y="-1335.8" font-family="Helvetica,sans-Serif" font-size="11.00" fill="#000000">&lt; 1</text>
<polygon fill="#ffffff" stroke="transparent" points="977,-1329.7 977,-1348.7 1048,-1348.7 1048,-1329.7 977,-1329.7"/>
<polygon fill="none" stroke="#000000" points="977,-1329.7 977,-1348.7 1048,-1348.7 1048,-1329.7 977,-1329.7"/>
<text text-anchor="start" x="1012.6105" y="-1335.8" font-family="Helvetica,sans-Serif" font-size="11.00" fill="#000000">0 rows</text>
<polygon fill="#ffffff" stroke="transparent" points="1048,-1329.7 1048,-1348.7 1093,-1348.7 1093,-1329.7 1048,-1329.7"/>
<polygon fill="none" stroke="#000000" points="1048,-1329.7 1048,-1348.7 1093,-1348.7 1093,-1329.7 1048,-1329.7"/>
<text text-anchor="start" x="1083.8862" y="-1335.8" font-family="Helvetica,sans-Serif" font-size="11.00" fill="#000000"> &#160;</text>
</a>
</g>
</g>
<!-- server_syslog_configuration&#45;&gt;server_syslog -->
<g id="edge27" class="edge">
<title>server_syslog_configuration:w&#45;&gt;server_syslog:e</title>
<path fill="none" stroke="#000000" d="M876.5408,-1400.7C860.884,-1400.7 852.3663,-1400.7 831.5,-1400.7"/>
<polygon fill="#000000" stroke="#000000" points="883,-1400.7001 891,-1404.3 887,-1400.7 891,-1400.7 891,-1400.7 891,-1400.7 887,-1400.7 891,-1397.1 883,-1400.7001 883,-1400.7001"/>
<ellipse fill="none" stroke="#000000" cx="879.8" cy="-1400.7001" rx="3.2" ry="3.2"/>
</g>
<!-- servers_metadata -->
<g id="node22" class="node">
<title>servers_metadata</title>
<g id="a_node22"><a xlink:href="../../tables/servers_metadata.html" xlink:title="servers_metadata" target="_top">
<polygon fill="#ffffff" stroke="transparent" points="657,-1132.2 657,-1193.2 788,-1193.2 788,-1132.2 657,-1132.2"/>
<polygon fill="#f5f5f5" stroke="transparent" points="657.5,-1169.7 657.5,-1192.7 788.5,-1192.7 788.5,-1169.7 657.5,-1169.7"/>
<polygon fill="none" stroke="#000000" points="657.5,-1169.7 657.5,-1192.7 788.5,-1192.7 788.5,-1169.7 657.5,-1169.7"/>
<text text-anchor="start" x="662.4907" y="-1178.8" font-family="Helvetica,sans-Serif" font-weight="bold" font-size="11.00" fill="#000000">servers_metadata</text>
<text text-anchor="start" x="754.0219" y="-1177.8" font-family="Helvetica,sans-Serif" font-size="11.00" fill="#000000">[table]</text>
<polygon fill="none" stroke="#000000" points="657.5,-1150.7 657.5,-1169.7 788.5,-1169.7 788.5,-1150.7 657.5,-1150.7"/>
<text text-anchor="start" x="660.5" y="-1156.8" font-family="Helvetica,sans-Serif" font-size="11.00" fill="#000000">...</text>
<polygon fill="#ffffff" stroke="transparent" points="657.5,-1131.7 657.5,-1150.7 708.5,-1150.7 708.5,-1131.7 657.5,-1131.7"/>
<polygon fill="none" stroke="#000000" points="657.5,-1131.7 657.5,-1150.7 708.5,-1150.7 708.5,-1131.7 657.5,-1131.7"/>
<text text-anchor="start" x="660.5" y="-1137.8" font-family="Helvetica,sans-Serif" font-size="11.00" fill="#000000">&lt; 1</text>
<polygon fill="#ffffff" stroke="transparent" points="708.5,-1131.7 708.5,-1150.7 761.5,-1150.7 761.5,-1131.7 708.5,-1131.7"/>
<polygon fill="none" stroke="#000000" points="708.5,-1131.7 708.5,-1150.7 761.5,-1150.7 761.5,-1131.7 708.5,-1131.7"/>
<text text-anchor="start" x="726.1105" y="-1137.8" font-family="Helvetica,sans-Serif" font-size="11.00" fill="#000000">0 rows</text>
<polygon fill="#ffffff" stroke="transparent" points="761.5,-1131.7 761.5,-1150.7 788.5,-1150.7 788.5,-1131.7 761.5,-1131.7"/>
<polygon fill="none" stroke="#000000" points="761.5,-1131.7 761.5,-1150.7 788.5,-1150.7 788.5,-1131.7 761.5,-1131.7"/>
<text text-anchor="start" x="779.3862" y="-1137.8" font-family="Helvetica,sans-Serif" font-size="11.00" fill="#000000"> &#160;</text>
</a>
</g>
</g>
<!-- servers_metadata&#45;&gt;servers -->
<g id="edge30" class="edge">
<title>servers_metadata:w&#45;&gt;servers:e</title>
<path fill="none" stroke="#000000" d="M646.8602,-1159.2502C622.0212,-1156.9672 610.5628,-1145.8134 595,-1121.7 554.8158,-1059.4373 628.6041,-790.7 554.5,-790.7"/>
<polygon fill="#000000" stroke="#000000" points="656.8697,-1155.6698 656.5317,-1163.6626 654.9332,-1163.595 655.2711,-1155.6022 656.8697,-1155.6698"/>
<polyline fill="none" stroke="#000000" points="657.5,-1159.7 653.5036,-1159.531 "/>
<ellipse fill="none" stroke="#000000" cx="650.3064" cy="-1159.3958" rx="3.2" ry="3.2"/>
</g>
<!-- tags_servers -->
<g id="node23" class="node">
<title>tags_servers</title>
<g id="a_node23"><a xlink:href="../../tables/tags_servers.html" xlink:title="tags_servers" target="_top">
<polygon fill="#ffffff" stroke="transparent" points="670,-1050.2 670,-1111.2 775,-1111.2 775,-1050.2 670,-1050.2"/>
<polygon fill="#f5f5f5" stroke="transparent" points="670.5,-1087.7 670.5,-1110.7 775.5,-1110.7 775.5,-1087.7 670.5,-1087.7"/>
<polygon fill="none" stroke="#000000" points="670.5,-1087.7 670.5,-1110.7 775.5,-1110.7 775.5,-1087.7 670.5,-1087.7"/>
<text text-anchor="start" x="675.0224" y="-1096.8" font-family="Helvetica,sans-Serif" font-weight="bold" font-size="11.00" fill="#000000">tags_servers</text>
<text text-anchor="start" x="741.0219" y="-1095.8" font-family="Helvetica,sans-Serif" font-size="11.00" fill="#000000">[table]</text>
<polygon fill="none" stroke="#000000" points="670.5,-1068.7 670.5,-1087.7 775.5,-1087.7 775.5,-1068.7 670.5,-1068.7"/>
<text text-anchor="start" x="673.5" y="-1074.8" font-family="Helvetica,sans-Serif" font-size="11.00" fill="#000000">...</text>
<polygon fill="#ffffff" stroke="transparent" points="670.5,-1049.7 670.5,-1068.7 708.5,-1068.7 708.5,-1049.7 670.5,-1049.7"/>
<polygon fill="none" stroke="#000000" points="670.5,-1049.7 670.5,-1068.7 708.5,-1068.7 708.5,-1049.7 670.5,-1049.7"/>
<text text-anchor="start" x="673.5" y="-1055.8" font-family="Helvetica,sans-Serif" font-size="11.00" fill="#000000">&lt; 1</text>
<polygon fill="#ffffff" stroke="transparent" points="708.5,-1049.7 708.5,-1068.7 754.5,-1068.7 754.5,-1049.7 708.5,-1049.7"/>
<polygon fill="none" stroke="#000000" points="708.5,-1049.7 708.5,-1068.7 754.5,-1068.7 754.5,-1049.7 708.5,-1049.7"/>
<text text-anchor="start" x="719.1105" y="-1055.8" font-family="Helvetica,sans-Serif" font-size="11.00" fill="#000000">0 rows</text>
<polygon fill="#ffffff" stroke="transparent" points="754.5,-1049.7 754.5,-1068.7 775.5,-1068.7 775.5,-1049.7 754.5,-1049.7"/>
<polygon fill="none" stroke="#000000" points="754.5,-1049.7 754.5,-1068.7 775.5,-1068.7 775.5,-1049.7 754.5,-1049.7"/>
<text text-anchor="start" x="766.3862" y="-1055.8" font-family="Helvetica,sans-Serif" font-size="11.00" fill="#000000"> &#160;</text>
</a>
</g>
</g>
<!-- tags_servers&#45;&gt;servers -->
<g id="edge31" class="edge">
<title>tags_servers:w&#45;&gt;servers:e</title>
<path fill="none" stroke="#000000" d="M655.8693,-1077.2013C628.3855,-1075.0852 614.0944,-1065.7311 595,-1039.7 561.8423,-994.4966 610.5605,-790.7 554.5,-790.7"/>
<polygon fill="#000000" stroke="#000000" points="662.5046,-1077.4274 670.3773,-1081.2979 666.5023,-1077.5637 670.5,-1077.7 670.5,-1077.7 670.5,-1077.7 666.5023,-1077.5637 670.6227,-1074.1021 662.5046,-1077.4274 662.5046,-1077.4274"/>
<ellipse fill="none" stroke="#000000" cx="659.3065" cy="-1077.3184" rx="3.2" ry="3.2"/>
</g>
<!-- url_server_day_aggs -->
<g id="node24" class="node">
<title>url_server_day_aggs</title>
<g id="a_node24"><a xlink:href="../../tables/url_server_day_aggs.html" xlink:title="url_server_day_aggs" target="_top">
<polygon fill="#ffffff" stroke="transparent" points="650,-968.2 650,-1029.2 795,-1029.2 795,-968.2 650,-968.2"/>
<polygon fill="#f5f5f5" stroke="transparent" points="650.5,-1005.7 650.5,-1028.7 795.5,-1028.7 795.5,-1005.7 650.5,-1005.7"/>
<polygon fill="none" stroke="#000000" points="650.5,-1005.7 650.5,-1028.7 795.5,-1028.7 795.5,-1005.7 650.5,-1005.7"/>
<text text-anchor="start" x="655.1548" y="-1014.8" font-family="Helvetica,sans-Serif" font-weight="bold" font-size="11.00" fill="#000000">url_server_day_aggs</text>
<text text-anchor="start" x="761.0219" y="-1013.8" font-family="Helvetica,sans-Serif" font-size="11.00" fill="#000000">[table]</text>
<polygon fill="none" stroke="#000000" points="650.5,-986.7 650.5,-1005.7 795.5,-1005.7 795.5,-986.7 650.5,-986.7"/>
<text text-anchor="start" x="653.5" y="-992.8" font-family="Helvetica,sans-Serif" font-size="11.00" fill="#000000">...</text>
<polygon fill="#ffffff" stroke="transparent" points="650.5,-967.7 650.5,-986.7 708.5,-986.7 708.5,-967.7 650.5,-967.7"/>
<polygon fill="none" stroke="#000000" points="650.5,-967.7 650.5,-986.7 708.5,-986.7 708.5,-967.7 650.5,-967.7"/>
<text text-anchor="start" x="653.5" y="-973.8" font-family="Helvetica,sans-Serif" font-size="11.00" fill="#000000">&lt; 1</text>
<polygon fill="#ffffff" stroke="transparent" points="708.5,-967.7 708.5,-986.7 764.5,-986.7 764.5,-967.7 708.5,-967.7"/>
<polygon fill="none" stroke="#000000" points="708.5,-967.7 708.5,-986.7 764.5,-986.7 764.5,-967.7 708.5,-967.7"/>
<text text-anchor="start" x="729.1105" y="-973.8" font-family="Helvetica,sans-Serif" font-size="11.00" fill="#000000">0 rows</text>
<polygon fill="#ffffff" stroke="transparent" points="764.5,-967.7 764.5,-986.7 795.5,-986.7 795.5,-967.7 764.5,-967.7"/>
<polygon fill="none" stroke="#000000" points="764.5,-967.7 764.5,-986.7 795.5,-986.7 795.5,-967.7 764.5,-967.7"/>
<text text-anchor="start" x="786.3862" y="-973.8" font-family="Helvetica,sans-Serif" font-size="11.00" fill="#000000"> &#160;</text>
</a>
</g>
</g>
<!-- url_server_day_aggs&#45;&gt;servers -->
<g id="edge32" class="edge">
<title>url_server_day_aggs:w&#45;&gt;servers:e</title>
<path fill="none" stroke="#000000" d="M636.0023,-994.3588C617.1575,-990.4029 608.8646,-977.7855 595,-957.7 551.6136,-894.8466 630.8737,-790.7 554.5,-790.7"/>
<polygon fill="#000000" stroke="#000000" points="642.534,-994.963 650.1684,-999.2847 646.517,-995.3315 650.5,-995.7 650.5,-995.7 650.5,-995.7 646.517,-995.3315 650.8316,-992.1153 642.534,-994.963 642.534,-994.963"/>
<ellipse fill="none" stroke="#000000" cx="639.3476" cy="-994.6682" rx="3.2" ry="3.2"/>
</g>
<!-- vulnerability_instance_server -->
<g id="node25" class="node">
<title>vulnerability_instance_server</title>
<g id="a_node25"><a xlink:href="../../tables/vulnerability_instance_server.html" xlink:title="vulnerability_instance_server" target="_top">
<polygon fill="#ffffff" stroke="transparent" points="630.5,-886.2 630.5,-947.2 814.5,-947.2 814.5,-886.2 630.5,-886.2"/>
<polygon fill="#f5f5f5" stroke="transparent" points="630.5,-923.7 630.5,-946.7 814.5,-946.7 814.5,-923.7 630.5,-923.7"/>
<polygon fill="none" stroke="#000000" points="630.5,-923.7 630.5,-946.7 814.5,-946.7 814.5,-923.7 630.5,-923.7"/>
<text text-anchor="start" x="635.1012" y="-932.8" font-family="Helvetica,sans-Serif" font-weight="bold" font-size="11.00" fill="#000000">vulnerability_instance_server</text>
<text text-anchor="start" x="780.0219" y="-931.8" font-family="Helvetica,sans-Serif" font-size="11.00" fill="#000000">[table]</text>
<polygon fill="none" stroke="#000000" points="630.5,-904.7 630.5,-923.7 814.5,-923.7 814.5,-904.7 630.5,-904.7"/>
<text text-anchor="start" x="633.5" y="-910.8" font-family="Helvetica,sans-Serif" font-size="11.00" fill="#000000">...</text>
<polygon fill="#ffffff" stroke="transparent" points="630.5,-885.7 630.5,-904.7 703.5,-904.7 703.5,-885.7 630.5,-885.7"/>
<polygon fill="none" stroke="#000000" points="630.5,-885.7 630.5,-904.7 703.5,-904.7 703.5,-885.7 630.5,-885.7"/>
<text text-anchor="start" x="633.5" y="-891.8" font-family="Helvetica,sans-Serif" font-size="11.00" fill="#000000">&lt; 2</text>
<polygon fill="#ffffff" stroke="transparent" points="703.5,-885.7 703.5,-904.7 767.5,-904.7 767.5,-885.7 703.5,-885.7"/>
<polygon fill="none" stroke="#000000" points="703.5,-885.7 703.5,-904.7 767.5,-904.7 767.5,-885.7 703.5,-885.7"/>
<text text-anchor="start" x="732.1105" y="-891.8" font-family="Helvetica,sans-Serif" font-size="11.00" fill="#000000">0 rows</text>
<polygon fill="#ffffff" stroke="transparent" points="767.5,-885.7 767.5,-904.7 814.5,-904.7 814.5,-885.7 767.5,-885.7"/>
<polygon fill="none" stroke="#000000" points="767.5,-885.7 767.5,-904.7 814.5,-904.7 814.5,-885.7 767.5,-885.7"/>
<text text-anchor="start" x="795.9053" y="-891.8" font-family="Helvetica,sans-Serif" font-size="11.00" fill="#000000">1 &gt;</text>
</a>
</g>
</g>
<!-- vulnerability_instance_server&#45;&gt;servers -->
<g id="edge33" class="edge">
<title>vulnerability_instance_server:w&#45;&gt;servers:e</title>
<path fill="none" stroke="#000000" d="M616.4064,-910.0501C606.7574,-903.6457 604.556,-889.7274 595,-875.7 571.4398,-841.1156 596.3469,-790.7 554.5,-790.7"/>
<polygon fill="#000000" stroke="#000000" points="622.7555,-911.6943 629.5974,-917.185 626.6277,-912.6972 630.5,-913.7 630.5,-913.7 630.5,-913.7 626.6277,-912.6972 631.4026,-910.215 622.7555,-911.6943 622.7555,-911.6943"/>
<ellipse fill="none" stroke="#000000" cx="619.6577" cy="-910.892" rx="3.2" ry="3.2"/>
</g>
</g>
</svg>
