<?xml version="1.0" encoding="UTF-8" standalone="no"?>
<!DOCTYPE svg PUBLIC "-//W3C//DTD SVG 1.1//EN"
 "http://www.w3.org/Graphics/SVG/1.1/DTD/svg11.dtd">
<!-- Generated by graphviz version 2.40.1 (20161225.0304)
 -->
<!-- Title: oneDegreeRelationshipsDiagram Pages: 1 -->
<svg width="454pt" height="227pt"
 viewBox="0.00 0.00 454.00 226.70" xmlns="http://www.w3.org/2000/svg" xmlns:xlink="http://www.w3.org/1999/xlink">
<g id="graph0" class="graph" transform="scale(1 1) rotate(0) translate(4 222.7)">
<title>oneDegreeRelationshipsDiagram</title>
<polygon fill="#ffffff" stroke="transparent" points="-4,4 -4,-222.7 450,-222.7 450,4 -4,4"/>
<text text-anchor="middle" x="72.4936" y="-7.3" font-family="Helvetica,sans-Serif" font-size="11.00" fill="#000000">Generated by SchemaSpy</text>
<!-- snapshots_attacks_facts -->
<g id="node1" class="node">
<title>snapshots_attacks_facts</title>
<g id="a_node1"><a xlink:href="../../tables/snapshots_attacks_facts.html" xlink:title="snapshots_attacks_facts" target="_top">
<polygon fill="#ffffff" stroke="transparent" points="275,-65.7 275,-214.7 438,-214.7 438,-65.7 275,-65.7"/>
<polygon fill="#f5f5f5" stroke="transparent" points="275.5,-191.2 275.5,-214.2 438.5,-214.2 438.5,-191.2 275.5,-191.2"/>
<polygon fill="none" stroke="#000000" points="275.5,-191.2 275.5,-214.2 438.5,-214.2 438.5,-191.2 275.5,-191.2"/>
<text text-anchor="start" x="280.2833" y="-200.3" font-family="Helvetica,sans-Serif" font-weight="bold" font-size="11.00" fill="#000000">snapshots_attacks_facts</text>
<text text-anchor="start" x="404.0219" y="-199.3" font-family="Helvetica,sans-Serif" font-size="11.00" fill="#000000">[table]</text>
<polygon fill="none" stroke="#000000" points="275.5,-169.2 275.5,-191.2 438.5,-191.2 438.5,-169.2 275.5,-169.2"/>
<image xlink:href="../../images/primaryKeys.png" width="11px" height="12px" preserveAspectRatio="xMinYMin meet" x="280.5" y="-186.2"/>
<text text-anchor="start" x="295.5" y="-176.3" font-family="Helvetica,sans-Serif" font-size="11.00" fill="#000000">id</text>
<polygon fill="#ffffff" stroke="transparent" points="275.5,-147.2 275.5,-169.2 438.5,-169.2 438.5,-147.2 275.5,-147.2"/>
<polygon fill="none" stroke="#000000" points="275.5,-147.2 275.5,-169.2 438.5,-169.2 438.5,-147.2 275.5,-147.2"/>
<image xlink:href="../../images/foreignKeys.png" width="11px" height="12px" preserveAspectRatio="xMinYMin meet" x="280.5" y="-164.2"/>
<text text-anchor="start" x="295.5" y="-154.3" font-family="Helvetica,sans-Serif" font-size="11.00" fill="#000000">applications_id</text>
<polygon fill="#ffffff" stroke="transparent" points="275.5,-125.2 275.5,-147.2 438.5,-147.2 438.5,-125.2 275.5,-125.2"/>
<polygon fill="none" stroke="#000000" points="275.5,-125.2 275.5,-147.2 438.5,-147.2 438.5,-125.2 275.5,-125.2"/>
<image xlink:href="../../images/foreignKeys.png" width="11px" height="12px" preserveAspectRatio="xMinYMin meet" x="280.5" y="-142.2"/>
<text text-anchor="start" x="295.5" y="-132.3" font-family="Helvetica,sans-Serif" font-size="11.00" fill="#000000">snapshots_attacks_id</text>
<polygon fill="#ffffff" stroke="transparent" points="275.5,-103.2 275.5,-125.2 438.5,-125.2 438.5,-103.2 275.5,-103.2"/>
<polygon fill="none" stroke="#000000" points="275.5,-103.2 275.5,-125.2 438.5,-125.2 438.5,-103.2 275.5,-103.2"/>
<text text-anchor="start" x="295.5" y="-110.3" font-family="Helvetica,sans-Serif" font-size="11.00" fill="#000000">server_environment</text>
<polygon fill="none" stroke="#000000" points="275.5,-84.2 275.5,-103.2 438.5,-103.2 438.5,-84.2 275.5,-84.2"/>
<text text-anchor="start" x="278.5" y="-90.3" font-family="Helvetica,sans-Serif" font-size="11.00" fill="#000000">...</text>
<polygon fill="#ffffff" stroke="transparent" points="275.5,-65.2 275.5,-84.2 337.5,-84.2 337.5,-65.2 275.5,-65.2"/>
<polygon fill="none" stroke="#000000" points="275.5,-65.2 275.5,-84.2 337.5,-84.2 337.5,-65.2 275.5,-65.2"/>
<text text-anchor="start" x="278.5" y="-71.3" font-family="Helvetica,sans-Serif" font-size="11.00" fill="#000000">&lt; 2</text>
<polygon fill="#ffffff" stroke="transparent" points="337.5,-65.2 337.5,-84.2 396.5,-84.2 396.5,-65.2 337.5,-65.2"/>
<polygon fill="none" stroke="#000000" points="337.5,-65.2 337.5,-84.2 396.5,-84.2 396.5,-65.2 337.5,-65.2"/>
<text text-anchor="start" x="361.1105" y="-71.3" font-family="Helvetica,sans-Serif" font-size="11.00" fill="#000000">0 rows</text>
<polygon fill="#ffffff" stroke="transparent" points="396.5,-65.2 396.5,-84.2 438.5,-84.2 438.5,-65.2 396.5,-65.2"/>
<polygon fill="none" stroke="#000000" points="396.5,-65.2 396.5,-84.2 438.5,-84.2 438.5,-65.2 396.5,-65.2"/>
<text text-anchor="start" x="419.9053" y="-71.3" font-family="Helvetica,sans-Serif" font-size="11.00" fill="#000000">1 &gt;</text>
</a>
</g>
</g>
<!-- snapshots_attacks -->
<g id="node2" class="node">
<title>snapshots_attacks</title>
<g id="a_node2"><a xlink:href="../../tables/snapshots_attacks.html" xlink:title="snapshots_attacks" target="_top">
<polygon fill="#ffffff" stroke="transparent" points="8,-38.2 8,-172.2 226,-172.2 226,-38.2 8,-38.2"/>
<polygon fill="#f5f5f5" stroke="transparent" points="10,-147.2 10,-170.2 224,-170.2 224,-147.2 10,-147.2"/>
<polygon fill="none" stroke="#000000" points="10,-147.2 10,-170.2 224,-170.2 224,-147.2 10,-147.2"/>
<text text-anchor="start" x="15" y="-156.3" font-family="Helvetica,sans-Serif" font-weight="bold" font-size="11.00" fill="#000000">snapshots_attacks</text>
<text text-anchor="start" x="189.0437" y="-155.3" font-family="Helvetica,sans-Serif" font-size="11.00" fill="#000000">[table]</text>
<polygon fill="none" stroke="#000000" points="10,-125.2 10,-147.2 157,-147.2 157,-125.2 10,-125.2"/>
<image xlink:href="../../images/primaryKeys.png" width="11px" height="12px" preserveAspectRatio="xMinYMin meet" x="15" y="-142.2"/>
<text text-anchor="start" x="30" y="-132.3" font-family="Helvetica,sans-Serif" font-size="11.00" fill="#000000">id</text>
<polygon fill="none" stroke="#000000" points="157,-125.2 157,-147.2 224,-147.2 224,-125.2 157,-125.2"/>
<text text-anchor="start" x="160" y="-132.9" font-family="Helvetica,sans-Serif" font-size="11.00" fill="#000000">bigint[19]</text>
<polygon fill="#ffffff" stroke="transparent" points="10,-103.2 10,-125.2 157,-125.2 157,-103.2 10,-103.2"/>
<polygon fill="none" stroke="#000000" points="10,-103.2 10,-125.2 157,-125.2 157,-103.2 10,-103.2"/>
<text text-anchor="start" x="30" y="-110.3" font-family="Helvetica,sans-Serif" font-size="11.00" fill="#000000">name</text>
<polygon fill="none" stroke="#000000" points="157,-103.2 157,-125.2 224,-125.2 224,-103.2 157,-103.2"/>
<text text-anchor="start" x="159.9365" y="-110.9" font-family="Helvetica,sans-Serif" font-size="11.00" fill="#000000">varchar[255]</text>
<polygon fill="#ffffff" stroke="transparent" points="10,-81.2 10,-103.2 157,-103.2 157,-81.2 10,-81.2"/>
<polygon fill="none" stroke="#000000" points="10,-81.2 10,-103.2 157,-103.2 157,-81.2 10,-81.2"/>
<text text-anchor="start" x="30" y="-88.3" font-family="Helvetica,sans-Serif" font-size="11.00" fill="#000000">snapshot_attack_type</text>
<polygon fill="none" stroke="#000000" points="157,-81.2 157,-103.2 224,-103.2 224,-81.2 157,-81.2"/>
<text text-anchor="start" x="160" y="-88.9" font-family="Helvetica,sans-Serif" font-size="11.00" fill="#000000">tinyint[3]</text>
<polygon fill="#ffffff" stroke="transparent" points="10,-59.2 10,-81.2 157,-81.2 157,-59.2 10,-59.2"/>
<polygon fill="none" stroke="#000000" points="10,-59.2 10,-81.2 157,-81.2 157,-59.2 10,-59.2"/>
<text text-anchor="start" x="30" y="-66.3" font-family="Helvetica,sans-Serif" font-size="11.00" fill="#000000">snapshot_creation</text>
<polygon fill="none" stroke="#000000" points="157,-59.2 157,-81.2 224,-81.2 224,-59.2 157,-59.2"/>
<text text-anchor="start" x="160" y="-66.9" font-family="Helvetica,sans-Serif" font-size="11.00" fill="#000000">bigint[19]</text>
<polygon fill="#ffffff" stroke="transparent" points="10,-40.2 10,-59.2 75,-59.2 75,-40.2 10,-40.2"/>
<polygon fill="none" stroke="#000000" points="10,-40.2 10,-59.2 75,-59.2 75,-40.2 10,-40.2"/>
<text text-anchor="start" x="13" y="-46.3" font-family="Helvetica,sans-Serif" font-size="11.00" fill="#000000">&lt; 0</text>
<polygon fill="#ffffff" stroke="transparent" points="75,-40.2 75,-59.2 157,-59.2 157,-40.2 75,-40.2"/>
<polygon fill="none" stroke="#000000" points="75,-40.2 75,-59.2 157,-59.2 157,-40.2 75,-40.2"/>
<text text-anchor="start" x="121.6105" y="-46.3" font-family="Helvetica,sans-Serif" font-size="11.00" fill="#000000">0 rows</text>
<polygon fill="#ffffff" stroke="transparent" points="157,-40.2 157,-59.2 224,-59.2 224,-40.2 157,-40.2"/>
<polygon fill="none" stroke="#000000" points="157,-40.2 157,-59.2 224,-59.2 224,-40.2 157,-40.2"/>
<text text-anchor="start" x="205.4053" y="-46.3" font-family="Helvetica,sans-Serif" font-size="11.00" fill="#000000">1 &gt;</text>
<polygon fill="none" stroke="#000000" stroke-width="2" points="9,-39.2 9,-171.2 225,-171.2 225,-39.2 9,-39.2"/>
</a>
</g>
</g>
<!-- snapshots_attacks_facts&#45;&gt;snapshots_attacks -->
<g id="edge1" class="edge">
<title>snapshots_attacks_facts:w&#45;&gt;snapshots_attacks:e</title>
<path fill="none" stroke="#000000" d="M261.0156,-136.2C248.6771,-136.2 241.1667,-136.2 224,-136.2"/>
<polygon fill="#000000" stroke="#000000" points="267.5,-136.2001 275.5,-139.8 271.5,-136.2 275.5,-136.2 275.5,-136.2 275.5,-136.2 271.5,-136.2 275.5,-132.6 267.5,-136.2001 267.5,-136.2001"/>
<ellipse fill="none" stroke="#000000" cx="264.3" cy="-136.2001" rx="3.2" ry="3.2"/>
</g>
</g>
</svg>
