<?xml version="1.0" encoding="UTF-8" standalone="no"?>
<!DOCTYPE svg PUBLIC "-//W3C//DTD SVG 1.1//EN"
 "http://www.w3.org/Graphics/SVG/1.1/DTD/svg11.dtd">
<!-- Generated by graphviz version 2.40.1 (20161225.0304)
 -->
<!-- Title: twoDegreesRelationshipsDiagram Pages: 1 -->
<svg width="726pt" height="267pt"
 viewBox="0.00 0.00 726.00 266.70" xmlns="http://www.w3.org/2000/svg" xmlns:xlink="http://www.w3.org/1999/xlink">
<g id="graph0" class="graph" transform="scale(1 1) rotate(0) translate(4 262.7)">
<title>twoDegreesRelationshipsDiagram</title>
<polygon fill="#ffffff" stroke="transparent" points="-4,4 -4,-262.7 722,-262.7 722,4 -4,4"/>
<text text-anchor="middle" x="72.4936" y="-7.3" font-family="Helvetica,sans-Serif" font-size="11.00" fill="#000000">Generated by SchemaSpy</text>
<!-- snapshots_attacks_facts -->
<g id="node1" class="node">
<title>snapshots_attacks_facts</title>
<g id="a_node1"><a xlink:href="../../tables/snapshots_attacks_facts.html" xlink:title="snapshots_attacks_facts" target="_top">
<polygon fill="#ffffff" stroke="transparent" points="275,-96.7 275,-245.7 438,-245.7 438,-96.7 275,-96.7"/>
<polygon fill="#f5f5f5" stroke="transparent" points="275.5,-222.2 275.5,-245.2 438.5,-245.2 438.5,-222.2 275.5,-222.2"/>
<polygon fill="none" stroke="#000000" points="275.5,-222.2 275.5,-245.2 438.5,-245.2 438.5,-222.2 275.5,-222.2"/>
<text text-anchor="start" x="280.2833" y="-231.3" font-family="Helvetica,sans-Serif" font-weight="bold" font-size="11.00" fill="#000000">snapshots_attacks_facts</text>
<text text-anchor="start" x="404.0219" y="-230.3" font-family="Helvetica,sans-Serif" font-size="11.00" fill="#000000">[table]</text>
<polygon fill="none" stroke="#000000" points="275.5,-200.2 275.5,-222.2 438.5,-222.2 438.5,-200.2 275.5,-200.2"/>
<image xlink:href="../../images/primaryKeys.png" width="11px" height="12px" preserveAspectRatio="xMinYMin meet" x="280.5" y="-217.2"/>
<text text-anchor="start" x="295.5" y="-207.3" font-family="Helvetica,sans-Serif" font-size="11.00" fill="#000000">id</text>
<polygon fill="#ffffff" stroke="transparent" points="275.5,-178.2 275.5,-200.2 438.5,-200.2 438.5,-178.2 275.5,-178.2"/>
<polygon fill="none" stroke="#000000" points="275.5,-178.2 275.5,-200.2 438.5,-200.2 438.5,-178.2 275.5,-178.2"/>
<image xlink:href="../../images/foreignKeys.png" width="11px" height="12px" preserveAspectRatio="xMinYMin meet" x="280.5" y="-195.2"/>
<text text-anchor="start" x="295.5" y="-185.3" font-family="Helvetica,sans-Serif" font-size="11.00" fill="#000000">applications_id</text>
<polygon fill="#ffffff" stroke="transparent" points="275.5,-156.2 275.5,-178.2 438.5,-178.2 438.5,-156.2 275.5,-156.2"/>
<polygon fill="none" stroke="#000000" points="275.5,-156.2 275.5,-178.2 438.5,-178.2 438.5,-156.2 275.5,-156.2"/>
<image xlink:href="../../images/foreignKeys.png" width="11px" height="12px" preserveAspectRatio="xMinYMin meet" x="280.5" y="-173.2"/>
<text text-anchor="start" x="295.5" y="-163.3" font-family="Helvetica,sans-Serif" font-size="11.00" fill="#000000">snapshots_attacks_id</text>
<polygon fill="#ffffff" stroke="transparent" points="275.5,-134.2 275.5,-156.2 438.5,-156.2 438.5,-134.2 275.5,-134.2"/>
<polygon fill="none" stroke="#000000" points="275.5,-134.2 275.5,-156.2 438.5,-156.2 438.5,-134.2 275.5,-134.2"/>
<text text-anchor="start" x="295.5" y="-141.3" font-family="Helvetica,sans-Serif" font-size="11.00" fill="#000000">server_environment</text>
<polygon fill="none" stroke="#000000" points="275.5,-115.2 275.5,-134.2 438.5,-134.2 438.5,-115.2 275.5,-115.2"/>
<text text-anchor="start" x="278.5" y="-121.3" font-family="Helvetica,sans-Serif" font-size="11.00" fill="#000000">...</text>
<polygon fill="#ffffff" stroke="transparent" points="275.5,-96.2 275.5,-115.2 337.5,-115.2 337.5,-96.2 275.5,-96.2"/>
<polygon fill="none" stroke="#000000" points="275.5,-96.2 275.5,-115.2 337.5,-115.2 337.5,-96.2 275.5,-96.2"/>
<text text-anchor="start" x="278.5" y="-102.3" font-family="Helvetica,sans-Serif" font-size="11.00" fill="#000000">&lt; 2</text>
<polygon fill="#ffffff" stroke="transparent" points="337.5,-96.2 337.5,-115.2 396.5,-115.2 396.5,-96.2 337.5,-96.2"/>
<polygon fill="none" stroke="#000000" points="337.5,-96.2 337.5,-115.2 396.5,-115.2 396.5,-96.2 337.5,-96.2"/>
<text text-anchor="start" x="361.1105" y="-102.3" font-family="Helvetica,sans-Serif" font-size="11.00" fill="#000000">0 rows</text>
<polygon fill="#ffffff" stroke="transparent" points="396.5,-96.2 396.5,-115.2 438.5,-115.2 438.5,-96.2 396.5,-96.2"/>
<polygon fill="none" stroke="#000000" points="396.5,-96.2 396.5,-115.2 438.5,-115.2 438.5,-96.2 396.5,-96.2"/>
<text text-anchor="start" x="419.9053" y="-102.3" font-family="Helvetica,sans-Serif" font-size="11.00" fill="#000000">1 &gt;</text>
</a>
</g>
</g>
<!-- applications -->
<g id="node2" class="node">
<title>applications</title>
<g id="a_node2"><a xlink:href="../../tables/applications.html" xlink:title="applications" target="_top">
<polygon fill="#ffffff" stroke="transparent" points="66.5,-193.7 66.5,-254.7 167.5,-254.7 167.5,-193.7 66.5,-193.7"/>
<polygon fill="#f5f5f5" stroke="transparent" points="67,-231.2 67,-254.2 168,-254.2 168,-231.2 67,-231.2"/>
<polygon fill="none" stroke="#000000" points="67,-231.2 67,-254.2 168,-254.2 168,-231.2 67,-231.2"/>
<text text-anchor="start" x="71.9655" y="-240.3" font-family="Helvetica,sans-Serif" font-weight="bold" font-size="11.00" fill="#000000">applications</text>
<text text-anchor="start" x="133.5219" y="-239.3" font-family="Helvetica,sans-Serif" font-size="11.00" fill="#000000">[table]</text>
<polygon fill="none" stroke="#000000" points="67,-212.2 67,-231.2 168,-231.2 168,-212.2 67,-212.2"/>
<text text-anchor="start" x="70" y="-218.3" font-family="Helvetica,sans-Serif" font-size="11.00" fill="#000000">...</text>
<polygon fill="#ffffff" stroke="transparent" points="67,-193.2 67,-212.2 95,-212.2 95,-193.2 67,-193.2"/>
<polygon fill="none" stroke="#000000" points="67,-193.2 67,-212.2 95,-212.2 95,-193.2 67,-193.2"/>
<text text-anchor="start" x="70" y="-199.3" font-family="Helvetica,sans-Serif" font-size="11.00" fill="#000000">&lt; 3</text>
<polygon fill="#ffffff" stroke="transparent" points="95,-193.2 95,-212.2 137,-212.2 137,-193.2 95,-193.2"/>
<polygon fill="none" stroke="#000000" points="95,-193.2 95,-212.2 137,-212.2 137,-193.2 95,-193.2"/>
<text text-anchor="start" x="101.6105" y="-199.3" font-family="Helvetica,sans-Serif" font-size="11.00" fill="#000000">0 rows</text>
<polygon fill="#ffffff" stroke="transparent" points="137,-193.2 137,-212.2 168,-212.2 168,-193.2 137,-193.2"/>
<polygon fill="none" stroke="#000000" points="137,-193.2 137,-212.2 168,-212.2 168,-193.2 137,-193.2"/>
<text text-anchor="start" x="143.2904" y="-199.3" font-family="Helvetica,sans-Serif" font-size="11.00" fill="#000000">57 &gt;</text>
</a>
</g>
</g>
<!-- snapshots_attacks_facts&#45;&gt;applications -->
<g id="edge1" class="edge">
<title>snapshots_attacks_facts:w&#45;&gt;applications:e</title>
<path fill="none" stroke="#000000" d="M261.0318,-190.1928C223.5372,-195.594 212.5921,-221.2 168,-221.2"/>
<polygon fill="#000000" stroke="#000000" points="267.5188,-189.7477 275.7465,-192.7916 271.5094,-189.4739 275.5,-189.2 275.5,-189.2 275.5,-189.2 271.5094,-189.4739 275.2535,-185.6084 267.5188,-189.7477 267.5188,-189.7477"/>
<ellipse fill="none" stroke="#000000" cx="264.3263" cy="-189.9668" rx="3.2" ry="3.2"/>
</g>
<!-- snapshots_attacks -->
<g id="node3" class="node">
<title>snapshots_attacks</title>
<g id="a_node3"><a xlink:href="../../tables/snapshots_attacks.html" xlink:title="snapshots_attacks" target="_top">
<polygon fill="#ffffff" stroke="transparent" points="8,-38.2 8,-172.2 226,-172.2 226,-38.2 8,-38.2"/>
<polygon fill="#f5f5f5" stroke="transparent" points="10,-147.2 10,-170.2 224,-170.2 224,-147.2 10,-147.2"/>
<polygon fill="none" stroke="#000000" points="10,-147.2 10,-170.2 224,-170.2 224,-147.2 10,-147.2"/>
<text text-anchor="start" x="15" y="-156.3" font-family="Helvetica,sans-Serif" font-weight="bold" font-size="11.00" fill="#000000">snapshots_attacks</text>
<text text-anchor="start" x="189.0437" y="-155.3" font-family="Helvetica,sans-Serif" font-size="11.00" fill="#000000">[table]</text>
<polygon fill="none" stroke="#000000" points="10,-125.2 10,-147.2 157,-147.2 157,-125.2 10,-125.2"/>
<image xlink:href="../../images/primaryKeys.png" width="11px" height="12px" preserveAspectRatio="xMinYMin meet" x="15" y="-142.2"/>
<text text-anchor="start" x="30" y="-132.3" font-family="Helvetica,sans-Serif" font-size="11.00" fill="#000000">id</text>
<polygon fill="none" stroke="#000000" points="157,-125.2 157,-147.2 224,-147.2 224,-125.2 157,-125.2"/>
<text text-anchor="start" x="160" y="-132.9" font-family="Helvetica,sans-Serif" font-size="11.00" fill="#000000">bigint[19]</text>
<polygon fill="#ffffff" stroke="transparent" points="10,-103.2 10,-125.2 157,-125.2 157,-103.2 10,-103.2"/>
<polygon fill="none" stroke="#000000" points="10,-103.2 10,-125.2 157,-125.2 157,-103.2 10,-103.2"/>
<text text-anchor="start" x="30" y="-110.3" font-family="Helvetica,sans-Serif" font-size="11.00" fill="#000000">name</text>
<polygon fill="none" stroke="#000000" points="157,-103.2 157,-125.2 224,-125.2 224,-103.2 157,-103.2"/>
<text text-anchor="start" x="159.9365" y="-110.9" font-family="Helvetica,sans-Serif" font-size="11.00" fill="#000000">varchar[255]</text>
<polygon fill="#ffffff" stroke="transparent" points="10,-81.2 10,-103.2 157,-103.2 157,-81.2 10,-81.2"/>
<polygon fill="none" stroke="#000000" points="10,-81.2 10,-103.2 157,-103.2 157,-81.2 10,-81.2"/>
<text text-anchor="start" x="30" y="-88.3" font-family="Helvetica,sans-Serif" font-size="11.00" fill="#000000">snapshot_attack_type</text>
<polygon fill="none" stroke="#000000" points="157,-81.2 157,-103.2 224,-103.2 224,-81.2 157,-81.2"/>
<text text-anchor="start" x="160" y="-88.9" font-family="Helvetica,sans-Serif" font-size="11.00" fill="#000000">tinyint[3]</text>
<polygon fill="#ffffff" stroke="transparent" points="10,-59.2 10,-81.2 157,-81.2 157,-59.2 10,-59.2"/>
<polygon fill="none" stroke="#000000" points="10,-59.2 10,-81.2 157,-81.2 157,-59.2 10,-59.2"/>
<text text-anchor="start" x="30" y="-66.3" font-family="Helvetica,sans-Serif" font-size="11.00" fill="#000000">snapshot_creation</text>
<polygon fill="none" stroke="#000000" points="157,-59.2 157,-81.2 224,-81.2 224,-59.2 157,-59.2"/>
<text text-anchor="start" x="160" y="-66.9" font-family="Helvetica,sans-Serif" font-size="11.00" fill="#000000">bigint[19]</text>
<polygon fill="#ffffff" stroke="transparent" points="10,-40.2 10,-59.2 75,-59.2 75,-40.2 10,-40.2"/>
<polygon fill="none" stroke="#000000" points="10,-40.2 10,-59.2 75,-59.2 75,-40.2 10,-40.2"/>
<text text-anchor="start" x="13" y="-46.3" font-family="Helvetica,sans-Serif" font-size="11.00" fill="#000000">&lt; 0</text>
<polygon fill="#ffffff" stroke="transparent" points="75,-40.2 75,-59.2 157,-59.2 157,-40.2 75,-40.2"/>
<polygon fill="none" stroke="#000000" points="75,-40.2 75,-59.2 157,-59.2 157,-40.2 75,-40.2"/>
<text text-anchor="start" x="121.6105" y="-46.3" font-family="Helvetica,sans-Serif" font-size="11.00" fill="#000000">0 rows</text>
<polygon fill="#ffffff" stroke="transparent" points="157,-40.2 157,-59.2 224,-59.2 224,-40.2 157,-40.2"/>
<polygon fill="none" stroke="#000000" points="157,-40.2 157,-59.2 224,-59.2 224,-40.2 157,-40.2"/>
<text text-anchor="start" x="205.4053" y="-46.3" font-family="Helvetica,sans-Serif" font-size="11.00" fill="#000000">1 &gt;</text>
<polygon fill="none" stroke="#000000" stroke-width="2" points="9,-39.2 9,-171.2 225,-171.2 225,-39.2 9,-39.2"/>
</a>
</g>
</g>
<!-- snapshots_attacks_facts&#45;&gt;snapshots_attacks -->
<g id="edge2" class="edge">
<title>snapshots_attacks_facts:w&#45;&gt;snapshots_attacks:e</title>
<path fill="none" stroke="#000000" d="M261.4805,-163.3988C248.2585,-155.1209 244.8716,-136.2 224,-136.2"/>
<polygon fill="#000000" stroke="#000000" points="267.7788,-165.1064 274.5579,-170.6745 271.6394,-166.1532 275.5,-167.2 275.5,-167.2 275.5,-167.2 271.6394,-166.1532 276.4421,-163.7255 267.7788,-165.1064 267.7788,-165.1064"/>
<ellipse fill="none" stroke="#000000" cx="264.6903" cy="-164.269" rx="3.2" ry="3.2"/>
</g>
<!-- snapshots_attacks_facts_breakdown -->
<g id="node4" class="node">
<title>snapshots_attacks_facts_breakdown</title>
<g id="a_node4"><a xlink:href="../../tables/snapshots_attacks_facts_breakdown.html" xlink:title="snapshots_attacks_facts_breakdown" target="_top">
<polygon fill="#ffffff" stroke="transparent" points="487,-183.7 487,-244.7 710,-244.7 710,-183.7 487,-183.7"/>
<polygon fill="#f5f5f5" stroke="transparent" points="487.5,-221.2 487.5,-244.2 710.5,-244.2 710.5,-221.2 487.5,-221.2"/>
<polygon fill="none" stroke="#000000" points="487.5,-221.2 487.5,-244.2 710.5,-244.2 710.5,-221.2 487.5,-221.2"/>
<text text-anchor="start" x="492.3297" y="-230.3" font-family="Helvetica,sans-Serif" font-weight="bold" font-size="11.00" fill="#000000">snapshots_attacks_facts_breakdown</text>
<text text-anchor="start" x="676.0219" y="-229.3" font-family="Helvetica,sans-Serif" font-size="11.00" fill="#000000">[table]</text>
<polygon fill="none" stroke="#000000" points="487.5,-202.2 487.5,-221.2 710.5,-221.2 710.5,-202.2 487.5,-202.2"/>
<text text-anchor="start" x="490.5" y="-208.3" font-family="Helvetica,sans-Serif" font-size="11.00" fill="#000000">...</text>
<polygon fill="#ffffff" stroke="transparent" points="487.5,-183.2 487.5,-202.2 584.5,-202.2 584.5,-183.2 487.5,-183.2"/>
<polygon fill="none" stroke="#000000" points="487.5,-183.2 487.5,-202.2 584.5,-202.2 584.5,-183.2 487.5,-183.2"/>
<text text-anchor="start" x="490.5" y="-189.3" font-family="Helvetica,sans-Serif" font-size="11.00" fill="#000000">&lt; 1</text>
<polygon fill="#ffffff" stroke="transparent" points="584.5,-183.2 584.5,-202.2 660.5,-202.2 660.5,-183.2 584.5,-183.2"/>
<polygon fill="none" stroke="#000000" points="584.5,-183.2 584.5,-202.2 660.5,-202.2 660.5,-183.2 584.5,-183.2"/>
<text text-anchor="start" x="625.1105" y="-189.3" font-family="Helvetica,sans-Serif" font-size="11.00" fill="#000000">0 rows</text>
<polygon fill="#ffffff" stroke="transparent" points="660.5,-183.2 660.5,-202.2 710.5,-202.2 710.5,-183.2 660.5,-183.2"/>
<polygon fill="none" stroke="#000000" points="660.5,-183.2 660.5,-202.2 710.5,-202.2 710.5,-183.2 660.5,-183.2"/>
<text text-anchor="start" x="701.3862" y="-189.3" font-family="Helvetica,sans-Serif" font-size="11.00" fill="#000000"> &#160;</text>
</a>
</g>
</g>
<!-- snapshots_attacks_facts_breakdown&#45;&gt;snapshots_attacks_facts -->
<g id="edge3" class="edge">
<title>snapshots_attacks_facts_breakdown:w&#45;&gt;snapshots_attacks_facts:e</title>
<path fill="none" stroke="#000000" d="M472.9909,-211.2C461.6774,-211.2 454.4931,-211.2 438.5,-211.2"/>
<polygon fill="#000000" stroke="#000000" points="479.5,-211.2001 487.5,-214.8 483.5,-211.2 487.5,-211.2 487.5,-211.2 487.5,-211.2 483.5,-211.2 487.5,-207.6 479.5,-211.2001 479.5,-211.2001"/>
<ellipse fill="none" stroke="#000000" cx="476.3" cy="-211.2001" rx="3.2" ry="3.2"/>
</g>
</g>
</svg>
