<?xml version="1.0" encoding="UTF-8" standalone="no"?>
<!DOCTYPE svg PUBLIC "-//W3C//DTD SVG 1.1//EN"
 "http://www.w3.org/Graphics/SVG/1.1/DTD/svg11.dtd">
<!-- Generated by graphviz version 2.40.1 (20161225.0304)
 -->
<!-- Title: oneDegreeRelationshipsDiagram Pages: 1 -->
<svg width="510pt" height="311pt"
 viewBox="0.00 0.00 510.00 310.70" xmlns="http://www.w3.org/2000/svg" xmlns:xlink="http://www.w3.org/1999/xlink">
<g id="graph0" class="graph" transform="scale(1 1) rotate(0) translate(4 306.7)">
<title>oneDegreeRelationshipsDiagram</title>
<polygon fill="#ffffff" stroke="transparent" points="-4,4 -4,-306.7 506,-306.7 506,4 -4,4"/>
<text text-anchor="middle" x="72.4936" y="-7.3" font-family="Helvetica,sans-Serif" font-size="11.00" fill="#000000">Generated by SchemaSpy</text>
<!-- stig_report_template -->
<g id="node1" class="node">
<title>stig_report_template</title>
<g id="a_node1"><a xlink:href="../../tables/stig_report_template.html" xlink:title="stig_report_template" target="_top">
<polygon fill="#ffffff" stroke="transparent" points="240,-142.7 240,-298.7 494,-298.7 494,-142.7 240,-142.7"/>
<polygon fill="#f5f5f5" stroke="transparent" points="242,-273.7 242,-296.7 492,-296.7 492,-273.7 242,-273.7"/>
<polygon fill="none" stroke="#000000" points="242,-273.7 242,-296.7 492,-296.7 492,-273.7 242,-273.7"/>
<text text-anchor="start" x="247" y="-282.8" font-family="Helvetica,sans-Serif" font-weight="bold" font-size="11.00" fill="#000000">stig_report_template</text>
<text text-anchor="start" x="457.0437" y="-281.8" font-family="Helvetica,sans-Serif" font-size="11.00" fill="#000000">[table]</text>
<polygon fill="none" stroke="#000000" points="242,-251.7 242,-273.7 381,-273.7 381,-251.7 242,-251.7"/>
<image xlink:href="../../images/primaryKeys.png" width="11px" height="12px" preserveAspectRatio="xMinYMin meet" x="247" y="-268.7"/>
<text text-anchor="start" x="262" y="-258.8" font-family="Helvetica,sans-Serif" font-size="11.00" fill="#000000">application_id</text>
<polygon fill="none" stroke="#000000" points="381,-251.7 381,-273.7 492,-273.7 492,-251.7 381,-251.7"/>
<text text-anchor="start" x="384" y="-259.4" font-family="Helvetica,sans-Serif" font-size="11.00" fill="#000000">varchar[255]</text>
<polygon fill="none" stroke="#000000" points="242,-229.7 242,-251.7 381,-251.7 381,-229.7 242,-229.7"/>
<text text-anchor="start" x="262" y="-236.8" font-family="Helvetica,sans-Serif" font-size="11.00" fill="#000000">file_type</text>
<polygon fill="none" stroke="#000000" points="381,-229.7 381,-251.7 492,-251.7 492,-229.7 381,-229.7"/>
<text text-anchor="start" x="384" y="-237.4" font-family="Helvetica,sans-Serif" font-size="11.00" fill="#000000">varchar[3]</text>
<polygon fill="none" stroke="#000000" points="242,-207.7 242,-229.7 381,-229.7 381,-207.7 242,-207.7"/>
<text text-anchor="start" x="262" y="-214.8" font-family="Helvetica,sans-Serif" font-size="11.00" fill="#000000">file_name</text>
<polygon fill="none" stroke="#000000" points="381,-207.7 381,-229.7 492,-229.7 492,-207.7 381,-207.7"/>
<text text-anchor="start" x="384" y="-215.4" font-family="Helvetica,sans-Serif" font-size="11.00" fill="#000000">varchar[255]</text>
<polygon fill="none" stroke="#000000" points="242,-185.7 242,-207.7 381,-207.7 381,-185.7 242,-185.7"/>
<text text-anchor="start" x="262" y="-192.8" font-family="Helvetica,sans-Serif" font-size="11.00" fill="#000000">file_content</text>
<polygon fill="none" stroke="#000000" points="381,-185.7 381,-207.7 492,-207.7 492,-185.7 381,-185.7"/>
<text text-anchor="start" x="383.6115" y="-193.4" font-family="Helvetica,sans-Serif" font-size="11.00" fill="#000000">longtext[2147483647]</text>
<polygon fill="none" stroke="#000000" points="242,-163.7 242,-185.7 381,-185.7 381,-163.7 242,-163.7"/>
<text text-anchor="start" x="262" y="-170.8" font-family="Helvetica,sans-Serif" font-size="11.00" fill="#000000">created</text>
<polygon fill="none" stroke="#000000" points="381,-163.7 381,-185.7 492,-185.7 492,-163.7 381,-163.7"/>
<text text-anchor="start" x="384" y="-171.4" font-family="Helvetica,sans-Serif" font-size="11.00" fill="#000000">timestamp[19]</text>
<polygon fill="#ffffff" stroke="transparent" points="242,-144.7 242,-163.7 303,-163.7 303,-144.7 242,-144.7"/>
<polygon fill="none" stroke="#000000" points="242,-144.7 242,-163.7 303,-163.7 303,-144.7 242,-144.7"/>
<text text-anchor="start" x="245" y="-150.8" font-family="Helvetica,sans-Serif" font-size="11.00" fill="#000000">&lt; 1</text>
<polygon fill="#ffffff" stroke="transparent" points="303,-144.7 303,-163.7 381,-163.7 381,-144.7 303,-144.7"/>
<polygon fill="none" stroke="#000000" points="303,-144.7 303,-163.7 381,-163.7 381,-144.7 303,-144.7"/>
<text text-anchor="start" x="345.6105" y="-150.8" font-family="Helvetica,sans-Serif" font-size="11.00" fill="#000000">0 rows</text>
<polygon fill="#ffffff" stroke="transparent" points="381,-144.7 381,-163.7 492,-163.7 492,-144.7 381,-144.7"/>
<polygon fill="none" stroke="#000000" points="381,-144.7 381,-163.7 492,-163.7 492,-144.7 381,-144.7"/>
<text text-anchor="start" x="473.4053" y="-150.8" font-family="Helvetica,sans-Serif" font-size="11.00" fill="#000000">0 &gt;</text>
<polygon fill="none" stroke="#000000" stroke-width="2" points="241,-143.7 241,-297.7 493,-297.7 493,-143.7 241,-143.7"/>
</a>
</g>
</g>
<!-- applications -->
<g id="node2" class="node">
<title>applications</title>
<g id="a_node2"><a xlink:href="../../tables/applications.html" xlink:title="applications" target="_top">
<polygon fill="#ffffff" stroke="transparent" points="8,-38.2 8,-297.2 191,-297.2 191,-38.2 8,-38.2"/>
<polygon fill="#f5f5f5" stroke="transparent" points="8.5,-273.7 8.5,-296.7 191.5,-296.7 191.5,-273.7 8.5,-273.7"/>
<polygon fill="none" stroke="#000000" points="8.5,-273.7 8.5,-296.7 191.5,-296.7 191.5,-273.7 8.5,-273.7"/>
<text text-anchor="start" x="13.5" y="-282.8" font-family="Helvetica,sans-Serif" font-weight="bold" font-size="11.00" fill="#000000">applications</text>
<text text-anchor="start" x="156.5437" y="-281.8" font-family="Helvetica,sans-Serif" font-size="11.00" fill="#000000">[table]</text>
<polygon fill="none" stroke="#000000" points="8.5,-251.7 8.5,-273.7 191.5,-273.7 191.5,-251.7 8.5,-251.7"/>
<image xlink:href="../../images/primaryKeys.png" width="11px" height="12px" preserveAspectRatio="xMinYMin meet" x="13.5" y="-268.7"/>
<text text-anchor="start" x="28.5" y="-258.8" font-family="Helvetica,sans-Serif" font-size="11.00" fill="#000000">application_id</text>
<polygon fill="#ffffff" stroke="transparent" points="8.5,-229.7 8.5,-251.7 191.5,-251.7 191.5,-229.7 8.5,-229.7"/>
<polygon fill="none" stroke="#000000" points="8.5,-229.7 8.5,-251.7 191.5,-251.7 191.5,-229.7 8.5,-229.7"/>
<text text-anchor="start" x="28.5" y="-236.8" font-family="Helvetica,sans-Serif" font-size="11.00" fill="#000000">app_name</text>
<polygon fill="#ffffff" stroke="transparent" points="8.5,-207.7 8.5,-229.7 191.5,-229.7 191.5,-207.7 8.5,-207.7"/>
<polygon fill="none" stroke="#000000" points="8.5,-207.7 8.5,-229.7 191.5,-229.7 191.5,-207.7 8.5,-207.7"/>
<text text-anchor="start" x="28.5" y="-214.8" font-family="Helvetica,sans-Serif" font-size="11.00" fill="#000000">app_short_name</text>
<polygon fill="#ffffff" stroke="transparent" points="8.5,-185.7 8.5,-207.7 191.5,-207.7 191.5,-185.7 8.5,-185.7"/>
<polygon fill="none" stroke="#000000" points="8.5,-185.7 8.5,-207.7 191.5,-207.7 191.5,-185.7 8.5,-185.7"/>
<image xlink:href="../../images/foreignKeys.png" width="11px" height="12px" preserveAspectRatio="xMinYMin meet" x="13.5" y="-202.7"/>
<text text-anchor="start" x="28.5" y="-192.8" font-family="Helvetica,sans-Serif" font-size="11.00" fill="#000000">app_license_fk</text>
<polygon fill="#ffffff" stroke="transparent" points="8.5,-163.7 8.5,-185.7 191.5,-185.7 191.5,-163.7 8.5,-163.7"/>
<polygon fill="none" stroke="#000000" points="8.5,-163.7 8.5,-185.7 191.5,-185.7 191.5,-163.7 8.5,-163.7"/>
<image xlink:href="../../images/foreignKeys.png" width="11px" height="12px" preserveAspectRatio="xMinYMin meet" x="13.5" y="-180.7"/>
<text text-anchor="start" x="28.5" y="-170.8" font-family="Helvetica,sans-Serif" font-size="11.00" fill="#000000">app_parent_fk</text>
<polygon fill="#ffffff" stroke="transparent" points="8.5,-141.7 8.5,-163.7 191.5,-163.7 191.5,-141.7 8.5,-141.7"/>
<polygon fill="none" stroke="#000000" points="8.5,-141.7 8.5,-163.7 191.5,-163.7 191.5,-141.7 8.5,-141.7"/>
<text text-anchor="start" x="28.5" y="-148.8" font-family="Helvetica,sans-Serif" font-size="11.00" fill="#000000">app_display_name</text>
<polygon fill="#ffffff" stroke="transparent" points="8.5,-119.7 8.5,-141.7 191.5,-141.7 191.5,-119.7 8.5,-119.7"/>
<polygon fill="none" stroke="#000000" points="8.5,-119.7 8.5,-141.7 191.5,-141.7 191.5,-119.7 8.5,-119.7"/>
<text text-anchor="start" x="28.5" y="-126.8" font-family="Helvetica,sans-Serif" font-size="11.00" fill="#000000">importance</text>
<polygon fill="#ffffff" stroke="transparent" points="8.5,-97.7 8.5,-119.7 191.5,-119.7 191.5,-97.7 8.5,-97.7"/>
<polygon fill="none" stroke="#000000" points="8.5,-97.7 8.5,-119.7 191.5,-119.7 191.5,-97.7 8.5,-97.7"/>
<image xlink:href="../../images/foreignKeys.png" width="11px" height="12px" preserveAspectRatio="xMinYMin meet" x="13.5" y="-114.7"/>
<text text-anchor="start" x="28.5" y="-104.8" font-family="Helvetica,sans-Serif" font-size="11.00" fill="#000000">organizations_id</text>
<polygon fill="#ffffff" stroke="transparent" points="8.5,-75.7 8.5,-97.7 191.5,-97.7 191.5,-75.7 8.5,-75.7"/>
<polygon fill="none" stroke="#000000" points="8.5,-75.7 8.5,-97.7 191.5,-97.7 191.5,-75.7 8.5,-75.7"/>
<text text-anchor="start" x="28.5" y="-82.8" font-family="Helvetica,sans-Serif" font-size="11.00" fill="#000000">agent_language</text>
<polygon fill="none" stroke="#000000" points="8.5,-56.7 8.5,-75.7 191.5,-75.7 191.5,-56.7 8.5,-56.7"/>
<text text-anchor="start" x="11.5" y="-62.8" font-family="Helvetica,sans-Serif" font-size="11.00" fill="#000000">...</text>
<polygon fill="#ffffff" stroke="transparent" points="8.5,-37.7 8.5,-56.7 77.5,-56.7 77.5,-37.7 8.5,-37.7"/>
<polygon fill="none" stroke="#000000" points="8.5,-37.7 8.5,-56.7 77.5,-56.7 77.5,-37.7 8.5,-37.7"/>
<text text-anchor="start" x="11.5" y="-43.8" font-family="Helvetica,sans-Serif" font-size="11.00" fill="#000000">&lt; 3</text>
<polygon fill="#ffffff" stroke="transparent" points="77.5,-37.7 77.5,-56.7 139.5,-56.7 139.5,-37.7 77.5,-37.7"/>
<polygon fill="none" stroke="#000000" points="77.5,-37.7 77.5,-56.7 139.5,-56.7 139.5,-37.7 77.5,-37.7"/>
<text text-anchor="start" x="104.1105" y="-43.8" font-family="Helvetica,sans-Serif" font-size="11.00" fill="#000000">0 rows</text>
<polygon fill="#ffffff" stroke="transparent" points="139.5,-37.7 139.5,-56.7 191.5,-56.7 191.5,-37.7 139.5,-37.7"/>
<polygon fill="none" stroke="#000000" points="139.5,-37.7 139.5,-56.7 191.5,-56.7 191.5,-37.7 139.5,-37.7"/>
<text text-anchor="start" x="166.7904" y="-43.8" font-family="Helvetica,sans-Serif" font-size="11.00" fill="#000000">57 &gt;</text>
</a>
</g>
</g>
<!-- stig_report_template&#45;&gt;applications -->
<g id="edge1" class="edge">
<title>stig_report_template:w&#45;&gt;applications:e</title>
<path fill="none" stroke="#000000" d="M231.3362,-262.7C216.9956,-262.7 209.9115,-262.7 191.5,-262.7"/>
<polygon fill="#000000" stroke="#000000" points="241.2,-258.7 241.2,-266.7 239.6,-266.7 239.6,-258.7 241.2,-258.7"/>
<polyline fill="none" stroke="#000000" points="242,-262.7 238,-262.7 "/>
<ellipse fill="none" stroke="#000000" cx="234.8" cy="-262.7001" rx="3.2" ry="3.2"/>
</g>
</g>
</svg>
