<?xml version="1.0" encoding="UTF-8" standalone="no"?>
<!DOCTYPE svg PUBLIC "-//W3C//DTD SVG 1.1//EN"
 "http://www.w3.org/Graphics/SVG/1.1/DTD/svg11.dtd">
<!-- Generated by graphviz version 2.40.1 (20161225.0304)
 -->
<!-- Title: oneDegreeRelationshipsDiagram Pages: 1 -->
<svg width="582pt" height="377pt"
 viewBox="0.00 0.00 582.00 376.70" xmlns="http://www.w3.org/2000/svg" xmlns:xlink="http://www.w3.org/1999/xlink">
<g id="graph0" class="graph" transform="scale(1 1) rotate(0) translate(4 372.7)">
<title>oneDegreeRelationshipsDiagram</title>
<polygon fill="#ffffff" stroke="transparent" points="-4,4 -4,-372.7 578,-372.7 578,4 -4,4"/>
<text text-anchor="middle" x="72.4936" y="-7.3" font-family="Helvetica,sans-Serif" font-size="11.00" fill="#000000">Generated by SchemaSpy</text>
<!-- tags_rasp_attack_event -->
<g id="node1" class="node">
<title>tags_rasp_attack_event</title>
<g id="a_node1"><a xlink:href="../../tables/tags_rasp_attack_event.html" xlink:title="tags_rasp_attack_event" target="_top">
<polygon fill="#ffffff" stroke="transparent" points="290,-230.7 290,-364.7 566,-364.7 566,-230.7 290,-230.7"/>
<polygon fill="#f5f5f5" stroke="transparent" points="292,-339.7 292,-362.7 564,-362.7 564,-339.7 292,-339.7"/>
<polygon fill="none" stroke="#000000" points="292,-339.7 292,-362.7 564,-362.7 564,-339.7 292,-339.7"/>
<text text-anchor="start" x="297" y="-348.8" font-family="Helvetica,sans-Serif" font-weight="bold" font-size="11.00" fill="#000000">tags_rasp_attack_event</text>
<text text-anchor="start" x="529.0437" y="-347.8" font-family="Helvetica,sans-Serif" font-size="11.00" fill="#000000">[table]</text>
<polygon fill="none" stroke="#000000" points="292,-317.7 292,-339.7 466,-339.7 466,-317.7 292,-317.7"/>
<image xlink:href="../../images/primaryKeys.png" width="11px" height="12px" preserveAspectRatio="xMinYMin meet" x="297" y="-334.7"/>
<text text-anchor="start" x="312" y="-324.8" font-family="Helvetica,sans-Serif" font-size="11.00" fill="#000000">tags_rasp_attack_event_id</text>
<polygon fill="none" stroke="#000000" points="466,-317.7 466,-339.7 564,-339.7 564,-317.7 466,-317.7"/>
<text text-anchor="start" x="468.8429" y="-325.4" font-family="Helvetica,sans-Serif" font-size="11.00" fill="#000000">bigint unsigned[20]</text>
<polygon fill="#ffffff" stroke="transparent" points="292,-295.7 292,-317.7 466,-317.7 466,-295.7 292,-295.7"/>
<polygon fill="none" stroke="#000000" points="292,-295.7 292,-317.7 466,-317.7 466,-295.7 292,-295.7"/>
<image xlink:href="../../images/foreignKeys.png" width="11px" height="12px" preserveAspectRatio="xMinYMin meet" x="297" y="-312.7"/>
<text text-anchor="start" x="312" y="-302.8" font-family="Helvetica,sans-Serif" font-size="11.00" fill="#000000">rasp_attack_event_id</text>
<polygon fill="none" stroke="#000000" points="466,-295.7 466,-317.7 564,-317.7 564,-295.7 466,-295.7"/>
<text text-anchor="start" x="468.8429" y="-303.4" font-family="Helvetica,sans-Serif" font-size="11.00" fill="#000000">bigint unsigned[20]</text>
<polygon fill="#ffffff" stroke="transparent" points="292,-273.7 292,-295.7 466,-295.7 466,-273.7 292,-273.7"/>
<polygon fill="none" stroke="#000000" points="292,-273.7 292,-295.7 466,-295.7 466,-273.7 292,-273.7"/>
<text text-anchor="start" x="312" y="-280.8" font-family="Helvetica,sans-Serif" font-size="11.00" fill="#000000">value</text>
<polygon fill="none" stroke="#000000" points="466,-273.7 466,-295.7 564,-295.7 564,-273.7 466,-273.7"/>
<text text-anchor="start" x="469" y="-281.4" font-family="Helvetica,sans-Serif" font-size="11.00" fill="#000000">varchar[255]</text>
<polygon fill="none" stroke="#000000" points="292,-251.7 292,-273.7 466,-273.7 466,-251.7 292,-251.7"/>
<text text-anchor="start" x="312" y="-258.8" font-family="Helvetica,sans-Serif" font-size="11.00" fill="#000000">type</text>
<polygon fill="none" stroke="#000000" points="466,-251.7 466,-273.7 564,-273.7 564,-251.7 466,-251.7"/>
<text text-anchor="start" x="469" y="-259.4" font-family="Helvetica,sans-Serif" font-size="11.00" fill="#000000">int[10]</text>
<polygon fill="#ffffff" stroke="transparent" points="292,-232.7 292,-251.7 370,-251.7 370,-232.7 292,-232.7"/>
<polygon fill="none" stroke="#000000" points="292,-232.7 292,-251.7 370,-251.7 370,-232.7 292,-232.7"/>
<text text-anchor="start" x="295" y="-238.8" font-family="Helvetica,sans-Serif" font-size="11.00" fill="#000000">&lt; 1</text>
<polygon fill="#ffffff" stroke="transparent" points="370,-232.7 370,-251.7 466,-251.7 466,-232.7 370,-232.7"/>
<polygon fill="none" stroke="#000000" points="370,-232.7 370,-251.7 466,-251.7 466,-232.7 370,-232.7"/>
<text text-anchor="start" x="430.6105" y="-238.8" font-family="Helvetica,sans-Serif" font-size="11.00" fill="#000000">0 rows</text>
<polygon fill="#ffffff" stroke="transparent" points="466,-232.7 466,-251.7 564,-251.7 564,-232.7 466,-232.7"/>
<polygon fill="none" stroke="#000000" points="466,-232.7 466,-251.7 564,-251.7 564,-232.7 466,-232.7"/>
<text text-anchor="start" x="545.4053" y="-238.8" font-family="Helvetica,sans-Serif" font-size="11.00" fill="#000000">0 &gt;</text>
<polygon fill="none" stroke="#000000" stroke-width="2" points="291,-231.7 291,-363.7 565,-363.7 565,-231.7 291,-231.7"/>
</a>
</g>
</g>
<!-- rasp_attack_event -->
<g id="node2" class="node">
<title>rasp_attack_event</title>
<g id="a_node2"><a xlink:href="../../tables/rasp_attack_event.html" xlink:title="rasp_attack_event" target="_top">
<polygon fill="#ffffff" stroke="transparent" points="8,-38.2 8,-341.2 241,-341.2 241,-38.2 8,-38.2"/>
<polygon fill="#f5f5f5" stroke="transparent" points="8.5,-317.7 8.5,-340.7 241.5,-340.7 241.5,-317.7 8.5,-317.7"/>
<polygon fill="none" stroke="#000000" points="8.5,-317.7 8.5,-340.7 241.5,-340.7 241.5,-317.7 8.5,-317.7"/>
<text text-anchor="start" x="13.5" y="-326.8" font-family="Helvetica,sans-Serif" font-weight="bold" font-size="11.00" fill="#000000">rasp_attack_event</text>
<text text-anchor="start" x="206.5437" y="-325.8" font-family="Helvetica,sans-Serif" font-size="11.00" fill="#000000">[table]</text>
<polygon fill="none" stroke="#000000" points="8.5,-295.7 8.5,-317.7 241.5,-317.7 241.5,-295.7 8.5,-295.7"/>
<image xlink:href="../../images/primaryKeys.png" width="11px" height="12px" preserveAspectRatio="xMinYMin meet" x="13.5" y="-312.7"/>
<text text-anchor="start" x="28.5" y="-302.8" font-family="Helvetica,sans-Serif" font-size="11.00" fill="#000000">rasp_attack_event_id</text>
<polygon fill="#ffffff" stroke="transparent" points="8.5,-273.7 8.5,-295.7 241.5,-295.7 241.5,-273.7 8.5,-273.7"/>
<polygon fill="none" stroke="#000000" points="8.5,-273.7 8.5,-295.7 241.5,-295.7 241.5,-273.7 8.5,-273.7"/>
<image xlink:href="../../images/foreignKeys.png" width="11px" height="12px" preserveAspectRatio="xMinYMin meet" x="13.5" y="-290.7"/>
<text text-anchor="start" x="28.5" y="-280.8" font-family="Helvetica,sans-Serif" font-size="11.00" fill="#000000">rasp_attacks_id</text>
<polygon fill="#ffffff" stroke="transparent" points="8.5,-251.7 8.5,-273.7 241.5,-273.7 241.5,-251.7 8.5,-251.7"/>
<polygon fill="none" stroke="#000000" points="8.5,-251.7 8.5,-273.7 241.5,-273.7 241.5,-251.7 8.5,-251.7"/>
<image xlink:href="../../images/foreignKeys.png" width="11px" height="12px" preserveAspectRatio="xMinYMin meet" x="13.5" y="-268.7"/>
<text text-anchor="start" x="28.5" y="-258.8" font-family="Helvetica,sans-Serif" font-size="11.00" fill="#000000">rasp_attacks_applications_id</text>
<polygon fill="#ffffff" stroke="transparent" points="8.5,-229.7 8.5,-251.7 241.5,-251.7 241.5,-229.7 8.5,-229.7"/>
<polygon fill="none" stroke="#000000" points="8.5,-229.7 8.5,-251.7 241.5,-251.7 241.5,-229.7 8.5,-229.7"/>
<text text-anchor="start" x="28.5" y="-236.8" font-family="Helvetica,sans-Serif" font-size="11.00" fill="#000000">status</text>
<polygon fill="#ffffff" stroke="transparent" points="8.5,-207.7 8.5,-229.7 241.5,-229.7 241.5,-207.7 8.5,-207.7"/>
<polygon fill="none" stroke="#000000" points="8.5,-207.7 8.5,-229.7 241.5,-229.7 241.5,-207.7 8.5,-207.7"/>
<text text-anchor="start" x="28.5" y="-214.8" font-family="Helvetica,sans-Serif" font-size="11.00" fill="#000000">timestamp_server</text>
<polygon fill="#ffffff" stroke="transparent" points="8.5,-185.7 8.5,-207.7 241.5,-207.7 241.5,-185.7 8.5,-185.7"/>
<polygon fill="none" stroke="#000000" points="8.5,-185.7 8.5,-207.7 241.5,-207.7 241.5,-185.7 8.5,-185.7"/>
<image xlink:href="../../images/foreignKeys.png" width="11px" height="12px" preserveAspectRatio="xMinYMin meet" x="13.5" y="-202.7"/>
<text text-anchor="start" x="28.5" y="-192.8" font-family="Helvetica,sans-Serif" font-size="11.00" fill="#000000">applications_id</text>
<polygon fill="#ffffff" stroke="transparent" points="8.5,-163.7 8.5,-185.7 241.5,-185.7 241.5,-163.7 8.5,-163.7"/>
<polygon fill="none" stroke="#000000" points="8.5,-163.7 8.5,-185.7 241.5,-185.7 241.5,-163.7 8.5,-163.7"/>
<image xlink:href="../../images/foreignKeys.png" width="11px" height="12px" preserveAspectRatio="xMinYMin meet" x="13.5" y="-180.7"/>
<text text-anchor="start" x="28.5" y="-170.8" font-family="Helvetica,sans-Serif" font-size="11.00" fill="#000000">servers_id</text>
<polygon fill="#ffffff" stroke="transparent" points="8.5,-141.7 8.5,-163.7 241.5,-163.7 241.5,-141.7 8.5,-141.7"/>
<polygon fill="none" stroke="#000000" points="8.5,-141.7 8.5,-163.7 241.5,-163.7 241.5,-141.7 8.5,-141.7"/>
<text text-anchor="start" x="28.5" y="-148.8" font-family="Helvetica,sans-Serif" font-size="11.00" fill="#000000">uuid</text>
<polygon fill="#ffffff" stroke="transparent" points="8.5,-119.7 8.5,-141.7 241.5,-141.7 241.5,-119.7 8.5,-119.7"/>
<polygon fill="none" stroke="#000000" points="8.5,-119.7 8.5,-141.7 241.5,-141.7 241.5,-119.7 8.5,-119.7"/>
<image xlink:href="../../images/foreignKeys.png" width="11px" height="12px" preserveAspectRatio="xMinYMin meet" x="13.5" y="-136.7"/>
<text text-anchor="start" x="28.5" y="-126.8" font-family="Helvetica,sans-Serif" font-size="11.00" fill="#000000">rasp_protection_rules_exceptions_id</text>
<polygon fill="#ffffff" stroke="transparent" points="8.5,-97.7 8.5,-119.7 241.5,-119.7 241.5,-97.7 8.5,-97.7"/>
<polygon fill="none" stroke="#000000" points="8.5,-97.7 8.5,-119.7 241.5,-119.7 241.5,-97.7 8.5,-97.7"/>
<image xlink:href="../../images/foreignKeys.png" width="11px" height="12px" preserveAspectRatio="xMinYMin meet" x="13.5" y="-114.7"/>
<text text-anchor="start" x="28.5" y="-104.8" font-family="Helvetica,sans-Serif" font-size="11.00" fill="#000000">rasp_messages_id</text>
<polygon fill="#ffffff" stroke="transparent" points="8.5,-75.7 8.5,-97.7 241.5,-97.7 241.5,-75.7 8.5,-75.7"/>
<polygon fill="none" stroke="#000000" points="8.5,-75.7 8.5,-97.7 241.5,-97.7 241.5,-75.7 8.5,-75.7"/>
<image xlink:href="../../images/foreignKeys.png" width="11px" height="12px" preserveAspectRatio="xMinYMin meet" x="13.5" y="-92.7"/>
<text text-anchor="start" x="28.5" y="-82.8" font-family="Helvetica,sans-Serif" font-size="11.00" fill="#000000">rasp_protection_rules_id</text>
<polygon fill="none" stroke="#000000" points="8.5,-56.7 8.5,-75.7 241.5,-75.7 241.5,-56.7 8.5,-56.7"/>
<text text-anchor="start" x="11.5" y="-62.8" font-family="Helvetica,sans-Serif" font-size="11.00" fill="#000000">...</text>
<polygon fill="#ffffff" stroke="transparent" points="8.5,-37.7 8.5,-56.7 105.5,-56.7 105.5,-37.7 8.5,-37.7"/>
<polygon fill="none" stroke="#000000" points="8.5,-37.7 8.5,-56.7 105.5,-56.7 105.5,-37.7 8.5,-37.7"/>
<text text-anchor="start" x="11.5" y="-43.8" font-family="Helvetica,sans-Serif" font-size="11.00" fill="#000000">&lt; 7</text>
<polygon fill="#ffffff" stroke="transparent" points="105.5,-37.7 105.5,-56.7 181.5,-56.7 181.5,-37.7 105.5,-37.7"/>
<polygon fill="none" stroke="#000000" points="105.5,-37.7 105.5,-56.7 181.5,-56.7 181.5,-37.7 105.5,-37.7"/>
<text text-anchor="start" x="146.1105" y="-43.8" font-family="Helvetica,sans-Serif" font-size="11.00" fill="#000000">0 rows</text>
<polygon fill="#ffffff" stroke="transparent" points="181.5,-37.7 181.5,-56.7 241.5,-56.7 241.5,-37.7 181.5,-37.7"/>
<polygon fill="none" stroke="#000000" points="181.5,-37.7 181.5,-56.7 241.5,-56.7 241.5,-37.7 181.5,-37.7"/>
<text text-anchor="start" x="222.9053" y="-43.8" font-family="Helvetica,sans-Serif" font-size="11.00" fill="#000000">5 &gt;</text>
</a>
</g>
</g>
<!-- tags_rasp_attack_event&#45;&gt;rasp_attack_event -->
<g id="edge1" class="edge">
<title>tags_rasp_attack_event:w&#45;&gt;rasp_attack_event:e</title>
<path fill="none" stroke="#000000" d="M277.4203,-306.7C265.5435,-306.7 258.158,-306.7 241.5,-306.7"/>
<polygon fill="#000000" stroke="#000000" points="284,-306.7001 292,-310.3 288,-306.7 292,-306.7 292,-306.7 292,-306.7 288,-306.7 292,-303.1 284,-306.7001 284,-306.7001"/>
<ellipse fill="none" stroke="#000000" cx="280.8" cy="-306.7001" rx="3.2" ry="3.2"/>
</g>
</g>
</svg>
