<?xml version="1.0" encoding="UTF-8" standalone="no"?>
<!DOCTYPE svg PUBLIC "-//W3C//DTD SVG 1.1//EN"
 "http://www.w3.org/Graphics/SVG/1.1/DTD/svg11.dtd">
<!-- Generated by graphviz version 2.40.1 (20161225.0304)
 -->
<!-- Title: twoDegreesRelationshipsDiagram Pages: 1 -->
<svg width="736pt" height="459pt"
 viewBox="0.00 0.00 736.00 458.70" xmlns="http://www.w3.org/2000/svg" xmlns:xlink="http://www.w3.org/1999/xlink">
<g id="graph0" class="graph" transform="scale(1 1) rotate(0) translate(4 454.7)">
<title>twoDegreesRelationshipsDiagram</title>
<polygon fill="#ffffff" stroke="transparent" points="-4,4 -4,-454.7 732,-454.7 732,4 -4,4"/>
<text text-anchor="middle" x="72.4936" y="-7.3" font-family="Helvetica,sans-Serif" font-size="11.00" fill="#000000">Generated by SchemaSpy</text>
<!-- notifications_messages -->
<g id="node1" class="node">
<title>notifications_messages</title>
<g id="a_node1"><a xlink:href="../../tables/notifications_messages.html" xlink:title="notifications_messages" target="_top">
<polygon fill="#ffffff" stroke="transparent" points="371.5,-385.7 371.5,-446.7 528.5,-446.7 528.5,-385.7 371.5,-385.7"/>
<polygon fill="#f5f5f5" stroke="transparent" points="372,-423.2 372,-446.2 529,-446.2 529,-423.2 372,-423.2"/>
<polygon fill="none" stroke="#000000" points="372,-423.2 372,-446.2 529,-446.2 529,-423.2 372,-423.2"/>
<text text-anchor="start" x="376.8479" y="-432.3" font-family="Helvetica,sans-Serif" font-weight="bold" font-size="11.00" fill="#000000">notifications_messages</text>
<text text-anchor="start" x="494.5219" y="-431.3" font-family="Helvetica,sans-Serif" font-size="11.00" fill="#000000">[table]</text>
<polygon fill="none" stroke="#000000" points="372,-404.2 372,-423.2 529,-423.2 529,-404.2 372,-404.2"/>
<text text-anchor="start" x="375" y="-410.3" font-family="Helvetica,sans-Serif" font-size="11.00" fill="#000000">...</text>
<polygon fill="#ffffff" stroke="transparent" points="372,-385.2 372,-404.2 431,-404.2 431,-385.2 372,-385.2"/>
<polygon fill="none" stroke="#000000" points="372,-385.2 372,-404.2 431,-404.2 431,-385.2 372,-385.2"/>
<text text-anchor="start" x="375" y="-391.3" font-family="Helvetica,sans-Serif" font-size="11.00" fill="#000000">&lt; 9</text>
<polygon fill="#ffffff" stroke="transparent" points="431,-385.2 431,-404.2 488,-404.2 488,-385.2 431,-385.2"/>
<polygon fill="none" stroke="#000000" points="431,-385.2 431,-404.2 488,-404.2 488,-385.2 431,-385.2"/>
<text text-anchor="start" x="452.6105" y="-391.3" font-family="Helvetica,sans-Serif" font-size="11.00" fill="#000000">0 rows</text>
<polygon fill="#ffffff" stroke="transparent" points="488,-385.2 488,-404.2 529,-404.2 529,-385.2 488,-385.2"/>
<polygon fill="none" stroke="#000000" points="488,-385.2 488,-404.2 529,-404.2 529,-385.2 488,-385.2"/>
<text text-anchor="start" x="510.4053" y="-391.3" font-family="Helvetica,sans-Serif" font-size="11.00" fill="#000000">4 &gt;</text>
</a>
</g>
</g>
<!-- organizations -->
<g id="node2" class="node">
<title>organizations</title>
<g id="a_node2"><a xlink:href="../../tables/organizations.html" xlink:title="organizations" target="_top">
<polygon fill="#ffffff" stroke="transparent" points="8,-242.7 8,-303.7 116,-303.7 116,-242.7 8,-242.7"/>
<polygon fill="#f5f5f5" stroke="transparent" points="8,-280.2 8,-303.2 116,-303.2 116,-280.2 8,-280.2"/>
<polygon fill="none" stroke="#000000" points="8,-280.2 8,-303.2 116,-303.2 116,-280.2 8,-280.2"/>
<text text-anchor="start" x="12.7976" y="-289.3" font-family="Helvetica,sans-Serif" font-weight="bold" font-size="11.00" fill="#000000">organizations</text>
<text text-anchor="start" x="81.5219" y="-288.3" font-family="Helvetica,sans-Serif" font-size="11.00" fill="#000000">[table]</text>
<polygon fill="none" stroke="#000000" points="8,-261.2 8,-280.2 116,-280.2 116,-261.2 8,-261.2"/>
<text text-anchor="start" x="11" y="-267.3" font-family="Helvetica,sans-Serif" font-size="11.00" fill="#000000">...</text>
<polygon fill="#ffffff" stroke="transparent" points="8,-242.2 8,-261.2 40,-261.2 40,-242.2 8,-242.2"/>
<polygon fill="none" stroke="#000000" points="8,-242.2 8,-261.2 40,-261.2 40,-242.2 8,-242.2"/>
<text text-anchor="start" x="11" y="-248.3" font-family="Helvetica,sans-Serif" font-size="11.00" fill="#000000">&lt; 4</text>
<polygon fill="#ffffff" stroke="transparent" points="40,-242.2 40,-261.2 83,-261.2 83,-242.2 40,-242.2"/>
<polygon fill="none" stroke="#000000" points="40,-242.2 40,-261.2 83,-261.2 83,-242.2 40,-242.2"/>
<text text-anchor="start" x="47.6105" y="-248.3" font-family="Helvetica,sans-Serif" font-size="11.00" fill="#000000">3 rows</text>
<polygon fill="#ffffff" stroke="transparent" points="83,-242.2 83,-261.2 116,-261.2 116,-242.2 83,-242.2"/>
<polygon fill="none" stroke="#000000" points="83,-242.2 83,-261.2 116,-261.2 116,-242.2 83,-242.2"/>
<text text-anchor="start" x="91.2904" y="-248.3" font-family="Helvetica,sans-Serif" font-size="11.00" fill="#000000">81 &gt;</text>
</a>
</g>
</g>
<!-- notifications_messages&#45;&gt;organizations -->
<g id="edge1" class="edge">
<title>notifications_messages:w&#45;&gt;organizations:e</title>
<path fill="none" stroke="#000000" d="M357.4542,-413.2722C269.4341,-414.1032 228.829,-420.7728 157,-361.2 122.8553,-332.8814 160.3599,-270.2 116,-270.2"/>
<polygon fill="#000000" stroke="#000000" points="364.0001,-413.2398 372.0179,-416.8 368,-413.2199 372,-413.2 372,-413.2 372,-413.2 368,-413.2199 371.9821,-409.6 364.0001,-413.2398 364.0001,-413.2398"/>
<ellipse fill="none" stroke="#000000" cx="360.8001" cy="-413.2557" rx="3.2" ry="3.2"/>
</g>
<!-- rasp_attacks -->
<g id="node3" class="node">
<title>rasp_attacks</title>
<g id="a_node3"><a xlink:href="../../tables/rasp_attacks.html" xlink:title="rasp_attacks" target="_top">
<polygon fill="#ffffff" stroke="transparent" points="165,-69.7 165,-350.7 312,-350.7 312,-69.7 165,-69.7"/>
<polygon fill="#f5f5f5" stroke="transparent" points="165.5,-327.2 165.5,-350.2 312.5,-350.2 312.5,-327.2 165.5,-327.2"/>
<polygon fill="none" stroke="#000000" points="165.5,-327.2 165.5,-350.2 312.5,-350.2 312.5,-327.2 165.5,-327.2"/>
<text text-anchor="start" x="170.5" y="-336.3" font-family="Helvetica,sans-Serif" font-weight="bold" font-size="11.00" fill="#000000">rasp_attacks</text>
<text text-anchor="start" x="277.5437" y="-335.3" font-family="Helvetica,sans-Serif" font-size="11.00" fill="#000000">[table]</text>
<polygon fill="none" stroke="#000000" points="165.5,-305.2 165.5,-327.2 312.5,-327.2 312.5,-305.2 165.5,-305.2"/>
<image xlink:href="../../images/primaryKeys.png" width="11px" height="12px" preserveAspectRatio="xMinYMin meet" x="170.5" y="-322.2"/>
<text text-anchor="start" x="185.5" y="-312.3" font-family="Helvetica,sans-Serif" font-size="11.00" fill="#000000">id</text>
<polygon fill="#ffffff" stroke="transparent" points="165.5,-283.2 165.5,-305.2 312.5,-305.2 312.5,-283.2 165.5,-283.2"/>
<polygon fill="none" stroke="#000000" points="165.5,-283.2 165.5,-305.2 312.5,-305.2 312.5,-283.2 165.5,-283.2"/>
<text text-anchor="start" x="185.5" y="-290.3" font-family="Helvetica,sans-Serif" font-size="11.00" fill="#000000">status</text>
<polygon fill="#ffffff" stroke="transparent" points="165.5,-261.2 165.5,-283.2 312.5,-283.2 312.5,-261.2 165.5,-261.2"/>
<polygon fill="none" stroke="#000000" points="165.5,-261.2 165.5,-283.2 312.5,-283.2 312.5,-261.2 165.5,-261.2"/>
<text text-anchor="start" x="185.5" y="-268.3" font-family="Helvetica,sans-Serif" font-size="11.00" fill="#000000">start_time</text>
<polygon fill="#ffffff" stroke="transparent" points="165.5,-239.2 165.5,-261.2 312.5,-261.2 312.5,-239.2 165.5,-239.2"/>
<polygon fill="none" stroke="#000000" points="165.5,-239.2 165.5,-261.2 312.5,-261.2 312.5,-239.2 165.5,-239.2"/>
<text text-anchor="start" x="185.5" y="-246.3" font-family="Helvetica,sans-Serif" font-size="11.00" fill="#000000">end_time</text>
<polygon fill="#ffffff" stroke="transparent" points="165.5,-217.2 165.5,-239.2 312.5,-239.2 312.5,-217.2 165.5,-217.2"/>
<polygon fill="none" stroke="#000000" points="165.5,-217.2 165.5,-239.2 312.5,-239.2 312.5,-217.2 165.5,-217.2"/>
<text text-anchor="start" x="185.5" y="-224.3" font-family="Helvetica,sans-Serif" font-size="11.00" fill="#000000">source_ip</text>
<polygon fill="#ffffff" stroke="transparent" points="165.5,-195.2 165.5,-217.2 312.5,-217.2 312.5,-195.2 165.5,-195.2"/>
<polygon fill="none" stroke="#000000" points="165.5,-195.2 165.5,-217.2 312.5,-217.2 312.5,-195.2 165.5,-195.2"/>
<text text-anchor="start" x="185.5" y="-202.3" font-family="Helvetica,sans-Serif" font-size="11.00" fill="#000000">x_forwarded_for_ip</text>
<polygon fill="#ffffff" stroke="transparent" points="165.5,-173.2 165.5,-195.2 312.5,-195.2 312.5,-173.2 165.5,-173.2"/>
<polygon fill="none" stroke="#000000" points="165.5,-173.2 165.5,-195.2 312.5,-195.2 312.5,-173.2 165.5,-173.2"/>
<text text-anchor="start" x="185.5" y="-180.3" font-family="Helvetica,sans-Serif" font-size="11.00" fill="#000000">type</text>
<polygon fill="#ffffff" stroke="transparent" points="165.5,-151.2 165.5,-173.2 312.5,-173.2 312.5,-151.2 165.5,-151.2"/>
<polygon fill="none" stroke="#000000" points="165.5,-151.2 165.5,-173.2 312.5,-173.2 312.5,-151.2 165.5,-151.2"/>
<text text-anchor="start" x="185.5" y="-158.3" font-family="Helvetica,sans-Serif" font-size="11.00" fill="#000000">dt_modified</text>
<polygon fill="#ffffff" stroke="transparent" points="165.5,-129.2 165.5,-151.2 312.5,-151.2 312.5,-129.2 165.5,-129.2"/>
<polygon fill="none" stroke="#000000" points="165.5,-129.2 165.5,-151.2 312.5,-151.2 312.5,-129.2 165.5,-129.2"/>
<image xlink:href="../../images/foreignKeys.png" width="11px" height="12px" preserveAspectRatio="xMinYMin meet" x="170.5" y="-146.2"/>
<text text-anchor="start" x="185.5" y="-136.3" font-family="Helvetica,sans-Serif" font-size="11.00" fill="#000000">organizations_id</text>
<polygon fill="#ffffff" stroke="transparent" points="165.5,-107.2 165.5,-129.2 312.5,-129.2 312.5,-107.2 165.5,-107.2"/>
<polygon fill="none" stroke="#000000" points="165.5,-107.2 165.5,-129.2 312.5,-129.2 312.5,-107.2 165.5,-107.2"/>
<text text-anchor="start" x="185.5" y="-114.3" font-family="Helvetica,sans-Serif" font-size="11.00" fill="#000000">uuid</text>
<polygon fill="none" stroke="#000000" points="165.5,-88.2 165.5,-107.2 312.5,-107.2 312.5,-88.2 165.5,-88.2"/>
<text text-anchor="start" x="168.5" y="-94.3" font-family="Helvetica,sans-Serif" font-size="11.00" fill="#000000">...</text>
<polygon fill="#ffffff" stroke="transparent" points="165.5,-69.2 165.5,-88.2 219.5,-88.2 219.5,-69.2 165.5,-69.2"/>
<polygon fill="none" stroke="#000000" points="165.5,-69.2 165.5,-88.2 219.5,-88.2 219.5,-69.2 165.5,-69.2"/>
<text text-anchor="start" x="168.5" y="-75.3" font-family="Helvetica,sans-Serif" font-size="11.00" fill="#000000">&lt; 1</text>
<polygon fill="#ffffff" stroke="transparent" points="219.5,-69.2 219.5,-88.2 274.5,-88.2 274.5,-69.2 219.5,-69.2"/>
<polygon fill="none" stroke="#000000" points="219.5,-69.2 219.5,-88.2 274.5,-88.2 274.5,-69.2 219.5,-69.2"/>
<text text-anchor="start" x="239.1105" y="-75.3" font-family="Helvetica,sans-Serif" font-size="11.00" fill="#000000">0 rows</text>
<polygon fill="#ffffff" stroke="transparent" points="274.5,-69.2 274.5,-88.2 312.5,-88.2 312.5,-69.2 274.5,-69.2"/>
<polygon fill="none" stroke="#000000" points="274.5,-69.2 274.5,-88.2 312.5,-88.2 312.5,-69.2 274.5,-69.2"/>
<text text-anchor="start" x="293.9053" y="-75.3" font-family="Helvetica,sans-Serif" font-size="11.00" fill="#000000">5 &gt;</text>
</a>
</g>
</g>
<!-- notifications_messages&#45;&gt;rasp_attacks -->
<g id="edge2" class="edge">
<title>notifications_messages:w&#45;&gt;rasp_attacks:e</title>
<path fill="none" stroke="#000000" d="M357.7223,-409.5159C329.9199,-391.7977 357.1486,-316.2 312.5,-316.2"/>
<polygon fill="#000000" stroke="#000000" points="364.2537,-411.2012 371.1005,-416.6858 368.1269,-412.2006 372,-413.2 372,-413.2 372,-413.2 368.1269,-412.2006 372.8995,-409.7142 364.2537,-411.2012 364.2537,-411.2012"/>
<ellipse fill="none" stroke="#000000" cx="361.1552" cy="-410.4017" rx="3.2" ry="3.2"/>
</g>
<!-- rasp_attacks&#45;&gt;organizations -->
<g id="edge5" class="edge">
<title>rasp_attacks:w&#45;&gt;organizations:e</title>
<path fill="none" stroke="#000000" d="M151.0243,-143.6772C116.861,-164.3508 171.787,-270.2 116,-270.2"/>
<polygon fill="#000000" stroke="#000000" points="157.7213,-142.0686 166.3409,-143.7004 161.6106,-141.1343 165.5,-140.2 165.5,-140.2 165.5,-140.2 161.6106,-141.1343 164.6591,-136.6996 157.7213,-142.0686 157.7213,-142.0686"/>
<ellipse fill="none" stroke="#000000" cx="154.6098" cy="-142.816" rx="3.2" ry="3.2"/>
</g>
<!-- rasp_attack_event -->
<g id="node4" class="node">
<title>rasp_attack_event</title>
<g id="a_node4"><a xlink:href="../../tables/rasp_attack_event.html" xlink:title="rasp_attack_event" target="_top">
<polygon fill="#ffffff" stroke="transparent" points="588,-304.7 588,-365.7 720,-365.7 720,-304.7 588,-304.7"/>
<polygon fill="#f5f5f5" stroke="transparent" points="588,-342.2 588,-365.2 720,-365.2 720,-342.2 588,-342.2"/>
<polygon fill="none" stroke="#000000" points="588,-342.2 588,-365.2 720,-365.2 720,-342.2 588,-342.2"/>
<text text-anchor="start" x="592.5667" y="-351.3" font-family="Helvetica,sans-Serif" font-weight="bold" font-size="11.00" fill="#000000">rasp_attack_event</text>
<text text-anchor="start" x="685.5219" y="-350.3" font-family="Helvetica,sans-Serif" font-size="11.00" fill="#000000">[table]</text>
<polygon fill="none" stroke="#000000" points="588,-323.2 588,-342.2 720,-342.2 720,-323.2 588,-323.2"/>
<text text-anchor="start" x="591" y="-329.3" font-family="Helvetica,sans-Serif" font-size="11.00" fill="#000000">...</text>
<polygon fill="#ffffff" stroke="transparent" points="588,-304.2 588,-323.2 635,-323.2 635,-304.2 588,-304.2"/>
<polygon fill="none" stroke="#000000" points="588,-304.2 588,-323.2 635,-323.2 635,-304.2 588,-304.2"/>
<text text-anchor="start" x="591" y="-310.3" font-family="Helvetica,sans-Serif" font-size="11.00" fill="#000000">&lt; 7</text>
<polygon fill="#ffffff" stroke="transparent" points="635,-304.2 635,-323.2 686,-323.2 686,-304.2 635,-304.2"/>
<polygon fill="none" stroke="#000000" points="635,-304.2 635,-323.2 686,-323.2 686,-304.2 635,-304.2"/>
<text text-anchor="start" x="650.6105" y="-310.3" font-family="Helvetica,sans-Serif" font-size="11.00" fill="#000000">0 rows</text>
<polygon fill="#ffffff" stroke="transparent" points="686,-304.2 686,-323.2 720,-323.2 720,-304.2 686,-304.2"/>
<polygon fill="none" stroke="#000000" points="686,-304.2 686,-323.2 720,-323.2 720,-304.2 686,-304.2"/>
<text text-anchor="start" x="701.4053" y="-310.3" font-family="Helvetica,sans-Serif" font-size="11.00" fill="#000000">5 &gt;</text>
</a>
</g>
</g>
<!-- rasp_attack_event&#45;&gt;rasp_attacks -->
<g id="edge4" class="edge">
<title>rasp_attack_event:w&#45;&gt;rasp_attacks:e</title>
<path fill="none" stroke="#000000" d="M573.741,-334.9972C565.4173,-338.6556 560.1353,-344.8726 547,-347.2 462.1002,-362.2429 434.6629,-374.8665 353,-347.2 331.5309,-339.9265 335.1678,-316.2 312.5,-316.2"/>
<polygon fill="#000000" stroke="#000000" points="580.1496,-333.74 588.693,-335.7327 584.0748,-332.97 588,-332.2 588,-332.2 588,-332.2 584.0748,-332.97 587.307,-328.6673 580.1496,-333.74 580.1496,-333.74"/>
<ellipse fill="none" stroke="#000000" cx="577.0095" cy="-334.3561" rx="3.2" ry="3.2"/>
</g>
<!-- rasp_attacks_applications -->
<g id="node5" class="node">
<title>rasp_attacks_applications</title>
<g id="a_node5"><a xlink:href="../../tables/rasp_attacks_applications.html" xlink:title="rasp_attacks_applications" target="_top">
<polygon fill="#ffffff" stroke="transparent" points="365.5,-275.7 365.5,-336.7 534.5,-336.7 534.5,-275.7 365.5,-275.7"/>
<polygon fill="#f5f5f5" stroke="transparent" points="366,-313.2 366,-336.2 535,-336.2 535,-313.2 366,-313.2"/>
<polygon fill="none" stroke="#000000" points="366,-313.2 366,-336.2 535,-336.2 535,-313.2 366,-313.2"/>
<text text-anchor="start" x="370.733" y="-322.3" font-family="Helvetica,sans-Serif" font-weight="bold" font-size="11.00" fill="#000000">rasp_attacks_applications</text>
<text text-anchor="start" x="500.5219" y="-321.3" font-family="Helvetica,sans-Serif" font-size="11.00" fill="#000000">[table]</text>
<polygon fill="none" stroke="#000000" points="366,-294.2 366,-313.2 535,-313.2 535,-294.2 366,-294.2"/>
<text text-anchor="start" x="369" y="-300.3" font-family="Helvetica,sans-Serif" font-size="11.00" fill="#000000">...</text>
<polygon fill="#ffffff" stroke="transparent" points="366,-275.2 366,-294.2 431,-294.2 431,-275.2 366,-275.2"/>
<polygon fill="none" stroke="#000000" points="366,-275.2 366,-294.2 431,-294.2 431,-275.2 366,-275.2"/>
<text text-anchor="start" x="369" y="-281.3" font-family="Helvetica,sans-Serif" font-size="11.00" fill="#000000">&lt; 2</text>
<polygon fill="#ffffff" stroke="transparent" points="431,-275.2 431,-294.2 491,-294.2 491,-275.2 431,-275.2"/>
<polygon fill="none" stroke="#000000" points="431,-275.2 431,-294.2 491,-294.2 491,-275.2 431,-275.2"/>
<text text-anchor="start" x="455.6105" y="-281.3" font-family="Helvetica,sans-Serif" font-size="11.00" fill="#000000">0 rows</text>
<polygon fill="#ffffff" stroke="transparent" points="491,-275.2 491,-294.2 535,-294.2 535,-275.2 491,-275.2"/>
<polygon fill="none" stroke="#000000" points="491,-275.2 491,-294.2 535,-294.2 535,-275.2 491,-275.2"/>
<text text-anchor="start" x="516.4053" y="-281.3" font-family="Helvetica,sans-Serif" font-size="11.00" fill="#000000">2 &gt;</text>
</a>
</g>
</g>
<!-- rasp_attack_event&#45;&gt;rasp_attacks_applications -->
<g id="edge3" class="edge">
<title>rasp_attack_event:w&#45;&gt;rasp_attacks_applications:e</title>
<path fill="none" stroke="#000000" d="M573.7575,-328.644C560.1376,-320.9002 555.9775,-303.2 535,-303.2"/>
<polygon fill="#000000" stroke="#000000" points="580.2383,-330.2621 587.1279,-335.6928 584.1191,-331.231 588,-332.2 588,-332.2 588,-332.2 584.1191,-331.231 588.8721,-328.7072 580.2383,-330.2621 580.2383,-330.2621"/>
<ellipse fill="none" stroke="#000000" cx="577.1336" cy="-329.4869" rx="3.2" ry="3.2"/>
</g>
<!-- rasp_attacks_applications&#45;&gt;rasp_attacks -->
<g id="edge6" class="edge">
<title>rasp_attacks_applications:w&#45;&gt;rasp_attacks:e</title>
<path fill="none" stroke="#000000" d="M351.563,-305.0076C338.2989,-308.5796 331.2346,-316.2 312.5,-316.2"/>
<polygon fill="#000000" stroke="#000000" points="358.062,-304.1939 366.4473,-306.7721 362.031,-303.697 366,-303.2 366,-303.2 366,-303.2 362.031,-303.697 365.5527,-299.6279 358.062,-304.1939 358.062,-304.1939"/>
<ellipse fill="none" stroke="#000000" cx="354.8868" cy="-304.5915" rx="3.2" ry="3.2"/>
</g>
<!-- rasp_attacks_notes_viewed -->
<g id="node6" class="node">
<title>rasp_attacks_notes_viewed</title>
<g id="a_node6"><a xlink:href="../../tables/rasp_attacks_notes_viewed.html" xlink:title="rasp_attacks_notes_viewed" target="_top">
<polygon fill="#ffffff" stroke="transparent" points="361,-193.7 361,-254.7 539,-254.7 539,-193.7 361,-193.7"/>
<polygon fill="#f5f5f5" stroke="transparent" points="361,-231.2 361,-254.2 539,-254.2 539,-231.2 361,-231.2"/>
<polygon fill="none" stroke="#000000" points="361,-231.2 361,-254.2 539,-254.2 539,-231.2 361,-231.2"/>
<text text-anchor="start" x="365.646" y="-240.3" font-family="Helvetica,sans-Serif" font-weight="bold" font-size="11.00" fill="#000000">rasp_attacks_notes_viewed</text>
<text text-anchor="start" x="504.5219" y="-239.3" font-family="Helvetica,sans-Serif" font-size="11.00" fill="#000000">[table]</text>
<polygon fill="none" stroke="#000000" points="361,-212.2 361,-231.2 539,-231.2 539,-212.2 361,-212.2"/>
<text text-anchor="start" x="364" y="-218.3" font-family="Helvetica,sans-Serif" font-size="11.00" fill="#000000">...</text>
<polygon fill="#ffffff" stroke="transparent" points="361,-193.2 361,-212.2 435,-212.2 435,-193.2 361,-193.2"/>
<polygon fill="none" stroke="#000000" points="361,-193.2 361,-212.2 435,-212.2 435,-193.2 361,-193.2"/>
<text text-anchor="start" x="364" y="-199.3" font-family="Helvetica,sans-Serif" font-size="11.00" fill="#000000">&lt; 2</text>
<polygon fill="#ffffff" stroke="transparent" points="435,-193.2 435,-212.2 500,-212.2 500,-193.2 435,-193.2"/>
<polygon fill="none" stroke="#000000" points="435,-193.2 435,-212.2 500,-212.2 500,-193.2 435,-193.2"/>
<text text-anchor="start" x="464.6105" y="-199.3" font-family="Helvetica,sans-Serif" font-size="11.00" fill="#000000">0 rows</text>
<polygon fill="#ffffff" stroke="transparent" points="500,-193.2 500,-212.2 539,-212.2 539,-193.2 500,-193.2"/>
<polygon fill="none" stroke="#000000" points="500,-193.2 500,-212.2 539,-212.2 539,-193.2 500,-193.2"/>
<text text-anchor="start" x="529.8862" y="-199.3" font-family="Helvetica,sans-Serif" font-size="11.00" fill="#000000"> &#160;</text>
</a>
</g>
</g>
<!-- rasp_attacks_notes_viewed&#45;&gt;rasp_attacks -->
<g id="edge7" class="edge">
<title>rasp_attacks_notes_viewed:w&#45;&gt;rasp_attacks:e</title>
<path fill="none" stroke="#000000" d="M346.9375,-225.5288C323.9764,-244.1136 353.7953,-316.2 312.5,-316.2"/>
<polygon fill="#000000" stroke="#000000" points="353.3541,-223.5537 362.0592,-224.6407 357.177,-222.3768 361,-221.2 361,-221.2 361,-221.2 357.177,-222.3768 359.9408,-217.7593 353.3541,-223.5537 353.3541,-223.5537"/>
<ellipse fill="none" stroke="#000000" cx="350.2957" cy="-224.4951" rx="3.2" ry="3.2"/>
</g>
<!-- tags_attacks -->
<g id="node7" class="node">
<title>tags_attacks</title>
<g id="a_node7"><a xlink:href="../../tables/tags_attacks.html" xlink:title="tags_attacks" target="_top">
<polygon fill="#ffffff" stroke="transparent" points="368,-38.2 368,-172.2 532,-172.2 532,-38.2 368,-38.2"/>
<polygon fill="#f5f5f5" stroke="transparent" points="370,-147.2 370,-170.2 530,-170.2 530,-147.2 370,-147.2"/>
<polygon fill="none" stroke="#000000" points="370,-147.2 370,-170.2 530,-170.2 530,-147.2 370,-147.2"/>
<text text-anchor="start" x="375" y="-156.3" font-family="Helvetica,sans-Serif" font-weight="bold" font-size="11.00" fill="#000000">tags_attacks</text>
<text text-anchor="start" x="495.0437" y="-155.3" font-family="Helvetica,sans-Serif" font-size="11.00" fill="#000000">[table]</text>
<polygon fill="none" stroke="#000000" points="370,-125.2 370,-147.2 463,-147.2 463,-125.2 370,-125.2"/>
<image xlink:href="../../images/primaryKeys.png" width="11px" height="12px" preserveAspectRatio="xMinYMin meet" x="375" y="-142.2"/>
<text text-anchor="start" x="390" y="-132.3" font-family="Helvetica,sans-Serif" font-size="11.00" fill="#000000">id</text>
<polygon fill="none" stroke="#000000" points="463,-125.2 463,-147.2 530,-147.2 530,-125.2 463,-125.2"/>
<text text-anchor="start" x="466" y="-132.9" font-family="Helvetica,sans-Serif" font-size="11.00" fill="#000000">bigint[19]</text>
<polygon fill="#ffffff" stroke="transparent" points="370,-103.2 370,-125.2 463,-125.2 463,-103.2 370,-103.2"/>
<polygon fill="none" stroke="#000000" points="370,-103.2 370,-125.2 463,-125.2 463,-103.2 370,-103.2"/>
<image xlink:href="../../images/foreignKeys.png" width="11px" height="12px" preserveAspectRatio="xMinYMin meet" x="375" y="-120.2"/>
<text text-anchor="start" x="390" y="-110.3" font-family="Helvetica,sans-Serif" font-size="11.00" fill="#000000">attack_id</text>
<polygon fill="none" stroke="#000000" points="463,-103.2 463,-125.2 530,-125.2 530,-103.2 463,-103.2"/>
<text text-anchor="start" x="466" y="-110.9" font-family="Helvetica,sans-Serif" font-size="11.00" fill="#000000">bigint[19]</text>
<polygon fill="#ffffff" stroke="transparent" points="370,-81.2 370,-103.2 463,-103.2 463,-81.2 370,-81.2"/>
<polygon fill="none" stroke="#000000" points="370,-81.2 370,-103.2 463,-103.2 463,-81.2 370,-81.2"/>
<text text-anchor="start" x="390" y="-88.3" font-family="Helvetica,sans-Serif" font-size="11.00" fill="#000000">value</text>
<polygon fill="none" stroke="#000000" points="463,-81.2 463,-103.2 530,-103.2 530,-81.2 463,-81.2"/>
<text text-anchor="start" x="465.9365" y="-88.9" font-family="Helvetica,sans-Serif" font-size="11.00" fill="#000000">varchar[255]</text>
<polygon fill="none" stroke="#000000" points="370,-59.2 370,-81.2 463,-81.2 463,-59.2 370,-59.2"/>
<text text-anchor="start" x="390" y="-66.3" font-family="Helvetica,sans-Serif" font-size="11.00" fill="#000000">type</text>
<polygon fill="none" stroke="#000000" points="463,-59.2 463,-81.2 530,-81.2 530,-59.2 463,-59.2"/>
<text text-anchor="start" x="466" y="-66.9" font-family="Helvetica,sans-Serif" font-size="11.00" fill="#000000">int[10]</text>
<polygon fill="#ffffff" stroke="transparent" points="370,-40.2 370,-59.2 408,-59.2 408,-40.2 370,-40.2"/>
<polygon fill="none" stroke="#000000" points="370,-40.2 370,-59.2 408,-59.2 408,-40.2 370,-40.2"/>
<text text-anchor="start" x="373" y="-46.3" font-family="Helvetica,sans-Serif" font-size="11.00" fill="#000000">&lt; 1</text>
<polygon fill="#ffffff" stroke="transparent" points="408,-40.2 408,-59.2 463,-59.2 463,-40.2 408,-40.2"/>
<polygon fill="none" stroke="#000000" points="408,-40.2 408,-59.2 463,-59.2 463,-40.2 408,-40.2"/>
<text text-anchor="start" x="427.6105" y="-46.3" font-family="Helvetica,sans-Serif" font-size="11.00" fill="#000000">0 rows</text>
<polygon fill="#ffffff" stroke="transparent" points="463,-40.2 463,-59.2 530,-59.2 530,-40.2 463,-40.2"/>
<polygon fill="none" stroke="#000000" points="463,-40.2 463,-59.2 530,-59.2 530,-40.2 463,-40.2"/>
<text text-anchor="start" x="511.4053" y="-46.3" font-family="Helvetica,sans-Serif" font-size="11.00" fill="#000000">0 &gt;</text>
<polygon fill="none" stroke="#000000" stroke-width="2" points="369,-39.2 369,-171.2 531,-171.2 531,-39.2 369,-39.2"/>
</a>
</g>
</g>
<!-- tags_attacks&#45;&gt;rasp_attacks -->
<g id="edge8" class="edge">
<title>tags_attacks:w&#45;&gt;rasp_attacks:e</title>
<path fill="none" stroke="#000000" d="M355.3935,-116.3319C291.4839,-137.9204 400.1925,-316.2 312.5,-316.2"/>
<polygon fill="#000000" stroke="#000000" points="362.0839,-115.3554 370.5199,-117.7623 366.0419,-114.7777 370,-114.2 370,-114.2 370,-114.2 366.0419,-114.7777 369.4801,-110.6377 362.0839,-115.3554 362.0839,-115.3554"/>
<ellipse fill="none" stroke="#000000" cx="358.9174" cy="-115.8176" rx="3.2" ry="3.2"/>
</g>
</g>
</svg>
