<?xml version="1.0" encoding="UTF-8" standalone="no"?>
<!DOCTYPE svg PUBLIC "-//W3C//DTD SVG 1.1//EN"
 "http://www.w3.org/Graphics/SVG/1.1/DTD/svg11.dtd">
<!-- Generated by graphviz version 2.40.1 (20161225.0304)
 -->
<!-- Title: twoDegreesRelationshipsDiagram Pages: 1 -->
<svg width="938pt" height="538pt"
 viewBox="0.00 0.00 938.00 538.20" xmlns="http://www.w3.org/2000/svg" xmlns:xlink="http://www.w3.org/1999/xlink">
<g id="graph0" class="graph" transform="scale(1 1) rotate(0) translate(4 534.2)">
<title>twoDegreesRelationshipsDiagram</title>
<polygon fill="#ffffff" stroke="transparent" points="-4,4 -4,-534.2 934,-534.2 934,4 -4,4"/>
<text text-anchor="middle" x="72.4936" y="-7.3" font-family="Helvetica,sans-Serif" font-size="11.00" fill="#000000">Generated by SchemaSpy</text>
<!-- rasp_attack_samples -->
<g id="node1" class="node">
<title>rasp_attack_samples</title>
<g id="a_node1"><a xlink:href="../../tables/rasp_attack_samples.html" xlink:title="rasp_attack_samples" target="_top">
<polygon fill="#ffffff" stroke="transparent" points="380,-142.2 380,-445.2 613,-445.2 613,-142.2 380,-142.2"/>
<polygon fill="#f5f5f5" stroke="transparent" points="380.5,-421.7 380.5,-444.7 613.5,-444.7 613.5,-421.7 380.5,-421.7"/>
<polygon fill="none" stroke="#000000" points="380.5,-421.7 380.5,-444.7 613.5,-444.7 613.5,-421.7 380.5,-421.7"/>
<text text-anchor="start" x="385.5" y="-430.8" font-family="Helvetica,sans-Serif" font-weight="bold" font-size="11.00" fill="#000000">rasp_attack_samples</text>
<text text-anchor="start" x="578.5437" y="-429.8" font-family="Helvetica,sans-Serif" font-size="11.00" fill="#000000">[table]</text>
<polygon fill="none" stroke="#000000" points="380.5,-399.7 380.5,-421.7 613.5,-421.7 613.5,-399.7 380.5,-399.7"/>
<image xlink:href="../../images/primaryKeys.png" width="11px" height="12px" preserveAspectRatio="xMinYMin meet" x="385.5" y="-416.7"/>
<text text-anchor="start" x="400.5" y="-406.8" font-family="Helvetica,sans-Serif" font-size="11.00" fill="#000000">id</text>
<polygon fill="#ffffff" stroke="transparent" points="380.5,-377.7 380.5,-399.7 613.5,-399.7 613.5,-377.7 380.5,-377.7"/>
<polygon fill="none" stroke="#000000" points="380.5,-377.7 380.5,-399.7 613.5,-399.7 613.5,-377.7 380.5,-377.7"/>
<image xlink:href="../../images/foreignKeys.png" width="11px" height="12px" preserveAspectRatio="xMinYMin meet" x="385.5" y="-394.7"/>
<text text-anchor="start" x="400.5" y="-384.8" font-family="Helvetica,sans-Serif" font-size="11.00" fill="#000000">rasp_attacks_id</text>
<polygon fill="#ffffff" stroke="transparent" points="380.5,-355.7 380.5,-377.7 613.5,-377.7 613.5,-355.7 380.5,-355.7"/>
<polygon fill="none" stroke="#000000" points="380.5,-355.7 380.5,-377.7 613.5,-377.7 613.5,-355.7 380.5,-355.7"/>
<image xlink:href="../../images/foreignKeys.png" width="11px" height="12px" preserveAspectRatio="xMinYMin meet" x="385.5" y="-372.7"/>
<text text-anchor="start" x="400.5" y="-362.8" font-family="Helvetica,sans-Serif" font-size="11.00" fill="#000000">rasp_attacks_applications_id</text>
<polygon fill="#ffffff" stroke="transparent" points="380.5,-333.7 380.5,-355.7 613.5,-355.7 613.5,-333.7 380.5,-333.7"/>
<polygon fill="none" stroke="#000000" points="380.5,-333.7 380.5,-355.7 613.5,-355.7 613.5,-333.7 380.5,-333.7"/>
<text text-anchor="start" x="400.5" y="-340.8" font-family="Helvetica,sans-Serif" font-size="11.00" fill="#000000">status</text>
<polygon fill="#ffffff" stroke="transparent" points="380.5,-311.7 380.5,-333.7 613.5,-333.7 613.5,-311.7 380.5,-311.7"/>
<polygon fill="none" stroke="#000000" points="380.5,-311.7 380.5,-333.7 613.5,-333.7 613.5,-311.7 380.5,-311.7"/>
<text text-anchor="start" x="400.5" y="-318.8" font-family="Helvetica,sans-Serif" font-size="11.00" fill="#000000">timestamp_server</text>
<polygon fill="#ffffff" stroke="transparent" points="380.5,-289.7 380.5,-311.7 613.5,-311.7 613.5,-289.7 380.5,-289.7"/>
<polygon fill="none" stroke="#000000" points="380.5,-289.7 380.5,-311.7 613.5,-311.7 613.5,-289.7 380.5,-289.7"/>
<image xlink:href="../../images/foreignKeys.png" width="11px" height="12px" preserveAspectRatio="xMinYMin meet" x="385.5" y="-306.7"/>
<text text-anchor="start" x="400.5" y="-296.8" font-family="Helvetica,sans-Serif" font-size="11.00" fill="#000000">applications_id</text>
<polygon fill="#ffffff" stroke="transparent" points="380.5,-267.7 380.5,-289.7 613.5,-289.7 613.5,-267.7 380.5,-267.7"/>
<polygon fill="none" stroke="#000000" points="380.5,-267.7 380.5,-289.7 613.5,-289.7 613.5,-267.7 380.5,-267.7"/>
<image xlink:href="../../images/foreignKeys.png" width="11px" height="12px" preserveAspectRatio="xMinYMin meet" x="385.5" y="-284.7"/>
<text text-anchor="start" x="400.5" y="-274.8" font-family="Helvetica,sans-Serif" font-size="11.00" fill="#000000">servers_id</text>
<polygon fill="#ffffff" stroke="transparent" points="380.5,-245.7 380.5,-267.7 613.5,-267.7 613.5,-245.7 380.5,-245.7"/>
<polygon fill="none" stroke="#000000" points="380.5,-245.7 380.5,-267.7 613.5,-267.7 613.5,-245.7 380.5,-245.7"/>
<text text-anchor="start" x="400.5" y="-252.8" font-family="Helvetica,sans-Serif" font-size="11.00" fill="#000000">uuid</text>
<polygon fill="#ffffff" stroke="transparent" points="380.5,-223.7 380.5,-245.7 613.5,-245.7 613.5,-223.7 380.5,-223.7"/>
<polygon fill="none" stroke="#000000" points="380.5,-223.7 380.5,-245.7 613.5,-245.7 613.5,-223.7 380.5,-223.7"/>
<image xlink:href="../../images/foreignKeys.png" width="11px" height="12px" preserveAspectRatio="xMinYMin meet" x="385.5" y="-240.7"/>
<text text-anchor="start" x="400.5" y="-230.8" font-family="Helvetica,sans-Serif" font-size="11.00" fill="#000000">rasp_protection_rules_exceptions_id</text>
<polygon fill="#ffffff" stroke="transparent" points="380.5,-201.7 380.5,-223.7 613.5,-223.7 613.5,-201.7 380.5,-201.7"/>
<polygon fill="none" stroke="#000000" points="380.5,-201.7 380.5,-223.7 613.5,-223.7 613.5,-201.7 380.5,-201.7"/>
<image xlink:href="../../images/foreignKeys.png" width="11px" height="12px" preserveAspectRatio="xMinYMin meet" x="385.5" y="-218.7"/>
<text text-anchor="start" x="400.5" y="-208.8" font-family="Helvetica,sans-Serif" font-size="11.00" fill="#000000">rasp_messages_id</text>
<polygon fill="#ffffff" stroke="transparent" points="380.5,-179.7 380.5,-201.7 613.5,-201.7 613.5,-179.7 380.5,-179.7"/>
<polygon fill="none" stroke="#000000" points="380.5,-179.7 380.5,-201.7 613.5,-201.7 613.5,-179.7 380.5,-179.7"/>
<image xlink:href="../../images/foreignKeys.png" width="11px" height="12px" preserveAspectRatio="xMinYMin meet" x="385.5" y="-196.7"/>
<text text-anchor="start" x="400.5" y="-186.8" font-family="Helvetica,sans-Serif" font-size="11.00" fill="#000000">rasp_protection_rules_id</text>
<polygon fill="none" stroke="#000000" points="380.5,-160.7 380.5,-179.7 613.5,-179.7 613.5,-160.7 380.5,-160.7"/>
<text text-anchor="start" x="383.5" y="-166.8" font-family="Helvetica,sans-Serif" font-size="11.00" fill="#000000">...</text>
<polygon fill="#ffffff" stroke="transparent" points="380.5,-141.7 380.5,-160.7 477.5,-160.7 477.5,-141.7 380.5,-141.7"/>
<polygon fill="none" stroke="#000000" points="380.5,-141.7 380.5,-160.7 477.5,-160.7 477.5,-141.7 380.5,-141.7"/>
<text text-anchor="start" x="383.5" y="-147.8" font-family="Helvetica,sans-Serif" font-size="11.00" fill="#000000">&lt; 7</text>
<polygon fill="#ffffff" stroke="transparent" points="477.5,-141.7 477.5,-160.7 553.5,-160.7 553.5,-141.7 477.5,-141.7"/>
<polygon fill="none" stroke="#000000" points="477.5,-141.7 477.5,-160.7 553.5,-160.7 553.5,-141.7 477.5,-141.7"/>
<text text-anchor="start" x="518.1105" y="-147.8" font-family="Helvetica,sans-Serif" font-size="11.00" fill="#000000">0 rows</text>
<polygon fill="#ffffff" stroke="transparent" points="553.5,-141.7 553.5,-160.7 613.5,-160.7 613.5,-141.7 553.5,-141.7"/>
<polygon fill="none" stroke="#000000" points="553.5,-141.7 553.5,-160.7 613.5,-160.7 613.5,-141.7 553.5,-141.7"/>
<text text-anchor="start" x="594.9053" y="-147.8" font-family="Helvetica,sans-Serif" font-size="11.00" fill="#000000">3 &gt;</text>
</a>
</g>
</g>
<!-- applications -->
<g id="node2" class="node">
<title>applications</title>
<g id="a_node2"><a xlink:href="../../tables/applications.html" xlink:title="applications" target="_top">
<polygon fill="#ffffff" stroke="transparent" points="10,-258.2 10,-319.2 111,-319.2 111,-258.2 10,-258.2"/>
<polygon fill="#f5f5f5" stroke="transparent" points="10.5,-295.7 10.5,-318.7 111.5,-318.7 111.5,-295.7 10.5,-295.7"/>
<polygon fill="none" stroke="#000000" points="10.5,-295.7 10.5,-318.7 111.5,-318.7 111.5,-295.7 10.5,-295.7"/>
<text text-anchor="start" x="15.4655" y="-304.8" font-family="Helvetica,sans-Serif" font-weight="bold" font-size="11.00" fill="#000000">applications</text>
<text text-anchor="start" x="77.0219" y="-303.8" font-family="Helvetica,sans-Serif" font-size="11.00" fill="#000000">[table]</text>
<polygon fill="none" stroke="#000000" points="10.5,-276.7 10.5,-295.7 111.5,-295.7 111.5,-276.7 10.5,-276.7"/>
<text text-anchor="start" x="13.5" y="-282.8" font-family="Helvetica,sans-Serif" font-size="11.00" fill="#000000">...</text>
<polygon fill="#ffffff" stroke="transparent" points="10.5,-257.7 10.5,-276.7 38.5,-276.7 38.5,-257.7 10.5,-257.7"/>
<polygon fill="none" stroke="#000000" points="10.5,-257.7 10.5,-276.7 38.5,-276.7 38.5,-257.7 10.5,-257.7"/>
<text text-anchor="start" x="13.5" y="-263.8" font-family="Helvetica,sans-Serif" font-size="11.00" fill="#000000">&lt; 3</text>
<polygon fill="#ffffff" stroke="transparent" points="38.5,-257.7 38.5,-276.7 80.5,-276.7 80.5,-257.7 38.5,-257.7"/>
<polygon fill="none" stroke="#000000" points="38.5,-257.7 38.5,-276.7 80.5,-276.7 80.5,-257.7 38.5,-257.7"/>
<text text-anchor="start" x="45.1105" y="-263.8" font-family="Helvetica,sans-Serif" font-size="11.00" fill="#000000">0 rows</text>
<polygon fill="#ffffff" stroke="transparent" points="80.5,-257.7 80.5,-276.7 111.5,-276.7 111.5,-257.7 80.5,-257.7"/>
<polygon fill="none" stroke="#000000" points="80.5,-257.7 80.5,-276.7 111.5,-276.7 111.5,-257.7 80.5,-257.7"/>
<text text-anchor="start" x="86.7904" y="-263.8" font-family="Helvetica,sans-Serif" font-size="11.00" fill="#000000">51 &gt;</text>
</a>
</g>
</g>
<!-- rasp_attack_samples&#45;&gt;applications -->
<g id="edge1" class="edge">
<title>rasp_attack_samples:w&#45;&gt;applications:e</title>
<path fill="none" stroke="#000000" d="M365.9936,-300.7807C277.0332,-301.7781 248.6683,-311.4482 154,-297.7 134.5764,-294.8792 131.1274,-285.7 111.5,-285.7"/>
<polygon fill="#000000" stroke="#000000" points="372.5001,-300.7446 380.5201,-304.2999 376.5001,-300.7223 380.5,-300.7 380.5,-300.7 380.5,-300.7 376.5001,-300.7223 380.4799,-297.1001 372.5001,-300.7446 372.5001,-300.7446"/>
<ellipse fill="none" stroke="#000000" cx="369.3002" cy="-300.7624" rx="3.2" ry="3.2"/>
</g>
<!-- rasp_attacks_applications -->
<g id="node3" class="node">
<title>rasp_attacks_applications</title>
<g id="a_node3"><a xlink:href="../../tables/rasp_attacks_applications.html" xlink:title="rasp_attacks_applications" target="_top">
<polygon fill="#ffffff" stroke="transparent" points="162,-339.2 162,-400.2 331,-400.2 331,-339.2 162,-339.2"/>
<polygon fill="#f5f5f5" stroke="transparent" points="162.5,-376.7 162.5,-399.7 331.5,-399.7 331.5,-376.7 162.5,-376.7"/>
<polygon fill="none" stroke="#000000" points="162.5,-376.7 162.5,-399.7 331.5,-399.7 331.5,-376.7 162.5,-376.7"/>
<text text-anchor="start" x="167.233" y="-385.8" font-family="Helvetica,sans-Serif" font-weight="bold" font-size="11.00" fill="#000000">rasp_attacks_applications</text>
<text text-anchor="start" x="297.0219" y="-384.8" font-family="Helvetica,sans-Serif" font-size="11.00" fill="#000000">[table]</text>
<polygon fill="none" stroke="#000000" points="162.5,-357.7 162.5,-376.7 331.5,-376.7 331.5,-357.7 162.5,-357.7"/>
<text text-anchor="start" x="165.5" y="-363.8" font-family="Helvetica,sans-Serif" font-size="11.00" fill="#000000">...</text>
<polygon fill="#ffffff" stroke="transparent" points="162.5,-338.7 162.5,-357.7 227.5,-357.7 227.5,-338.7 162.5,-338.7"/>
<polygon fill="none" stroke="#000000" points="162.5,-338.7 162.5,-357.7 227.5,-357.7 227.5,-338.7 162.5,-338.7"/>
<text text-anchor="start" x="165.5" y="-344.8" font-family="Helvetica,sans-Serif" font-size="11.00" fill="#000000">&lt; 2</text>
<polygon fill="#ffffff" stroke="transparent" points="227.5,-338.7 227.5,-357.7 287.5,-357.7 287.5,-338.7 227.5,-338.7"/>
<polygon fill="none" stroke="#000000" points="227.5,-338.7 227.5,-357.7 287.5,-357.7 287.5,-338.7 227.5,-338.7"/>
<text text-anchor="start" x="252.1105" y="-344.8" font-family="Helvetica,sans-Serif" font-size="11.00" fill="#000000">0 rows</text>
<polygon fill="#ffffff" stroke="transparent" points="287.5,-338.7 287.5,-357.7 331.5,-357.7 331.5,-338.7 287.5,-338.7"/>
<polygon fill="none" stroke="#000000" points="287.5,-338.7 287.5,-357.7 331.5,-357.7 331.5,-338.7 287.5,-338.7"/>
<text text-anchor="start" x="312.9053" y="-344.8" font-family="Helvetica,sans-Serif" font-size="11.00" fill="#000000">3 &gt;</text>
</a>
</g>
</g>
<!-- rasp_attack_samples&#45;&gt;rasp_attacks_applications -->
<g id="edge2" class="edge">
<title>rasp_attack_samples:w&#45;&gt;rasp_attacks_applications:e</title>
<path fill="none" stroke="#000000" d="M365.9909,-366.7C354.6774,-366.7 347.4931,-366.7 331.5,-366.7"/>
<polygon fill="#000000" stroke="#000000" points="372.5,-366.7001 380.5,-370.3 376.5,-366.7 380.5,-366.7 380.5,-366.7 380.5,-366.7 376.5,-366.7 380.5,-363.1 372.5,-366.7001 372.5,-366.7001"/>
<ellipse fill="none" stroke="#000000" cx="369.3" cy="-366.7001" rx="3.2" ry="3.2"/>
</g>
<!-- rasp_attacks -->
<g id="node4" class="node">
<title>rasp_attacks</title>
<g id="a_node4"><a xlink:href="../../tables/rasp_attacks.html" xlink:title="rasp_attacks" target="_top">
<polygon fill="#ffffff" stroke="transparent" points="8,-367.2 8,-428.2 113,-428.2 113,-367.2 8,-367.2"/>
<polygon fill="#f5f5f5" stroke="transparent" points="8.5,-404.7 8.5,-427.7 113.5,-427.7 113.5,-404.7 8.5,-404.7"/>
<polygon fill="none" stroke="#000000" points="8.5,-404.7 8.5,-427.7 113.5,-427.7 113.5,-404.7 8.5,-404.7"/>
<text text-anchor="start" x="13.3249" y="-413.8" font-family="Helvetica,sans-Serif" font-weight="bold" font-size="11.00" fill="#000000">rasp_attacks</text>
<text text-anchor="start" x="79.0219" y="-412.8" font-family="Helvetica,sans-Serif" font-size="11.00" fill="#000000">[table]</text>
<polygon fill="none" stroke="#000000" points="8.5,-385.7 8.5,-404.7 113.5,-404.7 113.5,-385.7 8.5,-385.7"/>
<text text-anchor="start" x="11.5" y="-391.8" font-family="Helvetica,sans-Serif" font-size="11.00" fill="#000000">...</text>
<polygon fill="#ffffff" stroke="transparent" points="8.5,-366.7 8.5,-385.7 41.5,-385.7 41.5,-366.7 8.5,-366.7"/>
<polygon fill="none" stroke="#000000" points="8.5,-366.7 8.5,-385.7 41.5,-385.7 41.5,-366.7 8.5,-366.7"/>
<text text-anchor="start" x="11.5" y="-372.8" font-family="Helvetica,sans-Serif" font-size="11.00" fill="#000000">&lt; 1</text>
<polygon fill="#ffffff" stroke="transparent" points="41.5,-366.7 41.5,-385.7 85.5,-385.7 85.5,-366.7 41.5,-366.7"/>
<polygon fill="none" stroke="#000000" points="41.5,-366.7 41.5,-385.7 85.5,-385.7 85.5,-366.7 41.5,-366.7"/>
<text text-anchor="start" x="50.1105" y="-372.8" font-family="Helvetica,sans-Serif" font-size="11.00" fill="#000000">0 rows</text>
<polygon fill="#ffffff" stroke="transparent" points="85.5,-366.7 85.5,-385.7 113.5,-385.7 113.5,-366.7 85.5,-366.7"/>
<polygon fill="none" stroke="#000000" points="85.5,-366.7 85.5,-385.7 113.5,-385.7 113.5,-366.7 85.5,-366.7"/>
<text text-anchor="start" x="94.9053" y="-372.8" font-family="Helvetica,sans-Serif" font-size="11.00" fill="#000000">6 &gt;</text>
</a>
</g>
</g>
<!-- rasp_attack_samples&#45;&gt;rasp_attacks -->
<g id="edge3" class="edge">
<title>rasp_attack_samples:w&#45;&gt;rasp_attacks:e</title>
<path fill="none" stroke="#000000" d="M366.2733,-392.4291C357.6539,-397.7204 353.2445,-407.1578 339,-410.7 259.2078,-430.5419 234.7716,-426.0767 154,-410.7 134.9877,-407.0806 132.8538,-394.7 113.5,-394.7"/>
<polygon fill="#000000" stroke="#000000" points="372.7614,-390.7285 381.4128,-392.1824 376.6307,-389.7142 380.5,-388.7 380.5,-388.7 380.5,-388.7 376.6307,-389.7142 379.5872,-385.2176 372.7614,-390.7285 372.7614,-390.7285"/>
<ellipse fill="none" stroke="#000000" cx="369.666" cy="-391.5398" rx="3.2" ry="3.2"/>
</g>
<!-- rasp_messages -->
<g id="node5" class="node">
<title>rasp_messages</title>
<g id="a_node5"><a xlink:href="../../tables/rasp_messages.html" xlink:title="rasp_messages" target="_top">
<polygon fill="#ffffff" stroke="transparent" points="186.5,-120.2 186.5,-181.2 306.5,-181.2 306.5,-120.2 186.5,-120.2"/>
<polygon fill="#f5f5f5" stroke="transparent" points="186.5,-157.7 186.5,-180.7 306.5,-180.7 306.5,-157.7 186.5,-157.7"/>
<polygon fill="none" stroke="#000000" points="186.5,-157.7 186.5,-180.7 306.5,-180.7 306.5,-157.7 186.5,-157.7"/>
<text text-anchor="start" x="191.186" y="-166.8" font-family="Helvetica,sans-Serif" font-weight="bold" font-size="11.00" fill="#000000">rasp_messages</text>
<text text-anchor="start" x="272.0219" y="-165.8" font-family="Helvetica,sans-Serif" font-size="11.00" fill="#000000">[table]</text>
<polygon fill="none" stroke="#000000" points="186.5,-138.7 186.5,-157.7 306.5,-157.7 306.5,-138.7 186.5,-138.7"/>
<text text-anchor="start" x="189.5" y="-144.8" font-family="Helvetica,sans-Serif" font-size="11.00" fill="#000000">...</text>
<polygon fill="#ffffff" stroke="transparent" points="186.5,-119.7 186.5,-138.7 227.5,-138.7 227.5,-119.7 186.5,-119.7"/>
<polygon fill="none" stroke="#000000" points="186.5,-119.7 186.5,-138.7 227.5,-138.7 227.5,-119.7 186.5,-119.7"/>
<text text-anchor="start" x="189.5" y="-125.8" font-family="Helvetica,sans-Serif" font-size="11.00" fill="#000000">&lt; 2</text>
<polygon fill="#ffffff" stroke="transparent" points="227.5,-119.7 227.5,-138.7 275.5,-138.7 275.5,-119.7 227.5,-119.7"/>
<polygon fill="none" stroke="#000000" points="227.5,-119.7 227.5,-138.7 275.5,-138.7 275.5,-119.7 227.5,-119.7"/>
<text text-anchor="start" x="240.1105" y="-125.8" font-family="Helvetica,sans-Serif" font-size="11.00" fill="#000000">0 rows</text>
<polygon fill="#ffffff" stroke="transparent" points="275.5,-119.7 275.5,-138.7 306.5,-138.7 306.5,-119.7 275.5,-119.7"/>
<polygon fill="none" stroke="#000000" points="275.5,-119.7 275.5,-138.7 306.5,-138.7 306.5,-119.7 275.5,-119.7"/>
<text text-anchor="start" x="287.9053" y="-125.8" font-family="Helvetica,sans-Serif" font-size="11.00" fill="#000000">4 &gt;</text>
</a>
</g>
</g>
<!-- rasp_attack_samples&#45;&gt;rasp_messages -->
<g id="edge4" class="edge">
<title>rasp_attack_samples:w&#45;&gt;rasp_messages:e</title>
<path fill="none" stroke="#000000" d="M366.1835,-209.7382C339.2658,-197.0223 344.6321,-147.7 306.5,-147.7"/>
<polygon fill="#000000" stroke="#000000" points="372.6659,-211.0792 379.7707,-216.2253 376.5829,-211.8896 380.5,-212.7 380.5,-212.7 380.5,-212.7 376.5829,-211.8896 381.2293,-209.1747 372.6659,-211.0792 372.6659,-211.0792"/>
<ellipse fill="none" stroke="#000000" cx="369.5322" cy="-210.4309" rx="3.2" ry="3.2"/>
</g>
<!-- rules_exclusions -->
<g id="node6" class="node">
<title>rules_exclusions</title>
<g id="a_node6"><a xlink:href="../../tables/rules_exclusions.html" xlink:title="rules_exclusions" target="_top">
<polygon fill="#ffffff" stroke="transparent" points="184.5,-202.2 184.5,-263.2 308.5,-263.2 308.5,-202.2 184.5,-202.2"/>
<polygon fill="#f5f5f5" stroke="transparent" points="184.5,-239.7 184.5,-262.7 308.5,-262.7 308.5,-239.7 184.5,-239.7"/>
<polygon fill="none" stroke="#000000" points="184.5,-239.7 184.5,-262.7 308.5,-262.7 308.5,-239.7 184.5,-239.7"/>
<text text-anchor="start" x="189.3556" y="-248.8" font-family="Helvetica,sans-Serif" font-weight="bold" font-size="11.00" fill="#000000">rules_exclusions</text>
<text text-anchor="start" x="274.0219" y="-247.8" font-family="Helvetica,sans-Serif" font-size="11.00" fill="#000000">[table]</text>
<polygon fill="none" stroke="#000000" points="184.5,-220.7 184.5,-239.7 308.5,-239.7 308.5,-220.7 184.5,-220.7"/>
<text text-anchor="start" x="187.5" y="-226.8" font-family="Helvetica,sans-Serif" font-size="11.00" fill="#000000">...</text>
<polygon fill="#ffffff" stroke="transparent" points="184.5,-201.7 184.5,-220.7 227.5,-220.7 227.5,-201.7 184.5,-201.7"/>
<polygon fill="none" stroke="#000000" points="184.5,-201.7 184.5,-220.7 227.5,-220.7 227.5,-201.7 184.5,-201.7"/>
<text text-anchor="start" x="187.5" y="-207.8" font-family="Helvetica,sans-Serif" font-size="11.00" fill="#000000">&lt; 1</text>
<polygon fill="#ffffff" stroke="transparent" points="227.5,-201.7 227.5,-220.7 276.5,-220.7 276.5,-201.7 227.5,-201.7"/>
<polygon fill="none" stroke="#000000" points="227.5,-201.7 227.5,-220.7 276.5,-220.7 276.5,-201.7 227.5,-201.7"/>
<text text-anchor="start" x="241.1105" y="-207.8" font-family="Helvetica,sans-Serif" font-size="11.00" fill="#000000">0 rows</text>
<polygon fill="#ffffff" stroke="transparent" points="276.5,-201.7 276.5,-220.7 308.5,-220.7 308.5,-201.7 276.5,-201.7"/>
<polygon fill="none" stroke="#000000" points="276.5,-201.7 276.5,-220.7 308.5,-220.7 308.5,-201.7 276.5,-201.7"/>
<text text-anchor="start" x="289.9053" y="-207.8" font-family="Helvetica,sans-Serif" font-size="11.00" fill="#000000">6 &gt;</text>
</a>
</g>
</g>
<!-- rasp_attack_samples&#45;&gt;rules_exclusions -->
<g id="edge5" class="edge">
<title>rasp_attack_samples:w&#45;&gt;rules_exclusions:e</title>
<path fill="none" stroke="#000000" d="M365.8616,-234.3077C345.0101,-233.129 335.0638,-229.7 308.5,-229.7"/>
<polygon fill="#000000" stroke="#000000" points="372.5029,-234.4856 380.4035,-238.2987 376.5014,-234.5928 380.5,-234.7 380.5,-234.7 380.5,-234.7 376.5014,-234.5928 380.5965,-231.1013 372.5029,-234.4856 372.5029,-234.4856"/>
<ellipse fill="none" stroke="#000000" cx="369.304" cy="-234.3998" rx="3.2" ry="3.2"/>
</g>
<!-- rasp_protection_rules -->
<g id="node7" class="node">
<title>rasp_protection_rules</title>
<g id="a_node7"><a xlink:href="../../tables/rasp_protection_rules.html" xlink:title="rasp_protection_rules" target="_top">
<polygon fill="#ffffff" stroke="transparent" points="172.5,-38.2 172.5,-99.2 320.5,-99.2 320.5,-38.2 172.5,-38.2"/>
<polygon fill="#f5f5f5" stroke="transparent" points="172.5,-75.7 172.5,-98.7 320.5,-98.7 320.5,-75.7 172.5,-75.7"/>
<polygon fill="none" stroke="#000000" points="172.5,-75.7 172.5,-98.7 320.5,-98.7 320.5,-75.7 172.5,-75.7"/>
<text text-anchor="start" x="177.1274" y="-84.8" font-family="Helvetica,sans-Serif" font-weight="bold" font-size="11.00" fill="#000000">rasp_protection_rules</text>
<text text-anchor="start" x="286.0219" y="-83.8" font-family="Helvetica,sans-Serif" font-size="11.00" fill="#000000">[table]</text>
<polygon fill="none" stroke="#000000" points="172.5,-56.7 172.5,-75.7 320.5,-75.7 320.5,-56.7 172.5,-56.7"/>
<text text-anchor="start" x="175.5" y="-62.8" font-family="Helvetica,sans-Serif" font-size="11.00" fill="#000000">...</text>
<polygon fill="#ffffff" stroke="transparent" points="172.5,-37.7 172.5,-56.7 219.5,-56.7 219.5,-37.7 172.5,-37.7"/>
<polygon fill="none" stroke="#000000" points="172.5,-37.7 172.5,-56.7 219.5,-56.7 219.5,-37.7 172.5,-37.7"/>
<text text-anchor="start" x="175.5" y="-43.8" font-family="Helvetica,sans-Serif" font-size="11.00" fill="#000000"> &#160;</text>
<polygon fill="#ffffff" stroke="transparent" points="219.5,-37.7 219.5,-56.7 281.5,-56.7 281.5,-37.7 219.5,-37.7"/>
<polygon fill="none" stroke="#000000" points="219.5,-37.7 219.5,-56.7 281.5,-56.7 281.5,-37.7 219.5,-37.7"/>
<text text-anchor="start" x="239.9956" y="-43.8" font-family="Helvetica,sans-Serif" font-size="11.00" fill="#000000">64 rows</text>
<polygon fill="#ffffff" stroke="transparent" points="281.5,-37.7 281.5,-56.7 320.5,-56.7 320.5,-37.7 281.5,-37.7"/>
<polygon fill="none" stroke="#000000" points="281.5,-37.7 281.5,-56.7 320.5,-56.7 320.5,-37.7 281.5,-37.7"/>
<text text-anchor="start" x="301.9053" y="-43.8" font-family="Helvetica,sans-Serif" font-size="11.00" fill="#000000">6 &gt;</text>
</a>
</g>
</g>
<!-- rasp_attack_samples&#45;&gt;rasp_protection_rules -->
<g id="edge6" class="edge">
<title>rasp_attack_samples:w&#45;&gt;rasp_protection_rules:e</title>
<path fill="none" stroke="#000000" d="M366.255,-187.6101C329.6374,-168.3611 376.3468,-65.7 320.5,-65.7"/>
<polygon fill="#000000" stroke="#000000" points="372.6818,-189.0041 379.7368,-194.2182 376.5909,-189.8521 380.5,-190.7 380.5,-190.7 380.5,-190.7 376.5909,-189.8521 381.2632,-187.1818 372.6818,-189.0041 372.6818,-189.0041"/>
<ellipse fill="none" stroke="#000000" cx="369.5545" cy="-188.3257" rx="3.2" ry="3.2"/>
</g>
<!-- servers -->
<g id="node8" class="node">
<title>servers</title>
<g id="a_node8"><a xlink:href="../../tables/servers.html" xlink:title="servers" target="_top">
<polygon fill="#ffffff" stroke="transparent" points="17.5,-148.2 17.5,-209.2 103.5,-209.2 103.5,-148.2 17.5,-148.2"/>
<polygon fill="#f5f5f5" stroke="transparent" points="17.5,-185.7 17.5,-208.7 103.5,-208.7 103.5,-185.7 17.5,-185.7"/>
<polygon fill="none" stroke="#000000" points="17.5,-185.7 17.5,-208.7 103.5,-208.7 103.5,-185.7 17.5,-185.7"/>
<text text-anchor="start" x="22.5" y="-194.8" font-family="Helvetica,sans-Serif" font-weight="bold" font-size="11.00" fill="#000000">servers</text>
<text text-anchor="start" x="68.5437" y="-193.8" font-family="Helvetica,sans-Serif" font-size="11.00" fill="#000000">[table]</text>
<polygon fill="none" stroke="#000000" points="17.5,-166.7 17.5,-185.7 103.5,-185.7 103.5,-166.7 17.5,-166.7"/>
<text text-anchor="start" x="20.5" y="-172.8" font-family="Helvetica,sans-Serif" font-size="11.00" fill="#000000">...</text>
<polygon fill="#ffffff" stroke="transparent" points="17.5,-147.7 17.5,-166.7 38.5,-166.7 38.5,-147.7 17.5,-147.7"/>
<polygon fill="none" stroke="#000000" points="17.5,-147.7 17.5,-166.7 38.5,-166.7 38.5,-147.7 17.5,-147.7"/>
<text text-anchor="start" x="20.2026" y="-153.8" font-family="Helvetica,sans-Serif" font-size="11.00" fill="#000000">&lt; 2</text>
<polygon fill="#ffffff" stroke="transparent" points="38.5,-147.7 38.5,-166.7 76.5,-166.7 76.5,-147.7 38.5,-147.7"/>
<polygon fill="none" stroke="#000000" points="38.5,-147.7 38.5,-166.7 76.5,-166.7 76.5,-147.7 38.5,-147.7"/>
<text text-anchor="start" x="41.3053" y="-153.8" font-family="Helvetica,sans-Serif" font-size="11.00" fill="#000000">0 rows</text>
<polygon fill="#ffffff" stroke="transparent" points="76.5,-147.7 76.5,-166.7 103.5,-166.7 103.5,-147.7 76.5,-147.7"/>
<polygon fill="none" stroke="#000000" points="76.5,-147.7 76.5,-166.7 103.5,-166.7 103.5,-147.7 76.5,-147.7"/>
<text text-anchor="start" x="79.1452" y="-153.8" font-family="Helvetica,sans-Serif" font-size="11.00" fill="#000000">21 &gt;</text>
</a>
</g>
</g>
<!-- rasp_attack_samples&#45;&gt;servers -->
<g id="edge7" class="edge">
<title>rasp_attack_samples:w&#45;&gt;servers:e</title>
<path fill="none" stroke="#000000" d="M365.7892,-279.1359C307.8864,-282.0691 193.0259,-298.0871 154,-273.7 112.4475,-247.734 152.4984,-175.7 103.5,-175.7"/>
<polygon fill="#000000" stroke="#000000" points="372.5035,-278.937 380.6066,-282.2984 376.5018,-278.8185 380.5,-278.7 380.5,-278.7 380.5,-278.7 376.5018,-278.8185 380.3934,-275.1016 372.5035,-278.937 372.5035,-278.937"/>
<ellipse fill="none" stroke="#000000" cx="369.3049" cy="-279.0318" rx="3.2" ry="3.2"/>
</g>
<!-- rasp_attacks_applications&#45;&gt;applications -->
<g id="edge9" class="edge">
<title>rasp_attacks_applications:w&#45;&gt;applications:e</title>
<path fill="none" stroke="#000000" d="M148.6725,-362.3451C128.0291,-345.5206 148.0591,-285.7 111.5,-285.7"/>
<polygon fill="#000000" stroke="#000000" points="154.8695,-364.2968 161.4185,-370.1337 158.6847,-365.4984 162.5,-366.7 162.5,-366.7 162.5,-366.7 158.6847,-365.4984 163.5815,-363.2663 154.8695,-364.2968 154.8695,-364.2968"/>
<ellipse fill="none" stroke="#000000" cx="151.8173" cy="-363.3355" rx="3.2" ry="3.2"/>
</g>
<!-- rasp_attacks_applications&#45;&gt;rasp_attacks -->
<g id="edge10" class="edge">
<title>rasp_attacks_applications:w&#45;&gt;rasp_attacks:e</title>
<path fill="none" stroke="#000000" d="M148.5134,-370.5933C136.5218,-378.2869 132.7039,-394.7 113.5,-394.7"/>
<polygon fill="#000000" stroke="#000000" points="154.793,-368.8453 163.4654,-370.1681 158.6465,-367.7727 162.5,-366.7 162.5,-366.7 162.5,-366.7 158.6465,-367.7727 161.5346,-363.2319 154.793,-368.8453 154.793,-368.8453"/>
<ellipse fill="none" stroke="#000000" cx="151.7102" cy="-369.7035" rx="3.2" ry="3.2"/>
</g>
<!-- rasp_messages&#45;&gt;applications -->
<g id="edge11" class="edge">
<title>rasp_messages:w&#45;&gt;applications:e</title>
<path fill="none" stroke="#000000" d="M172.178,-150.2131C126.18,-168.9166 175.7161,-285.7 111.5,-285.7"/>
<polygon fill="#000000" stroke="#000000" points="178.6204,-149.0827 187.1222,-151.2458 182.5602,-148.3913 186.5,-147.7 186.5,-147.7 186.5,-147.7 182.5602,-148.3913 185.8778,-144.1542 178.6204,-149.0827 178.6204,-149.0827"/>
<ellipse fill="none" stroke="#000000" cx="175.4685" cy="-149.6357" rx="3.2" ry="3.2"/>
</g>
<!-- rasp_messages&#45;&gt;servers -->
<g id="edge12" class="edge">
<title>rasp_messages:w&#45;&gt;servers:e</title>
<path fill="none" stroke="#000000" d="M171.8927,-149.2054C145.4555,-155.0213 136.9567,-175.7 103.5,-175.7"/>
<polygon fill="#000000" stroke="#000000" points="178.5421,-148.5202 186.8691,-151.281 182.5211,-148.1101 186.5,-147.7 186.5,-147.7 186.5,-147.7 182.5211,-148.1101 186.1309,-144.119 178.5421,-148.5202 178.5421,-148.5202"/>
<ellipse fill="none" stroke="#000000" cx="175.359" cy="-148.8482" rx="3.2" ry="3.2"/>
</g>
<!-- rules_exclusions&#45;&gt;applications -->
<g id="edge14" class="edge">
<title>rules_exclusions:w&#45;&gt;applications:e</title>
<path fill="none" stroke="#000000" d="M170.2598,-232.554C145.0817,-243.9657 146.8007,-285.7 111.5,-285.7"/>
<polygon fill="#000000" stroke="#000000" points="176.656,-231.2722 185.2075,-233.2298 180.578,-230.4861 184.5,-229.7 184.5,-229.7 184.5,-229.7 180.578,-230.4861 183.7925,-226.1702 176.656,-231.2722 176.656,-231.2722"/>
<ellipse fill="none" stroke="#000000" cx="173.5184" cy="-231.901" rx="3.2" ry="3.2"/>
</g>
<!-- rasp_attack_samples_notes -->
<g id="node9" class="node">
<title>rasp_attack_samples_notes</title>
<g id="a_node9"><a xlink:href="../../tables/rasp_attack_samples_notes.html" xlink:title="rasp_attack_samples_notes" target="_top">
<polygon fill="#ffffff" stroke="transparent" points="702.5,-465.2 702.5,-526.2 881.5,-526.2 881.5,-465.2 702.5,-465.2"/>
<polygon fill="#f5f5f5" stroke="transparent" points="703,-502.7 703,-525.7 882,-525.7 882,-502.7 703,-502.7"/>
<polygon fill="none" stroke="#000000" points="703,-502.7 703,-525.7 882,-525.7 882,-502.7 703,-502.7"/>
<text text-anchor="start" x="707.5355" y="-511.8" font-family="Helvetica,sans-Serif" font-weight="bold" font-size="11.00" fill="#000000">rasp_attack_samples_notes</text>
<text text-anchor="start" x="847.5219" y="-510.8" font-family="Helvetica,sans-Serif" font-size="11.00" fill="#000000">[table]</text>
<polygon fill="none" stroke="#000000" points="703,-483.7 703,-502.7 882,-502.7 882,-483.7 703,-483.7"/>
<text text-anchor="start" x="706" y="-489.8" font-family="Helvetica,sans-Serif" font-size="11.00" fill="#000000">...</text>
<polygon fill="#ffffff" stroke="transparent" points="703,-464.7 703,-483.7 773,-483.7 773,-464.7 703,-464.7"/>
<polygon fill="none" stroke="#000000" points="703,-464.7 703,-483.7 773,-483.7 773,-464.7 703,-464.7"/>
<text text-anchor="start" x="706" y="-470.8" font-family="Helvetica,sans-Serif" font-size="11.00" fill="#000000">&lt; 3</text>
<polygon fill="#ffffff" stroke="transparent" points="773,-464.7 773,-483.7 836,-483.7 836,-464.7 773,-464.7"/>
<polygon fill="none" stroke="#000000" points="773,-464.7 773,-483.7 836,-483.7 836,-464.7 773,-464.7"/>
<text text-anchor="start" x="800.6105" y="-470.8" font-family="Helvetica,sans-Serif" font-size="11.00" fill="#000000">0 rows</text>
<polygon fill="#ffffff" stroke="transparent" points="836,-464.7 836,-483.7 882,-483.7 882,-464.7 836,-464.7"/>
<polygon fill="none" stroke="#000000" points="836,-464.7 836,-483.7 882,-483.7 882,-464.7 836,-464.7"/>
<text text-anchor="start" x="863.4053" y="-470.8" font-family="Helvetica,sans-Serif" font-size="11.00" fill="#000000">1 &gt;</text>
</a>
</g>
</g>
<!-- rasp_attack_samples_notes&#45;&gt;rasp_attack_samples -->
<g id="edge8" class="edge">
<title>rasp_attack_samples_notes:w&#45;&gt;rasp_attack_samples:e</title>
<path fill="none" stroke="#000000" d="M688.658,-490.3051C674.1043,-484.5672 670.0115,-469.4145 654,-454.7 634.4302,-436.7155 640.0786,-410.7 613.5,-410.7"/>
<polygon fill="#000000" stroke="#000000" points="695.1093,-491.3823 702.407,-496.2508 699.0546,-492.0411 703,-492.7 703,-492.7 703,-492.7 699.0546,-492.0411 703.593,-489.1492 695.1093,-491.3823 695.1093,-491.3823"/>
<ellipse fill="none" stroke="#000000" cx="691.953" cy="-490.8552" rx="3.2" ry="3.2"/>
</g>
<!-- rasp_user_messages_events_notes_viewed -->
<g id="node10" class="node">
<title>rasp_user_messages_events_notes_viewed</title>
<g id="a_node10"><a xlink:href="../../tables/rasp_user_messages_events_notes_viewed.html" xlink:title="rasp_user_messages_events_notes_viewed" target="_top">
<polygon fill="#ffffff" stroke="transparent" points="662,-383.2 662,-444.2 922,-444.2 922,-383.2 662,-383.2"/>
<polygon fill="#f5f5f5" stroke="transparent" points="662,-420.7 662,-443.7 922,-443.7 922,-420.7 662,-420.7"/>
<polygon fill="none" stroke="#000000" points="662,-420.7 662,-443.7 922,-443.7 922,-420.7 662,-420.7"/>
<text text-anchor="start" x="666.9955" y="-429.8" font-family="Helvetica,sans-Serif" font-weight="bold" font-size="11.00" fill="#000000">rasp_user_messages_events_notes_viewed</text>
<text text-anchor="start" x="887.5219" y="-428.8" font-family="Helvetica,sans-Serif" font-size="11.00" fill="#000000">[table]</text>
<polygon fill="none" stroke="#000000" points="662,-401.7 662,-420.7 922,-420.7 922,-401.7 662,-401.7"/>
<text text-anchor="start" x="665" y="-407.8" font-family="Helvetica,sans-Serif" font-size="11.00" fill="#000000">...</text>
<polygon fill="#ffffff" stroke="transparent" points="662,-382.7 662,-401.7 777,-401.7 777,-382.7 662,-382.7"/>
<polygon fill="none" stroke="#000000" points="662,-382.7 662,-401.7 777,-401.7 777,-382.7 662,-382.7"/>
<text text-anchor="start" x="665" y="-388.8" font-family="Helvetica,sans-Serif" font-size="11.00" fill="#000000">&lt; 2</text>
<polygon fill="#ffffff" stroke="transparent" points="777,-382.7 777,-401.7 862,-401.7 862,-382.7 777,-382.7"/>
<polygon fill="none" stroke="#000000" points="777,-382.7 777,-401.7 862,-401.7 862,-382.7 777,-382.7"/>
<text text-anchor="start" x="826.6105" y="-388.8" font-family="Helvetica,sans-Serif" font-size="11.00" fill="#000000">0 rows</text>
<polygon fill="#ffffff" stroke="transparent" points="862,-382.7 862,-401.7 922,-401.7 922,-382.7 862,-382.7"/>
<polygon fill="none" stroke="#000000" points="862,-382.7 862,-401.7 922,-401.7 922,-382.7 862,-382.7"/>
<text text-anchor="start" x="912.8862" y="-388.8" font-family="Helvetica,sans-Serif" font-size="11.00" fill="#000000"> &#160;</text>
</a>
</g>
</g>
<!-- rasp_user_messages_events_notes_viewed&#45;&gt;rasp_attack_samples -->
<g id="edge13" class="edge">
<title>rasp_user_messages_events_notes_viewed:w&#45;&gt;rasp_attack_samples:e</title>
<path fill="none" stroke="#000000" d="M647.2829,-410.7C636.2886,-410.7 629.1615,-410.7 613.5,-410.7"/>
<polygon fill="#000000" stroke="#000000" points="654,-410.7001 662,-414.3 658,-410.7 662,-410.7 662,-410.7 662,-410.7 658,-410.7 662,-407.1 654,-410.7001 654,-410.7001"/>
<ellipse fill="none" stroke="#000000" cx="650.8" cy="-410.7001" rx="3.2" ry="3.2"/>
</g>
<!-- tags_attack_events -->
<g id="node11" class="node">
<title>tags_attack_events</title>
<g id="a_node11"><a xlink:href="../../tables/tags_attack_events.html" xlink:title="tags_attack_events" target="_top">
<polygon fill="#ffffff" stroke="transparent" points="691,-227.7 691,-361.7 893,-361.7 893,-227.7 691,-227.7"/>
<polygon fill="#f5f5f5" stroke="transparent" points="693,-336.7 693,-359.7 891,-359.7 891,-336.7 693,-336.7"/>
<polygon fill="none" stroke="#000000" points="693,-336.7 693,-359.7 891,-359.7 891,-336.7 693,-336.7"/>
<text text-anchor="start" x="698" y="-345.8" font-family="Helvetica,sans-Serif" font-weight="bold" font-size="11.00" fill="#000000">tags_attack_events</text>
<text text-anchor="start" x="856.0437" y="-344.8" font-family="Helvetica,sans-Serif" font-size="11.00" fill="#000000">[table]</text>
<polygon fill="none" stroke="#000000" points="693,-314.7 693,-336.7 824,-336.7 824,-314.7 693,-314.7"/>
<image xlink:href="../../images/primaryKeys.png" width="11px" height="12px" preserveAspectRatio="xMinYMin meet" x="698" y="-331.7"/>
<text text-anchor="start" x="713" y="-321.8" font-family="Helvetica,sans-Serif" font-size="11.00" fill="#000000">id</text>
<polygon fill="none" stroke="#000000" points="824,-314.7 824,-336.7 891,-336.7 891,-314.7 824,-314.7"/>
<text text-anchor="start" x="827" y="-322.4" font-family="Helvetica,sans-Serif" font-size="11.00" fill="#000000">bigint[19]</text>
<polygon fill="#ffffff" stroke="transparent" points="693,-292.7 693,-314.7 824,-314.7 824,-292.7 693,-292.7"/>
<polygon fill="none" stroke="#000000" points="693,-292.7 693,-314.7 824,-314.7 824,-292.7 693,-292.7"/>
<image xlink:href="../../images/foreignKeys.png" width="11px" height="12px" preserveAspectRatio="xMinYMin meet" x="698" y="-309.7"/>
<text text-anchor="start" x="713" y="-299.8" font-family="Helvetica,sans-Serif" font-size="11.00" fill="#000000">attack_event_id</text>
<polygon fill="none" stroke="#000000" points="824,-292.7 824,-314.7 891,-314.7 891,-292.7 824,-292.7"/>
<text text-anchor="start" x="827" y="-300.4" font-family="Helvetica,sans-Serif" font-size="11.00" fill="#000000">bigint[19]</text>
<polygon fill="#ffffff" stroke="transparent" points="693,-270.7 693,-292.7 824,-292.7 824,-270.7 693,-270.7"/>
<polygon fill="none" stroke="#000000" points="693,-270.7 693,-292.7 824,-292.7 824,-270.7 693,-270.7"/>
<text text-anchor="start" x="713" y="-277.8" font-family="Helvetica,sans-Serif" font-size="11.00" fill="#000000">value</text>
<polygon fill="none" stroke="#000000" points="824,-270.7 824,-292.7 891,-292.7 891,-270.7 824,-270.7"/>
<text text-anchor="start" x="826.9365" y="-278.4" font-family="Helvetica,sans-Serif" font-size="11.00" fill="#000000">varchar[255]</text>
<polygon fill="none" stroke="#000000" points="693,-248.7 693,-270.7 824,-270.7 824,-248.7 693,-248.7"/>
<text text-anchor="start" x="713" y="-255.8" font-family="Helvetica,sans-Serif" font-size="11.00" fill="#000000">type</text>
<polygon fill="none" stroke="#000000" points="824,-248.7 824,-270.7 891,-270.7 891,-248.7 824,-248.7"/>
<text text-anchor="start" x="827" y="-256.4" font-family="Helvetica,sans-Serif" font-size="11.00" fill="#000000">int[10]</text>
<polygon fill="#ffffff" stroke="transparent" points="693,-229.7 693,-248.7 750,-248.7 750,-229.7 693,-229.7"/>
<polygon fill="none" stroke="#000000" points="693,-229.7 693,-248.7 750,-248.7 750,-229.7 693,-229.7"/>
<text text-anchor="start" x="696" y="-235.8" font-family="Helvetica,sans-Serif" font-size="11.00" fill="#000000">&lt; 1</text>
<polygon fill="#ffffff" stroke="transparent" points="750,-229.7 750,-248.7 824,-248.7 824,-229.7 750,-229.7"/>
<polygon fill="none" stroke="#000000" points="750,-229.7 750,-248.7 824,-248.7 824,-229.7 750,-229.7"/>
<text text-anchor="start" x="788.6105" y="-235.8" font-family="Helvetica,sans-Serif" font-size="11.00" fill="#000000">0 rows</text>
<polygon fill="#ffffff" stroke="transparent" points="824,-229.7 824,-248.7 891,-248.7 891,-229.7 824,-229.7"/>
<polygon fill="none" stroke="#000000" points="824,-229.7 824,-248.7 891,-248.7 891,-229.7 824,-229.7"/>
<text text-anchor="start" x="872.4053" y="-235.8" font-family="Helvetica,sans-Serif" font-size="11.00" fill="#000000">0 &gt;</text>
<polygon fill="none" stroke="#000000" stroke-width="2" points="692,-228.7 692,-360.7 892,-360.7 892,-228.7 692,-228.7"/>
</a>
</g>
</g>
<!-- tags_attack_events&#45;&gt;rasp_attack_samples -->
<g id="edge15" class="edge">
<title>tags_attack_events:w&#45;&gt;rasp_attack_samples:e</title>
<path fill="none" stroke="#000000" d="M678.7656,-306.345C640.2022,-322.8221 667.1908,-410.7 613.5,-410.7"/>
<polygon fill="#000000" stroke="#000000" points="685.1346,-305.1615 693.6577,-307.2394 689.0673,-304.4308 693,-303.7 693,-303.7 693,-303.7 689.0673,-304.4308 692.3423,-300.1606 685.1346,-305.1615 685.1346,-305.1615"/>
<ellipse fill="none" stroke="#000000" cx="681.9885" cy="-305.7462" rx="3.2" ry="3.2"/>
</g>
</g>
</svg>
