<?xml version="1.0" encoding="UTF-8" standalone="no"?>
<!DOCTYPE svg PUBLIC "-//W3C//DTD SVG 1.1//EN"
 "http://www.w3.org/Graphics/SVG/1.1/DTD/svg11.dtd">
<!-- Generated by graphviz version 2.40.1 (20161225.0304)
 -->
<!-- Title: oneDegreeRelationshipsDiagram Pages: 1 -->
<svg width="539pt" height="355pt"
 viewBox="0.00 0.00 539.00 354.70" xmlns="http://www.w3.org/2000/svg" xmlns:xlink="http://www.w3.org/1999/xlink">
<g id="graph0" class="graph" transform="scale(1 1) rotate(0) translate(4 350.7)">
<title>oneDegreeRelationshipsDiagram</title>
<polygon fill="#ffffff" stroke="transparent" points="-4,4 -4,-350.7 535,-350.7 535,4 -4,4"/>
<text text-anchor="middle" x="72.4936" y="-7.3" font-family="Helvetica,sans-Serif" font-size="11.00" fill="#000000">Generated by SchemaSpy</text>
<!-- tags_vulnerabilities -->
<g id="node1" class="node">
<title>tags_vulnerabilities</title>
<g id="a_node1"><a xlink:href="../../tables/tags_vulnerabilities.html" xlink:title="tags_vulnerabilities" target="_top">
<polygon fill="#ffffff" stroke="transparent" points="281,-208.7 281,-342.7 523,-342.7 523,-208.7 281,-208.7"/>
<polygon fill="#f5f5f5" stroke="transparent" points="283,-317.7 283,-340.7 521,-340.7 521,-317.7 283,-317.7"/>
<polygon fill="none" stroke="#000000" points="283,-317.7 283,-340.7 521,-340.7 521,-317.7 283,-317.7"/>
<text text-anchor="start" x="288" y="-326.8" font-family="Helvetica,sans-Serif" font-weight="bold" font-size="11.00" fill="#000000">tags_vulnerabilities</text>
<text text-anchor="start" x="486.0437" y="-325.8" font-family="Helvetica,sans-Serif" font-size="11.00" fill="#000000">[table]</text>
<polygon fill="none" stroke="#000000" points="283,-295.7 283,-317.7 423,-317.7 423,-295.7 283,-295.7"/>
<image xlink:href="../../images/primaryKeys.png" width="11px" height="12px" preserveAspectRatio="xMinYMin meet" x="288" y="-312.7"/>
<text text-anchor="start" x="303" y="-302.8" font-family="Helvetica,sans-Serif" font-size="11.00" fill="#000000">id</text>
<polygon fill="none" stroke="#000000" points="423,-295.7 423,-317.7 521,-317.7 521,-295.7 423,-295.7"/>
<text text-anchor="start" x="426" y="-303.4" font-family="Helvetica,sans-Serif" font-size="11.00" fill="#000000">bigint[19]</text>
<polygon fill="#ffffff" stroke="transparent" points="283,-273.7 283,-295.7 423,-295.7 423,-273.7 283,-273.7"/>
<polygon fill="none" stroke="#000000" points="283,-273.7 283,-295.7 423,-295.7 423,-273.7 283,-273.7"/>
<text text-anchor="start" x="303" y="-280.8" font-family="Helvetica,sans-Serif" font-size="11.00" fill="#000000">value</text>
<polygon fill="none" stroke="#000000" points="423,-273.7 423,-295.7 521,-295.7 521,-273.7 423,-273.7"/>
<text text-anchor="start" x="426" y="-281.4" font-family="Helvetica,sans-Serif" font-size="11.00" fill="#000000">varchar[255]</text>
<polygon fill="#ffffff" stroke="transparent" points="283,-251.7 283,-273.7 423,-273.7 423,-251.7 283,-251.7"/>
<polygon fill="none" stroke="#000000" points="283,-251.7 283,-273.7 423,-273.7 423,-251.7 283,-251.7"/>
<text text-anchor="start" x="303" y="-258.8" font-family="Helvetica,sans-Serif" font-size="11.00" fill="#000000">type</text>
<polygon fill="none" stroke="#000000" points="423,-251.7 423,-273.7 521,-273.7 521,-251.7 423,-251.7"/>
<text text-anchor="start" x="426" y="-259.4" font-family="Helvetica,sans-Serif" font-size="11.00" fill="#000000">int[10]</text>
<polygon fill="#ffffff" stroke="transparent" points="283,-229.7 283,-251.7 423,-251.7 423,-229.7 283,-229.7"/>
<polygon fill="none" stroke="#000000" points="283,-229.7 283,-251.7 423,-251.7 423,-229.7 283,-229.7"/>
<image xlink:href="../../images/foreignKeys.png" width="11px" height="12px" preserveAspectRatio="xMinYMin meet" x="288" y="-246.7"/>
<text text-anchor="start" x="303" y="-236.8" font-family="Helvetica,sans-Serif" font-size="11.00" fill="#000000">vulnerability_data_id</text>
<polygon fill="none" stroke="#000000" points="423,-229.7 423,-251.7 521,-251.7 521,-229.7 423,-229.7"/>
<text text-anchor="start" x="425.8429" y="-237.4" font-family="Helvetica,sans-Serif" font-size="11.00" fill="#000000">bigint unsigned[20]</text>
<polygon fill="#ffffff" stroke="transparent" points="283,-210.7 283,-229.7 344,-229.7 344,-210.7 283,-210.7"/>
<polygon fill="none" stroke="#000000" points="283,-210.7 283,-229.7 344,-229.7 344,-210.7 283,-210.7"/>
<text text-anchor="start" x="286" y="-216.8" font-family="Helvetica,sans-Serif" font-size="11.00" fill="#000000">&lt; 1</text>
<polygon fill="#ffffff" stroke="transparent" points="344,-210.7 344,-229.7 423,-229.7 423,-210.7 344,-210.7"/>
<polygon fill="none" stroke="#000000" points="344,-210.7 344,-229.7 423,-229.7 423,-210.7 344,-210.7"/>
<text text-anchor="start" x="387.6105" y="-216.8" font-family="Helvetica,sans-Serif" font-size="11.00" fill="#000000">0 rows</text>
<polygon fill="#ffffff" stroke="transparent" points="423,-210.7 423,-229.7 521,-229.7 521,-210.7 423,-210.7"/>
<polygon fill="none" stroke="#000000" points="423,-210.7 423,-229.7 521,-229.7 521,-210.7 423,-210.7"/>
<text text-anchor="start" x="502.4053" y="-216.8" font-family="Helvetica,sans-Serif" font-size="11.00" fill="#000000">0 &gt;</text>
<polygon fill="none" stroke="#000000" stroke-width="2" points="282,-209.7 282,-341.7 522,-341.7 522,-209.7 282,-209.7"/>
</a>
</g>
</g>
<!-- vulnerability_data -->
<g id="node2" class="node">
<title>vulnerability_data</title>
<g id="a_node2"><a xlink:href="../../tables/vulnerability_data.html" xlink:title="vulnerability_data" target="_top">
<polygon fill="#ffffff" stroke="transparent" points="8,-38.2 8,-275.2 232,-275.2 232,-38.2 8,-38.2"/>
<polygon fill="#f5f5f5" stroke="transparent" points="8,-251.7 8,-274.7 232,-274.7 232,-251.7 8,-251.7"/>
<polygon fill="none" stroke="#000000" points="8,-251.7 8,-274.7 232,-274.7 232,-251.7 8,-251.7"/>
<text text-anchor="start" x="13" y="-260.8" font-family="Helvetica,sans-Serif" font-weight="bold" font-size="11.00" fill="#000000">vulnerability_data</text>
<text text-anchor="start" x="197.0437" y="-259.8" font-family="Helvetica,sans-Serif" font-size="11.00" fill="#000000">[table]</text>
<polygon fill="none" stroke="#000000" points="8,-229.7 8,-251.7 232,-251.7 232,-229.7 8,-229.7"/>
<image xlink:href="../../images/primaryKeys.png" width="11px" height="12px" preserveAspectRatio="xMinYMin meet" x="13" y="-246.7"/>
<text text-anchor="start" x="28" y="-236.8" font-family="Helvetica,sans-Serif" font-size="11.00" fill="#000000">id</text>
<polygon fill="#ffffff" stroke="transparent" points="8,-207.7 8,-229.7 232,-229.7 232,-207.7 8,-207.7"/>
<polygon fill="none" stroke="#000000" points="8,-207.7 8,-229.7 232,-229.7 232,-207.7 8,-207.7"/>
<image xlink:href="../../images/foreignKeys.png" width="11px" height="12px" preserveAspectRatio="xMinYMin meet" x="13" y="-224.7"/>
<text text-anchor="start" x="28" y="-214.8" font-family="Helvetica,sans-Serif" font-size="11.00" fill="#000000">applications_id</text>
<polygon fill="#ffffff" stroke="transparent" points="8,-185.7 8,-207.7 232,-207.7 232,-185.7 8,-185.7"/>
<polygon fill="none" stroke="#000000" points="8,-185.7 8,-207.7 232,-207.7 232,-185.7 8,-185.7"/>
<image xlink:href="../../images/foreignKeys.png" width="11px" height="12px" preserveAspectRatio="xMinYMin meet" x="13" y="-202.7"/>
<text text-anchor="start" x="28" y="-192.8" font-family="Helvetica,sans-Serif" font-size="11.00" fill="#000000">rules_name</text>
<polygon fill="#ffffff" stroke="transparent" points="8,-163.7 8,-185.7 232,-185.7 232,-163.7 8,-163.7"/>
<polygon fill="none" stroke="#000000" points="8,-163.7 8,-185.7 232,-185.7 232,-163.7 8,-163.7"/>
<text text-anchor="start" x="28" y="-170.8" font-family="Helvetica,sans-Serif" font-size="11.00" fill="#000000">status</text>
<polygon fill="#ffffff" stroke="transparent" points="8,-141.7 8,-163.7 232,-163.7 232,-141.7 8,-141.7"/>
<polygon fill="none" stroke="#000000" points="8,-141.7 8,-163.7 232,-163.7 232,-141.7 8,-141.7"/>
<text text-anchor="start" x="28" y="-148.8" font-family="Helvetica,sans-Serif" font-size="11.00" fill="#000000">substatus</text>
<polygon fill="#ffffff" stroke="transparent" points="8,-119.7 8,-141.7 232,-141.7 232,-119.7 8,-119.7"/>
<polygon fill="none" stroke="#000000" points="8,-119.7 8,-141.7 232,-141.7 232,-119.7 8,-119.7"/>
<text text-anchor="start" x="28" y="-126.8" font-family="Helvetica,sans-Serif" font-size="11.00" fill="#000000">title_hash</text>
<polygon fill="#ffffff" stroke="transparent" points="8,-97.7 8,-119.7 232,-119.7 232,-97.7 8,-97.7"/>
<polygon fill="none" stroke="#000000" points="8,-97.7 8,-119.7 232,-119.7 232,-97.7 8,-97.7"/>
<text text-anchor="start" x="28" y="-104.8" font-family="Helvetica,sans-Serif" font-size="11.00" fill="#000000">unique_helper</text>
<polygon fill="#ffffff" stroke="transparent" points="8,-75.7 8,-97.7 232,-97.7 232,-75.7 8,-75.7"/>
<polygon fill="none" stroke="#000000" points="8,-75.7 8,-97.7 232,-97.7 232,-75.7 8,-75.7"/>
<text text-anchor="start" x="28" y="-82.8" font-family="Helvetica,sans-Serif" font-size="11.00" fill="#000000">uuid</text>
<polygon fill="none" stroke="#000000" points="8,-56.7 8,-75.7 232,-75.7 232,-56.7 8,-56.7"/>
<text text-anchor="start" x="11" y="-62.8" font-family="Helvetica,sans-Serif" font-size="11.00" fill="#000000">...</text>
<polygon fill="#ffffff" stroke="transparent" points="8,-37.7 8,-56.7 98,-56.7 98,-37.7 8,-37.7"/>
<polygon fill="none" stroke="#000000" points="8,-37.7 8,-56.7 98,-56.7 98,-37.7 8,-37.7"/>
<text text-anchor="start" x="11" y="-43.8" font-family="Helvetica,sans-Serif" font-size="11.00" fill="#000000">&lt; 2</text>
<polygon fill="#ffffff" stroke="transparent" points="98,-37.7 98,-56.7 170,-56.7 170,-37.7 98,-37.7"/>
<polygon fill="none" stroke="#000000" points="98,-37.7 98,-56.7 170,-56.7 170,-37.7 98,-37.7"/>
<text text-anchor="start" x="134.6105" y="-43.8" font-family="Helvetica,sans-Serif" font-size="11.00" fill="#000000">0 rows</text>
<polygon fill="#ffffff" stroke="transparent" points="170,-37.7 170,-56.7 232,-56.7 232,-37.7 170,-37.7"/>
<polygon fill="none" stroke="#000000" points="170,-37.7 170,-56.7 232,-56.7 232,-37.7 170,-37.7"/>
<text text-anchor="start" x="207.2904" y="-43.8" font-family="Helvetica,sans-Serif" font-size="11.00" fill="#000000">11 &gt;</text>
</a>
</g>
</g>
<!-- tags_vulnerabilities&#45;&gt;vulnerability_data -->
<g id="edge1" class="edge">
<title>tags_vulnerabilities:w&#45;&gt;vulnerability_data:e</title>
<path fill="none" stroke="#000000" d="M268.276,-240.7C256.2815,-240.7 248.8229,-240.7 232,-240.7"/>
<polygon fill="#000000" stroke="#000000" points="275,-240.7001 283,-244.3 279,-240.7 283,-240.7 283,-240.7 283,-240.7 279,-240.7 283,-237.1 275,-240.7001 275,-240.7001"/>
<ellipse fill="none" stroke="#000000" cx="271.8" cy="-240.7001" rx="3.2" ry="3.2"/>
</g>
</g>
</svg>
