<?xml version="1.0" encoding="UTF-8" standalone="no"?>
<!DOCTYPE svg PUBLIC "-//W3C//DTD SVG 1.1//EN"
 "http://www.w3.org/Graphics/SVG/1.1/DTD/svg11.dtd">
<!-- Generated by graphviz version 2.40.1 (20161225.0304)
 -->
<!-- Title: oneDegreeRelationshipsDiagram Pages: 1 -->
<svg width="829pt" height="362pt"
 viewBox="0.00 0.00 829.00 362.20" xmlns="http://www.w3.org/2000/svg" xmlns:xlink="http://www.w3.org/1999/xlink">
<g id="graph0" class="graph" transform="scale(1 1) rotate(0) translate(4 358.2)">
<title>oneDegreeRelationshipsDiagram</title>
<polygon fill="#ffffff" stroke="transparent" points="-4,4 -4,-358.2 825,-358.2 825,4 -4,4"/>
<text text-anchor="middle" x="72.4936" y="-7.3" font-family="Helvetica,sans-Serif" font-size="11.00" fill="#000000">Generated by SchemaSpy</text>
<!-- users -->
<g id="node1" class="node">
<title>users</title>
<g id="a_node1"><a xlink:href="../../tables/users.html" xlink:title="users" target="_top">
<polygon fill="#ffffff" stroke="transparent" points="315,-201.2 315,-350.2 540,-350.2 540,-201.2 315,-201.2"/>
<polygon fill="#f5f5f5" stroke="transparent" points="315.5,-326.7 315.5,-349.7 540.5,-349.7 540.5,-326.7 315.5,-326.7"/>
<polygon fill="none" stroke="#000000" points="315.5,-326.7 315.5,-349.7 540.5,-349.7 540.5,-326.7 315.5,-326.7"/>
<text text-anchor="start" x="320.5" y="-335.8" font-family="Helvetica,sans-Serif" font-weight="bold" font-size="11.00" fill="#000000">users</text>
<text text-anchor="start" x="505.5437" y="-334.8" font-family="Helvetica,sans-Serif" font-size="11.00" fill="#000000">[table]</text>
<polygon fill="none" stroke="#000000" points="315.5,-304.7 315.5,-326.7 540.5,-326.7 540.5,-304.7 315.5,-304.7"/>
<image xlink:href="../../images/primaryKeys.png" width="11px" height="12px" preserveAspectRatio="xMinYMin meet" x="320.5" y="-321.7"/>
<text text-anchor="start" x="335.5" y="-311.8" font-family="Helvetica,sans-Serif" font-size="11.00" fill="#000000">user_id</text>
<polygon fill="#ffffff" stroke="transparent" points="315.5,-282.7 315.5,-304.7 540.5,-304.7 540.5,-282.7 315.5,-282.7"/>
<polygon fill="none" stroke="#000000" points="315.5,-282.7 315.5,-304.7 540.5,-304.7 540.5,-282.7 315.5,-282.7"/>
<text text-anchor="start" x="335.5" y="-289.8" font-family="Helvetica,sans-Serif" font-size="11.00" fill="#000000">user_uid</text>
<polygon fill="#ffffff" stroke="transparent" points="315.5,-260.7 315.5,-282.7 540.5,-282.7 540.5,-260.7 315.5,-260.7"/>
<polygon fill="none" stroke="#000000" points="315.5,-260.7 315.5,-282.7 540.5,-282.7 540.5,-260.7 315.5,-260.7"/>
<image xlink:href="../../images/foreignKeys.png" width="11px" height="12px" preserveAspectRatio="xMinYMin meet" x="320.5" y="-277.7"/>
<text text-anchor="start" x="335.5" y="-267.8" font-family="Helvetica,sans-Serif" font-size="11.00" fill="#000000">default_org</text>
<polygon fill="#ffffff" stroke="transparent" points="315.5,-238.7 315.5,-260.7 540.5,-260.7 540.5,-238.7 315.5,-238.7"/>
<polygon fill="none" stroke="#000000" points="315.5,-238.7 315.5,-260.7 540.5,-260.7 540.5,-238.7 315.5,-238.7"/>
<text text-anchor="start" x="335.5" y="-245.8" font-family="Helvetica,sans-Serif" font-size="11.00" fill="#000000">type</text>
<polygon fill="none" stroke="#000000" points="315.5,-219.7 315.5,-238.7 540.5,-238.7 540.5,-219.7 315.5,-219.7"/>
<text text-anchor="start" x="318.5" y="-225.8" font-family="Helvetica,sans-Serif" font-size="11.00" fill="#000000">...</text>
<polygon fill="#ffffff" stroke="transparent" points="315.5,-200.7 315.5,-219.7 405.5,-219.7 405.5,-200.7 315.5,-200.7"/>
<polygon fill="none" stroke="#000000" points="315.5,-200.7 315.5,-219.7 405.5,-219.7 405.5,-200.7 315.5,-200.7"/>
<text text-anchor="start" x="318.5" y="-206.8" font-family="Helvetica,sans-Serif" font-size="11.00" fill="#000000">&lt; 1</text>
<polygon fill="#ffffff" stroke="transparent" points="405.5,-200.7 405.5,-219.7 478.5,-219.7 478.5,-200.7 405.5,-200.7"/>
<polygon fill="none" stroke="#000000" points="405.5,-200.7 405.5,-219.7 478.5,-219.7 478.5,-200.7 405.5,-200.7"/>
<text text-anchor="start" x="443.1105" y="-206.8" font-family="Helvetica,sans-Serif" font-size="11.00" fill="#000000">6 rows</text>
<polygon fill="#ffffff" stroke="transparent" points="478.5,-200.7 478.5,-219.7 540.5,-219.7 540.5,-200.7 478.5,-200.7"/>
<polygon fill="none" stroke="#000000" points="478.5,-200.7 478.5,-219.7 540.5,-219.7 540.5,-200.7 478.5,-200.7"/>
<text text-anchor="start" x="515.7904" y="-206.8" font-family="Helvetica,sans-Serif" font-size="11.00" fill="#000000">33 &gt;</text>
</a>
</g>
</g>
<!-- organizations -->
<g id="node2" class="node">
<title>organizations</title>
<g id="a_node2"><a xlink:href="../../tables/organizations.html" xlink:title="organizations" target="_top">
<polygon fill="#ffffff" stroke="transparent" points="8,-131.2 8,-346.2 266,-346.2 266,-131.2 8,-131.2"/>
<polygon fill="#f5f5f5" stroke="transparent" points="8,-322.7 8,-345.7 266,-345.7 266,-322.7 8,-322.7"/>
<polygon fill="none" stroke="#000000" points="8,-322.7 8,-345.7 266,-345.7 266,-322.7 8,-322.7"/>
<text text-anchor="start" x="13" y="-331.8" font-family="Helvetica,sans-Serif" font-weight="bold" font-size="11.00" fill="#000000">organizations</text>
<text text-anchor="start" x="231.0437" y="-330.8" font-family="Helvetica,sans-Serif" font-size="11.00" fill="#000000">[table]</text>
<polygon fill="#ffffff" stroke="transparent" points="8,-300.7 8,-322.7 266,-322.7 266,-300.7 8,-300.7"/>
<polygon fill="none" stroke="#000000" points="8,-300.7 8,-322.7 266,-322.7 266,-300.7 8,-300.7"/>
<text text-anchor="start" x="28" y="-307.8" font-family="Helvetica,sans-Serif" font-size="11.00" fill="#000000">name</text>
<polygon fill="#ffffff" stroke="transparent" points="8,-278.7 8,-300.7 266,-300.7 266,-278.7 8,-278.7"/>
<polygon fill="none" stroke="#000000" points="8,-278.7 8,-300.7 266,-300.7 266,-278.7 8,-278.7"/>
<image xlink:href="../../images/foreignKeys.png" width="11px" height="12px" preserveAspectRatio="xMinYMin meet" x="13" y="-295.7"/>
<text text-anchor="start" x="28" y="-285.8" font-family="Helvetica,sans-Serif" font-size="11.00" fill="#000000">configKey_fk</text>
<polygon fill="#ffffff" stroke="transparent" points="8,-256.7 8,-278.7 266,-278.7 266,-256.7 8,-256.7"/>
<polygon fill="none" stroke="#000000" points="8,-256.7 8,-278.7 266,-278.7 266,-256.7 8,-256.7"/>
<image xlink:href="../../images/foreignKeys.png" width="11px" height="12px" preserveAspectRatio="xMinYMin meet" x="13" y="-273.7"/>
<text text-anchor="start" x="28" y="-263.8" font-family="Helvetica,sans-Serif" font-size="11.00" fill="#000000">passwordPolicy_fk</text>
<polygon fill="#ffffff" stroke="transparent" points="8,-234.7 8,-256.7 266,-256.7 266,-234.7 8,-234.7"/>
<polygon fill="none" stroke="#000000" points="8,-234.7 8,-256.7 266,-256.7 266,-234.7 8,-234.7"/>
<image xlink:href="../../images/foreignKeys.png" width="11px" height="12px" preserveAspectRatio="xMinYMin meet" x="13" y="-251.7"/>
<text text-anchor="start" x="28" y="-241.8" font-family="Helvetica,sans-Serif" font-size="11.00" fill="#000000">report_settings_fk</text>
<polygon fill="none" stroke="#000000" points="8,-212.7 8,-234.7 266,-234.7 266,-212.7 8,-212.7"/>
<image xlink:href="../../images/primaryKeys.png" width="11px" height="12px" preserveAspectRatio="xMinYMin meet" x="13" y="-229.7"/>
<text text-anchor="start" x="28" y="-219.8" font-family="Helvetica,sans-Serif" font-size="11.00" fill="#000000">id</text>
<polygon fill="#ffffff" stroke="transparent" points="8,-190.7 8,-212.7 266,-212.7 266,-190.7 8,-190.7"/>
<polygon fill="none" stroke="#000000" points="8,-190.7 8,-212.7 266,-212.7 266,-190.7 8,-190.7"/>
<text text-anchor="start" x="28" y="-197.8" font-family="Helvetica,sans-Serif" font-size="11.00" fill="#000000">uuid</text>
<polygon fill="#ffffff" stroke="transparent" points="8,-168.7 8,-190.7 266,-190.7 266,-168.7 8,-168.7"/>
<polygon fill="none" stroke="#000000" points="8,-168.7 8,-190.7 266,-190.7 266,-168.7 8,-168.7"/>
<image xlink:href="../../images/foreignKeys.png" width="11px" height="12px" preserveAspectRatio="xMinYMin meet" x="13" y="-185.7"/>
<text text-anchor="start" x="28" y="-175.8" font-family="Helvetica,sans-Serif" font-size="11.00" fill="#000000">saml_idp_config_fk</text>
<polygon fill="none" stroke="#000000" points="8,-149.7 8,-168.7 266,-168.7 266,-149.7 8,-149.7"/>
<text text-anchor="start" x="11" y="-155.8" font-family="Helvetica,sans-Serif" font-size="11.00" fill="#000000">...</text>
<polygon fill="#ffffff" stroke="transparent" points="8,-130.7 8,-149.7 115,-149.7 115,-130.7 8,-130.7"/>
<polygon fill="none" stroke="#000000" points="8,-130.7 8,-149.7 115,-149.7 115,-130.7 8,-130.7"/>
<text text-anchor="start" x="11" y="-136.8" font-family="Helvetica,sans-Serif" font-size="11.00" fill="#000000">&lt; 4</text>
<polygon fill="#ffffff" stroke="transparent" points="115,-130.7 115,-149.7 196,-149.7 196,-130.7 115,-130.7"/>
<polygon fill="none" stroke="#000000" points="115,-130.7 115,-149.7 196,-149.7 196,-130.7 115,-130.7"/>
<text text-anchor="start" x="160.6105" y="-136.8" font-family="Helvetica,sans-Serif" font-size="11.00" fill="#000000">3 rows</text>
<polygon fill="#ffffff" stroke="transparent" points="196,-130.7 196,-149.7 266,-149.7 266,-130.7 196,-130.7"/>
<polygon fill="none" stroke="#000000" points="196,-130.7 196,-149.7 266,-149.7 266,-130.7 196,-130.7"/>
<text text-anchor="start" x="241.2904" y="-136.8" font-family="Helvetica,sans-Serif" font-size="11.00" fill="#000000">81 &gt;</text>
</a>
</g>
</g>
<!-- users&#45;&gt;organizations -->
<g id="edge1" class="edge">
<title>users:w&#45;&gt;organizations:e</title>
<path fill="none" stroke="#000000" d="M301.7679,-266.9221C287.8417,-254.7811 290.6596,-223.7 266,-223.7"/>
<polygon fill="#000000" stroke="#000000" points="307.9443,-269.071 314.317,-275.1001 311.7221,-270.3855 315.5,-271.7 315.5,-271.7 315.5,-271.7 311.7221,-270.3855 316.683,-268.2999 307.9443,-269.071 307.9443,-269.071"/>
<ellipse fill="none" stroke="#000000" cx="304.922" cy="-268.0195" rx="3.2" ry="3.2"/>
</g>
<!-- users_organizations -->
<g id="node3" class="node">
<title>users_organizations</title>
<g id="a_node3"><a xlink:href="../../tables/users_organizations.html" xlink:title="users_organizations" target="_top">
<polygon fill="#ffffff" stroke="transparent" points="589,-43.7 589,-265.7 813,-265.7 813,-43.7 589,-43.7"/>
<polygon fill="#f5f5f5" stroke="transparent" points="591,-240.7 591,-263.7 811,-263.7 811,-240.7 591,-240.7"/>
<polygon fill="none" stroke="#000000" points="591,-240.7 591,-263.7 811,-263.7 811,-240.7 591,-240.7"/>
<text text-anchor="start" x="596" y="-249.8" font-family="Helvetica,sans-Serif" font-weight="bold" font-size="11.00" fill="#000000">users_organizations</text>
<text text-anchor="start" x="776.0437" y="-248.8" font-family="Helvetica,sans-Serif" font-size="11.00" fill="#000000">[table]</text>
<polygon fill="none" stroke="#000000" points="591,-218.7 591,-240.7 728,-240.7 728,-218.7 591,-218.7"/>
<image xlink:href="../../images/primaryKeys.png" width="11px" height="12px" preserveAspectRatio="xMinYMin meet" x="596" y="-235.7"/>
<text text-anchor="start" x="611" y="-225.8" font-family="Helvetica,sans-Serif" font-size="11.00" fill="#000000">id</text>
<polygon fill="none" stroke="#000000" points="728,-218.7 728,-240.7 811,-240.7 811,-218.7 728,-218.7"/>
<text text-anchor="start" x="731" y="-226.4" font-family="Helvetica,sans-Serif" font-size="11.00" fill="#000000">bigint[19]</text>
<polygon fill="#ffffff" stroke="transparent" points="591,-196.7 591,-218.7 728,-218.7 728,-196.7 591,-196.7"/>
<polygon fill="none" stroke="#000000" points="591,-196.7 591,-218.7 728,-218.7 728,-196.7 591,-196.7"/>
<image xlink:href="../../images/foreignKeys.png" width="11px" height="12px" preserveAspectRatio="xMinYMin meet" x="596" y="-213.7"/>
<text text-anchor="start" x="611" y="-203.8" font-family="Helvetica,sans-Serif" font-size="11.00" fill="#000000">users_id</text>
<polygon fill="none" stroke="#000000" points="728,-196.7 728,-218.7 811,-218.7 811,-196.7 728,-196.7"/>
<text text-anchor="start" x="731" y="-204.4" font-family="Helvetica,sans-Serif" font-size="11.00" fill="#000000">varchar[255]</text>
<polygon fill="#ffffff" stroke="transparent" points="591,-174.7 591,-196.7 728,-196.7 728,-174.7 591,-174.7"/>
<polygon fill="none" stroke="#000000" points="591,-174.7 591,-196.7 728,-196.7 728,-174.7 591,-174.7"/>
<image xlink:href="../../images/foreignKeys.png" width="11px" height="12px" preserveAspectRatio="xMinYMin meet" x="596" y="-191.7"/>
<text text-anchor="start" x="611" y="-181.8" font-family="Helvetica,sans-Serif" font-size="11.00" fill="#000000">organizations_id</text>
<polygon fill="none" stroke="#000000" points="728,-174.7 728,-196.7 811,-196.7 811,-174.7 728,-174.7"/>
<text text-anchor="start" x="730.6783" y="-182.4" font-family="Helvetica,sans-Serif" font-size="11.00" fill="#000000">int unsigned[10]</text>
<polygon fill="none" stroke="#000000" points="591,-152.7 591,-174.7 728,-174.7 728,-152.7 591,-152.7"/>
<text text-anchor="start" x="611" y="-159.8" font-family="Helvetica,sans-Serif" font-size="11.00" fill="#000000">api_only</text>
<polygon fill="none" stroke="#000000" points="728,-152.7 728,-174.7 811,-174.7 811,-152.7 728,-152.7"/>
<text text-anchor="start" x="731" y="-160.4" font-family="Helvetica,sans-Serif" font-size="11.00" fill="#000000">bit[1]</text>
<polygon fill="none" stroke="#000000" points="591,-130.7 591,-152.7 728,-152.7 728,-130.7 591,-130.7"/>
<text text-anchor="start" x="611" y="-137.8" font-family="Helvetica,sans-Serif" font-size="11.00" fill="#000000">enabled</text>
<polygon fill="none" stroke="#000000" points="728,-130.7 728,-152.7 811,-152.7 811,-130.7 728,-130.7"/>
<text text-anchor="start" x="731" y="-138.4" font-family="Helvetica,sans-Serif" font-size="11.00" fill="#000000">bit[1]</text>
<polygon fill="#ffffff" stroke="transparent" points="591,-108.7 591,-130.7 728,-130.7 728,-108.7 591,-108.7"/>
<polygon fill="none" stroke="#000000" points="591,-108.7 591,-130.7 728,-130.7 728,-108.7 591,-108.7"/>
<image xlink:href="../../images/foreignKeys.png" width="11px" height="12px" preserveAspectRatio="xMinYMin meet" x="596" y="-125.7"/>
<text text-anchor="start" x="611" y="-115.8" font-family="Helvetica,sans-Serif" font-size="11.00" fill="#000000">user_roles_id</text>
<polygon fill="none" stroke="#000000" points="728,-108.7 728,-130.7 811,-130.7 811,-108.7 728,-108.7"/>
<text text-anchor="start" x="731" y="-116.4" font-family="Helvetica,sans-Serif" font-size="11.00" fill="#000000">bigint[19]</text>
<polygon fill="#ffffff" stroke="transparent" points="591,-86.7 591,-108.7 728,-108.7 728,-86.7 591,-86.7"/>
<polygon fill="none" stroke="#000000" points="591,-86.7 591,-108.7 728,-108.7 728,-86.7 591,-86.7"/>
<image xlink:href="../../images/foreignKeys.png" width="11px" height="12px" preserveAspectRatio="xMinYMin meet" x="596" y="-103.7"/>
<text text-anchor="start" x="611" y="-93.8" font-family="Helvetica,sans-Serif" font-size="11.00" fill="#000000">effective_roles_id</text>
<polygon fill="none" stroke="#000000" points="728,-86.7 728,-108.7 811,-108.7 811,-86.7 728,-86.7"/>
<text text-anchor="start" x="731" y="-94.4" font-family="Helvetica,sans-Serif" font-size="11.00" fill="#000000">bigint[19]</text>
<polygon fill="none" stroke="#000000" points="591,-64.7 591,-86.7 728,-86.7 728,-64.7 591,-64.7"/>
<text text-anchor="start" x="611" y="-71.8" font-family="Helvetica,sans-Serif" font-size="11.00" fill="#000000">guest</text>
<polygon fill="none" stroke="#000000" points="728,-64.7 728,-86.7 811,-86.7 811,-64.7 728,-64.7"/>
<text text-anchor="start" x="731" y="-72.4" font-family="Helvetica,sans-Serif" font-size="11.00" fill="#000000">bit[1]</text>
<polygon fill="#ffffff" stroke="transparent" points="591,-45.7 591,-64.7 651,-64.7 651,-45.7 591,-45.7"/>
<polygon fill="none" stroke="#000000" points="591,-45.7 591,-64.7 651,-64.7 651,-45.7 591,-45.7"/>
<text text-anchor="start" x="594" y="-51.8" font-family="Helvetica,sans-Serif" font-size="11.00" fill="#000000">&lt; 4</text>
<polygon fill="#ffffff" stroke="transparent" points="651,-45.7 651,-64.7 728,-64.7 728,-45.7 651,-45.7"/>
<polygon fill="none" stroke="#000000" points="651,-45.7 651,-64.7 728,-64.7 728,-45.7 651,-45.7"/>
<text text-anchor="start" x="692.6105" y="-51.8" font-family="Helvetica,sans-Serif" font-size="11.00" fill="#000000">6 rows</text>
<polygon fill="#ffffff" stroke="transparent" points="728,-45.7 728,-64.7 811,-64.7 811,-45.7 728,-45.7"/>
<polygon fill="none" stroke="#000000" points="728,-45.7 728,-64.7 811,-64.7 811,-45.7 728,-45.7"/>
<text text-anchor="start" x="792.4053" y="-51.8" font-family="Helvetica,sans-Serif" font-size="11.00" fill="#000000">0 &gt;</text>
<polygon fill="none" stroke="#000000" stroke-width="2" points="590,-44.7 590,-264.7 812,-264.7 812,-44.7 590,-44.7"/>
</a>
</g>
</g>
<!-- users_organizations&#45;&gt;users -->
<g id="edge5" class="edge">
<title>users_organizations:w&#45;&gt;users:e</title>
<path fill="none" stroke="#000000" d="M576.8526,-211.5438C549.1888,-230.7828 587.4857,-315.7 540.5,-315.7"/>
<polygon fill="#000000" stroke="#000000" points="583.2799,-209.7976 591.9439,-211.1741 587.1399,-208.7488 591,-207.7 591,-207.7 591,-207.7 587.1399,-208.7488 590.0561,-204.2259 583.2799,-209.7976 583.2799,-209.7976"/>
<ellipse fill="none" stroke="#000000" cx="580.1918" cy="-210.6366" rx="3.2" ry="3.2"/>
</g>
<!-- users_organizations&#45;&gt;organizations -->
<g id="edge3" class="edge">
<title>users_organizations:w&#45;&gt;organizations:e</title>
<path fill="none" stroke="#000000" d="M576.5951,-185.5331C461.5845,-182.8541 421.0529,-149.3701 307,-190.7 285.008,-198.6694 289.3915,-223.7 266,-223.7"/>
<polygon fill="#000000" stroke="#000000" points="583.0005,-185.6073 590.9583,-189.2998 587.0003,-185.6536 591,-185.7 591,-185.7 591,-185.7 587.0003,-185.6536 591.0417,-182.1002 583.0005,-185.6073 583.0005,-185.6073"/>
<ellipse fill="none" stroke="#000000" cx="579.8008" cy="-185.5702" rx="3.2" ry="3.2"/>
</g>
<!-- ac_roles -->
<g id="node4" class="node">
<title>ac_roles</title>
<g id="a_node4"><a xlink:href="../../tables/ac_roles.html" xlink:title="ac_roles" target="_top">
<polygon fill="#ffffff" stroke="transparent" points="385.5,-38.2 385.5,-143.2 469.5,-143.2 469.5,-38.2 385.5,-38.2"/>
<polygon fill="#f5f5f5" stroke="transparent" points="385.5,-119.7 385.5,-142.7 469.5,-142.7 469.5,-119.7 385.5,-119.7"/>
<polygon fill="none" stroke="#000000" points="385.5,-119.7 385.5,-142.7 469.5,-142.7 469.5,-119.7 385.5,-119.7"/>
<text text-anchor="start" x="390.2188" y="-128.8" font-family="Helvetica,sans-Serif" font-weight="bold" font-size="11.00" fill="#000000">ac_roles</text>
<text text-anchor="start" x="435.0219" y="-127.8" font-family="Helvetica,sans-Serif" font-size="11.00" fill="#000000">[table]</text>
<polygon fill="none" stroke="#000000" points="385.5,-97.7 385.5,-119.7 469.5,-119.7 469.5,-97.7 385.5,-97.7"/>
<image xlink:href="../../images/primaryKeys.png" width="11px" height="12px" preserveAspectRatio="xMinYMin meet" x="390.5" y="-114.7"/>
<text text-anchor="start" x="413.5" y="-104.8" font-family="Helvetica,sans-Serif" font-size="11.00" fill="#000000">id</text>
<polygon fill="#ffffff" stroke="transparent" points="385.5,-75.7 385.5,-97.7 469.5,-97.7 469.5,-75.7 385.5,-75.7"/>
<polygon fill="none" stroke="#000000" points="385.5,-75.7 385.5,-97.7 469.5,-97.7 469.5,-75.7 385.5,-75.7"/>
<text text-anchor="start" x="413.5" y="-82.8" font-family="Helvetica,sans-Serif" font-size="11.00" fill="#000000">name</text>
<polygon fill="none" stroke="#000000" points="385.5,-56.7 385.5,-75.7 469.5,-75.7 469.5,-56.7 385.5,-56.7"/>
<text text-anchor="start" x="388.5" y="-62.8" font-family="Helvetica,sans-Serif" font-size="11.00" fill="#000000">...</text>
<polygon fill="#ffffff" stroke="transparent" points="385.5,-37.7 385.5,-56.7 403.5,-56.7 403.5,-37.7 385.5,-37.7"/>
<polygon fill="none" stroke="#000000" points="385.5,-37.7 385.5,-56.7 403.5,-56.7 403.5,-37.7 385.5,-37.7"/>
<text text-anchor="start" x="388.5" y="-43.8" font-family="Helvetica,sans-Serif" font-size="11.00" fill="#000000"> &#160;</text>
<polygon fill="#ffffff" stroke="transparent" points="403.5,-37.7 403.5,-56.7 444.5,-56.7 444.5,-37.7 403.5,-37.7"/>
<polygon fill="none" stroke="#000000" points="403.5,-37.7 403.5,-56.7 444.5,-56.7 444.5,-37.7 403.5,-37.7"/>
<text text-anchor="start" x="409.1105" y="-43.8" font-family="Helvetica,sans-Serif" font-size="11.00" fill="#000000">8 rows</text>
<polygon fill="#ffffff" stroke="transparent" points="444.5,-37.7 444.5,-56.7 469.5,-56.7 469.5,-37.7 444.5,-37.7"/>
<polygon fill="none" stroke="#000000" points="444.5,-37.7 444.5,-56.7 469.5,-56.7 469.5,-37.7 444.5,-37.7"/>
<text text-anchor="start" x="450.9053" y="-43.8" font-family="Helvetica,sans-Serif" font-size="11.00" fill="#000000">6 &gt;</text>
</a>
</g>
</g>
<!-- users_organizations&#45;&gt;ac_roles -->
<g id="edge2" class="edge">
<title>users_organizations:w&#45;&gt;ac_roles:e</title>
<path fill="none" stroke="#000000" d="M576.4916,-97.983C533.9027,-99.7047 518.5318,-108.7 469.5,-108.7"/>
<polygon fill="#000000" stroke="#000000" points="583.0015,-97.8561 591.0702,-101.2993 587.0008,-97.778 591,-97.7 591,-97.7 591,-97.7 587.0008,-97.778 590.9298,-94.1007 583.0015,-97.8561 583.0015,-97.8561"/>
<ellipse fill="none" stroke="#000000" cx="579.8021" cy="-97.9185" rx="3.2" ry="3.2"/>
</g>
<!-- users_organizations&#45;&gt;ac_roles -->
<g id="edge4" class="edge">
<title>users_organizations:w&#45;&gt;ac_roles:e</title>
<path fill="none" stroke="#000000" d="M576.4916,-119.417C533.9027,-117.6953 518.5318,-108.7 469.5,-108.7"/>
<polygon fill="#000000" stroke="#000000" points="583.0015,-119.5439 590.9298,-123.2993 587.0008,-119.622 591,-119.7 591,-119.7 591,-119.7 587.0008,-119.622 591.0702,-116.1007 583.0015,-119.5439 583.0015,-119.5439"/>
<ellipse fill="none" stroke="#000000" cx="579.8021" cy="-119.4815" rx="3.2" ry="3.2"/>
</g>
</g>
</svg>
