<?xml version="1.0" encoding="UTF-8" standalone="no"?>
<!DOCTYPE svg PUBLIC "-//W3C//DTD SVG 1.1//EN"
 "http://www.w3.org/Graphics/SVG/1.1/DTD/svg11.dtd">
<!-- Generated by graphviz version 2.40.1 (20161225.0304)
 -->
<!-- Title: oneDegreeRelationshipsDiagram Pages: 1 -->
<svg width="390pt" height="199pt"
 viewBox="0.00 0.00 390.00 199.20" xmlns="http://www.w3.org/2000/svg" xmlns:xlink="http://www.w3.org/1999/xlink">
<g id="graph0" class="graph" transform="scale(1 1) rotate(0) translate(4 195.2)">
<title>oneDegreeRelationshipsDiagram</title>
<polygon fill="#ffffff" stroke="transparent" points="-4,4 -4,-195.2 386,-195.2 386,4 -4,4"/>
<text text-anchor="middle" x="72.4936" y="-7.3" font-family="Helvetica,sans-Serif" font-size="11.00" fill="#000000">Generated by SchemaSpy</text>
<!-- watcher_task -->
<g id="node1" class="node">
<title>watcher_task</title>
<g id="a_node1"><a xlink:href="../../tables/watcher_task.html" xlink:title="watcher_task" target="_top">
<polygon fill="#ffffff" stroke="transparent" points="267,-38.2 267,-187.2 374,-187.2 374,-38.2 267,-38.2"/>
<polygon fill="#f5f5f5" stroke="transparent" points="267.5,-163.7 267.5,-186.7 374.5,-186.7 374.5,-163.7 267.5,-163.7"/>
<polygon fill="none" stroke="#000000" points="267.5,-163.7 267.5,-186.7 374.5,-186.7 374.5,-163.7 267.5,-163.7"/>
<text text-anchor="start" x="272.1045" y="-172.8" font-family="Helvetica,sans-Serif" font-weight="bold" font-size="11.00" fill="#000000">watcher_task</text>
<text text-anchor="start" x="340.0219" y="-171.8" font-family="Helvetica,sans-Serif" font-size="11.00" fill="#000000">[table]</text>
<polygon fill="none" stroke="#000000" points="267.5,-141.7 267.5,-163.7 374.5,-163.7 374.5,-141.7 267.5,-141.7"/>
<image xlink:href="../../images/primaryKeys.png" width="11px" height="12px" preserveAspectRatio="xMinYMin meet" x="272.5" y="-158.7"/>
<text text-anchor="start" x="292.5" y="-148.8" font-family="Helvetica,sans-Serif" font-size="11.00" fill="#000000">task_id</text>
<polygon fill="#ffffff" stroke="transparent" points="267.5,-119.7 267.5,-141.7 374.5,-141.7 374.5,-119.7 267.5,-119.7"/>
<polygon fill="none" stroke="#000000" points="267.5,-119.7 267.5,-141.7 374.5,-141.7 374.5,-119.7 267.5,-119.7"/>
<text text-anchor="start" x="292.5" y="-126.8" font-family="Helvetica,sans-Serif" font-size="11.00" fill="#000000">task_key</text>
<polygon fill="#ffffff" stroke="transparent" points="267.5,-97.7 267.5,-119.7 374.5,-119.7 374.5,-97.7 267.5,-97.7"/>
<polygon fill="none" stroke="#000000" points="267.5,-97.7 267.5,-119.7 374.5,-119.7 374.5,-97.7 267.5,-97.7"/>
<image xlink:href="../../images/foreignKeys.png" width="11px" height="12px" preserveAspectRatio="xMinYMin meet" x="272.5" y="-114.7"/>
<text text-anchor="start" x="292.5" y="-104.8" font-family="Helvetica,sans-Serif" font-size="11.00" fill="#000000">status_fk</text>
<polygon fill="#ffffff" stroke="transparent" points="267.5,-75.7 267.5,-97.7 374.5,-97.7 374.5,-75.7 267.5,-75.7"/>
<polygon fill="none" stroke="#000000" points="267.5,-75.7 267.5,-97.7 374.5,-97.7 374.5,-75.7 267.5,-75.7"/>
<text text-anchor="start" x="292.5" y="-82.8" font-family="Helvetica,sans-Serif" font-size="11.00" fill="#000000">start_time</text>
<polygon fill="none" stroke="#000000" points="267.5,-56.7 267.5,-75.7 374.5,-75.7 374.5,-56.7 267.5,-56.7"/>
<text text-anchor="start" x="270.5" y="-62.8" font-family="Helvetica,sans-Serif" font-size="11.00" fill="#000000">...</text>
<polygon fill="#ffffff" stroke="transparent" points="267.5,-37.7 267.5,-56.7 303.5,-56.7 303.5,-37.7 267.5,-37.7"/>
<polygon fill="none" stroke="#000000" points="267.5,-37.7 267.5,-56.7 303.5,-56.7 303.5,-37.7 267.5,-37.7"/>
<text text-anchor="start" x="270.5" y="-43.8" font-family="Helvetica,sans-Serif" font-size="11.00" fill="#000000">&lt; 1</text>
<polygon fill="#ffffff" stroke="transparent" points="303.5,-37.7 303.5,-56.7 354.5,-56.7 354.5,-37.7 303.5,-37.7"/>
<polygon fill="none" stroke="#000000" points="303.5,-37.7 303.5,-56.7 354.5,-56.7 354.5,-37.7 303.5,-37.7"/>
<text text-anchor="start" x="312.9956" y="-43.8" font-family="Helvetica,sans-Serif" font-size="11.00" fill="#000000">73 rows</text>
<polygon fill="#ffffff" stroke="transparent" points="354.5,-37.7 354.5,-56.7 374.5,-56.7 374.5,-37.7 354.5,-37.7"/>
<polygon fill="none" stroke="#000000" points="354.5,-37.7 354.5,-56.7 374.5,-56.7 374.5,-37.7 354.5,-37.7"/>
<text text-anchor="start" x="365.3862" y="-43.8" font-family="Helvetica,sans-Serif" font-size="11.00" fill="#000000"> &#160;</text>
</a>
</g>
</g>
<!-- watcher_task_status -->
<g id="node2" class="node">
<title>watcher_task_status</title>
<g id="a_node2"><a xlink:href="../../tables/watcher_task_status.html" xlink:title="watcher_task_status" target="_top">
<polygon fill="#ffffff" stroke="transparent" points="8,-54.7 8,-144.7 218,-144.7 218,-54.7 8,-54.7"/>
<polygon fill="#f5f5f5" stroke="transparent" points="10,-119.7 10,-142.7 216,-142.7 216,-119.7 10,-119.7"/>
<polygon fill="none" stroke="#000000" points="10,-119.7 10,-142.7 216,-142.7 216,-119.7 10,-119.7"/>
<text text-anchor="start" x="15" y="-128.8" font-family="Helvetica,sans-Serif" font-weight="bold" font-size="11.00" fill="#000000">watcher_task_status</text>
<text text-anchor="start" x="181.0437" y="-127.8" font-family="Helvetica,sans-Serif" font-size="11.00" fill="#000000">[table]</text>
<polygon fill="none" stroke="#000000" points="10,-97.7 10,-119.7 149,-119.7 149,-97.7 10,-97.7"/>
<image xlink:href="../../images/primaryKeys.png" width="11px" height="12px" preserveAspectRatio="xMinYMin meet" x="15" y="-114.7"/>
<text text-anchor="start" x="30" y="-104.8" font-family="Helvetica,sans-Serif" font-size="11.00" fill="#000000">status_id</text>
<polygon fill="none" stroke="#000000" points="149,-97.7 149,-119.7 216,-119.7 216,-97.7 149,-97.7"/>
<text text-anchor="start" x="152" y="-105.4" font-family="Helvetica,sans-Serif" font-size="11.00" fill="#000000">bigint[19]</text>
<polygon fill="none" stroke="#000000" points="10,-75.7 10,-97.7 149,-97.7 149,-75.7 10,-75.7"/>
<text text-anchor="start" x="30" y="-82.8" font-family="Helvetica,sans-Serif" font-size="11.00" fill="#000000">name</text>
<polygon fill="none" stroke="#000000" points="149,-75.7 149,-97.7 216,-97.7 216,-75.7 149,-75.7"/>
<text text-anchor="start" x="151.9365" y="-83.4" font-family="Helvetica,sans-Serif" font-size="11.00" fill="#000000">varchar[255]</text>
<polygon fill="#ffffff" stroke="transparent" points="10,-56.7 10,-75.7 71,-75.7 71,-56.7 10,-56.7"/>
<polygon fill="none" stroke="#000000" points="10,-56.7 10,-75.7 71,-75.7 71,-56.7 10,-56.7"/>
<text text-anchor="start" x="13" y="-62.8" font-family="Helvetica,sans-Serif" font-size="11.00" fill="#000000">&lt; 0</text>
<polygon fill="#ffffff" stroke="transparent" points="71,-56.7 71,-75.7 149,-75.7 149,-56.7 71,-56.7"/>
<polygon fill="none" stroke="#000000" points="71,-56.7 71,-75.7 149,-75.7 149,-56.7 71,-56.7"/>
<text text-anchor="start" x="113.6105" y="-62.8" font-family="Helvetica,sans-Serif" font-size="11.00" fill="#000000">3 rows</text>
<polygon fill="#ffffff" stroke="transparent" points="149,-56.7 149,-75.7 216,-75.7 216,-56.7 149,-56.7"/>
<polygon fill="none" stroke="#000000" points="149,-56.7 149,-75.7 216,-75.7 216,-56.7 149,-56.7"/>
<text text-anchor="start" x="197.4053" y="-62.8" font-family="Helvetica,sans-Serif" font-size="11.00" fill="#000000">1 &gt;</text>
<polygon fill="none" stroke="#000000" stroke-width="2" points="9,-55.7 9,-143.7 217,-143.7 217,-55.7 9,-55.7"/>
</a>
</g>
</g>
<!-- watcher_task&#45;&gt;watcher_task_status -->
<g id="edge1" class="edge">
<title>watcher_task:w&#45;&gt;watcher_task_status:e</title>
<path fill="none" stroke="#000000" d="M253.0156,-108.7C240.6771,-108.7 233.1667,-108.7 216,-108.7"/>
<polygon fill="#000000" stroke="#000000" points="259.5,-108.7001 267.5,-112.3 263.5,-108.7 267.5,-108.7 267.5,-108.7 267.5,-108.7 263.5,-108.7 267.5,-105.1 259.5,-108.7001 259.5,-108.7001"/>
<ellipse fill="none" stroke="#000000" cx="256.3" cy="-108.7001" rx="3.2" ry="3.2"/>
</g>
</g>
</svg>
