<?xml version="1.0" encoding="UTF-8" standalone="no"?>
<!DOCTYPE svg PUBLIC "-//W3C//DTD SVG 1.1//EN"
 "http://www.w3.org/Graphics/SVG/1.1/DTD/svg11.dtd">
<!-- Generated by graphviz version 2.40.1 (20161225.0304)
 -->
<!-- Title: app_route_coverage_servers Pages: 1 -->
<svg width="276pt" height="128pt"
 viewBox="0.00 0.00 276.00 128.00" xmlns="http://www.w3.org/2000/svg" xmlns:xlink="http://www.w3.org/1999/xlink">
<g id="graph0" class="graph" transform="scale(1 1) rotate(0) translate(4 124)">
<title>app_route_coverage_servers</title>
<polygon fill="#ffffff" stroke="transparent" points="-4,4 -4,-124 272,-124 272,4 -4,4"/>
<!-- app_route_coverage_servers -->
<g id="node1" class="node">
<title>app_route_coverage_servers</title>
<g id="a_node1"><a xlink:href="../../tables/app_route_coverage_servers.html" xlink:title="app_route_coverage_servers" target="_top">
<polygon fill="#ffffff" stroke="transparent" points="8,-4 8,-116 260,-116 260,-4 8,-4"/>
<polygon fill="#f5f5f5" stroke="transparent" points="10,-91 10,-114 258,-114 258,-91 10,-91"/>
<polygon fill="none" stroke="#000000" points="10,-91 10,-114 258,-114 258,-91 10,-91"/>
<text text-anchor="start" x="15" y="-100.1" font-family="Helvetica,sans-Serif" font-weight="bold" font-size="11.00" fill="#000000">app_route_coverage_servers</text>
<text text-anchor="start" x="223.0437" y="-99.1" font-family="Helvetica,sans-Serif" font-size="11.00" fill="#000000">[table]</text>
<polygon fill="#ffffff" stroke="transparent" points="10,-69 10,-91 197,-91 197,-69 10,-69"/>
<polygon fill="none" stroke="#000000" points="10,-69 10,-91 197,-91 197,-69 10,-69"/>
<text text-anchor="start" x="30" y="-76.1" font-family="Helvetica,sans-Serif" font-size="11.00" fill="#000000">route_hash_string</text>
<polygon fill="none" stroke="#000000" points="197,-69 197,-91 258,-91 258,-69 197,-69"/>
<text text-anchor="start" x="199.994" y="-76.7" font-family="Helvetica,sans-Serif" font-size="11.00" fill="#000000">varchar[64]</text>
<polygon fill="none" stroke="#000000" points="10,-47 10,-69 197,-69 197,-47 10,-47"/>
<image xlink:href="../../images/primaryKeys.png" width="11px" height="12px" preserveAspectRatio="xMinYMin meet" x="15" y="-64"/>
<text text-anchor="start" x="30" y="-54.1" font-family="Helvetica,sans-Serif" font-size="11.00" fill="#000000">servers_id</text>
<polygon fill="none" stroke="#000000" points="197,-47 197,-69 258,-69 258,-47 197,-47"/>
<text text-anchor="start" x="200" y="-54.7" font-family="Helvetica,sans-Serif" font-size="11.00" fill="#000000">bigint[19]</text>
<polygon fill="none" stroke="#000000" points="10,-25 10,-47 197,-47 197,-25 10,-25"/>
<image xlink:href="../../images/primaryKeys.png" width="11px" height="12px" preserveAspectRatio="xMinYMin meet" x="15" y="-42"/>
<text text-anchor="start" x="30" y="-32.1" font-family="Helvetica,sans-Serif" font-size="11.00" fill="#000000">route_hash</text>
<polygon fill="none" stroke="#000000" points="197,-25 197,-47 258,-47 258,-25 197,-25"/>
<text text-anchor="start" x="200" y="-32.7" font-family="Helvetica,sans-Serif" font-size="11.00" fill="#000000">bigint[19]</text>
<polygon fill="#ffffff" stroke="transparent" points="10,-6 10,-25 95,-25 95,-6 10,-6"/>
<polygon fill="none" stroke="#000000" points="10,-6 10,-25 95,-25 95,-6 10,-6"/>
<text text-anchor="start" x="13" y="-12.1" font-family="Helvetica,sans-Serif" font-size="11.00" fill="#000000">&lt; 0</text>
<polygon fill="#ffffff" stroke="transparent" points="95,-6 95,-25 197,-25 197,-6 95,-6"/>
<polygon fill="none" stroke="#000000" points="95,-6 95,-25 197,-25 197,-6 95,-6"/>
<text text-anchor="start" x="161.6105" y="-12.1" font-family="Helvetica,sans-Serif" font-size="11.00" fill="#000000">0 rows</text>
<polygon fill="#ffffff" stroke="transparent" points="197,-6 197,-25 258,-25 258,-6 197,-6"/>
<polygon fill="none" stroke="#000000" points="197,-6 197,-25 258,-25 258,-6 197,-6"/>
<text text-anchor="start" x="239.4053" y="-12.1" font-family="Helvetica,sans-Serif" font-size="11.00" fill="#000000">0 &gt;</text>
<polygon fill="none" stroke="#000000" stroke-width="2" points="9,-5 9,-115 259,-115 259,-5 9,-5"/>
</a>
</g>
</g>
</g>
</svg>
