digraph "app_route_coverage_analytics" {
  graph [
    rankdir="RL"
    bgcolor="#ffffff"
    nodesep="0.18"
    ranksep="0.46"
    fontname="Helvetica"
    fontsize="11"
    ration="compress"
  ];
  node [
    fontname="Helvetica"
    fontsize="11"
    shape="plaintext"
  ];
  edge [
    arrowsize="0.8"
  ];
  "app_route_coverage_analytics" [
   label=<
    <TABLE BORDER="2" CELLBORDER="1" CELLSPACING="0" BGCOLOR="#ffffff">
      <TR><TD COLSPAN="4"  BGCOLOR="#f5f5f5"><TABLE BORDER="0" CELLSPACING="0"><TR><TD ALIGN="LEFT"><B>app_route_coverage_analytics</B></TD><TD ALIGN="RIGHT">[table]</TD></TR></TABLE></TD></TR>
      <TR><TD PORT="route_hash_string" COLSPAN="2" BGCOLOR="#ffffff" ALIGN="LEFT"><TABLE BORDER="0" CELLSPACING="0" ALIGN="LEFT"><TR ALIGN="LEFT"><TD ALIGN="LEFT" FIXEDSIZE="TRUE" WIDTH="15" HEIGHT="16"></TD><TD ALIGN="LEFT" FIXEDSIZE="TRUE" WIDTH="175" HEIGHT="16">route_hash_string</TD></TR></TABLE></TD><TD PORT="route_hash_string.type" ALIGN="LEFT">varchar[64]</TD></TR>
      <TR><TD PORT="route" COLSPAN="2" ALIGN="LEFT"><TABLE BORDER="0" CELLSPACING="0" ALIGN="LEFT"><TR ALIGN="LEFT"><TD ALIGN="LEFT" FIXEDSIZE="TRUE" WIDTH="15" HEIGHT="16"></TD><TD ALIGN="LEFT" FIXEDSIZE="TRUE" WIDTH="175" HEIGHT="16">route</TD></TR></TABLE></TD><TD PORT="route.type" ALIGN="LEFT">varchar[1000]</TD></TR>
      <TR><TD PORT="applications_id" COLSPAN="2" BGCOLOR="#ffffff" ALIGN="LEFT"><TABLE BORDER="0" CELLSPACING="0" ALIGN="LEFT"><TR ALIGN="LEFT"><TD ALIGN="LEFT" FIXEDSIZE="TRUE" WIDTH="15" HEIGHT="16"></TD><TD ALIGN="LEFT" FIXEDSIZE="TRUE" WIDTH="175" HEIGHT="16">applications_id</TD></TR></TABLE></TD><TD PORT="applications_id.type" ALIGN="LEFT">varchar[255]</TD></TR>
      <TR><TD PORT="dt_discovered" COLSPAN="2" ALIGN="LEFT"><TABLE BORDER="0" CELLSPACING="0" ALIGN="LEFT"><TR ALIGN="LEFT"><TD ALIGN="LEFT" FIXEDSIZE="TRUE" WIDTH="15" HEIGHT="16"></TD><TD ALIGN="LEFT" FIXEDSIZE="TRUE" WIDTH="175" HEIGHT="16">dt_discovered</TD></TR></TABLE></TD><TD PORT="dt_discovered.type" ALIGN="LEFT">bigint[19]</TD></TR>
      <TR><TD PORT="dt_exercised" COLSPAN="2" BGCOLOR="#ffffff" ALIGN="LEFT"><TABLE BORDER="0" CELLSPACING="0" ALIGN="LEFT"><TR ALIGN="LEFT"><TD ALIGN="LEFT" FIXEDSIZE="TRUE" WIDTH="15" HEIGHT="16"></TD><TD ALIGN="LEFT" FIXEDSIZE="TRUE" WIDTH="175" HEIGHT="16">dt_exercised</TD></TR></TABLE></TD><TD PORT="dt_exercised.type" ALIGN="LEFT">bigint[19]</TD></TR>
      <TR><TD PORT="route_hash" COLSPAN="2" ALIGN="LEFT"><TABLE BORDER="0" CELLSPACING="0" ALIGN="LEFT"><TR ALIGN="LEFT"><TD ALIGN="LEFT" FIXEDSIZE="TRUE" WIDTH="15" HEIGHT="16"><IMG SRC="../../images/primaryKeys.png"/></TD><TD ALIGN="LEFT" FIXEDSIZE="TRUE" WIDTH="175" HEIGHT="16">route_hash</TD></TR></TABLE></TD><TD PORT="route_hash.type" ALIGN="LEFT">bigint[19]</TD></TR>
      <TR><TD ALIGN="LEFT" BGCOLOR="#ffffff">&lt; 0</TD><TD ALIGN="RIGHT" BGCOLOR="#ffffff">0 rows</TD><TD ALIGN="RIGHT" BGCOLOR="#ffffff">0 &gt;</TD></TR>
    </TABLE>>
    URL="../../tables/app_route_coverage_analytics.html"
    target="_top"
    tooltip="app_route_coverage_analytics"
  ];
}
