<?xml version="1.0" encoding="UTF-8" standalone="no"?>
<!DOCTYPE svg PUBLIC "-//W3C//DTD SVG 1.1//EN"
 "http://www.w3.org/Graphics/SVG/1.1/DTD/svg11.dtd">
<!-- Generated by graphviz version 2.40.1 (20161225.0304)
 -->
<!-- Title: authentication_settings Pages: 1 -->
<svg width="281pt" height="128pt"
 viewBox="0.00 0.00 281.00 128.00" xmlns="http://www.w3.org/2000/svg" xmlns:xlink="http://www.w3.org/1999/xlink">
<g id="graph0" class="graph" transform="scale(1 1) rotate(0) translate(4 124)">
<title>authentication_settings</title>
<polygon fill="#ffffff" stroke="transparent" points="-4,4 -4,-124 277,-124 277,4 -4,4"/>
<!-- authentication_settings -->
<g id="node1" class="node">
<title>authentication_settings</title>
<g id="a_node1"><a xlink:href="../../tables/authentication_settings.html" xlink:title="authentication_settings" target="_top">
<polygon fill="#ffffff" stroke="transparent" points="8,-4 8,-116 265,-116 265,-4 8,-4"/>
<polygon fill="#f5f5f5" stroke="transparent" points="10.5,-91 10.5,-114 263.5,-114 263.5,-91 10.5,-91"/>
<polygon fill="none" stroke="#000000" points="10.5,-91 10.5,-114 263.5,-114 263.5,-91 10.5,-91"/>
<text text-anchor="start" x="15.5" y="-100.1" font-family="Helvetica,sans-Serif" font-weight="bold" font-size="11.00" fill="#000000">authentication_settings</text>
<text text-anchor="start" x="228.5437" y="-99.1" font-family="Helvetica,sans-Serif" font-size="11.00" fill="#000000">[table]</text>
<polygon fill="none" stroke="#000000" points="10.5,-69 10.5,-91 165.5,-91 165.5,-69 10.5,-69"/>
<image xlink:href="../../images/primaryKeys.png" width="11px" height="12px" preserveAspectRatio="xMinYMin meet" x="15.5" y="-86"/>
<text text-anchor="start" x="30.5" y="-76.1" font-family="Helvetica,sans-Serif" font-size="11.00" fill="#000000">id</text>
<polygon fill="none" stroke="#000000" points="165.5,-69 165.5,-91 263.5,-91 263.5,-69 165.5,-69"/>
<text text-anchor="start" x="168.3429" y="-76.7" font-family="Helvetica,sans-Serif" font-size="11.00" fill="#000000">bigint unsigned[20]</text>
<polygon fill="#ffffff" stroke="transparent" points="10.5,-47 10.5,-69 165.5,-69 165.5,-47 10.5,-47"/>
<polygon fill="none" stroke="#000000" points="10.5,-47 10.5,-69 165.5,-69 165.5,-47 10.5,-47"/>
<text text-anchor="start" x="30.5" y="-54.1" font-family="Helvetica,sans-Serif" font-size="11.00" fill="#000000">settings_name</text>
<polygon fill="none" stroke="#000000" points="165.5,-47 165.5,-69 263.5,-69 263.5,-47 165.5,-47"/>
<text text-anchor="start" x="168.5" y="-54.7" font-family="Helvetica,sans-Serif" font-size="11.00" fill="#000000">varchar[255]</text>
<polygon fill="none" stroke="#000000" points="10.5,-25 10.5,-47 165.5,-47 165.5,-25 10.5,-25"/>
<text text-anchor="start" x="30.5" y="-32.1" font-family="Helvetica,sans-Serif" font-size="11.00" fill="#000000">settings_value</text>
<polygon fill="none" stroke="#000000" points="165.5,-25 165.5,-47 263.5,-47 263.5,-25 165.5,-25"/>
<text text-anchor="start" x="168.5" y="-32.7" font-family="Helvetica,sans-Serif" font-size="11.00" fill="#000000">varchar[255]</text>
<polygon fill="#ffffff" stroke="transparent" points="10.5,-6 10.5,-25 79.5,-25 79.5,-6 10.5,-6"/>
<polygon fill="none" stroke="#000000" points="10.5,-6 10.5,-25 79.5,-25 79.5,-6 10.5,-6"/>
<text text-anchor="start" x="13.5" y="-12.1" font-family="Helvetica,sans-Serif" font-size="11.00" fill="#000000">&lt; 0</text>
<polygon fill="#ffffff" stroke="transparent" points="79.5,-6 79.5,-25 165.5,-25 165.5,-6 79.5,-6"/>
<polygon fill="none" stroke="#000000" points="79.5,-6 79.5,-25 165.5,-25 165.5,-6 79.5,-6"/>
<text text-anchor="start" x="130.1105" y="-12.1" font-family="Helvetica,sans-Serif" font-size="11.00" fill="#000000">6 rows</text>
<polygon fill="#ffffff" stroke="transparent" points="165.5,-6 165.5,-25 263.5,-25 263.5,-6 165.5,-6"/>
<polygon fill="none" stroke="#000000" points="165.5,-6 165.5,-25 263.5,-25 263.5,-6 165.5,-6"/>
<text text-anchor="start" x="244.9053" y="-12.1" font-family="Helvetica,sans-Serif" font-size="11.00" fill="#000000">0 &gt;</text>
<polygon fill="none" stroke="#000000" stroke-width="2" points="9,-5 9,-115 264,-115 264,-5 9,-5"/>
</a>
</g>
</g>
</g>
</svg>
