<?xml version="1.0" encoding="UTF-8" standalone="no"?>
<!DOCTYPE svg PUBLIC "-//W3C//DTD SVG 1.1//EN"
 "http://www.w3.org/Graphics/SVG/1.1/DTD/svg11.dtd">
<!-- Generated by graphviz version 2.40.1 (20161225.0304)
 -->
<!-- Title: background_jobs Pages: 1 -->
<svg width="224pt" height="150pt"
 viewBox="0.00 0.00 224.00 150.00" xmlns="http://www.w3.org/2000/svg" xmlns:xlink="http://www.w3.org/1999/xlink">
<g id="graph0" class="graph" transform="scale(1 1) rotate(0) translate(4 146)">
<title>background_jobs</title>
<polygon fill="#ffffff" stroke="transparent" points="-4,4 -4,-146 220,-146 220,4 -4,4"/>
<!-- background_jobs -->
<g id="node1" class="node">
<title>background_jobs</title>
<g id="a_node1"><a xlink:href="../../tables/background_jobs.html" xlink:title="background_jobs" target="_top">
<polygon fill="#ffffff" stroke="transparent" points="8,-4 8,-138 208,-138 208,-4 8,-4"/>
<polygon fill="#f5f5f5" stroke="transparent" points="10,-113 10,-136 206,-136 206,-113 10,-113"/>
<polygon fill="none" stroke="#000000" points="10,-113 10,-136 206,-136 206,-113 10,-113"/>
<text text-anchor="start" x="15" y="-122.1" font-family="Helvetica,sans-Serif" font-weight="bold" font-size="11.00" fill="#000000">background_jobs</text>
<text text-anchor="start" x="171.0437" y="-121.1" font-family="Helvetica,sans-Serif" font-size="11.00" fill="#000000">[table]</text>
<polygon fill="none" stroke="#000000" points="10,-91 10,-113 131,-113 131,-91 10,-91"/>
<image xlink:href="../../images/primaryKeys.png" width="11px" height="12px" preserveAspectRatio="xMinYMin meet" x="15" y="-108"/>
<text text-anchor="start" x="30" y="-98.1" font-family="Helvetica,sans-Serif" font-size="11.00" fill="#000000">id</text>
<polygon fill="none" stroke="#000000" points="131,-91 131,-113 206,-113 206,-91 131,-91"/>
<text text-anchor="start" x="134" y="-98.7" font-family="Helvetica,sans-Serif" font-size="11.00" fill="#000000">varchar[255]</text>
<polygon fill="none" stroke="#000000" points="10,-69 10,-91 131,-91 131,-69 10,-69"/>
<text text-anchor="start" x="30" y="-76.1" font-family="Helvetica,sans-Serif" font-size="11.00" fill="#000000">processed</text>
<polygon fill="none" stroke="#000000" points="131,-69 131,-91 206,-91 206,-69 131,-69"/>
<text text-anchor="start" x="134" y="-76.7" font-family="Helvetica,sans-Serif" font-size="11.00" fill="#000000">int[10]</text>
<polygon fill="none" stroke="#000000" points="10,-47 10,-69 131,-69 131,-47 10,-47"/>
<text text-anchor="start" x="30" y="-54.1" font-family="Helvetica,sans-Serif" font-size="11.00" fill="#000000">total</text>
<polygon fill="none" stroke="#000000" points="131,-47 131,-69 206,-69 206,-47 131,-47"/>
<text text-anchor="start" x="134" y="-54.7" font-family="Helvetica,sans-Serif" font-size="11.00" fill="#000000">int[10]</text>
<polygon fill="none" stroke="#000000" points="10,-25 10,-47 131,-47 131,-25 10,-25"/>
<text text-anchor="start" x="30" y="-32.1" font-family="Helvetica,sans-Serif" font-size="11.00" fill="#000000">create_time</text>
<polygon fill="none" stroke="#000000" points="131,-25 131,-47 206,-47 206,-25 131,-25"/>
<text text-anchor="start" x="133.9666" y="-32.7" font-family="Helvetica,sans-Serif" font-size="11.00" fill="#000000">timestamp[19]</text>
<polygon fill="#ffffff" stroke="transparent" points="10,-6 10,-25 62,-25 62,-6 10,-6"/>
<polygon fill="none" stroke="#000000" points="10,-6 10,-25 62,-25 62,-6 10,-6"/>
<text text-anchor="start" x="13" y="-12.1" font-family="Helvetica,sans-Serif" font-size="11.00" fill="#000000">&lt; 0</text>
<polygon fill="#ffffff" stroke="transparent" points="62,-6 62,-25 131,-25 131,-6 62,-6"/>
<polygon fill="none" stroke="#000000" points="62,-6 62,-25 131,-25 131,-6 62,-6"/>
<text text-anchor="start" x="95.6105" y="-12.1" font-family="Helvetica,sans-Serif" font-size="11.00" fill="#000000">0 rows</text>
<polygon fill="#ffffff" stroke="transparent" points="131,-6 131,-25 206,-25 206,-6 131,-6"/>
<polygon fill="none" stroke="#000000" points="131,-6 131,-25 206,-25 206,-6 131,-6"/>
<text text-anchor="start" x="187.4053" y="-12.1" font-family="Helvetica,sans-Serif" font-size="11.00" fill="#000000">0 &gt;</text>
<polygon fill="none" stroke="#000000" stroke-width="2" points="9,-5 9,-137 207,-137 207,-5 9,-5"/>
</a>
</g>
</g>
</g>
</svg>
