<?xml version="1.0" encoding="UTF-8" standalone="no"?>
<!DOCTYPE svg PUBLIC "-//W3C//DTD SVG 1.1//EN"
 "http://www.w3.org/Graphics/SVG/1.1/DTD/svg11.dtd">
<!-- Generated by graphviz version 2.40.1 (20161225.0304)
 -->
<!-- Title: freemium_preferences Pages: 1 -->
<svg width="260pt" height="128pt"
 viewBox="0.00 0.00 260.00 128.00" xmlns="http://www.w3.org/2000/svg" xmlns:xlink="http://www.w3.org/1999/xlink">
<g id="graph0" class="graph" transform="scale(1 1) rotate(0) translate(4 124)">
<title>freemium_preferences</title>
<polygon fill="#ffffff" stroke="transparent" points="-4,4 -4,-124 256,-124 256,4 -4,4"/>
<!-- freemium_preferences -->
<g id="node1" class="node">
<title>freemium_preferences</title>
<g id="a_node1"><a xlink:href="../../tables/freemium_preferences.html" xlink:title="freemium_preferences" target="_top">
<polygon fill="#ffffff" stroke="transparent" points="8,-4 8,-116 244,-116 244,-4 8,-4"/>
<polygon fill="#f5f5f5" stroke="transparent" points="10,-91 10,-114 242,-114 242,-91 10,-91"/>
<polygon fill="none" stroke="#000000" points="10,-91 10,-114 242,-114 242,-91 10,-91"/>
<text text-anchor="start" x="15" y="-100.1" font-family="Helvetica,sans-Serif" font-weight="bold" font-size="11.00" fill="#000000">freemium_preferences</text>
<text text-anchor="start" x="207.0437" y="-99.1" font-family="Helvetica,sans-Serif" font-size="11.00" fill="#000000">[table]</text>
<polygon fill="none" stroke="#000000" points="10,-69 10,-91 159,-91 159,-69 10,-69"/>
<image xlink:href="../../images/primaryKeys.png" width="11px" height="12px" preserveAspectRatio="xMinYMin meet" x="15" y="-86"/>
<text text-anchor="start" x="30" y="-76.1" font-family="Helvetica,sans-Serif" font-size="11.00" fill="#000000">id</text>
<polygon fill="none" stroke="#000000" points="159,-69 159,-91 242,-91 242,-69 159,-69"/>
<text text-anchor="start" x="161.6783" y="-76.7" font-family="Helvetica,sans-Serif" font-size="11.00" fill="#000000">int unsigned[10]</text>
<polygon fill="#ffffff" stroke="transparent" points="10,-47 10,-69 159,-69 159,-47 10,-47"/>
<polygon fill="none" stroke="#000000" points="10,-47 10,-69 159,-69 159,-47 10,-47"/>
<text text-anchor="start" x="30" y="-54.1" font-family="Helvetica,sans-Serif" font-size="11.00" fill="#000000">property_name</text>
<polygon fill="none" stroke="#000000" points="159,-47 159,-69 242,-69 242,-47 159,-47"/>
<text text-anchor="start" x="162" y="-54.7" font-family="Helvetica,sans-Serif" font-size="11.00" fill="#000000">varchar[255]</text>
<polygon fill="none" stroke="#000000" points="10,-25 10,-47 159,-47 159,-25 10,-25"/>
<text text-anchor="start" x="30" y="-32.1" font-family="Helvetica,sans-Serif" font-size="11.00" fill="#000000">property_value</text>
<polygon fill="none" stroke="#000000" points="159,-25 159,-47 242,-47 242,-25 159,-25"/>
<text text-anchor="start" x="162" y="-32.7" font-family="Helvetica,sans-Serif" font-size="11.00" fill="#000000">varchar[255]</text>
<polygon fill="#ffffff" stroke="transparent" points="10,-6 10,-25 76,-25 76,-6 10,-6"/>
<polygon fill="none" stroke="#000000" points="10,-6 10,-25 76,-25 76,-6 10,-6"/>
<text text-anchor="start" x="13" y="-12.1" font-family="Helvetica,sans-Serif" font-size="11.00" fill="#000000">&lt; 0</text>
<polygon fill="#ffffff" stroke="transparent" points="76,-6 76,-25 159,-25 159,-6 76,-6"/>
<polygon fill="none" stroke="#000000" points="76,-6 76,-25 159,-25 159,-6 76,-6"/>
<text text-anchor="start" x="123.6105" y="-12.1" font-family="Helvetica,sans-Serif" font-size="11.00" fill="#000000">7 rows</text>
<polygon fill="#ffffff" stroke="transparent" points="159,-6 159,-25 242,-25 242,-6 159,-6"/>
<polygon fill="none" stroke="#000000" points="159,-6 159,-25 242,-25 242,-6 159,-6"/>
<text text-anchor="start" x="223.4053" y="-12.1" font-family="Helvetica,sans-Serif" font-size="11.00" fill="#000000">0 &gt;</text>
<polygon fill="none" stroke="#000000" stroke-width="2" points="9,-5 9,-115 243,-115 243,-5 9,-5"/>
</a>
</g>
</g>
</g>
</svg>
