<?xml version="1.0" encoding="UTF-8" standalone="no"?>
<!DOCTYPE svg PUBLIC "-//W3C//DTD SVG 1.1//EN"
 "http://www.w3.org/Graphics/SVG/1.1/DTD/svg11.dtd">
<!-- Generated by graphviz version 2.40.1 (20161225.0304)
 -->
<!-- Title: library_usage Pages: 1 -->
<svg width="211pt" height="216pt"
 viewBox="0.00 0.00 211.00 216.00" xmlns="http://www.w3.org/2000/svg" xmlns:xlink="http://www.w3.org/1999/xlink">
<g id="graph0" class="graph" transform="scale(1 1) rotate(0) translate(4 212)">
<title>library_usage</title>
<polygon fill="#ffffff" stroke="transparent" points="-4,4 -4,-212 207,-212 207,4 -4,4"/>
<!-- library_usage -->
<g id="node1" class="node">
<title>library_usage</title>
<g id="a_node1"><a xlink:href="../../tables/library_usage.html" xlink:title="library_usage" target="_top">
<polygon fill="#ffffff" stroke="transparent" points="8,-4 8,-204 195,-204 195,-4 8,-4"/>
<polygon fill="#f5f5f5" stroke="transparent" points="10.5,-179 10.5,-202 193.5,-202 193.5,-179 10.5,-179"/>
<polygon fill="none" stroke="#000000" points="10.5,-179 10.5,-202 193.5,-202 193.5,-179 10.5,-179"/>
<text text-anchor="start" x="15.5" y="-188.1" font-family="Helvetica,sans-Serif" font-weight="bold" font-size="11.00" fill="#000000">library_usage</text>
<text text-anchor="start" x="158.5437" y="-187.1" font-family="Helvetica,sans-Serif" font-size="11.00" fill="#000000">[table]</text>
<polygon fill="none" stroke="#000000" points="10.5,-157 10.5,-179 126.5,-179 126.5,-157 10.5,-157"/>
<image xlink:href="../../images/primaryKeys.png" width="11px" height="12px" preserveAspectRatio="xMinYMin meet" x="15.5" y="-174"/>
<text text-anchor="start" x="30.5" y="-164.1" font-family="Helvetica,sans-Serif" font-size="11.00" fill="#000000">library_usage_id</text>
<polygon fill="none" stroke="#000000" points="126.5,-157 126.5,-179 193.5,-179 193.5,-157 126.5,-157"/>
<text text-anchor="start" x="129.5" y="-164.7" font-family="Helvetica,sans-Serif" font-size="11.00" fill="#000000">bigint[19]</text>
<polygon fill="#ffffff" stroke="transparent" points="10.5,-135 10.5,-157 126.5,-157 126.5,-135 10.5,-135"/>
<polygon fill="none" stroke="#000000" points="10.5,-135 10.5,-157 126.5,-157 126.5,-135 10.5,-135"/>
<text text-anchor="start" x="30.5" y="-142.1" font-family="Helvetica,sans-Serif" font-size="11.00" fill="#000000">application_id</text>
<polygon fill="none" stroke="#000000" points="126.5,-135 126.5,-157 193.5,-157 193.5,-135 126.5,-135"/>
<text text-anchor="start" x="129.4365" y="-142.7" font-family="Helvetica,sans-Serif" font-size="11.00" fill="#000000">varchar[255]</text>
<polygon fill="#ffffff" stroke="transparent" points="10.5,-113 10.5,-135 126.5,-135 126.5,-113 10.5,-113"/>
<polygon fill="none" stroke="#000000" points="10.5,-113 10.5,-135 126.5,-135 126.5,-113 10.5,-113"/>
<text text-anchor="start" x="30.5" y="-120.1" font-family="Helvetica,sans-Serif" font-size="11.00" fill="#000000">class_name</text>
<polygon fill="none" stroke="#000000" points="126.5,-113 126.5,-135 193.5,-135 193.5,-113 126.5,-113"/>
<text text-anchor="start" x="129.4365" y="-120.7" font-family="Helvetica,sans-Serif" font-size="11.00" fill="#000000">varchar[300]</text>
<polygon fill="none" stroke="#000000" points="10.5,-91 10.5,-113 126.5,-113 126.5,-91 10.5,-91"/>
<text text-anchor="start" x="30.5" y="-98.1" font-family="Helvetica,sans-Serif" font-size="11.00" fill="#000000">first_seen</text>
<polygon fill="none" stroke="#000000" points="126.5,-91 126.5,-113 193.5,-113 193.5,-91 126.5,-91"/>
<text text-anchor="start" x="129.5" y="-98.7" font-family="Helvetica,sans-Serif" font-size="11.00" fill="#000000">datetime[19]</text>
<polygon fill="none" stroke="#000000" points="10.5,-69 10.5,-91 126.5,-91 126.5,-69 10.5,-69"/>
<text text-anchor="start" x="30.5" y="-76.1" font-family="Helvetica,sans-Serif" font-size="11.00" fill="#000000">full_class_path</text>
<polygon fill="none" stroke="#000000" points="126.5,-69 126.5,-91 193.5,-91 193.5,-69 126.5,-69"/>
<text text-anchor="start" x="129.4365" y="-76.7" font-family="Helvetica,sans-Serif" font-size="11.00" fill="#000000">varchar[255]</text>
<polygon fill="none" stroke="#000000" points="10.5,-47 10.5,-69 126.5,-69 126.5,-47 10.5,-47"/>
<text text-anchor="start" x="30.5" y="-54.1" font-family="Helvetica,sans-Serif" font-size="11.00" fill="#000000">last_seen</text>
<polygon fill="none" stroke="#000000" points="126.5,-47 126.5,-69 193.5,-69 193.5,-47 126.5,-47"/>
<text text-anchor="start" x="129.5" y="-54.7" font-family="Helvetica,sans-Serif" font-size="11.00" fill="#000000">datetime[19]</text>
<polygon fill="#ffffff" stroke="transparent" points="10.5,-25 10.5,-47 126.5,-47 126.5,-25 10.5,-25"/>
<polygon fill="none" stroke="#000000" points="10.5,-25 10.5,-47 126.5,-47 126.5,-25 10.5,-25"/>
<text text-anchor="start" x="30.5" y="-32.1" font-family="Helvetica,sans-Serif" font-size="11.00" fill="#000000">sha1</text>
<polygon fill="none" stroke="#000000" points="126.5,-25 126.5,-47 193.5,-47 193.5,-25 126.5,-25"/>
<text text-anchor="start" x="129.4365" y="-32.7" font-family="Helvetica,sans-Serif" font-size="11.00" fill="#000000">varchar[255]</text>
<polygon fill="#ffffff" stroke="transparent" points="10.5,-6 10.5,-25 59.5,-25 59.5,-6 10.5,-6"/>
<polygon fill="none" stroke="#000000" points="10.5,-6 10.5,-25 59.5,-25 59.5,-6 10.5,-6"/>
<text text-anchor="start" x="13.5" y="-12.1" font-family="Helvetica,sans-Serif" font-size="11.00" fill="#000000">&lt; 0</text>
<polygon fill="#ffffff" stroke="transparent" points="59.5,-6 59.5,-25 126.5,-25 126.5,-6 59.5,-6"/>
<polygon fill="none" stroke="#000000" points="59.5,-6 59.5,-25 126.5,-25 126.5,-6 59.5,-6"/>
<text text-anchor="start" x="91.1105" y="-12.1" font-family="Helvetica,sans-Serif" font-size="11.00" fill="#000000">0 rows</text>
<polygon fill="#ffffff" stroke="transparent" points="126.5,-6 126.5,-25 193.5,-25 193.5,-6 126.5,-6"/>
<polygon fill="none" stroke="#000000" points="126.5,-6 126.5,-25 193.5,-25 193.5,-6 126.5,-6"/>
<text text-anchor="start" x="174.9053" y="-12.1" font-family="Helvetica,sans-Serif" font-size="11.00" fill="#000000">0 &gt;</text>
<polygon fill="none" stroke="#000000" stroke-width="2" points="9,-5 9,-203 194,-203 194,-5 9,-5"/>
</a>
</g>
</g>
</g>
</svg>
