<?xml version="1.0" encoding="UTF-8" standalone="no"?>
<!DOCTYPE svg PUBLIC "-//W3C//DTD SVG 1.1//EN"
 "http://www.w3.org/Graphics/SVG/1.1/DTD/svg11.dtd">
<!-- Generated by graphviz version 2.40.1 (20161225.0304)
 -->
<!-- Title: rasp_attacks_notes Pages: 1 -->
<svg width="274pt" height="216pt"
 viewBox="0.00 0.00 274.00 216.00" xmlns="http://www.w3.org/2000/svg" xmlns:xlink="http://www.w3.org/1999/xlink">
<g id="graph0" class="graph" transform="scale(1 1) rotate(0) translate(4 212)">
<title>rasp_attacks_notes</title>
<polygon fill="#ffffff" stroke="transparent" points="-4,4 -4,-212 270,-212 270,4 -4,4"/>
<!-- rasp_attacks_notes -->
<g id="node1" class="node">
<title>rasp_attacks_notes</title>
<g id="a_node1"><a xlink:href="../../tables/rasp_attacks_notes.html" xlink:title="rasp_attacks_notes" target="_top">
<polygon fill="#ffffff" stroke="transparent" points="8,-4 8,-204 258,-204 258,-4 8,-4"/>
<polygon fill="#f5f5f5" stroke="transparent" points="10,-179 10,-202 256,-202 256,-179 10,-179"/>
<polygon fill="none" stroke="#000000" points="10,-179 10,-202 256,-202 256,-179 10,-179"/>
<text text-anchor="start" x="15" y="-188.1" font-family="Helvetica,sans-Serif" font-weight="bold" font-size="11.00" fill="#000000">rasp_attacks_notes</text>
<text text-anchor="start" x="221.0437" y="-187.1" font-family="Helvetica,sans-Serif" font-size="11.00" fill="#000000">[table]</text>
<polygon fill="none" stroke="#000000" points="10,-157 10,-179 145,-179 145,-157 10,-157"/>
<image xlink:href="../../images/primaryKeys.png" width="11px" height="12px" preserveAspectRatio="xMinYMin meet" x="15" y="-174"/>
<text text-anchor="start" x="30" y="-164.1" font-family="Helvetica,sans-Serif" font-size="11.00" fill="#000000">id</text>
<polygon fill="none" stroke="#000000" points="145,-157 145,-179 256,-179 256,-157 145,-157"/>
<text text-anchor="start" x="148" y="-164.7" font-family="Helvetica,sans-Serif" font-size="11.00" fill="#000000">bigint[19]</text>
<polygon fill="none" stroke="#000000" points="10,-135 10,-157 145,-157 145,-135 10,-135"/>
<text text-anchor="start" x="30" y="-142.1" font-family="Helvetica,sans-Serif" font-size="11.00" fill="#000000">creation_time</text>
<polygon fill="none" stroke="#000000" points="145,-135 145,-157 256,-157 256,-135 145,-135"/>
<text text-anchor="start" x="148" y="-142.7" font-family="Helvetica,sans-Serif" font-size="11.00" fill="#000000">datetime[19]</text>
<polygon fill="none" stroke="#000000" points="10,-113 10,-135 145,-135 145,-113 10,-113"/>
<text text-anchor="start" x="30" y="-120.1" font-family="Helvetica,sans-Serif" font-size="11.00" fill="#000000">last_modification</text>
<polygon fill="none" stroke="#000000" points="145,-113 145,-135 256,-135 256,-113 145,-113"/>
<text text-anchor="start" x="148" y="-120.7" font-family="Helvetica,sans-Serif" font-size="11.00" fill="#000000">datetime[19]</text>
<polygon fill="none" stroke="#000000" points="10,-91 10,-113 145,-113 145,-91 10,-91"/>
<text text-anchor="start" x="30" y="-98.1" font-family="Helvetica,sans-Serif" font-size="11.00" fill="#000000">note</text>
<polygon fill="none" stroke="#000000" points="145,-91 145,-113 256,-113 256,-91 145,-91"/>
<text text-anchor="start" x="147.6115" y="-98.7" font-family="Helvetica,sans-Serif" font-size="11.00" fill="#000000">longtext[2147483647]</text>
<polygon fill="none" stroke="#000000" points="10,-69 10,-91 145,-91 145,-69 10,-69"/>
<text text-anchor="start" x="30" y="-76.1" font-family="Helvetica,sans-Serif" font-size="11.00" fill="#000000">user_creator_fk</text>
<polygon fill="none" stroke="#000000" points="145,-69 145,-91 256,-91 256,-69 145,-69"/>
<text text-anchor="start" x="148" y="-76.7" font-family="Helvetica,sans-Serif" font-size="11.00" fill="#000000">varchar[255]</text>
<polygon fill="none" stroke="#000000" points="10,-47 10,-69 145,-69 145,-47 10,-47"/>
<text text-anchor="start" x="30" y="-54.1" font-family="Helvetica,sans-Serif" font-size="11.00" fill="#000000">user_lastupdater_fk</text>
<polygon fill="none" stroke="#000000" points="145,-47 145,-69 256,-69 256,-47 145,-47"/>
<text text-anchor="start" x="148" y="-54.7" font-family="Helvetica,sans-Serif" font-size="11.00" fill="#000000">varchar[255]</text>
<polygon fill="none" stroke="#000000" points="10,-25 10,-47 145,-47 145,-25 10,-25"/>
<text text-anchor="start" x="30" y="-32.1" font-family="Helvetica,sans-Serif" font-size="11.00" fill="#000000">attack_fk</text>
<polygon fill="none" stroke="#000000" points="145,-25 145,-47 256,-47 256,-25 145,-25"/>
<text text-anchor="start" x="148" y="-32.7" font-family="Helvetica,sans-Serif" font-size="11.00" fill="#000000">bigint[19]</text>
<polygon fill="#ffffff" stroke="transparent" points="10,-6 10,-25 69,-25 69,-6 10,-6"/>
<polygon fill="none" stroke="#000000" points="10,-6 10,-25 69,-25 69,-6 10,-6"/>
<text text-anchor="start" x="13" y="-12.1" font-family="Helvetica,sans-Serif" font-size="11.00" fill="#000000">&lt; 0</text>
<polygon fill="#ffffff" stroke="transparent" points="69,-6 69,-25 145,-25 145,-6 69,-6"/>
<polygon fill="none" stroke="#000000" points="69,-6 69,-25 145,-25 145,-6 69,-6"/>
<text text-anchor="start" x="109.6105" y="-12.1" font-family="Helvetica,sans-Serif" font-size="11.00" fill="#000000">0 rows</text>
<polygon fill="#ffffff" stroke="transparent" points="145,-6 145,-25 256,-25 256,-6 145,-6"/>
<polygon fill="none" stroke="#000000" points="145,-6 145,-25 256,-25 256,-6 145,-6"/>
<text text-anchor="start" x="237.4053" y="-12.1" font-family="Helvetica,sans-Serif" font-size="11.00" fill="#000000">0 &gt;</text>
<polygon fill="none" stroke="#000000" stroke-width="2" points="9,-5 9,-203 257,-203 257,-5 9,-5"/>
</a>
</g>
</g>
</g>
</svg>
