<?xml version="1.0" encoding="UTF-8" standalone="no"?>
<!DOCTYPE svg PUBLIC "-//W3C//DTD SVG 1.1//EN"
 "http://www.w3.org/Graphics/SVG/1.1/DTD/svg11.dtd">
<!-- Generated by graphviz version 2.40.1 (20161225.0304)
 -->
<!-- Title: report_db_file Pages: 1 -->
<svg width="289pt" height="150pt"
 viewBox="0.00 0.00 289.00 150.00" xmlns="http://www.w3.org/2000/svg" xmlns:xlink="http://www.w3.org/1999/xlink">
<g id="graph0" class="graph" transform="scale(1 1) rotate(0) translate(4 146)">
<title>report_db_file</title>
<polygon fill="#ffffff" stroke="transparent" points="-4,4 -4,-146 285,-146 285,4 -4,4"/>
<!-- report_db_file -->
<g id="node1" class="node">
<title>report_db_file</title>
<g id="a_node1"><a xlink:href="../../tables/report_db_file.html" xlink:title="report_db_file" target="_top">
<polygon fill="#ffffff" stroke="transparent" points="8,-4 8,-138 273,-138 273,-4 8,-4"/>
<polygon fill="#f5f5f5" stroke="transparent" points="10.5,-113 10.5,-136 271.5,-136 271.5,-113 10.5,-113"/>
<polygon fill="none" stroke="#000000" points="10.5,-113 10.5,-136 271.5,-136 271.5,-113 10.5,-113"/>
<text text-anchor="start" x="15.5" y="-122.1" font-family="Helvetica,sans-Serif" font-weight="bold" font-size="11.00" fill="#000000">report_db_file</text>
<text text-anchor="start" x="236.5437" y="-121.1" font-family="Helvetica,sans-Serif" font-size="11.00" fill="#000000">[table]</text>
<polygon fill="none" stroke="#000000" points="10.5,-91 10.5,-113 151.5,-113 151.5,-91 10.5,-91"/>
<image xlink:href="../../images/primaryKeys.png" width="11px" height="12px" preserveAspectRatio="xMinYMin meet" x="15.5" y="-108"/>
<text text-anchor="start" x="30.5" y="-98.1" font-family="Helvetica,sans-Serif" font-size="11.00" fill="#000000">id</text>
<polygon fill="none" stroke="#000000" points="151.5,-91 151.5,-113 271.5,-113 271.5,-91 151.5,-91"/>
<text text-anchor="start" x="154.5" y="-98.7" font-family="Helvetica,sans-Serif" font-size="11.00" fill="#000000">bigint[19]</text>
<polygon fill="none" stroke="#000000" points="10.5,-69 10.5,-91 151.5,-91 151.5,-69 10.5,-69"/>
<text text-anchor="start" x="30.5" y="-76.1" font-family="Helvetica,sans-Serif" font-size="11.00" fill="#000000">bit_set</text>
<polygon fill="none" stroke="#000000" points="151.5,-69 151.5,-91 271.5,-91 271.5,-69 151.5,-69"/>
<text text-anchor="start" x="154.036" y="-76.7" font-family="Helvetica,sans-Serif" font-size="11.00" fill="#000000">mediumblob[16777215]</text>
<polygon fill="none" stroke="#000000" points="10.5,-47 10.5,-69 151.5,-69 151.5,-47 10.5,-47"/>
<text text-anchor="start" x="30.5" y="-54.1" font-family="Helvetica,sans-Serif" font-size="11.00" fill="#000000">file_index</text>
<polygon fill="none" stroke="#000000" points="151.5,-47 151.5,-69 271.5,-69 271.5,-47 151.5,-47"/>
<text text-anchor="start" x="154.5" y="-54.7" font-family="Helvetica,sans-Serif" font-size="11.00" fill="#000000">int[10]</text>
<polygon fill="none" stroke="#000000" points="10.5,-25 10.5,-47 151.5,-47 151.5,-25 10.5,-25"/>
<text text-anchor="start" x="30.5" y="-32.1" font-family="Helvetica,sans-Serif" font-size="11.00" fill="#000000">report_tracking_uuid</text>
<polygon fill="none" stroke="#000000" points="151.5,-25 151.5,-47 271.5,-47 271.5,-25 151.5,-25"/>
<text text-anchor="start" x="154.5" y="-32.7" font-family="Helvetica,sans-Serif" font-size="11.00" fill="#000000">varchar[64]</text>
<polygon fill="#ffffff" stroke="transparent" points="10.5,-6 10.5,-25 72.5,-25 72.5,-6 10.5,-6"/>
<polygon fill="none" stroke="#000000" points="10.5,-6 10.5,-25 72.5,-25 72.5,-6 10.5,-6"/>
<text text-anchor="start" x="13.5" y="-12.1" font-family="Helvetica,sans-Serif" font-size="11.00" fill="#000000">&lt; 0</text>
<polygon fill="#ffffff" stroke="transparent" points="72.5,-6 72.5,-25 151.5,-25 151.5,-6 72.5,-6"/>
<polygon fill="none" stroke="#000000" points="72.5,-6 72.5,-25 151.5,-25 151.5,-6 72.5,-6"/>
<text text-anchor="start" x="116.1105" y="-12.1" font-family="Helvetica,sans-Serif" font-size="11.00" fill="#000000">0 rows</text>
<polygon fill="#ffffff" stroke="transparent" points="151.5,-6 151.5,-25 271.5,-25 271.5,-6 151.5,-6"/>
<polygon fill="none" stroke="#000000" points="151.5,-6 151.5,-25 271.5,-25 271.5,-6 151.5,-6"/>
<text text-anchor="start" x="252.9053" y="-12.1" font-family="Helvetica,sans-Serif" font-size="11.00" fill="#000000">0 &gt;</text>
<polygon fill="none" stroke="#000000" stroke-width="2" points="9,-5 9,-137 272,-137 272,-5 9,-5"/>
</a>
</g>
</g>
</g>
</svg>
