<?xml version="1.0" encoding="UTF-8" standalone="no"?>
<!DOCTYPE svg PUBLIC "-//W3C//DTD SVG 1.1//EN"
 "http://www.w3.org/Graphics/SVG/1.1/DTD/svg11.dtd">
<!-- Generated by graphviz version 2.40.1 (20161225.0304)
 -->
<!-- Title: teamserver_preferences Pages: 1 -->
<svg width="304pt" height="128pt"
 viewBox="0.00 0.00 304.00 128.00" xmlns="http://www.w3.org/2000/svg" xmlns:xlink="http://www.w3.org/1999/xlink">
<g id="graph0" class="graph" transform="scale(1 1) rotate(0) translate(4 124)">
<title>teamserver_preferences</title>
<polygon fill="#ffffff" stroke="transparent" points="-4,4 -4,-124 300,-124 300,4 -4,4"/>
<!-- teamserver_preferences -->
<g id="node1" class="node">
<title>teamserver_preferences</title>
<g id="a_node1"><a xlink:href="../../tables/teamserver_preferences.html" xlink:title="teamserver_preferences" target="_top">
<polygon fill="#ffffff" stroke="transparent" points="8,-4 8,-116 288,-116 288,-4 8,-4"/>
<polygon fill="#f5f5f5" stroke="transparent" points="10,-91 10,-114 286,-114 286,-91 10,-91"/>
<polygon fill="none" stroke="#000000" points="10,-91 10,-114 286,-114 286,-91 10,-91"/>
<text text-anchor="start" x="15" y="-100.1" font-family="Helvetica,sans-Serif" font-weight="bold" font-size="11.00" fill="#000000">teamserver_preferences</text>
<text text-anchor="start" x="251.0437" y="-99.1" font-family="Helvetica,sans-Serif" font-size="11.00" fill="#000000">[table]</text>
<polygon fill="none" stroke="#000000" points="10,-69 10,-91 169,-91 169,-69 10,-69"/>
<image xlink:href="../../images/primaryKeys.png" width="11px" height="12px" preserveAspectRatio="xMinYMin meet" x="15" y="-86"/>
<text text-anchor="start" x="30" y="-76.1" font-family="Helvetica,sans-Serif" font-size="11.00" fill="#000000">id</text>
<polygon fill="none" stroke="#000000" points="169,-69 169,-91 286,-91 286,-69 169,-69"/>
<text text-anchor="start" x="172" y="-76.7" font-family="Helvetica,sans-Serif" font-size="11.00" fill="#000000">bigint[19]</text>
<polygon fill="#ffffff" stroke="transparent" points="10,-47 10,-69 169,-69 169,-47 10,-47"/>
<polygon fill="none" stroke="#000000" points="10,-47 10,-69 169,-69 169,-47 10,-47"/>
<text text-anchor="start" x="30" y="-54.1" font-family="Helvetica,sans-Serif" font-size="11.00" fill="#000000">property_name</text>
<polygon fill="none" stroke="#000000" points="169,-47 169,-69 286,-69 286,-47 169,-47"/>
<text text-anchor="start" x="172" y="-54.7" font-family="Helvetica,sans-Serif" font-size="11.00" fill="#000000">varchar[255]</text>
<polygon fill="none" stroke="#000000" points="10,-25 10,-47 169,-47 169,-25 10,-25"/>
<text text-anchor="start" x="30" y="-32.1" font-family="Helvetica,sans-Serif" font-size="11.00" fill="#000000">property_value</text>
<polygon fill="none" stroke="#000000" points="169,-25 169,-47 286,-47 286,-25 169,-25"/>
<text text-anchor="start" x="171.5645" y="-32.7" font-family="Helvetica,sans-Serif" font-size="11.00" fill="#000000">mediumtext[16777215]</text>
<polygon fill="#ffffff" stroke="transparent" points="10,-6 10,-25 78,-25 78,-6 10,-6"/>
<polygon fill="none" stroke="#000000" points="10,-6 10,-25 78,-25 78,-6 10,-6"/>
<text text-anchor="start" x="13" y="-12.1" font-family="Helvetica,sans-Serif" font-size="11.00" fill="#000000">&lt; 0</text>
<polygon fill="#ffffff" stroke="transparent" points="78,-6 78,-25 169,-25 169,-6 78,-6"/>
<polygon fill="none" stroke="#000000" points="78,-6 78,-25 169,-25 169,-6 78,-6"/>
<text text-anchor="start" x="127.4956" y="-12.1" font-family="Helvetica,sans-Serif" font-size="11.00" fill="#000000">35 rows</text>
<polygon fill="#ffffff" stroke="transparent" points="169,-6 169,-25 286,-25 286,-6 169,-6"/>
<polygon fill="none" stroke="#000000" points="169,-6 169,-25 286,-25 286,-6 169,-6"/>
<text text-anchor="start" x="267.4053" y="-12.1" font-family="Helvetica,sans-Serif" font-size="11.00" fill="#000000">0 &gt;</text>
<polygon fill="none" stroke="#000000" stroke-width="2" points="9,-5 9,-115 287,-115 287,-5 9,-5"/>
</a>
</g>
</g>
</g>
</svg>
