<?xml version="1.0" encoding="UTF-8" standalone="no"?>
<!DOCTYPE svg PUBLIC "-//W3C//DTD SVG 1.1//EN"
 "http://www.w3.org/Graphics/SVG/1.1/DTD/svg11.dtd">
<!-- Generated by graphviz version 2.40.1 (20161225.0304)
 -->
<!-- Title: user_onboarding_tutorial_viewed Pages: 1 -->
<svg width="308pt" height="128pt"
 viewBox="0.00 0.00 308.00 128.00" xmlns="http://www.w3.org/2000/svg" xmlns:xlink="http://www.w3.org/1999/xlink">
<g id="graph0" class="graph" transform="scale(1 1) rotate(0) translate(4 124)">
<title>user_onboarding_tutorial_viewed</title>
<polygon fill="#ffffff" stroke="transparent" points="-4,4 -4,-124 304,-124 304,4 -4,4"/>
<!-- user_onboarding_tutorial_viewed -->
<g id="node1" class="node">
<title>user_onboarding_tutorial_viewed</title>
<g id="a_node1"><a xlink:href="../../tables/user_onboarding_tutorial_viewed.html" xlink:title="user_onboarding_tutorial_viewed" target="_top">
<polygon fill="#ffffff" stroke="transparent" points="8,-4 8,-116 292,-116 292,-4 8,-4"/>
<polygon fill="#f5f5f5" stroke="transparent" points="10,-91 10,-114 290,-114 290,-91 10,-91"/>
<polygon fill="none" stroke="#000000" points="10,-91 10,-114 290,-114 290,-91 10,-91"/>
<text text-anchor="start" x="15" y="-100.1" font-family="Helvetica,sans-Serif" font-weight="bold" font-size="11.00" fill="#000000">user_onboarding_tutorial_viewed</text>
<text text-anchor="start" x="255.0437" y="-99.1" font-family="Helvetica,sans-Serif" font-size="11.00" fill="#000000">[table]</text>
<polygon fill="none" stroke="#000000" points="10,-69 10,-91 223,-91 223,-69 10,-69"/>
<image xlink:href="../../images/primaryKeys.png" width="11px" height="12px" preserveAspectRatio="xMinYMin meet" x="15" y="-86"/>
<text text-anchor="start" x="30" y="-76.1" font-family="Helvetica,sans-Serif" font-size="11.00" fill="#000000">organizations_id</text>
<polygon fill="none" stroke="#000000" points="223,-69 223,-91 290,-91 290,-69 223,-69"/>
<text text-anchor="start" x="226" y="-76.7" font-family="Helvetica,sans-Serif" font-size="11.00" fill="#000000">bigint[19]</text>
<polygon fill="none" stroke="#000000" points="10,-47 10,-69 223,-69 223,-47 10,-47"/>
<image xlink:href="../../images/primaryKeys.png" width="11px" height="12px" preserveAspectRatio="xMinYMin meet" x="15" y="-64"/>
<text text-anchor="start" x="30" y="-54.1" font-family="Helvetica,sans-Serif" font-size="11.00" fill="#000000">tutorial_type</text>
<polygon fill="none" stroke="#000000" points="223,-47 223,-69 290,-69 290,-47 223,-47"/>
<text text-anchor="start" x="225.9365" y="-54.7" font-family="Helvetica,sans-Serif" font-size="11.00" fill="#000000">varchar[255]</text>
<polygon fill="none" stroke="#000000" points="10,-25 10,-47 223,-47 223,-25 10,-25"/>
<image xlink:href="../../images/primaryKeys.png" width="11px" height="12px" preserveAspectRatio="xMinYMin meet" x="15" y="-42"/>
<text text-anchor="start" x="30" y="-32.1" font-family="Helvetica,sans-Serif" font-size="11.00" fill="#000000">users_id</text>
<polygon fill="none" stroke="#000000" points="223,-25 223,-47 290,-47 290,-25 223,-25"/>
<text text-anchor="start" x="225.9365" y="-32.7" font-family="Helvetica,sans-Serif" font-size="11.00" fill="#000000">varchar[255]</text>
<polygon fill="#ffffff" stroke="transparent" points="10,-6 10,-25 108,-25 108,-6 10,-6"/>
<polygon fill="none" stroke="#000000" points="10,-6 10,-25 108,-25 108,-6 10,-6"/>
<text text-anchor="start" x="13" y="-12.1" font-family="Helvetica,sans-Serif" font-size="11.00" fill="#000000">&lt; 0</text>
<polygon fill="#ffffff" stroke="transparent" points="108,-6 108,-25 223,-25 223,-6 108,-6"/>
<polygon fill="none" stroke="#000000" points="108,-6 108,-25 223,-25 223,-6 108,-6"/>
<text text-anchor="start" x="187.6105" y="-12.1" font-family="Helvetica,sans-Serif" font-size="11.00" fill="#000000">0 rows</text>
<polygon fill="#ffffff" stroke="transparent" points="223,-6 223,-25 290,-25 290,-6 223,-6"/>
<polygon fill="none" stroke="#000000" points="223,-6 223,-25 290,-25 290,-6 223,-6"/>
<text text-anchor="start" x="271.4053" y="-12.1" font-family="Helvetica,sans-Serif" font-size="11.00" fill="#000000">0 &gt;</text>
<polygon fill="none" stroke="#000000" stroke-width="2" points="9,-5 9,-115 291,-115 291,-5 9,-5"/>
</a>
</g>
</g>
</g>
</svg>
